<?xml version="1.0" encoding="UTF-8" standalone="no"?>
<!-- Created with Inkscape (http://www.inkscape.org/) -->

<svg
   xmlns:dc="http://purl.org/dc/elements/1.1/"
   xmlns:cc="http://creativecommons.org/ns#"
   xmlns:rdf="http://www.w3.org/1999/02/22-rdf-syntax-ns#"
   xmlns:svg="http://www.w3.org/2000/svg"
   xmlns="http://www.w3.org/2000/svg"
   xmlns:xlink="http://www.w3.org/1999/xlink"
   xmlns:sodipodi="http://sodipodi.sourceforge.net/DTD/sodipodi-0.dtd"
   xmlns:inkscape="http://www.inkscape.org/namespaces/inkscape"
   id="svg2"
   version="1.1"
   inkscape:version="0.92.2 (5c3e80d, 2017-08-06)"
   width="2481"
   height="3503"
   sodipodi:docname="E27P03.svg"
   inkscape:export-filename="E:\Users\jamesmichael\Downloads\Compressed\eps\ep27_Coriander-s-Invention_lang-pack\lang\ph\E27P03.png"
   inkscape:export-xdpi="96.132339"
   inkscape:export-ydpi="96.132339">
  <metadata
     id="metadata8">
    <rdf:RDF>
      <cc:Work
         rdf:about="">
        <dc:format>image/svg+xml</dc:format>
        <dc:type
           rdf:resource="http://purl.org/dc/dcmitype/StillImage" />
        <dc:title />
      </cc:Work>
    </rdf:RDF>
  </metadata>
  <defs
     id="defs6">
    <filter
       style="color-interpolation-filters:sRGB"
       id="filter4375-4-1-1-1-9"
       inkscape:label="deevad outline effect">
      <feFlood
         id="feFlood4377-7-9-0-8-1"
         flood-opacity="1"
         flood-color="rgb(0,0,0)"
         result="flood" />
      <feComposite
         id="feComposite4379-3-8-8-2-77"
         in2="SourceGraphic"
         in="flood"
         operator="in"
         result="composite1" />
      <feMorphology
         id="feMorphology4393-1-0-49-8-9"
         operator="dilate"
         radius="4"
         result="result3" />
      <feComposite
         id="feComposite4385-9-5-7-0-8"
         in2="result3"
         in="SourceGraphic"
         operator="over"
         result="composite2" />
    </filter>
    <filter
       style="color-interpolation-filters:sRGB"
       id="filter4375-4-1-1-1-9-5"
       inkscape:label="deevad outline effect">
      <feFlood
         id="feFlood4377-7-9-0-8-1-8"
         flood-opacity="1"
         flood-color="rgb(0,0,0)"
         result="flood" />
      <feComposite
         id="feComposite4379-3-8-8-2-77-0"
         in2="SourceGraphic"
         in="flood"
         operator="in"
         result="composite1" />
      <feMorphology
         id="feMorphology4393-1-0-49-8-9-0"
         operator="dilate"
         radius="4"
         result="result3" />
      <feComposite
         id="feComposite4385-9-5-7-0-8-0"
         in2="result3"
         in="SourceGraphic"
         operator="over"
         result="composite2" />
    </filter>
    <mask
       maskUnits="userSpaceOnUse"
       id="mask8422">
      <path
         style="opacity:1;fill:#ffffff;fill-rule:evenodd;stroke:none;stroke-width:1.16023636px;stroke-linecap:butt;stroke-linejoin:miter;stroke-opacity:1"
         d="m 1991.2226,1779.5223 c 21.5755,-57.7251 69.1222,-87.9217 106.3891,-89.5252 37.2667,-1.6034 135.3373,16.0347 167.7005,43.2938 32.3633,27.2588 62.2923,59.0591 59.3503,137.6288 -2.9422,78.5702 -11.7686,160.3468 -17.6528,189.2095 -5.8842,28.8623 -24.5175,73.7595 -43.151,99.4149 -18.6334,25.6555 -82.3792,32.0695 -104.9354,32.0695 -22.5563,0 -101.0127,-19.2418 -117.6847,-43.2938 -16.672,-24.0519 -50.9967,-64.1387 -56.8809,-136.2947 -5.8842,-72.1561 -2.9422,-189.2092 6.8649,-232.5028 z"
         id="path8424"
         inkscape:connector-curvature="0"
         sodipodi:nodetypes="csccccscsc" />
    </mask>
    <filter
       inkscape:collect="always"
       style="color-interpolation-filters:sRGB"
       id="filter8438"
       x="-0.0043121564"
       width="1.0086243"
       y="-0.0030897286"
       height="1.0061795">
      <feGaussianBlur
         inkscape:collect="always"
         stdDeviation="0.82303458"
         id="feGaussianBlur8440" />
    </filter>
    <filter
       inkscape:collect="always"
       style="color-interpolation-filters:sRGB"
       id="filter8502"
       x="-0.0047413794"
       width="1.0094828"
       y="-0.002901524"
       height="1.005803">
      <feGaussianBlur
         inkscape:collect="always"
         stdDeviation="0.81454598"
         id="feGaussianBlur8504" />
    </filter>
    <clipPath
       clipPathUnits="userSpaceOnUse"
       id="clipPath8507">
      <path
         sodipodi:nodetypes="cccccsc"
         inkscape:connector-curvature="0"
         id="path8509"
         d="m 348.30236,2404.6713 c 52.39436,-98.276 247.23939,-102.0538 258.93193,-7.2359 4.23322,45.8281 16.93287,135.0724 10.58305,178.4888 -6.34983,43.416 -14.11074,118.1884 -32.45469,144.7205 -54.53237,106.0934 -204.39214,79.2105 -225.06617,2.4119 -14.81627,-60.3001 -25.39932,-127.8365 -23.28271,-188.1366 2.11661,-60.3003 11.28859,-130.2487 11.28859,-130.2487 z"
         style="opacity:1;fill:#ffffff;fill-rule:evenodd;stroke:none;stroke-width:1.20696962px;stroke-linecap:butt;stroke-linejoin:miter;stroke-opacity:1" />
    </clipPath>
    <filter
       inkscape:collect="always"
       style="color-interpolation-filters:sRGB"
       id="filter8643"
       x="-0.0041005098"
       width="1.008201"
       y="-0.0032083835"
       height="1.0064168">
      <feGaussianBlur
         inkscape:collect="always"
         stdDeviation="0.70016018"
         id="feGaussianBlur8645" />
    </filter>
  </defs>
  <sodipodi:namedview
     pagecolor="#ffffff"
     bordercolor="#666666"
     borderopacity="1"
     objecttolerance="10"
     gridtolerance="10"
     guidetolerance="10"
     inkscape:pageopacity="0"
     inkscape:pageshadow="2"
     inkscape:window-width="1920"
     inkscape:window-height="1025"
     id="namedview4"
     showgrid="false"
     inkscape:zoom="0.16"
     inkscape:cx="1019.6094"
     inkscape:cy="1254.8854"
     inkscape:window-x="0"
     inkscape:window-y="26"
     inkscape:window-maximized="1"
     inkscape:current-layer="layer3"
     inkscape:snap-global="false" />
  <g
     inkscape:groupmode="layer"
     id="layer2"
     inkscape:label="artwork"
     sodipodi:insensitive="true">
    <image
       sodipodi:absref="E:\Users\jamesmichael\Downloads\Compressed\eps\ep27_Coriander-s-Invention_lang-pack\lang\ph\../gfx_Pepper-and-Carrot_by-David-Revoy_E27P03.png"
       xlink:href="../gfx_Pepper-and-Carrot_by-David-Revoy_E27P03.png"
       width="2481"
       height="3503"
       id="image10"
       x="0"
       y="0" />
  </g>
  <g
     inkscape:groupmode="layer"
     id="layer3"
     inkscape:label="speechbubbles"
     style="opacity:1">
    <path
       style="fill:#ffffff;fill-rule:evenodd;stroke:none;stroke-width:1.22624922px;stroke-linecap:butt;stroke-linejoin:miter;stroke-opacity:1"
       d="m 749.35655,245.86984 c 40.02408,29.12722 63.64194,408.8883 -8.10485,474.83043 -14.78661,10.3785 -55.47392,36.3066 -100.95877,35.83 -45.48472,-0.4768 -69.33797,-12.3894 -94.41743,-25.0568 -25.07939,-12.6675 -61.13913,-58.1852 -60.19403,-84.8556 6.8385,-126.49607 -34.88611,-295.23186 27.66039,-382.37213 47.19353,-50.77671 197.81206,-65.32358 236.01469,-18.3759 z"
       id="path263"
       inkscape:connector-curvature="0"
       sodipodi:nodetypes="ccccccc" />
    <path
       style="opacity:1;fill:#ffffff;fill-rule:evenodd;stroke:none;stroke-width:1.51002991px;stroke-linecap:butt;stroke-linejoin:miter;stroke-opacity:1;filter:url(#filter8438)"
       d="m 2085.168,1631.457 c -1.7062,0.016 -3.3377,0.057 -4.8907,0.1211 -49.6943,2.0368 -113.0967,40.3945 -141.8671,113.7207 -13.0774,54.9943 -17.0007,203.6826 -9.1543,295.3399 7.426,86.7471 48.792,136.9754 72.0527,168.0117 -0.7916,-5.8882 -0.9762,-10.8062 2.0527,-20.2246 0,0 21.2234,-38.6924 39.584,-47.3653 17.2424,-2.3403 39.0061,-11.6794 44.2188,-33.6992 3.5926,-15.1761 19.743,12.7996 9.8242,33.877 -11.5719,12.3985 -28.1016,18.1836 -28.1016,18.1836 0,0 14.4641,7.0269 24.3828,1.6543 9.9188,-5.3727 12.8125,-5.7863 19.0117,-5.3731 3.2942,-5.3971 23.541,-10.8336 32.2344,-13.2246 3.7421,-2.7386 1.6536,-7.0269 7.4395,-11.9863 0.7645,-6.9994 1.5351,-21.8371 11.5722,-35.1289 14.0516,-6.1993 14.4649,9.0937 14.4649,9.0937 1.6531,-5.6354 7.439,-11.9425 14.4648,-9.9199 6.7865,1.9537 4.5469,7.0262 0.4141,23.9707 -2.1388,8.7691 -1.5508,15.1875 -1.5508,15.1875 0,0 10.6428,-2.5823 12.8125,5.4766 -0.3099,5.1661 -5.8413,24.5627 -7.3359,29.5488 5.5475,-0.3364 -5.8392,17.491 -2.6875,26.0371 -1.3293,8.0125 -4.6768,6.574 -9.6074,25.1074 -6.3276,17.5343 -17.6286,8.0045 -28.4141,17.875 -11.3486,6.5896 -42.237,15.9094 -57.7793,19.9688 26.5584,6.9461 51.4002,11.0547 63.7246,11.0547 30.0781,0 115.0825,-8.1471 139.9297,-40.7364 24.8472,-32.5891 49.6946,-89.6205 57.541,-126.2832 7.8464,-36.6633 19.6158,-140.5427 23.5391,-240.3476 3.9231,-99.8043 -37.156,-172.9285 -80.3115,-207.5544 -41.8069,-33.5443 -164.6728,-22.8899 -217.5635,-22.3851 z"
       id="path8409"
       mask="url(#mask8422)"
       inkscape:connector-curvature="0"
       sodipodi:nodetypes="cccscccscccccccccscccccccsccccc" />
    <path
       style="fill:#ffffff;fill-rule:evenodd;stroke:none;stroke-width:0.7686255px;stroke-linecap:butt;stroke-linejoin:miter;stroke-opacity:1"
       d="m 1970.3626,2081.0035 c 15.4116,52.0642 39.7703,69.3257 53.4126,48.3691 13.6423,-20.9565 17.2017,-46.907 17.2017,-46.907 l -5.8688,-22.7722 c 3.4927,-17.6021 -1.9598,24.125 -10.2467,34.0243 -8.1472,9.7326 -21.7944,23.4108 -30.873,16.8154 -9.0787,-6.595 -19.5968,-22.5217 -23.6258,-29.5296 z"
       id="path269"
       inkscape:connector-curvature="0"
       sodipodi:nodetypes="ccccscc" />
    <path
       style="opacity:1;fill:#ffffff;fill-rule:evenodd;stroke:none;stroke-width:1.75958693px;stroke-linecap:butt;stroke-linejoin:miter;stroke-opacity:1;filter:url(#filter8502)"
       d="m 507.57227,2198.2383 c -84.73897,-0.199 -179.33748,37.0471 -218.72266,110.9219 0,0 -13.37132,101.9756 -16.45703,189.8847 -1.49572,42.6115 1.36733,87.7013 7.16601,132.8672 0.002,-9e-4 0.004,0 0.006,0 16.61863,-7.7868 24.77714,-14.5923 31.72852,-14.375 6.95137,0.2173 12.69523,7.4566 24.48437,27.7578 5.41063,12.3387 -5.06054,23.3496 -5.06054,23.3496 0,0 15.21804,-5.9264 25.69336,-2.5235 20.29784,10.9249 18.42207,17.136 16.55078,19.8653 0,0 10.17247,-3.2151 23.61523,7.5976 13.44276,10.8126 19.12305,34.1836 19.12305,34.1836 0,0 4.22695,18.9853 3.40039,36.1035 -0.71067,4.9729 -2.64405,26.2806 -1.20508,34.5547 0,0 -6.03664,0.7907 -8.95898,-14.1133 -2.92234,-14.9039 -8.57422,-21.539 -8.57422,-21.539 -0.15807,6.2966 -2.14014,15.0669 -2.25391,21.041 10.81266,22.502 -5.92969,55.2324 -5.92969,55.2324 -2.25541,4.0823 -6.84391,9.3503 -12.31445,14.2637 38.86822,18.3071 87.39901,24.1751 133.25977,13.043 -0.0725,-1.1467 -0.0648,-2.3983 0.0605,-3.793 0.64261,0.8844 1.67197,2.0221 2.85352,3.0586 2.84859,-0.7383 5.68496,-1.546 8.50781,-2.418 0.0179,-0.4261 0.0268,-0.8721 0.0156,-1.3613 -2.02784,-4.43 -22.21219,-14.6017 -6.40821,-22.5723 -0.6517,-5.7705 -2.11947,-13.3291 2.60938,-18.0468 -2.36829,-1.8539 -5.25524,-12.1418 4.9375,-21.0274 -1.58579,7.0258 2.42294,15.5886 5.28906,14.3047 5.55244,-4.3835 -0.51308,-16.3433 12.92969,-16.9277 -4.95396,-3.491 -8.05151,-27.6459 -5.15625,-52.0879 3.62473,-30.6003 15.31715,-62.1493 29.3418,-59.8594 9.22548,-13.0445 5.57241,-12.2089 33.89843,-28.2246 9.42994,-5.3318 43.40823,-5.8206 61.86524,0.6758 1.14444,0.4028 2.23126,0.8308 3.28906,1.2715 6.03503,-35.762 10.52249,-72.5915 14.60742,-100.5215 9.25712,-63.2948 -9.25827,-193.4003 -15.42969,-260.211 -8.25667,-66.9555 -79.15844,-100.1861 -158.76171,-100.373 z m 48.84179,524.2051 c 0,0 -11.98261,28.0544 -5.8457,63.707 6.13692,35.6525 0.29297,0.584 0.29297,0.584 0,0 3.21386,-4.5294 2.04492,-9.2051 -1.22352,-4.6485 6.42669,4.385 6.42969,7.7441 0.005,4.8373 0.29174,6.5744 0.58398,0.4375 0.26348,-5.5331 6.09449,-6.4226 7.88477,-4.4043 -5.57739,-9.3434 -7.95456,-14.878 -11.20508,-25.4863 -2.928,-12.9015 -2.05982,-23.7436 -0.18555,-33.3769 z m 11.39063,58.8632 c 0.15387,0.2578 0.28449,0.4882 0.44336,0.752 -0.0863,-0.2875 -0.248,-0.5317 -0.44336,-0.752 z"
       id="path8474"
       clip-path="url(#clipPath8507)"
       inkscape:connector-curvature="0"
       transform="translate(0.58446684,0.2465966)" />
    <path
       style="fill:#ffffff;fill-rule:evenodd;stroke:none;stroke-width:0.73321825px;stroke-linecap:butt;stroke-linejoin:miter;stroke-opacity:1"
       d="m 481.6073,2770.0657 c 0,0 -3.44273,27.2866 -1.85447,30.7994 1.58825,3.5126 13.81649,14.5287 21.08007,13.0137 -18.58651,5.6859 -32.53896,-4.3888 -35.31559,-7.4275 -2.77663,-3.0387 -2.65191,-19.9268 -2.65191,-19.9268 z"
       id="path273"
       inkscape:connector-curvature="0"
       sodipodi:nodetypes="cccscc" />
    <text
       xml:space="preserve"
       style="font-style:normal;font-variant:normal;font-weight:normal;font-stretch:normal;font-size:40px;line-height:1.25;font-family:Lavi;-inkscape-font-specification:Lavi;letter-spacing:0px;word-spacing:0px;fill:#ffffff;fill-opacity:1;stroke:none"
       x="-2756.9121"
       y="2177.427"
       id="text8444"
       transform="matrix(-1,0,-0.77535671,1,0,0)"><tspan
         sodipodi:role="line"
         id="tspan8442"
         x="-2756.9121"
         y="2177.427">Wow...</tspan></text>
    <path
       style="opacity:1;vector-effect:none;fill:#000000;fill-opacity:1;fill-rule:nonzero;stroke:#ffffff;stroke-width:2;stroke-linecap:butt;stroke-linejoin:miter;stroke-miterlimit:4;stroke-dasharray:none;stroke-dashoffset:0;stroke-opacity:1"
       d="m 919.19862,2553.1359 v 147.7227 h 188.31448 v -147.7227 z"
       id="rect8528"
       inkscape:connector-curvature="0"
       sodipodi:nodetypes="ccccc" />
    <path
       sodipodi:nodetypes="ccccccc"
       inkscape:connector-curvature="0"
       id="path8530"
       d="m 2957.7527,2504.0618 -38.8014,-23.5634 16.8028,19.2171 -22.5049,6.4635 36.8423,24.7607 -16.0612,-20.4366 z"
       style="opacity:1;vector-effect:none;fill:#000000;fill-opacity:1;fill-rule:nonzero;stroke:none;stroke-width:0.06986313;stroke-linecap:butt;stroke-linejoin:miter;stroke-miterlimit:4;stroke-dasharray:none;stroke-dashoffset:0;stroke-opacity:1" />
    <path
       style="opacity:1;vector-effect:none;fill:#000000;fill-opacity:1;fill-rule:nonzero;stroke:#ffffff;stroke-width:4.80000019;stroke-linecap:square;stroke-linejoin:miter;stroke-miterlimit:4;stroke-dasharray:none;stroke-dashoffset:0;stroke-opacity:1;paint-order:stroke markers fill"
       d="m 1501.2066,2863.4095 -30.4599,33.6598 22.0417,-12.876 2.1021,23.32 31.2662,-31.5099 -23.0995,11.9177 z"
       id="path8532"
       inkscape:connector-curvature="0"
       sodipodi:nodetypes="ccccccc" />
    <path
       style="opacity:1;vector-effect:none;fill:#000000;fill-opacity:1;fill-rule:nonzero;stroke:none;stroke-width:0.06986313;stroke-linecap:butt;stroke-linejoin:miter;stroke-miterlimit:4;stroke-dasharray:none;stroke-dashoffset:0;stroke-opacity:1"
       d="m 2872.8061,2585.7641 -46.3202,5.6924 24.0762,4.5912 -17.893,19.0615 45.0454,-3.536 -23.9352,-6.0074 z"
       id="path8536"
       inkscape:connector-curvature="0"
       sodipodi:nodetypes="ccccccc" />
    <rect
       style="opacity:1;vector-effect:none;fill:#000000;fill-opacity:1;fill-rule:nonzero;stroke:#ffffff;stroke-width:2.69230223;stroke-linecap:butt;stroke-linejoin:miter;stroke-miterlimit:4;stroke-dasharray:none;stroke-dashoffset:0;stroke-opacity:1"
       id="rect8578"
       width="290.02866"
       height="413.89551"
       x="1361.7332"
       y="2425.7722" />
    <path
       sodipodi:nodetypes="ccccccc"
       inkscape:connector-curvature="0"
       id="path8580"
       d="m 1008.1747,2707.941 30.4599,33.6598 -22.0417,-12.876 -2.1021,23.32 -31.26623,-31.5099 23.09953,11.9177 z"
       style="opacity:1;vector-effect:none;fill:#000000;fill-opacity:1;fill-rule:nonzero;stroke:#ffffff;stroke-width:4.80000019;stroke-linecap:square;stroke-linejoin:miter;stroke-miterlimit:4;stroke-dasharray:none;stroke-dashoffset:0;stroke-opacity:1;paint-order:stroke markers fill" />
    <path
       style="opacity:1;vector-effect:none;fill:#000000;fill-opacity:1;fill-rule:nonzero;stroke:#ffffff;stroke-width:3.60001516;stroke-linecap:butt;stroke-linejoin:miter;stroke-miterlimit:4;stroke-dasharray:none;stroke-dashoffset:0;stroke-opacity:1;filter:url(#filter8643);paint-order:fill markers stroke"
       clip-path="none"
       d="M 2168.543 2774.4414 L 2352.9277 2774.4414 L 2352.9277 2360.5469 L 2062.8984 2360.5469 L 2062.8984 2727.1758 C 2069.889 2726.0647 2077.2025 2725.3877 2085.0039 2725.6172 C 2114.7403 2726.4918 2143.8811 2745.7421 2168.543 2774.4414 z "
       id="path8717" />
    <path
       id="path8719"
       d="m 2166.5085,2770.3724 h 182.3502 v -403.722 h -281.8913 v 360.5254 c 6.9906,-1.1111 10.2351,-1.7881 18.0365,-1.5586 29.7364,0.8746 56.8427,16.0559 81.5046,44.7552 z"
       clip-path="none"
       style="opacity:1;vector-effect:none;fill:#000000;fill-opacity:1;fill-rule:nonzero;stroke:#000000;stroke-width:3.60001516;stroke-linecap:butt;stroke-linejoin:miter;stroke-miterlimit:4;stroke-dasharray:none;stroke-dashoffset:0;stroke-opacity:1;paint-order:fill markers stroke;filter:url(#filter8643)"
       inkscape:connector-curvature="0"
       transform="matrix(0.98303953,0,0,0.98303953,34.967561,47.078359)"
       sodipodi:nodetypes="ccccccc" />
    <path
       sodipodi:nodetypes="ccccccc"
       inkscape:connector-curvature="0"
       id="path8732"
       d="m 2246.9877,2786.2597 -30.4599,33.6598 22.0417,-12.876 2.1021,23.32 31.2662,-31.5099 -23.0995,11.9177 z"
       style="opacity:1;vector-effect:none;fill:#000000;fill-opacity:1;fill-rule:nonzero;stroke:#ffffff;stroke-width:4.80000019;stroke-linecap:square;stroke-linejoin:miter;stroke-miterlimit:4;stroke-dasharray:none;stroke-dashoffset:0;stroke-opacity:1;paint-order:stroke markers fill" />
    <path
       style="opacity:1;vector-effect:none;fill:#000000;fill-opacity:1;fill-rule:nonzero;stroke:#ffffff;stroke-width:4.80000019;stroke-linecap:square;stroke-linejoin:miter;stroke-miterlimit:4;stroke-dasharray:none;stroke-dashoffset:0;stroke-opacity:1;paint-order:stroke markers fill"
       d="m 1662.7788,2612.0883 30.4599,33.6598 -22.0417,-12.876 -2.1021,23.32 -31.2662,-31.5099 23.0995,11.9177 z"
       id="path8734"
       inkscape:connector-curvature="0"
       sodipodi:nodetypes="ccccccc" />
    <path
       style="opacity:1;vector-effect:none;fill:#000000;fill-opacity:1;fill-rule:nonzero;stroke:#ffffff;stroke-width:4.80000019;stroke-linecap:square;stroke-linejoin:miter;stroke-miterlimit:4;stroke-dasharray:none;stroke-dashoffset:0;stroke-opacity:1;paint-order:stroke markers fill"
       d="m 2018.1353,2534.9385 30.4599,33.6598 -22.0417,-12.876 -2.1021,23.32 -31.2662,-31.5099 23.0995,11.9177 z"
       id="path8736"
       inkscape:connector-curvature="0"
       sodipodi:nodetypes="ccccccc" />
    <text
       transform="skewX(34.916264)"
       id="text8740"
       y="2184.4407"
       x="-1201.8835"
       style="font-style:normal;font-variant:normal;font-weight:normal;font-stretch:normal;font-size:40px;line-height:1.25;font-family:Lavi;-inkscape-font-specification:Lavi;letter-spacing:0px;word-spacing:0px;fill:#ffffff;fill-opacity:1;stroke:none"
       xml:space="preserve"><tspan
         y="2184.4407"
         x="-1201.8835"
         id="tspan8738"
         sodipodi:role="line">Nice...</tspan></text>
  </g>
  <g
     inkscape:groupmode="layer"
     id="layer1"
     inkscape:label="txt">
    <text
       xml:space="preserve"
       style="font-style:normal;font-variant:normal;font-weight:normal;font-stretch:normal;line-height:0%;font-family:Lavi;-inkscape-font-specification:Lavi;text-align:center;letter-spacing:0px;word-spacing:0px;text-anchor:middle;fill:#000000;fill-opacity:1;stroke:none"
       x="633.5199"
       y="348.73749"
       id="text4246"><tspan
         sodipodi:role="line"
         style="font-size:45px;line-height:1.20000005"
         x="641.43005"
         y="348.73749"
         id="tspan18">Mage-gets </tspan><tspan
         sodipodi:role="line"
         style="font-size:45px;line-height:1.20000005"
         x="641.43005"
         y="402.73749"
         id="tspan8372">niyo rin </tspan><tspan
         sodipodi:role="line"
         style="font-size:45px;line-height:1.20000005"
         x="641.43005"
         y="456.73749"
         id="tspan8374">kung bakit </tspan><tspan
         sodipodi:role="line"
         style="font-size:45px;line-height:1.20000005"
         x="641.43005"
         y="510.73749"
         id="tspan8376">ako gumawa </tspan><tspan
         sodipodi:role="line"
         style="font-size:45px;line-height:1.20000005"
         x="633.5199"
         y="564.73749"
         id="tspan8380">ng gan'to.</tspan></text>
    <text
       xml:space="preserve"
       style="font-style:normal;font-variant:normal;font-weight:normal;font-stretch:normal;line-height:1;font-family:Lavi;-inkscape-font-specification:Lavi;text-align:center;letter-spacing:0px;word-spacing:0px;text-anchor:middle;fill:#000000;fill-opacity:1;stroke:none"
       x="2151.3347"
       y="1836.2981"
       id="text4246-3"><tspan
         sodipodi:role="line"
         style="font-size:45px;line-height:1"
         x="2159.2449"
         y="1836.2981"
         id="tspan66">May </tspan><tspan
         sodipodi:role="line"
         style="font-size:45px;line-height:1"
         x="2159.2449"
         y="1881.2981"
         id="tspan8391">kinalaman </tspan><tspan
         sodipodi:role="line"
         style="font-size:45px;line-height:1"
         x="2159.2449"
         y="1926.2981"
         id="tspan8746">to sa mental </tspan><tspan
         sodipodi:role="line"
         style="font-size:45px;line-height:1"
         x="2151.3347"
         y="1971.2981"
         id="tspan8748">preparation</tspan><tspan
         sodipodi:role="line"
         style="font-size:45px;line-height:1"
         x="2159.2449"
         y="2016.2981"
         id="tspan8744">ko para sa  </tspan><tspan
         sodipodi:role="line"
         style="font-size:45px;line-height:1"
         x="2151.3347"
         y="2061.2981"
         id="tspan8399">coronation</tspan></text>
    <text
       xml:space="preserve"
       style="font-style:normal;font-variant:normal;font-weight:normal;font-stretch:normal;line-height:0%;font-family:Lavi;-inkscape-font-specification:Lavi;text-align:center;letter-spacing:0px;word-spacing:0px;text-anchor:middle;fill:#000000;fill-opacity:1;stroke:none"
       x="1452.9392"
       y="2461.4622"
       id="text4246-3-3"
       transform="skewX(-21.380988)"><tspan
         sodipodi:role="line"
         style="font-size:45px;line-height:1.20000005;text-align:center;text-anchor:middle"
         x="1460.8494"
         y="2461.4622"
         id="tspan65-1">&quot;  Let me      </tspan><tspan
         sodipodi:role="line"
         style="font-size:45px;line-height:1.20000005;text-align:center;text-anchor:middle"
         x="1452.9392"
         y="2515.4622"
         id="tspan8460">introduce</tspan><tspan
         sodipodi:role="line"
         style="font-size:45px;line-height:1.20000005;text-align:center;text-anchor:middle"
         x="1460.8494"
         y="2569.4622"
         id="tspan111">   you to my </tspan><tspan
         sodipodi:role="line"
         style="font-size:45px;line-height:1.20000005;text-align:center;text-anchor:middle"
         x="1452.9392"
         y="2623.4622"
         id="tspan8462">      new</tspan><tspan
         sodipodi:role="line"
         style="font-size:45px;line-height:1.20000005;text-align:center;text-anchor:middle"
         x="1452.9392"
         y="2677.4622"
         id="tspan113">        invention</tspan><tspan
         sodipodi:role="line"
         style="font-size:45px;line-height:1.20000005;text-align:center;text-anchor:middle"
         x="1460.8494"
         y="2731.4622"
         id="tspan8464">                ...   &quot;  </tspan></text>
    <text
       xml:space="preserve"
       style="font-style:normal;font-variant:normal;font-weight:normal;font-stretch:normal;line-height:0%;font-family:Lavi;-inkscape-font-specification:Lavi;text-align:center;letter-spacing:0px;word-spacing:0px;text-anchor:middle;fill:#ffffff;fill-opacity:1;stroke:none"
       x="1013.7607"
       y="2619.0176"
       id="text4246-3-3-2"><tspan
         sodipodi:role="line"
         style="font-style:normal;font-variant:normal;font-weight:normal;font-stretch:normal;font-size:32px;line-height:1.39999998;font-family:'Press Start 2P';-inkscape-font-specification:'Press Start 2P';fill:#ffffff;fill-opacity:1"
         x="1019.3857"
         y="2619.0176"
         id="tspan113-9">Hello  </tspan><tspan
         sodipodi:role="line"
         style="font-style:normal;font-variant:normal;font-weight:normal;font-stretch:normal;font-size:32px;line-height:1.39999998;font-family:'Press Start 2P';-inkscape-font-specification:'Press Start 2P';fill:#ffffff;fill-opacity:1"
         x="1013.7607"
         y="2663.8176"
         id="tspan144">world.</tspan></text>
    <text
       xml:space="preserve"
       style="font-style:normal;font-variant:normal;font-weight:normal;font-stretch:normal;line-height:0%;font-family:Lavi;-inkscape-font-specification:Lavi;text-align:center;letter-spacing:0px;word-spacing:0px;text-anchor:middle;fill:#ffffff;fill-opacity:1;stroke:none"
       x="1504.8483"
       y="2548.1794"
       id="text4246-3-3-2-2"><tspan
         sodipodi:role="line"
         style="font-style:normal;font-variant:normal;font-weight:normal;font-stretch:normal;font-size:32px;line-height:1.39999998;font-family:'Press Start 2P';-inkscape-font-specification:'Press Start 2P';fill:#ffffff;fill-opacity:1"
         x="1510.4733"
         y="2548.1794"
         id="tspan144-3">Ako ang </tspan><tspan
         sodipodi:role="line"
         style="font-style:normal;font-variant:normal;font-weight:normal;font-stretch:normal;font-size:32px;line-height:1.39999998;font-family:'Press Start 2P';-inkscape-font-specification:'Press Start 2P';fill:#ffffff;fill-opacity:1"
         x="1504.8483"
         y="2592.9795"
         id="tspan8572">inyong</tspan><tspan
         sodipodi:role="line"
         style="font-style:normal;font-variant:normal;font-weight:normal;font-stretch:normal;font-size:32px;line-height:1.39999998;font-family:'Press Start 2P';-inkscape-font-specification:'Press Start 2P';fill:#ffffff;fill-opacity:1"
         x="1504.8483"
         y="2637.7795"
         id="tspan8574">PSYCHOLOGIST</tspan><tspan
         sodipodi:role="line"
         style="font-style:normal;font-variant:normal;font-weight:normal;font-stretch:normal;font-size:32px;line-height:1.39999998;font-family:'Press Start 2P';-inkscape-font-specification:'Press Start 2P';fill:#ffffff;fill-opacity:1"
         x="1504.8483"
         y="2682.5793"
         id="tspan8590">-BOT</tspan><tspan
         sodipodi:role="line"
         style="font-style:normal;font-variant:normal;font-weight:normal;font-stretch:normal;font-size:32px;line-height:1.39999998;font-family:'Press Start 2P';-inkscape-font-specification:'Press Start 2P';fill:#ffffff;fill-opacity:1"
         x="1504.8483"
         y="2727.3794"
         id="tspan171"> bleep,</tspan><tspan
         sodipodi:role="line"
         style="font-style:normal;font-variant:normal;font-weight:normal;font-stretch:normal;font-size:32px;line-height:1.39999998;font-family:'Press Start 2P';-inkscape-font-specification:'Press Start 2P';fill:#ffffff;fill-opacity:1"
         x="1504.8483"
         y="2772.1794"
         id="tspan8576"> bloop!</tspan></text>
    <text
       xml:space="preserve"
       style="font-style:normal;font-variant:normal;font-weight:normal;font-stretch:normal;line-height:0%;font-family:Lavi;-inkscape-font-specification:Lavi;text-align:center;letter-spacing:0px;word-spacing:0px;text-anchor:middle;fill:#ffffff;fill-opacity:1;stroke:none"
       x="2205.0188"
       y="2422.4265"
       id="text4246-3-3-2-2-7"><tspan
         sodipodi:role="line"
         style="font-style:normal;font-variant:normal;font-weight:normal;font-stretch:normal;font-size:32px;line-height:1.29999995;font-family:'Press Start 2P';-inkscape-font-specification:'Press Start 2P';fill:#ffffff"
         x="2205.0188"
         y="2425.9143"
         id="tspan8582" /><tspan
         sodipodi:role="line"
         style="font-style:normal;font-variant:normal;font-weight:normal;font-stretch:normal;font-size:32px;line-height:1.29999995;font-family:'Press Start 2P';-inkscape-font-specification:'Press Start 2P';fill:#ffffff"
         x="2205.0188"
         y="2452.4211"
         id="tspan8594"> Maaari</tspan><tspan
         sodipodi:role="line"
         style="font-style:normal;font-variant:normal;font-weight:normal;font-stretch:normal;font-size:32px;line-height:1.29999995;font-family:'Press Start 2P';-inkscape-font-specification:'Press Start 2P';fill:#ffffff"
         x="2210.6438"
         y="2494.021"
         id="tspan8602">po kayong </tspan><tspan
         sodipodi:role="line"
         style="font-style:normal;font-variant:normal;font-weight:normal;font-stretch:normal;font-size:32px;line-height:1.29999995;font-family:'Press Start 2P';-inkscape-font-specification:'Press Start 2P';fill:#ffffff"
         x="2210.6438"
         y="2535.6211"
         id="tspan8586">umupo para </tspan><tspan
         sodipodi:role="line"
         style="font-style:normal;font-variant:normal;font-weight:normal;font-stretch:normal;font-size:32px;line-height:1.29999995;font-family:'Press Start 2P';-inkscape-font-specification:'Press Start 2P';fill:#ffffff"
         x="2205.0188"
         y="2577.2212"
         id="tspan8608">sa isang</tspan><tspan
         sodipodi:role="line"
         style="font-style:normal;font-variant:normal;font-weight:normal;font-stretch:normal;font-size:32px;line-height:1.29999995;font-family:'Press Start 2P';-inkscape-font-specification:'Press Start 2P';fill:#ffffff"
         x="2205.0188"
         y="2618.821"
         id="tspan8596"> PSYCHO-</tspan><tspan
         sodipodi:role="line"
         style="font-style:normal;font-variant:normal;font-weight:normal;font-stretch:normal;font-size:32px;line-height:1.29999995;font-family:'Press Start 2P';-inkscape-font-specification:'Press Start 2P';fill:#ffffff"
         x="2210.6438"
         y="2660.4211"
         id="tspan8610">HEALTH </tspan><tspan
         sodipodi:role="line"
         style="font-style:normal;font-variant:normal;font-weight:normal;font-stretch:normal;font-size:32px;line-height:1.29999995;font-family:'Press Start 2P';-inkscape-font-specification:'Press Start 2P';fill:#ffffff"
         x="2210.6438"
         y="2702.021"
         id="tspan8592">TEST   </tspan><tspan
         sodipodi:role="line"
         style="font-style:normal;font-variant:normal;font-weight:normal;font-stretch:normal;font-size:32px;line-height:1.29999995;font-family:'Press Start 2P';-inkscape-font-specification:'Press Start 2P';fill:#ffffff"
         x="2205.0188"
         y="2717.1143"
         id="tspan8584" /></text>
    <text
       xml:space="preserve"
       style="font-style:normal;font-variant:normal;font-weight:normal;font-stretch:normal;line-height:0%;font-family:Lavi;-inkscape-font-specification:Lavi;letter-spacing:0px;word-spacing:0px;fill:#000000;fill-opacity:1;stroke:#000000;stroke-width:2.15795588;stroke-miterlimit:4;stroke-dasharray:none;stroke-opacity:1;filter:url(#filter4375-4-1-1-1-9)"
       x="787.65729"
       y="1584.5073"
       id="text4580"
       transform="matrix(0.46879428,-0.12606586,-0.08654633,0.61214652,623.13411,2085.4411)"><tspan
         sodipodi:role="line"
         id="tspan4582"
         x="787.65729"
         y="1584.5073"
         style="font-style:normal;font-variant:normal;font-weight:bold;font-stretch:normal;font-size:80.40014648px;line-height:1.25;font-family:Lavi;-inkscape-font-specification:'Lavi Bold';fill:#ffffff;stroke-width:2.15795588">Click!</tspan></text>
    <text
       xml:space="preserve"
       style="font-style:normal;font-weight:normal;font-size:40px;line-height:1.25;font-family:sans-serif;letter-spacing:0px;word-spacing:0px;fill:#000000;fill-opacity:1;stroke:none"
       x="472.79376"
       y="2711.1531"
       id="text8468"><tspan
         sodipodi:role="line"
         id="tspan8466"
         x="472.79376"
         y="2711.1531"> </tspan></text>
    <text
       xml:space="preserve"
       style="font-style:normal;font-weight:normal;font-size:40px;line-height:1.25;font-family:sans-serif;letter-spacing:0px;word-spacing:0px;fill:#000000;fill-opacity:1;stroke:none"
       x="691.00623"
       y="2486.3281"
       id="text8472"><tspan
         sodipodi:role="line"
         id="tspan8470"
         x="691.00623"
         y="2522.8213" /></text>
    <text
       xml:space="preserve"
       style="font-style:normal;font-weight:normal;font-size:40px;line-height:1.25;font-family:sans-serif;letter-spacing:0px;word-spacing:0px;fill:#000000;fill-opacity:1;stroke:none"
       x="2013.5062"
       y="2716.1125"
       id="text8600"><tspan
         sodipodi:role="line"
         id="tspan8598"
         x="2013.5062"
         y="2752.6057"></tspan></text>
  </g>
  <g
     inkscape:label="txt copy"
     id="g4858"
     inkscape:groupmode="layer">
    <text
       id="text4804"
       y="936.1745"
       x="2839.7114"
       style="font-style:normal;font-variant:normal;font-weight:normal;font-stretch:normal;line-height:0%;font-family:Lavi;-inkscape-font-specification:Lavi;text-align:center;letter-spacing:0px;word-spacing:0px;text-anchor:middle;fill:#000000;fill-opacity:1;stroke:none"
       xml:space="preserve"><tspan
         id="tspan4798"
         y="936.1745"
         x="2839.7114"
         style="font-size:45px;line-height:1.20000005"
         sodipodi:role="line">You'll soon understand</tspan><tspan
         id="tspan4800"
         y="990.1745"
         x="2839.7114"
         style="font-size:45px;line-height:1.20000005"
         sodipodi:role="line">why I wanted to</tspan><tspan
         id="tspan4802"
         y="1044.1746"
         x="2839.7114"
         style="font-size:45px;line-height:1.20000005"
         sodipodi:role="line">build this new one.</tspan></text>
    <text
       id="text4814"
       y="1149.5635"
       x="2839.7224"
       style="font-style:normal;font-variant:normal;font-weight:normal;font-stretch:normal;line-height:0%;font-family:Lavi;-inkscape-font-specification:Lavi;text-align:center;letter-spacing:0px;word-spacing:0px;text-anchor:middle;fill:#000000;fill-opacity:1;stroke:none"
       xml:space="preserve"><tspan
         id="tspan4806"
         y="1149.5635"
         x="2839.7224"
         style="font-size:45px;line-height:1.20000005"
         sodipodi:role="line">It has to do</tspan><tspan
         id="tspan4808"
         y="1203.5635"
         x="2839.7224"
         style="font-size:45px;line-height:1.20000005"
         sodipodi:role="line">with my worries</tspan><tspan
         id="tspan4810"
         y="1257.5635"
         x="2839.7224"
         style="font-size:45px;line-height:1.20000005"
         sodipodi:role="line">about the</tspan><tspan
         id="tspan4812"
         y="1311.5635"
         x="2839.7224"
         style="font-size:45px;line-height:1.20000005"
         sodipodi:role="line">coronation.</tspan></text>
    <text
       id="text4822"
       y="1416.6641"
       x="2839.7773"
       style="font-style:normal;font-variant:normal;font-weight:normal;font-stretch:normal;line-height:0%;font-family:Lavi;-inkscape-font-specification:Lavi;text-align:center;letter-spacing:0px;word-spacing:0px;text-anchor:middle;fill:#000000;fill-opacity:1;stroke:none"
       xml:space="preserve"><tspan
         id="tspan4816"
         y="1416.6641"
         x="2839.7773"
         style="font-size:45px;line-height:1.20000005"
         sodipodi:role="line">Let me introduce</tspan><tspan
         id="tspan4818"
         y="1470.6641"
         x="2839.7773"
         style="font-size:45px;line-height:1.20000005"
         sodipodi:role="line">you to my new</tspan><tspan
         id="tspan4820"
         y="1524.6641"
         x="2839.7773"
         style="font-size:45px;line-height:1.20000005"
         sodipodi:role="line">invention...</tspan></text>
    <text
       id="text4828"
       y="1683.3917"
       x="2841.3818"
       style="font-style:normal;font-variant:normal;font-weight:normal;font-stretch:normal;line-height:0%;font-family:Lavi;-inkscape-font-specification:Lavi;text-align:center;letter-spacing:0px;word-spacing:0px;text-anchor:middle;fill:#000000;fill-opacity:1;stroke:none"
       xml:space="preserve"><tspan
         id="tspan4824"
         y="1683.3917"
         x="2847.0068"
         style="font-style:normal;font-variant:normal;font-weight:normal;font-stretch:normal;font-size:32px;line-height:1.39999998;font-family:'Press Start 2P';-inkscape-font-specification:'Press Start 2P'"
         sodipodi:role="line">Hello  </tspan><tspan
         id="tspan4826"
         y="1728.1918"
         x="2841.3818"
         style="font-style:normal;font-variant:normal;font-weight:normal;font-stretch:normal;font-size:32px;line-height:1.39999998;font-family:'Press Start 2P';-inkscape-font-specification:'Press Start 2P'"
         sodipodi:role="line">world.</tspan></text>
    <text
       id="text4836"
       y="1898.3624"
       x="2838.5381"
       style="font-style:normal;font-variant:normal;font-weight:normal;font-stretch:normal;line-height:0%;font-family:Lavi;-inkscape-font-specification:Lavi;text-align:center;letter-spacing:0px;word-spacing:0px;text-anchor:middle;fill:#000000;fill-opacity:1;stroke:none"
       xml:space="preserve"><tspan
         id="tspan4830"
         y="1898.3624"
         x="2838.5381"
         style="font-style:normal;font-variant:normal;font-weight:normal;font-stretch:normal;font-size:32px;line-height:1.39999998;font-family:'Press Start 2P';-inkscape-font-specification:'Press Start 2P'"
         sodipodi:role="line">I'm your</tspan><tspan
         id="tspan4832"
         y="1943.1625"
         x="2838.5381"
         style="font-style:normal;font-variant:normal;font-weight:normal;font-stretch:normal;font-size:32px;line-height:1.39999998;font-family:'Press Start 2P';-inkscape-font-specification:'Press Start 2P'"
         sodipodi:role="line">PSYCHOLOGIST-BOT</tspan><tspan
         id="tspan4834"
         y="1987.9624"
         x="2838.5381"
         style="font-style:normal;font-variant:normal;font-weight:normal;font-stretch:normal;font-size:32px;line-height:1.39999998;font-family:'Press Start 2P';-inkscape-font-specification:'Press Start 2P'"
         sodipodi:role="line"> bleep, bloop!</tspan></text>
    <text
       id="text4848"
       y="2103.2861"
       x="2841.2256"
       style="font-style:normal;font-variant:normal;font-weight:normal;font-stretch:normal;line-height:0%;font-family:Lavi;-inkscape-font-specification:Lavi;text-align:center;letter-spacing:0px;word-spacing:0px;text-anchor:middle;fill:#000000;fill-opacity:1;stroke:none"
       xml:space="preserve"><tspan
         id="tspan4838"
         y="2103.2861"
         x="2841.2256"
         style="font-style:normal;font-variant:normal;font-weight:normal;font-stretch:normal;font-size:32px;line-height:1.29999995;font-family:'Press Start 2P';-inkscape-font-specification:'Press Start 2P'"
         sodipodi:role="line">Please lie</tspan><tspan
         id="tspan4840"
         y="2144.8862"
         x="2841.2256"
         style="font-style:normal;font-variant:normal;font-weight:normal;font-stretch:normal;font-size:32px;line-height:1.29999995;font-family:'Press Start 2P';-inkscape-font-specification:'Press Start 2P'"
         sodipodi:role="line">down on my</tspan><tspan
         id="tspan4842"
         y="2186.4861"
         x="2841.2256"
         style="font-style:normal;font-variant:normal;font-weight:normal;font-stretch:normal;font-size:32px;line-height:1.29999995;font-family:'Press Start 2P';-inkscape-font-specification:'Press Start 2P'"
         sodipodi:role="line"> couch for</tspan><tspan
         id="tspan4844"
         y="2228.0862"
         x="2841.2256"
         style="font-style:normal;font-variant:normal;font-weight:normal;font-stretch:normal;font-size:32px;line-height:1.29999995;font-family:'Press Start 2P';-inkscape-font-specification:'Press Start 2P'"
         sodipodi:role="line">a free</tspan><tspan
         id="tspan4846"
         y="2269.686"
         x="2841.2256"
         style="font-style:normal;font-variant:normal;font-weight:normal;font-stretch:normal;font-size:32px;line-height:1.29999995;font-family:'Press Start 2P';-inkscape-font-specification:'Press Start 2P'"
         sodipodi:role="line">examination.</tspan></text>
    <text
       transform="matrix(0.46879428,-0.12606586,-0.08654633,0.61214652,623.13411,2085.4411)"
       id="text4852"
       y="1584.5073"
       x="787.65729"
       style="font-style:normal;font-variant:normal;font-weight:normal;font-stretch:normal;line-height:0%;font-family:Lavi;-inkscape-font-specification:Lavi;letter-spacing:0px;word-spacing:0px;fill:#000000;fill-opacity:1;stroke:#000000;stroke-width:2.15795588;stroke-miterlimit:4;stroke-dasharray:none;stroke-opacity:1;filter:url(#filter4375-4-1-1-1-9)"
       xml:space="preserve"><tspan
         style="font-style:normal;font-variant:normal;font-weight:bold;font-stretch:normal;font-size:80.40014648px;line-height:1.25;font-family:Lavi;-inkscape-font-specification:'Lavi Bold';fill:#ffffff;stroke-width:2.15795588"
         y="1584.5073"
         x="787.65729"
         id="tspan4850"
         sodipodi:role="line">Click!</tspan></text>
    <text
       transform="matrix(0.46879428,-0.12606586,-0.08654633,0.61214652,2034.1352,2088.1101)"
       id="text4856"
       y="1584.5073"
       x="787.65729"
       style="font-style:normal;font-variant:normal;font-weight:normal;font-stretch:normal;line-height:0%;font-family:Lavi;-inkscape-font-specification:Lavi;letter-spacing:0px;word-spacing:0px;fill:#000000;fill-opacity:1;stroke:#000000;stroke-width:2.15795588;stroke-miterlimit:4;stroke-dasharray:none;stroke-opacity:1;filter:url(#filter4375-4-1-1-1-9-5)"
       xml:space="preserve"><tspan
         style="font-style:normal;font-variant:normal;font-weight:bold;font-stretch:normal;font-size:80.40014648px;line-height:1.25;font-family:Lavi;-inkscape-font-specification:'Lavi Bold';fill:#ffffff;stroke-width:2.15795588"
         y="1584.5073"
         x="787.65729"
         id="tspan4854"
         sodipodi:role="line">Tap!</tspan></text>
  </g>
</svg>
