<?xml version="1.0" encoding="UTF-8" standalone="no"?>
<!-- Created with Inkscape (http://www.inkscape.org/) -->

<svg
   xmlns:dc="http://purl.org/dc/elements/1.1/"
   xmlns:cc="http://creativecommons.org/ns#"
   xmlns:rdf="http://www.w3.org/1999/02/22-rdf-syntax-ns#"
   xmlns:svg="http://www.w3.org/2000/svg"
   xmlns="http://www.w3.org/2000/svg"
   xmlns:xlink="http://www.w3.org/1999/xlink"
   xmlns:sodipodi="http://sodipodi.sourceforge.net/DTD/sodipodi-0.dtd"
   xmlns:inkscape="http://www.inkscape.org/namespaces/inkscape"
   id="svg2"
   version="1.1"
   inkscape:version="0.92.3 (2405546, 2018-03-11)"
   width="2481"
   height="663"
   sodipodi:docname="E32P00.svg">
  <metadata
     id="metadata8">
    <rdf:RDF>
      <cc:Work
         rdf:about="">
        <dc:format>image/svg+xml</dc:format>
        <dc:type
           rdf:resource="http://purl.org/dc/dcmitype/StillImage" />
        <dc:title />
      </cc:Work>
    </rdf:RDF>
  </metadata>
  <defs
     id="defs6">
    <linearGradient
       id="linearGradient948"
       inkscape:collect="always">
      <stop
         id="stop942"
         offset="0"
         style="stop-color:#d0d2d6;stop-opacity:1" />
      <stop
         style="stop-color:#84a1b2;stop-opacity:1"
         offset="0.5"
         id="stop944" />
      <stop
         id="stop946"
         offset="1"
         style="stop-color:#6e7d84;stop-opacity:1" />
    </linearGradient>
    <linearGradient
       id="linearGradient901"
       inkscape:collect="always">
      <stop
         id="stop895"
         offset="0"
         style="stop-color:#d0d2d6;stop-opacity:1" />
      <stop
         style="stop-color:#84a1b2;stop-opacity:1"
         offset="0.70678365"
         id="stop897" />
      <stop
         id="stop899"
         offset="1"
         style="stop-color:#6e7d84;stop-opacity:1" />
    </linearGradient>
    <linearGradient
       inkscape:collect="always"
       xlink:href="#linearGradient4290"
       id="linearGradient4327"
       gradientUnits="userSpaceOnUse"
       x1="1243.5789"
       y1="254.0174"
       x2="1240.9818"
       y2="421.95773"
       gradientTransform="translate(80.457847,-440.43455)" />
    <linearGradient
       inkscape:collect="always"
       id="linearGradient4290">
      <stop
         style="stop-color:#d0d2d6;stop-opacity:1"
         offset="0"
         id="stop4292-7" />
      <stop
         id="stop4298"
         offset="0.5"
         style="stop-color:#84a1b2;stop-opacity:1" />
      <stop
         style="stop-color:#6e7d84;stop-opacity:1"
         offset="1"
         id="stop4294" />
    </linearGradient>
    <filter
       inkscape:menu-tooltip="Transparent plastic with deep colors"
       inkscape:menu="Bevels"
       inkscape:label="Pepper-title-style"
       style="color-interpolation-filters:sRGB"
       id="filter4268">
      <feGaussianBlur
         in="SourceGraphic"
         result="result6"
         stdDeviation="1.07656"
         id="feGaussianBlur4270" />
      <feComposite
         in2="SourceGraphic"
         in="result6"
         operator="xor"
         id="feComposite4272" />
      <feGaussianBlur
         result="result2"
         stdDeviation="6.0001843317972341"
         id="feGaussianBlur4274" />
      <feComposite
         in2="SourceGraphic"
         operator="atop"
         result="result91"
         id="feComposite4276"
         stdDeviation="6" />
      <feComposite
         result="result4"
         in="result2"
         operator="xor"
         in2="result91"
         id="feComposite4278"
         stdDeviation="3.7000000000000002" />
      <feGaussianBlur
         in="result4"
         result="result3"
         stdDeviation="3.0319199999999999"
         id="feGaussianBlur4280" />
      <feSpecularLighting
         lighting-color="rgb(127,173,218)"
         in="result3"
         result="result5"
         specularExponent="35"
         specularConstant="3"
         surfaceScale="12"
         id="feSpecularLighting4282"
         stdDeviation="3.0299999999999998">
        <feDistantLight
           elevation="45"
           azimuth="235"
           id="feDistantLight4284" />
      </feSpecularLighting>
      <feComposite
         k4="0"
         k1="0"
         in2="result5"
         in="SourceGraphic"
         k3="0.7"
         k2="0.8"
         operator="arithmetic"
         result="result7"
         id="feComposite4286" />
      <feComposite
         in="result7"
         operator="in"
         in2="SourceGraphic"
         id="feComposite4288" />
    </filter>
    <linearGradient
       gradientTransform="translate(-61.714713,-8.8779794)"
       inkscape:collect="always"
       xlink:href="#linearGradient4389"
       id="linearGradient4395"
       x1="1255.1119"
       y1="489.24805"
       x2="1260.4043"
       y2="325.1637"
       gradientUnits="userSpaceOnUse" />
    <linearGradient
       inkscape:collect="always"
       id="linearGradient4389">
      <stop
         style="stop-color:#66261c;stop-opacity:1"
         offset="0"
         id="stop4391" />
      <stop
         style="stop-color:#ff0202;stop-opacity:1"
         offset="1"
         id="stop4393" />
    </linearGradient>
    <filter
       inkscape:menu-tooltip="Transparent plastic with deep colors"
       inkscape:menu="Bevels"
       inkscape:label="Pepper-title-style"
       style="color-interpolation-filters:sRGB"
       id="filter4268-9">
      <feGaussianBlur
         in="SourceGraphic"
         result="result6"
         stdDeviation="0.20000000000000001"
         id="feGaussianBlur4270-7" />
      <feComposite
         in2="SourceGraphic"
         in="result6"
         operator="xor"
         id="feComposite4272-4" />
      <feGaussianBlur
         result="result2"
         stdDeviation="6.0001843317972341"
         id="feGaussianBlur4274-9" />
      <feComposite
         in2="SourceGraphic"
         operator="atop"
         result="result91"
         id="feComposite4276-1"
         stdDeviation="6" />
      <feComposite
         result="result4"
         in="result2"
         operator="xor"
         in2="result91"
         id="feComposite4278-7"
         stdDeviation="3.7000000000000002" />
      <feGaussianBlur
         in="result4"
         result="result3"
         stdDeviation="3.6962672811059902"
         id="feGaussianBlur4280-0" />
      <feSpecularLighting
         lighting-color="#d8bd6d"
         in="result3"
         result="result5"
         specularExponent="35"
         specularConstant="3"
         surfaceScale="12"
         id="feSpecularLighting4282-6">
        <feDistantLight
           elevation="45"
           azimuth="235"
           id="feDistantLight4284-0" />
      </feSpecularLighting>
      <feComposite
         k4="0"
         k1="0"
         in2="result5"
         in="SourceGraphic"
         k3="0.7"
         k2="0.8"
         operator="arithmetic"
         result="result7"
         id="feComposite4286-8" />
      <feComposite
         in="result7"
         operator="in"
         in2="SourceGraphic"
         id="feComposite4288-5" />
    </filter>
    <radialGradient
       inkscape:collect="always"
       xlink:href="#linearGradient901"
       id="radialGradient861"
       cx="868.31659"
       cy="-347.79337"
       fx="868.31659"
       fy="-347.79337"
       r="931.55713"
       gradientTransform="matrix(0.34977957,-0.00202561,0.00157678,0.2722759,844.8677,286.43824)"
       gradientUnits="userSpaceOnUse" />
    <linearGradient
       inkscape:collect="always"
       xlink:href="#linearGradient948"
       id="linearGradient940"
       x1="1282.6195"
       y1="257.91455"
       x2="1281.4075"
       y2="457.93338"
       gradientUnits="userSpaceOnUse"
       gradientTransform="matrix(0.9917888,0,0,0.98228177,10.197046,-1.5225462)" />
  </defs>
  <sodipodi:namedview
     pagecolor="#ffffff"
     bordercolor="#666666"
     borderopacity="1"
     objecttolerance="10"
     gridtolerance="10"
     guidetolerance="10"
     inkscape:pageopacity="0"
     inkscape:pageshadow="2"
     inkscape:window-width="1920"
     inkscape:window-height="1022"
     id="namedview4"
     showgrid="false"
     inkscape:zoom="0.52995012"
     inkscape:cx="540.91228"
     inkscape:cy="474.01308"
     inkscape:window-x="0"
     inkscape:window-y="0"
     inkscape:window-maximized="1"
     inkscape:current-layer="layer1"
     inkscape:snap-global="false" />
  <g
     inkscape:groupmode="layer"
     id="layer2"
     inkscape:label="artwork"
     sodipodi:insensitive="true">
    <image
       sodipodi:absref="/home/peppercarrot/webcomics/"
       xlink:href="../gfx_Pepper-and-Carrot_by-David-Revoy_E32P00.png"
       width="2481"
       height="663"
       id="image10"
       x="0"
       y="0" />
  </g>
  <g
     inkscape:groupmode="layer"
     id="layer1"
     inkscape:label="txt"
     style="display:inline">
    <text
       xml:space="preserve"
       style="font-style:normal;font-variant:normal;font-weight:normal;font-stretch:normal;font-size:72.5px;line-height:1.25;font-family:Lavi;-inkscape-font-specification:'Lavi, Normal';font-variant-ligatures:normal;font-variant-caps:normal;font-variant-numeric:normal;font-feature-settings:normal;text-align:center;letter-spacing:0px;word-spacing:0px;writing-mode:lr-tb;text-anchor:middle;display:inline;fill:#0f0f0f;fill-opacity:1;stroke:none"
       x="1239.4258"
       y="589.40344"
       id="episode-title"><tspan
         sodipodi:role="line"
         id="tspan4180"
         x="1239.4258"
         y="589.40344">Episode 32: På slagmarka</tspan></text>
    <path
       style="display:inline;fill:url(#linearGradient4395);fill-opacity:1;stroke:#210804;stroke-width:4.2552166;stroke-miterlimit:4;stroke-dasharray:none;stroke-opacity:1;filter:url(#filter4268)"
       d="m 1159.2356,463.95503 c -2.7541,-0.982 -7.3015,-2.948 -10.1051,-4.37 l -5.0977,-2.584 -3.1586,-3.598 c -1.7374,-1.978 -4.1606,-5.5 -5.3852,-7.825 l -2.2266,-4.229 -0.032,-7.511 -0.032,-7.512 3.1618,-6.673 3.1618,-6.674 7.7715,-8.134 7.7714,-8.134 -2.8135,-5.887 -2.8132,-5.886 0.6007,-3.004 0.6007,-3.004 -1.4333,-1.19 -1.4333,-1.189 1.5545,-3.006 1.5544,-3.006 -2.2226,-2.366 -2.2228,-2.366 0.6352,-4.633 0.6351,-4.633 1.9948,-4.51 1.9948,-4.51 4.259,-5.087 4.2593,-5.087 4.3965,-2.788 4.3964,-2.788 5.4241,-1.214 5.4239,-1.214 5.2142,1.647 5.2141,1.648 5.7175,3.58 5.7173,3.581 3.6482,6.006 3.6485,6.006 0.5124,3.82 0.5126,3.821 -2.211,7.005 -2.2109,7.005 -3.8479,4.9 c -2.1163,2.695 -5.5023,7.379 -7.5243,10.408 -2.0221,3.03 -5.026,6.706 -6.6752,8.17 l -2.9984,2.661 0.8527,1.455 c 0.4689,0.8 4.9563,5.811 9.9717,11.136 l 9.1192,9.681 1.196,-1.441 1.1962,-1.441 0.2013,-2.842 0.2012,-2.842 -3.7507,-0.311 -3.7504,-0.31 -2.5088,-3.289 -2.509,-3.29 v -2.087 -2.087 l 1.4347,-1.435 1.4347,-1.435 8.3299,-2.589 c 4.5817,-1.425 10.5835,-3.102 13.3376,-3.728 l 5.0075,-1.138 12.018,-0.395 c 6.61,-0.217 14.3841,-0.663 17.276,-0.99 l 5.2579,-0.595 -6e-4,1.323 -4e-4,1.324 -7.1226,6.51 c -3.9171,3.581 -8.5364,7.917 -10.2648,9.637 l -3.1425,3.127 -4.8851,0.709 c -2.6869,0.39 -5.5037,0.947 -6.2594,1.237 l -1.3742,0.527 v 4.863 4.863 l -2.1368,5.711 -2.1369,5.711 2.8777,2.088 c 1.5826,1.148 4.6848,3.479 6.894,5.179 l 4.0163,3.091 -0.1852,1.416 c -0.1026,0.778 -0.8092,3.102 -1.5709,5.163 l -1.3846,3.748 -2.3595,2.512 -2.3594,2.511 h -3.0803 -3.0803 l -3.2792,-1.999 c -1.8036,-1.099 -3.8835,-1.999 -4.6221,-1.999 -0.7386,0 -2.4888,-0.901 -3.8893,-2.003 -1.4007,-1.101 -3.1514,-1.991 -3.8908,-1.977 -0.7394,0.01 -3.8231,1.608 -6.8525,3.542 l -5.5084,3.517 -9.4744,2.967 -9.4744,2.968 -5.0474,-0.07 -5.0473,-0.07 -5.0075,-1.785 z m 24.3013,-24.237 4.4029,-2.131 0.4904,-1.278 0.4903,-1.278 -10.3356,-10.105 -10.3358,-10.105 h -1.2091 -1.2093 l -2.7967,3.687 c -1.5384,2.027 -4.2615,5.04 -6.0518,6.694 l -3.2548,3.007 v 1.355 1.354 l 4.2562,4.343 c 2.3412,2.388 5.1578,4.837 6.2595,5.441 l 2.003,1.099 6.444,0.03 6.4438,0.03 4.4029,-2.132 z m -5.3575,-61.551 7.732,-6.598 1.9312,-3.167 1.9314,-3.167 v -3.178 -3.178 l -2.4834,-2.952 -2.4835,-2.951 -3.008,-1.246 -3.0083,-1.246 -3.4615,0.649 -3.4615,0.65 -2.7161,3.22 c -1.4936,1.772 -3.3234,4.672 -4.0662,6.444 l -1.3512,3.223 v 3.879 3.879 l 1.4184,4.712 c 1.4086,4.681 3.1693,7.624 4.5605,7.624 0.3993,0 4.2055,-2.969 8.4581,-6.597 z"
       id="path4376-3"
       inkscape:connector-curvature="0"
       sodipodi:nodetypes="ccccscccccccccccccccccccccccccccccccccccccscccccccccccccccccccscssccccscscccccccccccccccccscsccccccccccccccccccccccccccccccccccccccccccccccscc"
       transform="matrix(0.9917888,0,0,0.98228177,3.86409,8.9014279)" />
    <path
       style="display:inline;opacity:1;fill:url(#linearGradient940);fill-opacity:1;stroke:#131110;stroke-width:4.19999981;stroke-miterlimit:4;stroke-dasharray:none;stroke-opacity:1;enable-background:new;filter:url(#filter4268)"
       d="m 746.01974,496.6801 c -5.39047,-5.33884 -5.76309,-6.03677 -5.76309,-10.794 0,-6.37771 2.06431,-9.37565 7.44367,-10.81029 2.38585,-0.63629 4.75801,-2.11658 5.51812,-3.44346 0.95638,-1.66952 1.43819,-10.66117 1.70449,-31.80875 l 0.37132,-29.48138 -6.19332,-1.34137 c -8.53434,-1.84838 -15.2068,-4.86992 -15.2068,-6.88621 0,-0.91707 -0.71587,-1.93946 -1.59063,-2.27193 -0.87486,-0.33251 -1.59063,-1.28432 -1.59063,-2.11516 0,-1.18509 0.8569,-1.34131 3.97657,-0.72498 5.78481,1.14283 8.01177,0.86305 14.57474,-1.83109 l 5.88765,-2.41689 -0.38442,-38.91866 c -0.21135,-21.40527 -0.75207,-40.44299 -1.20155,-42.30606 -0.96798,-4.01214 -3.75035,-4.83335 -16.7528,-4.94444 -10.22197,-0.0873 -10.68632,-1.52706 -2.65383,-8.22818 6.31899,-5.27168 8.10976,-6.28733 21.73109,-12.32491 6.83124,-3.02792 10.52665,-4.12655 12.19483,-3.62545 3.41692,1.02643 7.11718,4.65201 8.79449,8.61704 l 1.44395,3.41332 h 12.19414 c 18.67201,0 31.77126,4.55243 48.04394,16.69676 13.01613,9.71387 17.28083,17.37211 17.28083,31.03134 0,9.02178 -2.03158,16.39056 -7.25504,26.315 -5.0001,9.5 -20.02521,24.69696 -30.45535,30.8037 -7.59711,4.44797 -31.57737,13.83219 -35.34656,13.83219 -5.49174,0 -5.41418,-0.34113 -5.41418,23.81216 0,13.44893 0.44026,23.35201 1.09186,24.5578 1.27019,2.35059 6.37701,5.1931 9.32986,5.1931 1.12399,0 2.61624,0.68331 3.31604,1.51847 0.91275,1.08919 1.9695,1.25595 3.73835,0.5899 1.44901,-0.54563 5.3872,-0.51884 9.54944,0.0649 5.85255,0.82086 7.72138,0.69369 10.75476,-0.73196 2.67297,-1.25626 5.27295,-1.56178 9.56025,-1.12352 3.23889,0.33107 7.10111,0.14546 8.58274,-0.41245 3.30246,-1.24355 3.97341,-0.71686 2.51786,1.97664 -1.1717,2.16841 -6.48055,3.83106 -6.48055,2.02963 0,-0.57657 -2.36551,1.1431 -5.25668,3.82156 -2.89116,2.67842 -5.95876,4.86986 -6.81696,4.86986 -0.85819,0 -2.29351,0.72611 -3.18959,1.61357 -2.08732,2.06744 -7.58818,4.33761 -13.91024,5.74086 -2.73733,0.60758 -6.49215,2.24921 -8.34382,3.64805 -3.95525,2.98791 -12.03892,6.00454 -22.39647,8.35792 -4.0827,0.92762 -7.58203,2.14977 -7.77642,2.7159 -0.19439,0.56614 -2.49217,1.02934 -5.10622,1.02934 -4.33997,0 -5.25301,-0.49561 -10.51584,-5.70791 z m 46.01424,-110.32902 c 17.40302,-8.2602 34.53696,-23.59746 41.13652,-36.82292 3.42842,-6.87049 3.79964,-8.39574 3.34997,-13.76609 -0.46833,-5.59274 -0.86911,-6.36537 -5.41834,-10.4446 -6.08165,-5.45325 -12.54931,-7.26694 -25.62961,-7.18709 -10.28128,0.0628 -22.00214,2.57375 -25.13937,5.38568 -1.74674,1.5656 -1.90136,4.23611 -1.90136,32.83907 0,32.00201 0.20729,33.65548 4.21858,33.65548 0.92048,0 5.14312,-1.64681 9.38361,-3.65953 z m 577.05242,53.41241 c -9.4701,-1.85648 -19.52,-5.32639 -25.5147,-8.80939 -17.0104,-9.88332 -28.6675,-21.4622 -35.9335,-35.69222 -4.6822,-9.16988 -6.415,-14.75584 -9.9613,-32.11434 -2.4468,-11.97506 -2.5128,-13.20876 -1.181,-22.05539 3.4016,-22.59706 11.3575,-51.15076 18.4293,-66.14321 8.8239,-18.70719 27.7229,-45.65535 41.9662,-59.84038 11.218,-11.17183 19.1438,-17.03507 30.9962,-22.9297 l 9.7878,-4.86778 11.4207,0.006 c 10.7876,0.005 12.0253,0.23839 22.326,4.20102 14.6678,5.64252 14.6976,5.63852 15.6038,-2.09399 0.4456,-3.80358 1.5837,-7.35552 2.8797,-8.98731 1.9986,-2.51626 2.5458,-2.64943 8.1158,-1.97534 6.9617,0.84246 17.2216,5.57526 22.1443,10.21475 2.9255,2.75722 3.4394,3.97093 3.4002,8.0308 -0.086,8.90722 -1.6007,13.66563 -5.6606,17.78349 -4.4307,4.49404 -5.006,7.46775 -1.451,7.50255 1.3123,0.0129 3.5296,0.89431 4.9277,1.95881 l 2.5415,1.93547 -1.75,18.79821 c -3.1043,33.34568 -13.8236,79.15901 -18.5212,79.15901 -1.2793,0 -2.3093,-5.22698 -2.3093,-11.71783 0,-2.83455 -0.6698,-6.74106 -1.4881,-8.68112 -0.836,-1.98133 -1.8284,-9.67712 -2.2644,-17.55808 -0.7076,-12.78776 -1.1931,-15.23805 -5.4821,-27.66068 -9.0705,-26.27163 -19.0253,-41.52225 -27.0878,-41.49821 -8.5063,0.0254 -22.9375,9.42399 -37.5542,24.45797 -8.4118,8.65179 -11.2539,10.96698 -12.9304,10.53277 -1.4161,-0.36682 -3.073,0.35881 -4.8596,2.12836 -2.9098,2.88193 -3.3305,4.92259 -1.6542,8.02461 1.425,2.63718 0.3258,5.06483 -2.4719,5.45954 -1.7345,0.24471 -2.3286,1.09472 -2.4286,3.47473 -0.072,1.73292 -4.0761,11.42153 -8.8965,21.53026 -11.0181,23.10528 -19.6568,48.48795 -20.7318,60.91489 -0.6111,7.06329 -1.3073,9.62387 -3.3349,12.26417 -2.4167,3.14685 -2.4705,3.51376 -0.9431,6.43901 0.8908,1.70609 2.9931,4.24655 4.6716,5.64546 1.6786,1.3989 4.3954,4.88165 6.0373,7.73945 4.1569,7.23555 11.7612,14.85738 17.9624,18.00364 4.9764,2.52494 5.8994,2.633 18.5574,2.17296 12.1985,-0.44333 14.3477,-0.84275 25.5153,-4.74186 6.7072,-2.34177 13.9691,-5.01273 16.1374,-5.93545 2.1683,-0.9227 5.2474,-1.67766 6.8422,-1.67766 1.711,0 4.2248,-1.21512 6.1316,-2.96407 1.7774,-1.63026 6.6357,-4.24982 10.7965,-5.82132 4.1605,-1.57145 8.454,-3.83061 9.5411,-5.02036 1.0872,-1.1897 3.2478,-2.81423 4.8017,-3.60996 3.3098,-1.69517 3.0809,-4.1767 -0.7644,-8.28605 -2.3387,-2.49907 -3.1081,-2.65516 -13.0912,-2.65516 -8.8915,0 -11.7719,-0.44386 -17.8128,-2.74487 -17.7584,-6.76439 -21.1154,-7.70399 -27.6191,-7.73057 -3.6452,-0.0148 -6.6112,-0.38159 -6.5908,-0.81484 0.02,-0.43321 4.5667,-3.79106 10.1036,-7.46187 5.8775,-3.89663 12.5603,-9.4694 16.058,-13.39077 3.2949,-3.69411 6.5697,-6.71658 7.2771,-6.71658 0.7074,0 5.7434,2.89872 11.1912,6.44159 l 9.9049,6.44156 9.0337,-0.68682 c 4.9684,-0.37777 12.0722,-1.33899 15.7858,-2.13608 6.3737,-1.36803 7.1576,-1.31262 13.9904,0.98915 3.9814,1.34111 8.2143,2.18569 9.4067,1.87687 3.1846,-0.82482 3.7347,1.903 1.642,8.143 -1.4743,4.39654 -2.4726,5.66824 -5.4003,6.87979 -4.0795,1.68823 -4.301,2.87406 -1.8255,9.77731 l 1.7661,4.9252 -5.9328,10.46911 c -8.1719,14.42037 -21.1917,26.69881 -28.311,26.69881 -1.5966,0 -2.9607,1.56649 -5.0663,5.81852 -2.6772,5.40659 -3.73,6.33556 -14.8698,13.12103 -8.2883,5.04864 -15.4961,8.4691 -23.3525,11.08222 -10.404,3.46032 -12.5738,3.81003 -25.6798,4.13837 -7.8737,0.19724 -15.5087,0.12476 -16.9667,-0.16109 z M 488.55212,421.10702 c -8.01484,-2.98031 -14.05742,-11.12992 -15.17367,-20.46474 -0.50572,-4.22888 -0.21453,-5.41702 1.93408,-7.89093 2.05896,-2.37075 3.76533,-3.05677 9.17415,-3.68843 9.37538,-1.09482 10.20213,-2.20587 10.64963,-14.31144 0.35605,-9.63222 0.43857,-9.91853 2.69747,-9.35702 1.56117,0.38808 3.00006,-0.15392 4.36,-1.64226 2.41728,-2.64544 1.46358,-4.79935 -3.27707,-7.40098 l -3.08724,-1.69426 -0.28008,-32.00121 -0.28018,-32.0012 3.59583,0.41576 c 2.84623,0.32911 3.9614,-0.0975 5.34981,-2.04709 1.64269,-2.30664 1.63248,-2.56281 -0.16067,-4.03827 -1.05309,-0.86645 -3.5277,-3.81078 -5.49918,-6.54294 l -3.58462,-4.96756 0.89648,-17.08786 c 0.49302,-9.39831 0.92484,-21.42234 0.95975,-26.72007 0.0575,-8.71811 -0.17376,-9.88196 -2.43444,-12.26345 -1.37373,-1.44718 -5.19122,-3.6856 -8.48337,-4.97429 -3.29214,-1.28869 -7.02077,-3.26032 -8.2859,-4.38141 -3.63927,-3.2249 -6.79653,-11.71236 -6.99498,-18.80426 -0.16573,-5.92168 0.0565,-6.57531 3.17223,-9.33254 7.2478,-6.41385 40.74537,-14.167 66.42863,-15.37516 14.18367,-0.66722 32.27628,0.69112 45.73654,3.43375 9.8682,2.01075 27.13782,10.57743 34.59736,17.16227 9.69553,8.55863 21.90207,27.604 28.03529,43.74219 12.11411,31.87584 -2.62675,63.55656 -41.54425,89.28545 -14.16631,9.36555 -47.31884,23.72825 -64.08106,27.76188 -12.31048,2.96237 -14.72528,4.04332 -15.45365,6.91744 -1.00161,3.95269 0.0129,28.55728 1.22724,29.75922 0.60727,0.60112 3.36831,1.51188 6.1356,2.02394 2.76739,0.51204 5.88696,1.69772 6.9326,2.63488 1.317,1.18049 3.89198,1.70392 8.3825,1.70392 3.56489,0 6.71312,0.37096 6.99608,0.82439 0.64327,1.03089 32.68608,0.87504 34.38889,-0.16727 0.68622,-0.42002 2.92042,-0.3062 4.96499,0.25292 2.13274,0.58325 3.96448,0.62061 4.29703,0.0876 0.50482,-0.80893 6.66442,-0.25411 7.80636,0.70314 1.13471,0.95113 -2.67178,3.57735 -6.08998,4.20164 -2.12847,0.38878 -5.49738,1.56386 -7.48641,2.61133 -1.98904,1.04748 -3.98412,1.67943 -4.4335,1.40435 -0.44938,-0.27508 -2.0047,0.59002 -3.45638,1.92238 -1.51526,1.39087 -6.40121,3.44396 -11.47282,4.82089 -4.85837,1.3191 -10.40059,3.07237 -12.31583,3.89615 -1.91534,0.82378 -4.94883,1.49779 -6.74119,1.49779 -1.79226,0 -6.19015,1.36515 -9.77289,3.03366 -13.57263,6.32086 -48.83617,10.58762 -58.32918,7.05763 z m 71.43289,-114.03454 c 2.62448,-0.71627 7.79774,-2.66056 11.49603,-4.32062 6.06548,-2.72261 7.00054,-2.87855 9.54388,-1.59187 5.22871,2.64529 9.58772,-1.08845 8.1044,-6.94191 -0.92643,-3.65583 2.98856,-7.0454 5.99199,-5.18774 3.12454,1.93262 5.54549,-0.29681 4.72647,-4.35264 -0.52991,-2.62406 0.21353,-3.95375 5.31748,-9.51112 7.17807,-7.8157 14.72657,-20.18498 16.99886,-27.85503 2.33626,-7.88624 1.57595,-17.97647 -1.91921,-25.46806 -8.36713,-17.93461 -25.79811,-25.04649 -52.8913,-21.57972 -12.18204,1.55879 -15.85206,1.14565 -15.85206,-1.78448 0,-0.74854 -1.2442,-2.02047 -2.76491,-2.82654 -2.5489,-1.35108 -2.92855,-1.26544 -4.85917,1.09591 -1.31789,1.61192 -1.93607,3.62856 -1.66769,5.44003 0.34583,2.33347 -0.11604,3.10119 -2.43921,4.05423 -4.589,1.88264 -8.59524,6.78112 -9.58236,11.71658 -1.15068,5.75343 -2.60008,86.63245 -1.62168,90.49326 0.40128,1.58375 1.71034,3.23883 2.90892,3.67795 2.03634,0.74609 16.91287,-1.89332 28.50956,-5.05823 z M 667.6177,418.68516 c -15.57277,-2.04566 -21.35926,-7.09277 -28.07912,-24.49143 -4.51007,-11.67734 -4.67193,-12.50869 -5.10048,-26.19733 -0.82467,-26.34348 4.46484,-44.20832 18.67013,-63.05656 9.36189,-12.42187 15.04891,-17.45161 25.1717,-22.26229 15.44443,-7.33971 20.61447,-6.75899 33.49314,3.76207 7.61724,6.22282 12.63589,14.32432 14.58277,23.54062 1.4852,7.03079 1.52279,30.96378 0.0565,36.19208 -1.44315,5.14686 -4.07694,6.71914 -13.72893,8.19592 -11.25929,1.72267 -53.10399,12.53666 -55.68393,14.39049 -2.58262,1.85576 -3.23015,6.96662 -1.49254,11.78073 2.68735,7.44524 3.33935,8.70854 6.04961,11.72113 6.366,7.07627 15.21623,6.75324 31.2598,-1.14096 16.46096,-8.09964 21.79956,-11.0683 24.61524,-13.68818 1.55642,-1.44811 3.25029,-2.13118 4.29792,-1.73305 2.05667,0.78167 1.47112,4.67847 -1.87835,12.50039 -1.65688,3.86906 -2.57181,4.8815 -4.00454,4.43113 -2.30522,-0.72462 -7.68825,5.23626 -6.98993,7.74024 0.26352,0.94512 0.78916,2.78606 1.16803,4.09103 0.62304,2.14578 -0.25608,2.82428 -9.19448,7.09645 -13.06864,6.24614 -23.26493,8.43428 -33.21277,7.12752 z m 7.95316,-77.03203 c 18.81453,-4.16441 27.20887,-6.96405 29.1622,-9.72614 1.19828,-1.69446 1.57754,-5.2311 1.53916,-14.35521 -0.0615,-14.61242 -1.68823,-19.26687 -6.91089,-19.77301 -7.82317,-0.75817 -27.9065,17.68388 -36.76277,33.75827 -2.76045,5.01047 -5.33602,10.36066 -5.72342,11.88932 -0.64377,2.54044 -0.48578,2.71903 1.83789,2.0774 1.39812,-0.38609 8.98421,-2.12789 16.85783,-3.87063 z m 267.22622,74.94273 c -3.13137,-1.18696 -5.32868,-3.87788 -6.40785,-7.84743 -0.6033,-2.21883 -1.68941,-4.03424 -2.41361,-4.03424 -0.72441,0 -5.35864,1.68888 -10.29834,3.75311 -37.24544,15.56397 -63.28347,6.87101 -61.20904,-20.43516 1.00657,-13.2499 9.0583,-26.42877 20.91752,-34.2372 10.35904,-6.82062 27.72556,-14.7433 37.90835,-17.29385 4.7955,-1.20116 9.98592,-2.66097 11.53431,-3.24402 l 2.81519,-1.06007 -0.71558,-8.63987 c -0.83994,-10.14022 -3.10926,-18.84615 -5.40426,-20.73258 -0.89647,-0.73689 -2.92934,-1.30689 -4.51749,-1.26662 -1.58806,0.0403 -5.18706,0.12533 -7.99779,0.18906 -6.48015,0.14687 -17.87749,5.52451 -28.17186,13.29241 -4.12128,3.10985 -7.93709,5.65427 -8.47959,5.65427 -0.54251,0 -2.75728,2.44143 -4.92186,5.42543 -3.37704,4.65559 -4.08071,5.16839 -4.95904,3.61393 -1.1714,-2.07308 2.5249,-12.20263 7.80131,-21.37913 6.281,-10.92376 23.20925,-22.28995 36.35293,-24.40865 14.11425,-2.27513 28.76207,4.73262 35.04506,16.76617 3.86976,7.4113 6.82261,31.63403 6.88529,56.47867 0.0218,8.62207 0.68622,10.09278 3.20308,7.08925 0.72599,-0.86648 2.03843,-1.57538 2.91636,-1.57538 2.4033,0 0.91135,7.61185 -2.93659,14.98149 -2.85496,5.46825 -4.15778,11.2749 -2.52946,11.2749 0.34752,0 1.89829,-0.88347 3.44637,-1.96327 1.54808,-1.07978 5.67789,-3.23858 9.17732,-4.79733 3.49933,-1.55874 7.62913,-3.51097 9.17712,-4.33828 1.54808,-0.8273 3.09894,-1.50419 3.44646,-1.50419 1.61821,0 0.27761,3.53114 -3.46035,9.11548 -4.48308,6.6975 -5.65656,9.60379 -5.97671,14.80202 -0.28554,4.63681 -3.57104,7.81017 -12.58868,12.15927 -7.53968,3.63624 -14.61867,5.30652 -17.63857,4.16181 z m -37.33519,-24.02277 c 13.65395,-2.73716 27.18939,-9.98546 30.50494,-16.33556 3.60198,-6.89872 0.35219,-16.68435 -5.54092,-16.68435 -1.78155,0 -2.85834,-0.70074 -3.22798,-2.10053 -0.66767,-2.52892 -2.15397,-2.67176 -4.6375,-0.44571 -1.0154,0.91013 -2.48453,1.76693 -3.26477,1.904 -5.99676,1.05349 -13.61221,4.1847 -15.78333,6.48951 -1.43105,1.51923 -5.34733,4.67555 -8.70275,7.01409 -7.71919,5.37965 -12.84515,12.6618 -11.97972,17.01871 0.3386,1.70423 1.20483,3.46928 1.92506,3.92238 2.13572,1.34356 11.95165,0.97259 20.70697,-0.78254 z m 607.71591,22.77614 c -2.6938,-0.93932 -6.9886,-3.42371 -9.5438,-5.52088 -3.7739,-3.09752 -4.9941,-5.01044 -6.5016,-10.19452 -2.2499,-7.73738 -2.3616,-13.74273 -0.3443,-18.52446 0.8311,-1.97038 2.0577,-7.27211 2.7253,-11.78165 0.6676,-4.50953 1.8678,-12.2164 2.6672,-17.12637 1.4058,-8.6369 1.9458,-14.69837 3.3469,-37.57891 0.3639,-5.93856 1.0593,-11.04102 1.5458,-11.33881 0.4866,-0.29781 1.8719,-0.0181 3.0788,0.62154 1.8483,0.97966 2.7779,0.65533 5.8974,-2.05751 3.2583,-2.83336 4.2399,-3.14617 8.1669,-2.60224 2.4551,0.34006 5.0601,0.80033 5.7891,1.02286 2.2466,0.68573 1.5069,9.04268 -1.7727,20.02626 -1.7041,5.70711 -3.4241,14.39379 -3.8223,19.30374 -0.398,4.90996 -1.8503,14.36226 -3.2271,21.00512 -2.9366,14.16788 -4.1743,25.0465 -3.2605,28.65308 1.8404,7.26251 22.8978,5.61067 40.1769,-3.15173 5.0994,-2.58597 10.394,-6.02287 11.7659,-7.63758 2.5435,-2.99379 4.1206,-10.15931 5.6078,-25.47813 0.3782,-3.89906 1.0994,-7.08922 1.6022,-7.08922 1.358,0 1.1073,-6.0591 -0.2859,-6.91193 -1.5,-0.91815 -0.5853,-29.58734 1.1234,-35.20662 l 1.1504,-3.78423 11.2784,-0.72219 c 10.7017,-0.68524 11.4062,-0.60323 13.7786,1.60422 3.0446,2.83269 3.1878,6.06275 0.4234,9.54349 -1.6974,2.13723 -2.1894,4.89863 -2.6906,15.10779 -0.3374,6.87091 -1.035,15.32824 -1.5503,18.79409 -0.5154,3.46584 -1.2645,11.50029 -1.6644,17.85437 -0.4518,7.1765 -1.4877,13.54205 -2.7346,16.80411 -2.4325,6.3639 -2.5059,7.87691 -0.3824,7.87691 1.8636,0 11.33,-4.57083 15.5046,-7.48648 1.5482,-1.0812 4.0535,-1.96581 5.5672,-1.96581 3.824,0 3.6258,3.19424 -0.6028,9.72083 -1.8453,2.84824 -3.7197,7.46224 -4.1653,10.25335 -0.4453,2.7911 -1.6111,6.2859 -2.5906,7.76625 -3.5293,5.33501 -18.7472,12.13336 -27.2148,12.15794 -3.2086,0.01 -4.4147,-0.62779 -6.6276,-3.50113 -1.4877,-1.93184 -2.705,-4.23705 -2.705,-5.12267 0,-3.80221 -2.6613,-4.06109 -10.1862,-0.99088 -14.6527,5.97844 -23.9267,8.37554 -34.3513,8.87917 -7.5972,0.36703 -11.2785,0.0668 -14.9721,-1.22117 z m -525.66066,-3.22257 c -2.38278,-2.43174 -4.64792,-5.44882 -5.03383,-6.70461 -0.3859,-1.25579 -1.29686,-2.99219 -2.02434,-3.85863 -2.25185,-2.68195 -2.81926,-7.0519 -1.13252,-8.72244 1.20185,-1.19048 3.60376,-1.40585 11.01252,-0.98747 l 9.47547,0.53508 0.40446,-22.15803 c 0.2867,-15.70987 0.7853,-22.53533 1.7133,-23.45445 0.9272,-0.91842 1.309,-6.11109 1.309,-17.80984 0,-15.90522 -0.094,-16.62399 -2.5487,-19.51339 -1.76839,-2.08134 -2.38717,-3.83701 -2.021,-5.73386 0.69713,-3.61216 -1.23736,-4.63252 -4.62056,-2.43703 -2.08444,1.35268 -3.27082,1.5164 -4.99048,0.68882 -1.24073,-0.59712 -4.04541,-1.62784 -6.2325,-2.29054 -4.67857,-1.4176 -4.96589,-2.92655 -1.256,-6.60074 3.12949,-3.09943 18.87044,-9.05893 25.91074,-9.80973 9.8408,-1.04947 15.9017,5.30732 15.9048,16.6813 8e-4,3.32145 0.3941,6.03898 0.8737,6.03898 0.4797,0 3.6085,-3.06778 6.9529,-6.81727 7.4823,-8.38877 13.7945,-12.25154 20.176,-12.34707 6.6086,-0.0989 11.1526,1.91861 10.4357,4.63358 -0.4832,1.82996 -0.1165,2.07092 2.705,1.77781 4.6651,-0.48467 7.9982,3.07067 13.5608,14.46509 5.2314,10.71618 5.3239,11.211 3.0904,16.50536 -0.8749,2.07373 -1.5907,5.67608 -1.5907,8.00517 0,3.12438 -0.4309,4.23476 -1.6432,4.23476 -2.3509,0 -7.9793,2.97316 -11.1116,5.86952 -2.4653,2.27972 -3.0194,2.379 -6.8927,1.23505 -2.3165,-0.68416 -4.4505,-1.49917 -4.742,-1.81118 -0.2917,-0.31198 -1.4847,-1.08624 -2.6512,-1.72057 -3.1374,-1.70622 -4.8686,-5.63248 -3.555,-8.06323 0.988,-1.82842 1.2294,-1.70075 2.8475,1.50578 1.8733,3.71241 3.9994,4.63052 8.2663,3.56985 2.8591,-0.71069 6.757,-8.10571 6.757,-12.81928 0,-3.66541 -1.9876,-6.94591 -3.7929,-6.25983 -0.9783,0.37185 -1.5093,-0.12682 -1.5093,-1.4177 0,-3.33711 -4.983,-6.34659 -10.4821,-6.33046 -2.6917,0.009 -5.9908,0.30533 -7.3315,0.66099 -2.6315,0.6981 -6.1855,6.79246 -10.3027,17.66694 -3.0509,8.05799 -7.944,36.76432 -8.0529,47.2425 -0.1,9.62307 1.4078,12.47529 8.1575,15.43233 3.2312,1.41562 4.6824,2.68723 4.6824,4.10279 0,2.46278 2.3863,2.69025 4.2973,0.40961 1.2477,-1.4888 1.4623,-1.4888 2.3034,0 1.1562,2.04609 4.3958,2.12928 6.0499,0.1554 1.4934,-1.78231 7.3283,-0.5097 9.2051,2.00767 0.6474,0.86858 2.1983,1.57922 3.4464,1.57922 2.6875,0 2.9772,2.31138 0.5406,4.31422 -2.2444,1.84483 -12.8057,5.10274 -16.6061,5.12262 -1.6272,0.009 -4.9675,1.04741 -7.4231,2.30868 -3.442,1.76801 -7.2574,2.46696 -16.6593,3.0518 -6.7072,0.41724 -16.5474,1.10266 -21.8672,1.52318 l -9.67253,0.76457 z m 711.75556,2.27752 c -3.5715,-2.87056 -8.8785,-10.83653 -8.8785,-13.32698 0,-3.2863 5.1575,-7.63364 10.0741,-8.4918 8.3727,-1.46138 7.9531,0.78518 7.9531,-42.59563 0,-23.72786 -0.4425,-40.68838 -1.1465,-43.93865 -1.288,-5.94932 -4.1055,-8.78481 -10.6618,-10.73029 -4.1749,-1.23888 -5.1514,-2.94 -2.7724,-4.83051 1.3229,-1.05148 19.6829,-4.4551 24.0318,-4.4551 3.4445,0 10.7268,7.24968 11.6181,11.56615 1.1316,5.47951 3.3663,4.97181 8.6545,-1.96611 3.6122,-4.73909 6.3027,-6.98666 11.3078,-9.44581 6.4146,-3.15172 6.6869,-3.19195 11.673,-1.72541 6.4801,1.90592 13.154,6.74351 15.6591,11.3503 1.848,3.39881 1.8652,4.28932 0.3408,17.64275 -1.5956,13.97583 -1.6384,14.11547 -6.9027,22.4653 -2.9135,4.62114 -5.9617,8.40205 -6.7736,8.40205 -1.1259,0 -1.6113,-2.49583 -2.0425,-10.50257 -0.654,-12.14121 -2.2446,-15.97554 -8.0307,-19.35669 -6.3398,-3.70464 -7.8994,-2.81382 -11.7471,6.70909 -5.4787,13.56068 -11.8249,53.58918 -9.488,59.84639 2.7451,7.35039 2.2928,7.16801 14.5403,5.86291 6.0773,-0.64762 12.8499,-1.56404 15.0504,-2.03655 2.4273,-0.52112 4.2513,-0.45824 4.6369,0.15991 0.3498,0.56044 -2.7234,4.39677 -6.8296,8.52517 -4.1056,4.12839 -8.1656,9.20641 -9.0218,11.28451 -2.7125,6.58396 -6.4117,7.92097 -25.6595,9.27475 -9.3318,0.65636 -18.3983,1.40318 -20.148,1.65966 -2.0216,0.29632 -4.0036,-0.1946 -5.4372,-1.34684 z m 260.4684,0.81226 c -14.5532,-1.23482 -23.446,-10.04901 -26.9187,-26.68154 -1.3326,-6.38116 -1.7125,-14.56713 -1.7125,-36.88511 0,-15.77609 -0.2897,-29.43139 -0.6438,-30.34509 -0.5103,-1.31751 -2.3476,-1.66129 -8.8785,-1.66129 h -8.2348 l -4.4633,-4.79564 c -2.7178,-2.92023 -4.2249,-5.41059 -3.8541,-6.36807 0.3352,-0.86482 -0.1,-2.93038 -0.9664,-4.59013 -0.8664,-1.65973 -1.3289,-3.65415 -1.0275,-4.43206 0.8161,-2.1063 15.1854,-8.96607 20.4926,-9.78282 8.6108,-1.32524 8.7276,-1.68924 8.594,-26.74945 -0.07,-13.30749 -0.5833,-23.2088 -1.2982,-25.08483 -1.3276,-3.48313 0.2179,-6.44827 3.3259,-6.3815 2.7082,0.0582 14.6498,7.6643 17.3285,11.03722 2.2101,2.78259 2.4742,4.47803 3.0585,19.6227 0.5371,13.92581 0.9454,16.91193 2.5528,18.6713 2.4534,2.68485 4.1016,2.62504 10.6295,-0.38572 3.4482,-1.59027 8.4962,-2.73281 14.2835,-3.23279 4.9226,-0.42532 10.1581,-1.37992 11.6338,-2.12135 1.4757,-0.74141 5.6869,-1.62939 9.3579,-1.97325 5.5588,-0.52071 6.7846,-0.34042 7.3345,1.07852 0.454,1.17176 -0.6325,2.71854 -3.4799,4.95376 -2.2769,1.7875 -9.6506,8.02246 -16.3861,13.85545 -9.0525,7.84011 -13.8316,11.19311 -18.3279,12.85924 -3.3451,1.23958 -8.3864,3.41035 -11.203,4.8239 l -5.121,2.5701 -0.6969,30.78194 c -0.7868,34.74285 -0.2101,41.70307 3.7826,45.65747 2.5307,2.50634 2.8454,2.56574 5.7347,1.08182 1.6815,-0.86358 9.3957,-7.52483 17.143,-14.80273 14.8993,-13.99663 19.0845,-16.3187 17.6967,-9.81922 -1.6984,7.95657 -4.6882,14.42318 -8.0397,17.38893 -3.1131,2.75501 -3.3821,3.40362 -2.3458,5.65678 1.8948,4.11832 -2.6517,12.2357 -10.4827,18.71642 -8.836,7.31247 -10.6846,8.03133 -18.8677,7.33704 z m -137.5684,-1.60621 c -5.4585,-1.70218 -14.4089,-7.93936 -19.5479,-13.6222 -4.8182,-5.32801 -10.8688,-17.25169 -12.4175,-24.47014 -1.616,-7.53312 -1.4442,-26.28071 0.3293,-35.91961 1.4137,-7.68195 6.2512,-21.92179 9.6758,-28.48075 4.1261,-7.90222 15.2427,-17.14339 28.5668,-23.74731 15.4704,-7.66766 41.1448,-3.40349 50.5157,8.3899 1.5382,1.93587 4.2199,6.32925 5.9593,9.76308 9.8486,19.44224 12.1359,38.04142 7.2901,59.28125 -1.8081,7.92444 -3.3612,12.43913 -4.5164,13.12822 -0.9686,0.57762 -2.8794,1.99547 -4.2459,3.15076 -2.3784,2.01041 -2.4139,2.24232 -0.8271,5.40806 1.5874,3.16684 1.5361,3.49849 -1.203,7.79604 -4.4288,6.94822 -11.9024,14.33518 -17.9984,17.78952 -5.4998,3.11659 -5.6568,3.13894 -21.318,3.03585 -9.8994,-0.0651 -17.4482,-0.62495 -20.2628,-1.50267 z m 30.6829,-22.69139 c 9.7573,-2.14133 16.9718,-13.71748 18.4211,-29.55714 0.3951,-4.3168 0.3469,-16.53276 -0.1071,-27.14658 l -0.8252,-19.29786 -8.8453,-6.56409 c -9.8445,-7.30583 -11.8046,-7.74901 -21.6581,-4.89705 -9.4744,2.74224 -19.0563,13.81022 -21.6975,25.06218 -0.8016,3.41609 -3.0064,7.85863 -5.6766,11.43859 -4.9271,6.60553 -5.1999,8.00045 -2.3519,12.02443 1.1077,1.56512 2.2772,5.31858 2.5989,8.34101 0.7373,6.9273 9.5847,25.1328 13.592,27.96773 6.3623,4.50139 14.3936,5.2966 26.5497,2.62878 z m -221.8367,19.05548 c -2.3116,-2.47987 -4.5086,-5.50498 -4.8821,-6.72245 -0.3736,-1.21749 -1.2744,-2.92252 -2.002,-3.78896 -2.3604,-2.81136 -2.8165,-7.05474 -0.9559,-8.8974 1.3025,-1.28999 2.8132,-1.53426 6.2931,-1.01743 l 4.579,0.68008 1.2567,-4.57237 c 0.6911,-2.51481 1.1759,-8.44891 1.0774,-13.1869 -0.1264,-6.08843 0.3124,-9.55595 1.4971,-11.8249 1.2993,-2.48835 1.4106,-3.70181 0.4952,-5.39583 -1.6151,-2.98871 -1.4699,-9.05169 0.5066,-21.15242 0.9187,-5.62577 1.6703,-12.18659 1.6703,-14.57962 0,-2.62332 0.9083,-5.80625 2.2873,-8.01616 2.0024,-3.20876 2.1293,-4.09722 1.0207,-7.13406 -1.4502,-3.97208 -0.1382,-17.64872 2.528,-26.35303 0.8602,-2.80822 1.5691,-7.62935 1.5755,-10.71364 0.01,-3.0843 1.3977,-11.59142 3.0917,-18.90466 1.6941,-7.31325 3.1164,-15.65992 3.1609,-18.54812 0.045,-2.8882 0.4532,-10.05547 0.9078,-15.92727 l 0.8269,-10.676 -2.8579,1.67202 c -2.0643,1.20773 -3.2452,1.36248 -4.253,0.55726 -0.7672,-0.6131 -2.9129,-1.43599 -4.7681,-1.82865 -10.1632,-2.15106 -4.6869,-8.69153 11.8152,-14.11114 8.9403,-2.93607 11.4327,-3.35533 16.4249,-2.76278 7.5779,0.8995 17.3315,3.63799 18.3209,5.14396 1.1452,1.74292 -0.1485,4.94474 -3.5651,8.82454 -1.6711,1.89742 -3.0384,4.15718 -3.0384,5.02168 0,0.86448 -0.8349,1.88215 -1.8556,2.26143 -4.3242,1.60697 -5.9268,7.50255 -2.9307,10.78135 1.7273,1.89031 1.7581,1.62608 -3.188,27.32258 -1.3898,7.22052 -3.0527,17.85442 -3.6952,23.63081 -2.6625,23.93482 -5.542,44.94509 -7.9941,58.32658 -1.7855,9.74263 -2.6052,18.024 -2.6052,26.31824 0,9.01533 -0.397,12.62246 -1.5568,14.14111 -2.2141,2.89925 -2.1942,15.49165 0.029,17.31775 0.9086,0.74679 2.2997,2.89341 3.0913,4.77023 1.8901,4.47976 5.2451,6.29711 8.7256,4.72646 3.4498,-1.55681 4.5583,-0.69073 4.5583,3.56171 0,2.93434 -0.9132,4.32379 -5.3945,8.20621 -5.8765,5.09132 -6.6997,5.29933 -26.4829,6.6901 l -9.5094,0.66853 z m -562.2969,-6.0561 c -2.1636,-0.47606 -2.2253,-0.75866 -0.7579,-3.47411 1.0428,-1.92978 5.208,-2.7879 6.6414,-1.36826 0.893,0.88449 -0.9678,4.22348 -2.6727,4.79581 -0.7453,0.25018 -2.19,0.27112 -3.2108,0.0466 z"
       id="path8305"
       inkscape:connector-curvature="0"
       sodipodi:nodetypes="cscsccsscscccccccccccscsccsscscccccccscscscccsccccccscssccccccsccccccccccccccsssccccccccccccccccccscscccccscccccsccccccccccsscsccccccccccccccccccccccccccscscssccccscccccccscccscccccccccccccsccccccccccccscsccsccccccscccccsccscccsccscccscccccccscccscccscscccsccccccscccccccccccccccccccccccccccscccccccsscscscccccsscccsccccccsccscccccscsccccsscccccccscscccccsccccsccccccccscscccscccccccsccccccccccccccscscccccccccccccccccccccccccccccccccccccccccccccccccccccccsccccccccccccccscccccccccccccccscccccsccccscsccccccc" />
  </g>
</svg>
