<?xml version="1.0" encoding="UTF-8" standalone="no"?>
<!-- Created with Inkscape (http://www.inkscape.org/) -->

<svg
   xmlns:dc="http://purl.org/dc/elements/1.1/"
   xmlns:cc="http://creativecommons.org/ns#"
   xmlns:rdf="http://www.w3.org/1999/02/22-rdf-syntax-ns#"
   xmlns:svg="http://www.w3.org/2000/svg"
   xmlns="http://www.w3.org/2000/svg"
   xmlns:xlink="http://www.w3.org/1999/xlink"
   xmlns:sodipodi="http://sodipodi.sourceforge.net/DTD/sodipodi-0.dtd"
   xmlns:inkscape="http://www.inkscape.org/namespaces/inkscape"
   id="svg2"
   version="1.1"
   inkscape:version="0.92.3 (2405546, 2018-03-11)"
   width="2481"
   height="3503"
   sodipodi:docname="E28P05.svg">
  <metadata
     id="metadata8">
    <rdf:RDF>
      <cc:Work
         rdf:about="">
        <dc:format>image/svg+xml</dc:format>
        <dc:type
           rdf:resource="http://purl.org/dc/dcmitype/StillImage" />
        <dc:title />
      </cc:Work>
    </rdf:RDF>
  </metadata>
  <defs
     id="defs6" />
  <sodipodi:namedview
     pagecolor="#ffffff"
     bordercolor="#666666"
     borderopacity="1"
     objecttolerance="10"
     gridtolerance="10"
     guidetolerance="10"
     inkscape:pageopacity="0"
     inkscape:pageshadow="2"
     inkscape:window-width="1201"
     inkscape:window-height="777"
     id="namedview4"
     showgrid="false"
     inkscape:zoom="0.36415091"
     inkscape:cx="1467.8787"
     inkscape:cy="543.67368"
     inkscape:window-x="71"
     inkscape:window-y="-8"
     inkscape:window-maximized="1"
     inkscape:current-layer="layer1" />
  <g
     inkscape:groupmode="layer"
     id="layer2"
     inkscape:label="artwork"
     sodipodi:insensitive="true">
    <image
       sodipodi:absref="../gfx_Pepper-and-Carrot_by-David-Revoy_E28P05.png"
       xlink:href="../gfx_Pepper-and-Carrot_by-David-Revoy_E28P05.png"
       width="2481"
       height="3503"
       id="image10"
       x="0"
       y="0" />
  </g>
  <g
     inkscape:groupmode="layer"
     id="layer3"
     inkscape:label="speechbubbles">
    <path
       style="fill:#ffffff;fill-rule:evenodd;stroke:none;stroke-width:1.01922131px;stroke-linecap:butt;stroke-linejoin:miter;stroke-opacity:1"
       d="m 157.52442,195.19192 c 24.20553,-27.24656 60.20542,-23.32139 95.32605,-32.17006 32.86157,-8.4302 67.10176,-8.63149 100.81265,-6.8014 42.74906,2.41407 86.04868,5.38632 127.27554,17.32798 12.60467,3.49176 24.47312,9.86603 32.3106,20.27182 33.18909,35.23604 16.45071,126.67315 38.9411,195.04836 -3.33899,71.37492 12.46682,77.47622 7.71896,148.7841 -1.44125,23.48048 -7.06886,68.69454 -24.78355,85.95363 -20.34309,20.74226 -47.31577,14.28812 -76.05847,20.50261 -45.73102,10.50029 -93.01103,14.20612 -139.93635,13.40609 -18.34055,-1.92403 -36.67219,-4.49028 -54.95913,-7.04715 -39.18493,-6.53137 -90.97681,13.13624 -119.07822,-16.17582 -22.312,-23.37088 -7.48214,-80.65642 -9.7767,-112.16321 0.17359,-66.25744 -1.06076,-111.83847 1.9699,-178.01204 1.08057,-17.86283 6.0589,-58.61422 12.62961,-75.68395 5.9832,-18.68987 -3.72509,-56.95724 7.60801,-73.24096 z"
       id="path1006"
       inkscape:connector-curvature="0"
       sodipodi:nodetypes="cccccccccccccccc" />
    <path
       style="fill:#ffffff;fill-rule:evenodd;stroke:none;stroke-width:1px;stroke-linecap:butt;stroke-linejoin:miter;stroke-opacity:1"
       d="M 333.27358,346.17986 C 395.90659,299.25879 684.65819,123.37673 1012.4941,266.75583 759.55842,143.42811 491.69794,181.66189 330.00219,300.24071 Z"
       id="path1008"
       inkscape:connector-curvature="0"
       sodipodi:nodetypes="cccc" />
    <path
       style="fill:#ffffff;fill-rule:evenodd;stroke:none;stroke-width:1px;stroke-linecap:butt;stroke-linejoin:miter;stroke-opacity:1"
       d="m 1819.6761,521.16397 c 116.7092,-13.15033 182.4608,-4.93138 226.8431,52.60129 44.3824,57.53267 34.5196,90.40848 23.0131,80.54574 -11.5065,-9.86274 -23.0131,-151.22873 -249.8562,-133.14703 z"
       id="path1011"
       inkscape:connector-curvature="0" />
    <path
       style="fill:#ffffff;fill-rule:evenodd;stroke:none;stroke-width:1px;stroke-linecap:butt;stroke-linejoin:miter;stroke-opacity:1"
       d="m 2110.627,552.39599 c 87.1209,1.64379 133.1471,13.15032 151.2288,29.58823 18.0817,16.4379 42.7385,60.82025 34.5196,87.12089 -8.219,26.30065 -39.451,69.03921 -129.8595,65.75163 -90.4085,-3.28759 -156.1601,-19.72549 -177.5294,-52.6013 -21.3692,-32.87581 8.219,-101.91501 42.7386,-113.42155 34.5196,-11.50653 39.451,-14.79411 78.9019,-16.4379 z"
       id="path1013"
       inkscape:connector-curvature="0" />
    <path
       style="fill:#ffffff;fill-rule:evenodd;stroke:none;stroke-width:1.01573205px;stroke-linecap:butt;stroke-linejoin:miter;stroke-opacity:1"
       d="m 1995.6908,715.98731 c 56.6629,-55.68061 125.4767,-51.96857 143.8923,-48.25653 18.4153,3.71205 64.5919,9.37062 99.0743,12.99215 15.9446,1.67457 74.4019,37.23306 78.5948,98.36906 2.5395,37.02892 0,74.24081 -39.664,89.08897 -39.6639,14.84816 -97.9996,14.84816 -147.5795,12.99214 -49.58,-1.85602 -105.9865,0 -135.7345,-33.40837 -29.7479,-33.40836 -38.2474,-79.80886 1.4166,-131.77742 z"
       id="path1015"
       inkscape:connector-curvature="0"
       sodipodi:nodetypes="cssssssc" />
    <path
       style="fill:#ffffff;fill-rule:evenodd;stroke:none;stroke-width:1.00780845px;stroke-linecap:butt;stroke-linejoin:miter;stroke-opacity:1"
       d="m 328.74674,1054.2004 c 90.05114,1.4518 161.52029,1.4518 181.53165,15.9696 20.01137,14.5181 81.90626,34.4724 75.56846,104.4834 -2.87954,31.8089 6.33781,85.1152 -32.47125,91.2155 -27.15828,21.777 -87.40808,23.5219 -136.00711,30.7809 -48.59902,7.2589 -145.79707,7.2589 -178.67288,0 -32.87581,-7.259 -101.70191,-38.6578 -108.84883,-63.3384 -7.14691,-24.6806 -8.06388,-83.4163 0.51242,-108.0968 8.5763,-24.6805 59.73739,-50.6891 101.18949,-59.3998 41.45211,-8.7108 97.19805,-11.6144 97.19805,-11.6144 z"
       id="path1017"
       inkscape:connector-curvature="0"
       sodipodi:nodetypes="ccscsssssc" />
    <path
       style="fill:#ffffff;fill-rule:evenodd;stroke:none;stroke-width:1px;stroke-linecap:butt;stroke-linejoin:miter;stroke-opacity:1"
       d="m 464.5495,1496.1462 c 57.17532,-75.7573 57.17532,-148.6559 4.28815,-244.4245 -52.88717,-95.7687 -80.04545,-97.1981 -80.04545,-97.1981 l -4.28815,52.8872 c 0,0 168.6672,128.6445 80.04545,288.7354 z"
       id="path1019"
       inkscape:connector-curvature="0" />
    <path
       style="fill:#ffffff;fill-rule:evenodd;stroke:none;stroke-width:0.86218053px;stroke-linecap:butt;stroke-linejoin:miter;stroke-opacity:1"
       d="m 1928.7492,1181.1935 c -3.3611,-40.2301 84.0514,-74.01 198.8715,-74.2987 114.8199,-0.2885 214.6634,16.5365 214.0332,58.0871 -0.6302,41.5504 -20.2592,76.6183 -167.8989,76.8203 -147.6398,0.202 -238.8088,-10.9811 -245.0058,-60.6087 z"
       id="path1021"
       inkscape:connector-curvature="0" />
    <path
       style="fill:#ffffff;fill-rule:evenodd;stroke:none;stroke-width:1.24438989px;stroke-linecap:butt;stroke-linejoin:miter;stroke-opacity:1"
       d="m 2252.5277,1235.3073 c 9.6724,34.2429 -3.7615,126.1584 -16.6581,142.3788 -8.9785,17.5345 4.9225,24.922 9.6724,23.4295 4.2989,-4.5056 37.6151,-27.935 42.9887,-14.4183 5.3736,13.5171 -48.8996,79.2998 -42.9887,88.3111 5.911,9.0113 27.9427,-12.6159 30.6294,-5.4068 2.6868,7.2089 -4.2988,27.034 -16.6581,39.6498 20.957,-10.8137 30.0921,-28.8361 25.7932,-41.452 -4.2988,-12.6158 -12.3592,-10.8137 -17.7328,-9.0113 10.2098,-13.5171 49.9875,-59.255 39.7777,-83.5856 -10.2098,-24.3305 -36.0426,-18.704 -41.9536,-14.1983 14.5087,-19.8249 28.0737,-83.4101 21.6254,-132.9722 -6.4483,-49.5623 -34.4955,7.2753 -34.4955,7.2753 z"
       id="path1023"
       inkscape:connector-curvature="0"
       sodipodi:nodetypes="ccccsccccccsc" />
    <path
       style="fill:#ffffff;fill-rule:evenodd;stroke:none;stroke-width:1px;stroke-linecap:butt;stroke-linejoin:miter;stroke-opacity:1"
       d="m 826.50706,2344.762 c 9.78488,-40.2573 52.11355,-55.2416 84.72982,-52.849 32.61627,2.3928 81.25075,23.5682 76.17711,56.2586 -5.07364,32.6904 -43.85076,50.2768 -71.17595,51.6227 -27.32519,1.3458 -89.15114,-3.9181 -89.73098,-55.0323 z"
       id="path1025"
       inkscape:connector-curvature="0" />
    <path
       style="fill:#ffffff;fill-rule:evenodd;stroke:none;stroke-width:1px;stroke-linecap:butt;stroke-linejoin:miter;stroke-opacity:1"
       d="m 891.05439,2384.5928 c 8.97846,20.1058 2.08504,29.2013 -7.53169,42.2988 -9.61674,13.0974 -3.91478,26.6928 6.89341,31.8628 10.80819,5.1701 22.50997,25.1418 21.87169,42.5477 -2.42546,-50.8389 -20.08451,-46.2816 -21.10575,-59.2259 -1.02125,-12.9442 20.21215,-24.3759 22.42485,-32.7054 2.2127,-8.3295 0.51063,-29.1055 -5.14877,-40.9009 -5.65941,-11.7954 -17.40374,16.1229 -17.40374,16.1229 z"
       id="path1027"
       inkscape:connector-curvature="0"
       sodipodi:nodetypes="cccccssc" />
  </g>
  <g
     inkscape:groupmode="layer"
     id="layer1"
     inkscape:label="txt">
    <text
       xml:space="preserve"
       style="font-style:normal;font-variant:normal;font-weight:normal;font-stretch:normal;font-size:42.66666794px;line-height:0%;font-family:Lavi;-inkscape-font-specification:'Lavi, Normal';font-variant-ligatures:normal;font-variant-caps:normal;font-variant-numeric:normal;font-feature-settings:normal;text-align:center;letter-spacing:0px;word-spacing:0px;writing-mode:lr-tb;text-anchor:middle;fill:#000000;fill-opacity:1;stroke:none"
       x="345.33951"
       y="244.85474"
       id="text4246"><tspan
         sodipodi:role="line"
         style="font-style:normal;font-variant:normal;font-weight:normal;font-stretch:normal;font-size:45px;line-height:1.20000005;font-family:Lavi;-inkscape-font-specification:'Lavi, Normal';font-variant-ligatures:normal;font-variant-caps:normal;font-variant-numeric:normal;font-feature-settings:normal;text-align:center;writing-mode:lr-tb;text-anchor:middle"
         x="345.33951"
         y="244.85474"
         id="tspan4252">Все мои подружки</tspan><tspan
         sodipodi:role="line"
         style="font-style:normal;font-variant:normal;font-weight:normal;font-stretch:normal;font-size:45px;line-height:1.20000005;font-family:Lavi;-inkscape-font-specification:'Lavi, Normal';font-variant-ligatures:normal;font-variant-caps:normal;font-variant-numeric:normal;font-feature-settings:normal;text-align:center;writing-mode:lr-tb;text-anchor:middle"
         x="345.33951"
         y="298.85474"
         id="tspan823">такие успешные.</tspan><tspan
         sodipodi:role="line"
         style="font-style:normal;font-variant:normal;font-weight:normal;font-stretch:normal;font-size:45px;line-height:1.20000005;font-family:Lavi;-inkscape-font-specification:'Lavi, Normal';font-variant-ligatures:normal;font-variant-caps:normal;font-variant-numeric:normal;font-feature-settings:normal;text-align:center;writing-mode:lr-tb;text-anchor:middle"
         x="345.33951"
         y="352.85474"
         id="tspan49">Иногда мне</tspan><tspan
         sodipodi:role="line"
         style="font-style:normal;font-variant:normal;font-weight:normal;font-stretch:normal;font-size:45px;line-height:1.20000005;font-family:Lavi;-inkscape-font-specification:'Lavi, Normal';font-variant-ligatures:normal;font-variant-caps:normal;font-variant-numeric:normal;font-feature-settings:normal;text-align:center;writing-mode:lr-tb;text-anchor:middle"
         x="345.33951"
         y="379.17468"
         id="tspan44" /><tspan
         sodipodi:role="line"
         style="font-style:normal;font-variant:normal;font-weight:normal;font-stretch:normal;font-size:45px;line-height:1.20000005;font-family:Lavi;-inkscape-font-specification:'Lavi, Normal';font-variant-ligatures:normal;font-variant-caps:normal;font-variant-numeric:normal;font-feature-settings:normal;text-align:center;writing-mode:lr-tb;text-anchor:middle"
         x="345.33951"
         y="406.85474"
         id="tspan46">тоже хочется</tspan><tspan
         sodipodi:role="line"
         style="font-style:normal;font-variant:normal;font-weight:normal;font-stretch:normal;font-size:45px;line-height:1.20000005;font-family:Lavi;-inkscape-font-specification:'Lavi, Normal';font-variant-ligatures:normal;font-variant-caps:normal;font-variant-numeric:normal;font-feature-settings:normal;text-align:center;writing-mode:lr-tb;text-anchor:middle"
         x="345.33951"
         y="460.85474"
         id="tspan80">иметь хотя бы</tspan><tspan
         sodipodi:role="line"
         style="font-style:normal;font-variant:normal;font-weight:normal;font-stretch:normal;font-size:45px;line-height:1.20000005;font-family:Lavi;-inkscape-font-specification:'Lavi, Normal';font-variant-ligatures:normal;font-variant-caps:normal;font-variant-numeric:normal;font-feature-settings:normal;text-align:center;writing-mode:lr-tb;text-anchor:middle"
         x="345.33951"
         y="514.85474"
         id="tspan68">немного</tspan><tspan
         sodipodi:role="line"
         style="font-style:normal;font-variant:normal;font-weight:normal;font-stretch:normal;font-size:45px;line-height:1.20000005;font-family:Lavi;-inkscape-font-specification:'Lavi, Normal';font-variant-ligatures:normal;font-variant-caps:normal;font-variant-numeric:normal;font-feature-settings:normal;text-align:center;writing-mode:lr-tb;text-anchor:middle"
         x="345.33951"
         y="568.85474"
         id="tspan60">из того, что</tspan><tspan
         sodipodi:role="line"
         style="font-style:normal;font-variant:normal;font-weight:normal;font-stretch:normal;font-size:45px;line-height:1.20000005;font-family:Lavi;-inkscape-font-specification:'Lavi, Normal';font-variant-ligatures:normal;font-variant-caps:normal;font-variant-numeric:normal;font-feature-settings:normal;text-align:center;writing-mode:lr-tb;text-anchor:middle"
         x="345.33951"
         y="622.85474"
         id="tspan62">есть у них.</tspan></text>
    <text
       xml:space="preserve"
       style="font-style:normal;font-variant:normal;font-weight:normal;font-stretch:normal;font-size:45px;line-height:0%;font-family:Lavi;-inkscape-font-specification:'Lavi, Normal';font-variant-ligatures:normal;font-variant-caps:normal;font-variant-numeric:normal;font-feature-settings:normal;text-align:center;letter-spacing:0px;word-spacing:0px;writing-mode:lr-tb;text-anchor:middle;fill:#000000;fill-opacity:1;stroke:none"
       x="2137.8987"
       y="623.78644"
       id="text4246-3"><tspan
         sodipodi:role="line"
         style="font-style:normal;font-variant:normal;font-weight:normal;font-stretch:normal;font-size:45px;line-height:1.20000005;font-family:Lavi;-inkscape-font-specification:'Lavi, Normal';font-variant-ligatures:normal;font-variant-caps:normal;font-variant-numeric:normal;font-feature-settings:normal;text-align:center;writing-mode:lr-tb;text-anchor:middle"
         x="2144.9299"
         y="623.78644"
         id="tspan898">Кориандра - </tspan><tspan
         sodipodi:role="line"
         style="font-style:normal;font-variant:normal;font-weight:normal;font-stretch:normal;font-size:45px;line-height:1.20000005;font-family:Lavi;-inkscape-font-specification:'Lavi, Normal';font-variant-ligatures:normal;font-variant-caps:normal;font-variant-numeric:normal;font-feature-settings:normal;text-align:center;writing-mode:lr-tb;text-anchor:middle"
         x="2137.8987"
         y="677.78644"
         id="tspan53">королева.</tspan></text>
    <text
       xml:space="preserve"
       style="font-style:normal;font-variant:normal;font-weight:normal;font-stretch:normal;font-size:45px;line-height:0%;font-family:Lavi;-inkscape-font-specification:'Lavi, Normal';font-variant-ligatures:normal;font-variant-caps:normal;font-variant-numeric:normal;font-feature-settings:normal;text-align:center;letter-spacing:0px;word-spacing:0px;writing-mode:lr-tb;text-anchor:middle;fill:#000000;fill-opacity:1;stroke:none"
       x="2146.4858"
       y="732.11542"
       id="text4246-3-9"><tspan
         sodipodi:role="line"
         style="font-style:normal;font-variant:normal;font-weight:normal;font-stretch:normal;font-size:45px;line-height:1.20000005;font-family:Lavi;-inkscape-font-specification:'Lavi, Normal';font-variant-ligatures:normal;font-variant-caps:normal;font-variant-numeric:normal;font-feature-settings:normal;text-align:center;writing-mode:lr-tb;text-anchor:middle"
         x="2146.4858"
         y="732.11542"
         id="tspan898-2">Шафран -</tspan><tspan
         sodipodi:role="line"
         style="font-style:normal;font-variant:normal;font-weight:normal;font-stretch:normal;font-size:45px;line-height:1.20000005;font-family:Lavi;-inkscape-font-specification:'Lavi, Normal';font-variant-ligatures:normal;font-variant-caps:normal;font-variant-numeric:normal;font-feature-settings:normal;text-align:center;writing-mode:lr-tb;text-anchor:middle"
         x="2146.4858"
         y="786.11542"
         id="tspan923">богатая</tspan><tspan
         sodipodi:role="line"
         style="font-style:normal;font-variant:normal;font-weight:normal;font-stretch:normal;font-size:45px;line-height:1.20000005;font-family:Lavi;-inkscape-font-specification:'Lavi, Normal';font-variant-ligatures:normal;font-variant-caps:normal;font-variant-numeric:normal;font-feature-settings:normal;text-align:center;writing-mode:lr-tb;text-anchor:middle"
         x="2146.4858"
         y="840.11542"
         id="tspan55">суперзвезда.</tspan></text>
    <text
       xml:space="preserve"
       style="font-style:normal;font-variant:normal;font-weight:normal;font-stretch:normal;font-size:45px;line-height:0%;font-family:Lavi;-inkscape-font-specification:'Lavi, Normal';font-variant-ligatures:normal;font-variant-caps:normal;font-variant-numeric:normal;font-feature-settings:normal;text-align:center;letter-spacing:0px;word-spacing:0px;writing-mode:lr-tb;text-anchor:middle;fill:#000000;fill-opacity:1;stroke:none"
       x="358.56628"
       y="1113.7194"
       id="text4246-3-9-7"><tspan
         sodipodi:role="line"
         style="font-style:normal;font-variant:normal;font-weight:normal;font-stretch:normal;font-size:45px;line-height:1.20000005;font-family:Lavi;-inkscape-font-specification:'Lavi, Normal';font-variant-ligatures:normal;font-variant-caps:normal;font-variant-numeric:normal;font-feature-settings:normal;text-align:center;writing-mode:lr-tb;text-anchor:middle"
         x="358.56628"
         y="1113.7194"
         id="tspan923-9">Даже Ситими</tspan><tspan
         sodipodi:role="line"
         style="font-style:normal;font-variant:normal;font-weight:normal;font-stretch:normal;font-size:45px;line-height:1.20000005;font-family:Lavi;-inkscape-font-specification:'Lavi, Normal';font-variant-ligatures:normal;font-variant-caps:normal;font-variant-numeric:normal;font-feature-settings:normal;text-align:center;writing-mode:lr-tb;text-anchor:middle"
         x="358.56628"
         y="1167.7194"
         id="tspan82">выглядит идеально</tspan><tspan
         sodipodi:role="line"
         style="font-style:normal;font-variant:normal;font-weight:normal;font-stretch:normal;font-size:45px;line-height:1.20000005;font-family:Lavi;-inkscape-font-specification:'Lavi, Normal';font-variant-ligatures:normal;font-variant-caps:normal;font-variant-numeric:normal;font-feature-settings:normal;text-align:center;writing-mode:lr-tb;text-anchor:middle"
         x="358.56628"
         y="1221.7194"
         id="tspan74">с ведьмами</tspan><tspan
         sodipodi:role="line"
         style="font-style:normal;font-variant:normal;font-weight:normal;font-stretch:normal;font-size:45px;line-height:1.20000005;font-family:Lavi;-inkscape-font-specification:'Lavi, Normal';font-variant-ligatures:normal;font-variant-caps:normal;font-variant-numeric:normal;font-feature-settings:normal;text-align:center;writing-mode:lr-tb;text-anchor:middle"
         x="358.56628"
         y="1275.7194"
         id="tspan950">своей школы.</tspan></text>
    <text
       xml:space="preserve"
       style="font-style:normal;font-variant:normal;font-weight:normal;font-stretch:normal;font-size:45px;line-height:0%;font-family:Lavi;-inkscape-font-specification:'Lavi, Normal';font-variant-ligatures:normal;font-variant-caps:normal;font-variant-numeric:normal;font-feature-settings:normal;text-align:center;letter-spacing:0px;word-spacing:0px;writing-mode:lr-tb;text-anchor:middle;fill:#000000;fill-opacity:1;stroke:none"
       x="2140.5269"
       y="1155.4224"
       id="text4246-3-9-7-3"><tspan
         sodipodi:role="line"
         style="font-style:normal;font-variant:normal;font-weight:normal;font-stretch:normal;font-size:45px;line-height:1.20000005;font-family:Lavi;-inkscape-font-specification:'Lavi, Normal';font-variant-ligatures:normal;font-variant-caps:normal;font-variant-numeric:normal;font-feature-settings:normal;text-align:center;writing-mode:lr-tb;text-anchor:middle"
         x="2140.5269"
         y="1155.4224"
         id="tspan950-6">А я?</tspan><tspan
         sodipodi:role="line"
         style="font-style:normal;font-variant:normal;font-weight:normal;font-stretch:normal;font-size:45px;line-height:1.20000005;font-family:Lavi;-inkscape-font-specification:'Lavi, Normal';font-variant-ligatures:normal;font-variant-caps:normal;font-variant-numeric:normal;font-feature-settings:normal;text-align:center;writing-mode:lr-tb;text-anchor:middle"
         x="2140.5269"
         y="1209.4224"
         id="tspan981">У меня-то что?</tspan></text>
    <text
       xml:space="preserve"
       style="font-style:normal;font-variant:normal;font-weight:normal;font-stretch:normal;font-size:45px;line-height:0%;font-family:'Lavi';-inkscape-font-specification:'Lavi, Normal';font-variant-ligatures:normal;font-variant-caps:normal;font-variant-numeric:normal;font-feature-settings:normal;text-align:center;letter-spacing:0px;word-spacing:0px;writing-mode:lr-tb;text-anchor:middle;fill:#000000;fill-opacity:1;stroke:none"
       x="910.00488"
       y="2360.6299"
       id="text4246-3-9-7-3-2"><tspan
         sodipodi:role="line"
         style="font-style:normal;font-variant:normal;font-weight:normal;font-stretch:normal;font-size:45px;line-height:1.20000005;font-family:'Lavi';-inkscape-font-specification:'Lavi, Normal';font-variant-ligatures:normal;font-variant-caps:normal;font-variant-numeric:normal;font-feature-settings:normal;text-align:center;writing-mode:lr-tb;text-anchor:middle"
         x="910.00488"
         y="2360.6299"
         id="tspan981-1">Это.</tspan></text>
  </g>
</svg>
