<?xml version="1.0" encoding="UTF-8" standalone="no"?>
<!-- Created with Inkscape (http://www.inkscape.org/) -->

<svg
   xmlns:dc="http://purl.org/dc/elements/1.1/"
   xmlns:cc="http://creativecommons.org/ns#"
   xmlns:rdf="http://www.w3.org/1999/02/22-rdf-syntax-ns#"
   xmlns:svg="http://www.w3.org/2000/svg"
   xmlns="http://www.w3.org/2000/svg"
   xmlns:xlink="http://www.w3.org/1999/xlink"
   xmlns:sodipodi="http://sodipodi.sourceforge.net/DTD/sodipodi-0.dtd"
   xmlns:inkscape="http://www.inkscape.org/namespaces/inkscape"
   id="svg2"
   version="1.1"
   inkscape:version="0.92.2 5c3e80d, 2017-08-06"
   width="2481"
   height="3503"
   sodipodi:docname="E29P04.svg">
  <metadata
     id="metadata8">
    <rdf:RDF>
      <cc:Work
         rdf:about="">
        <dc:format>image/svg+xml</dc:format>
        <dc:type
           rdf:resource="http://purl.org/dc/dcmitype/StillImage" />
        <dc:title />
      </cc:Work>
    </rdf:RDF>
  </metadata>
  <defs
     id="defs6">
    <filter
       style="color-interpolation-filters:sRGB"
       id="filter4375-4-1-1-1-9"
       inkscape:label="deevad outline effect">
      <feFlood
         id="feFlood4377-7-9-0-8-1"
         flood-opacity="1"
         flood-color="rgb(0,0,0)"
         result="flood" />
      <feComposite
         id="feComposite4379-3-8-8-2-77"
         in2="SourceGraphic"
         in="flood"
         operator="in"
         result="composite1" />
      <feMorphology
         id="feMorphology4393-1-0-49-8-9"
         operator="dilate"
         radius="3.5"
         result="result3" />
      <feComposite
         id="feComposite4385-9-5-7-0-8"
         in2="result3"
         in="SourceGraphic"
         operator="over"
         result="composite2" />
    </filter>
  </defs>
  <sodipodi:namedview
     pagecolor="#ffffff"
     bordercolor="#666666"
     borderopacity="1"
     objecttolerance="10"
     gridtolerance="10"
     guidetolerance="10"
     inkscape:pageopacity="0"
     inkscape:pageshadow="2"
     inkscape:window-width="1920"
     inkscape:window-height="1130"
     id="namedview4"
     showgrid="false"
     inkscape:zoom="0.58806627"
     inkscape:cx="1173.2559"
     inkscape:cy="2768.8058"
     inkscape:window-x="0"
     inkscape:window-y="1"
     inkscape:window-maximized="1"
     inkscape:current-layer="layer1"
     inkscape:snap-global="false" />
  <g
     inkscape:groupmode="layer"
     id="layer2"
     inkscape:label="artwork"
     sodipodi:insensitive="true">
    <image
       sodipodi:absref="/Users/gand/Documents/Pepper&amp;Carrot/ep29_Destroyer-of-the-worlds/it/../gfx_Pepper-and-Carrot_by-David-Revoy_E29P04.png"
       xlink:href="../gfx_Pepper-and-Carrot_by-David-Revoy_E29P04.png"
       width="2481"
       height="3503"
       id="image10"
       x="0"
       y="0" />
  </g>
  <g
     inkscape:groupmode="layer"
     id="layer4"
     inkscape:label="notes"
     sodipodi:insensitive="true">
    <path
       style="color:#000000;clip-rule:nonzero;display:inline;overflow:visible;visibility:visible;opacity:0.5;isolation:auto;mix-blend-mode:normal;color-interpolation:sRGB;color-interpolation-filters:linearRGB;solid-color:#000000;solid-opacity:1;fill:#ffe680;fill-opacity:1;fill-rule:nonzero;stroke:#565656;stroke-width:1.20000005;stroke-linecap:butt;stroke-linejoin:miter;stroke-miterlimit:4;stroke-dasharray:none;stroke-dashoffset:0;stroke-opacity:1;marker:none;color-rendering:auto;image-rendering:auto;shape-rendering:auto;text-rendering:auto;enable-background:accumulate"
       d="m -536.73639,2227.7309 v 544.7373 h 423.63672 v -60.5999 h 13.923826 v 21.7559 l 43.13867,-37.5547 -43.13867,-37.5508 v 23.127 h -13.923826 v -321.7942 h 13.923826 v 21.7559 l 43.13867,-37.5527 -43.13867,-37.5508 v 23.1269 h -13.923826 v -101.8999 z"
       id="rect4191-6"
       inkscape:connector-curvature="0"
       sodipodi:nodetypes="ccccccccccccccccccc" />
    <flowRoot
       xml:space="preserve"
       id="flowRoot4212-7"
       style="font-style:normal;font-variant:normal;font-weight:normal;font-stretch:normal;line-height:0.01%;font-family:Lavi;-inkscape-font-specification:'Lavi, Normal';text-align:center;letter-spacing:0px;word-spacing:0px;writing-mode:lr-tb;text-anchor:middle;display:inline;opacity:0.5;fill:#000000;fill-opacity:1;stroke:none;stroke-width:0.71836352px;stroke-linecap:butt;stroke-linejoin:miter;stroke-opacity:1"
       transform="matrix(1.3923338,0,0,1.391772,-133.21158,822.25552)"><flowRegion
         id="flowRegion4214-5"
         style="stroke-width:0.71836352px"><rect
           id="rect4216-3"
           width="271.92325"
           height="400.06418"
           x="-275.14545"
           y="1061.6674"
           style="stroke-width:0.71836352px" /></flowRegion><flowPara
         style="font-size:25.3241539px;line-height:1.25;stroke-width:0.71836352px"
         id="flowPara1126">“?” above</flowPara><flowPara
         style="font-size:25.3241539px;line-height:1.25;stroke-width:0.71836352px"
         id="flowPara991">Carrot's head</flowPara><flowPara
         style="font-size:25.3241539px;line-height:1.25;stroke-width:0.71836352px"
         id="flowPara989">in 3rd panel</flowPara><flowPara
         style="font-size:25.3241539px;line-height:1.25;stroke-width:0.71836352px"
         id="flowPara1007" /><flowPara
         style="font-size:25.3241539px;line-height:1.25;stroke-width:0.71836352px"
         id="flowPara1009" /><flowPara
         style="font-size:25.3241539px;line-height:1.25;stroke-width:0.71836352px"
         id="flowPara1011" /><flowPara
         style="font-size:25.3241539px;line-height:1.25;stroke-width:0.71836352px"
         id="flowPara1013" /><flowPara
         style="font-size:25.3241539px;line-height:1.25;stroke-width:0.71836352px"
         id="flowPara1015" /><flowPara
         style="font-size:25.3241539px;line-height:1.25;stroke-width:0.71836352px"
         id="flowPara1043">“Tuck! Tuck!”</flowPara><flowPara
         style="font-size:25.3241539px;line-height:1.25;stroke-width:0.71836352px"
         id="flowPara934">in first panel</flowPara></flowRoot>    <flowRoot
       xml:space="preserve"
       id="flowRoot4212-7-6"
       style="font-style:normal;font-variant:normal;font-weight:normal;font-stretch:normal;line-height:0.01%;font-family:Lavi;-inkscape-font-specification:'Lavi, Normal';text-align:center;letter-spacing:0px;word-spacing:0px;writing-mode:lr-tb;text-anchor:middle;display:inline;opacity:0.5;fill:#000000;fill-opacity:1;stroke:none;stroke-width:0.71836352px;stroke-linecap:butt;stroke-linejoin:miter;stroke-opacity:1"
       transform="matrix(1.3923338,0,0,1.391772,-148.55123,775.58442)"><flowRegion
         id="flowRegion4214-5-2"
         style="stroke-width:0.71836352px"><rect
           id="rect4216-3-6"
           width="294.12939"
           height="323.61441"
           x="-275.14545"
           y="1061.6674"
           style="stroke-width:0.71836352px" /></flowRegion><flowPara
         style="font-style:normal;font-variant:normal;font-weight:bold;font-stretch:normal;font-size:18.66666603px;line-height:1.25;font-family:Lavi;-inkscape-font-specification:'Lavi Bold';stroke-width:0.71836352px"
         id="flowPara1220">NOTE FOR TRANSLATORS</flowPara></flowRoot>    <path
       sodipodi:nodetypes="cccccccccccc"
       inkscape:connector-curvature="0"
       id="path1077"
       d="m -536.73639,1390.1422 v 409.9547 h 423.63672 v -277.8341 h 13.923826 v 21.7559 l 43.13867,-37.5527 -43.13867,-37.5508 v 23.1269 h -13.923826 v -101.8999 z"
       style="color:#000000;clip-rule:nonzero;display:inline;overflow:visible;visibility:visible;opacity:0.5;isolation:auto;mix-blend-mode:normal;color-interpolation:sRGB;color-interpolation-filters:linearRGB;solid-color:#000000;solid-opacity:1;fill:#ffe680;fill-opacity:1;fill-rule:nonzero;stroke:#565656;stroke-width:1.20000005;stroke-linecap:butt;stroke-linejoin:miter;stroke-miterlimit:4;stroke-dasharray:none;stroke-dashoffset:0;stroke-opacity:1;marker:none;color-rendering:auto;image-rendering:auto;shape-rendering:auto;text-rendering:auto;enable-background:accumulate" />
    <flowRoot
       transform="matrix(1.3923338,0,0,1.391772,-133.21158,-15.333147)"
       style="font-style:normal;font-variant:normal;font-weight:normal;font-stretch:normal;line-height:0.01%;font-family:Lavi;-inkscape-font-specification:'Lavi, Normal';text-align:center;letter-spacing:0px;word-spacing:0px;writing-mode:lr-tb;text-anchor:middle;display:inline;opacity:0.5;fill:#000000;fill-opacity:1;stroke:none;stroke-width:0.71836352px;stroke-linecap:butt;stroke-linejoin:miter;stroke-opacity:1"
       id="flowRoot1111"
       xml:space="preserve"><flowRegion
         style="stroke-width:0.71836352px"
         id="flowRegion1081"><rect
           style="stroke-width:0.71836352px"
           y="1061.6674"
           x="-275.14545"
           height="306.3457"
           width="271.92325"
           id="rect1079" /></flowRegion><flowPara
         id="flowPara1101"
         style="font-size:25.3241539px;line-height:1.25;stroke-width:0.71836352px">“Flick!”</flowPara><flowPara
         id="flowPara1103"
         style="font-size:25.3241539px;line-height:1.25;stroke-width:0.71836352px">in 3rd panel</flowPara><flowPara
         id="flowPara1105"
         style="font-size:25.3241539px;line-height:1.25;stroke-width:0.71836352px" /><flowPara
         id="flowPara1107"
         style="font-size:25.3241539px;line-height:1.25;stroke-width:0.71836352px">It's white, not well visible with temporary lineart. (Will be visible</flowPara><flowPara
         id="flowPara1109"
         style="font-size:25.3241539px;line-height:1.25;stroke-width:0.71836352px">in colored version.)</flowPara></flowRoot>    <flowRoot
       transform="matrix(1.3923338,0,0,1.391772,-148.55123,-62.004247)"
       style="font-style:normal;font-variant:normal;font-weight:normal;font-stretch:normal;line-height:0.01%;font-family:Lavi;-inkscape-font-specification:'Lavi, Normal';text-align:center;letter-spacing:0px;word-spacing:0px;writing-mode:lr-tb;text-anchor:middle;display:inline;opacity:0.5;fill:#000000;fill-opacity:1;stroke:none;stroke-width:0.71836352px;stroke-linecap:butt;stroke-linejoin:miter;stroke-opacity:1"
       id="flowRoot1119"
       xml:space="preserve"><flowRegion
         style="stroke-width:0.71836352px"
         id="flowRegion1115"><rect
           style="stroke-width:0.71836352px"
           y="1061.6674"
           x="-275.14545"
           height="323.61441"
           width="294.12939"
           id="rect1113" /></flowRegion><flowPara
         id="flowPara1117"
         style="font-style:normal;font-variant:normal;font-weight:bold;font-stretch:normal;font-size:18.66666603px;line-height:1.25;font-family:Lavi;-inkscape-font-specification:'Lavi Bold';stroke-width:0.71836352px">NOTE FOR TRANSLATORS</flowPara></flowRoot>  </g>
  <g
     inkscape:groupmode="layer"
     id="layer3"
     inkscape:label="speechbubbles">
    <path
       style="color:#000000;display:inline;overflow:visible;visibility:visible;fill:#ffffff;fill-opacity:1;fill-rule:nonzero;stroke:none;stroke-width:0.99999994px;marker:none;enable-background:accumulate"
       d="m 1747.0092,129.9164 c 33.7996,-18.8721 474.1459,-30.509914 535.2312,10.2865 38.7625,25.88785 23.5955,123.78943 -25.8983,142.54889 -58.249,22.0779 -383.8083,16.09462 -465.6866,3.78839 -77.8988,-11.70814 -80.7765,-51.8108 -84.7052,-90.76835 -1.6034,-15.90016 7.2592,-46.98327 41.0589,-65.85543 z"
       id="path4040-4-0"
       inkscape:connector-curvature="0"
       sodipodi:nodetypes="zssssz" />
    <path
       style="fill:#ffffff;stroke:none"
       d="m 2131.7915,445.1527 c 52.0797,-62.97217 40.5599,-106.89763 -10.3849,-161.57773 -30.8676,-33.13074 -53.0957,-49.56362 -53.0957,-49.56362 l 44.4365,-11.17106 49.9606,31.26438 c 0,0 89.2487,110.10775 -30.9165,191.04803 z"
       id="path3063"
       inkscape:connector-curvature="0"
       sodipodi:nodetypes="cscccc" />
    <path
       style="color:#000000;display:inline;overflow:visible;visibility:visible;fill:#ffffff;fill-opacity:1;fill-rule:nonzero;stroke:none;stroke-width:1px;marker:none;enable-background:accumulate"
       d="m 1652.25,970.18403 c 1.5608,-28.03525 -4.2978,-61.11181 37.2797,-104.65775 29.6012,-31.00266 63.4981,-31.09877 187.9702,-33.22158 114.834,-4.42675 214.5898,55.05462 182.3091,156.37916 -3.5417,82.08904 -146.5433,74.32644 -176.4264,77.69654 -29.8831,3.3702 -173.1697,2.3888 -201.4881,-24.0982 -17.7267,-16.58 -29.4902,-37.8236 -29.6445,-72.09817 z"
       id="path4546-6"
       inkscape:connector-curvature="0"
       sodipodi:nodetypes="csccssc" />
    <path
       style="color:#000000;display:inline;overflow:visible;visibility:visible;fill:#ffffff;fill-opacity:1;fill-rule:nonzero;stroke:none;stroke-width:1px;marker:none;enable-background:accumulate"
       d="m 2058.949,780.54364 c 9.1284,42.15323 9.9229,57.84514 -32.0252,91.28724 -41.9482,33.44204 -30.1382,47.46229 -30.1382,47.46229 l 35.2785,-4.99268 c 0,0 84.878,-77.03313 26.8849,-133.75685 z"
       id="path3072"
       inkscape:connector-curvature="0" />
    <path
       style="color:#000000;display:inline;overflow:visible;visibility:visible;fill:#ffffff;fill-opacity:1;fill-rule:nonzero;stroke:none;stroke-width:0.97763973px;marker:none;enable-background:accumulate"
       d="m 740.40042,180.77898 c 23.04773,-35.34082 217.59699,-73.70115 285.97408,-0.87112 68.3771,72.83004 26.9024,160.22615 -12.3304,188.03391 -39.23269,27.80788 -154.68902,58.26407 -207.37291,34.42878 -52.684,-23.83529 -93.72146,-59.46442 -96.40046,-132.41826 -1.09339,-29.77538 7.08185,-53.83237 30.12969,-89.17331 z"
       id="path4040"
       inkscape:connector-curvature="0"
       sodipodi:nodetypes="zssssz" />
    <path
       style="color:#000000;display:inline;overflow:visible;visibility:visible;fill:#ffffff;fill-opacity:1;fill-rule:nonzero;stroke:none;stroke-width:1px;marker:none;enable-background:accumulate"
       d="m 927.43282,520.21555 c 19.56717,-37.91334 24.33095,-91.92051 -16.62461,-116.94423 -32.00795,-36.20829 -9.67863,-17.32971 -9.67863,-17.32971 l 32.39871,9.54307 c 0,0 63.63839,61.67926 -6.09547,124.73087 z"
       id="path3072-1"
       inkscape:connector-curvature="0"
       sodipodi:nodetypes="ccccc" />
    <path
       style="fill:#ffffff;fill-opacity:1;fill-rule:evenodd;stroke:none;stroke-width:1px;stroke-linecap:butt;stroke-linejoin:miter;stroke-opacity:1"
       d="m 486.03269,429.00909 c -11.78237,3.45864 -26.01828,-0.74899 -34.57607,-8.15263 -7.08075,-6.68721 -17.01074,-13.3491 -17.7254,-21.98808 -0.78596,-9.91947 5.94499,-20.77271 -3.71288,-30.02739 -13.46238,-8.53432 -21.51604,-13.91901 -21.93366,-27.44905 -0.49458,-11.53162 5.57886,-22.67415 13.3064,-30.91503 6.46417,-5.69346 3.23184,-13.76292 -2.09911,-19.92549 -5.60383,-9.86661 -9.69639,-22.86862 0.75239,-30.68782 6.77543,-3.72535 14.18016,-5.01355 14.81032,-12.81183 1.74931,-10.85262 -6.17753,-20.78415 -7.49577,-31.53175 -6.3628,-10.72007 -2.8158,-39.81777 3.97176,-48.54931 5.04743,-6.06044 9.4892,-13.78623 21.16176,-13.93988 19.78178,-4.26035 47.13873,-2.23397 58.0381,-14.54687 7.12631,-6.99684 11.66176,-17.02823 25.03867,-18.85348 15.57743,-2.47843 30.87547,10.42367 45.07772,15.18682 13.85078,-10.36049 38.82264,-8.81162 46.36526,1.57953 4.18125,5.86329 23.50859,31.58085 24.60387,38.10889 4.07654,13.01954 -8.46305,35.1769 3.00617,46.49479 12.21903,8.19818 7.02444,27.91799 4.47032,38.44049 -3.66397,8.3406 2.16895,17.01373 3.53145,25.64816 2.3945,9.20505 -5.21523,19.20189 -3.36057,28.40299 5.23226,13.78778 11.10413,26.16521 6.10877,40.43019 -1.94079,12.46165 -3.38695,17.57342 -16.19914,24.41239 -4.18961,3.06174 -6.5178,8.81564 -7.63289,13.5487 -3.89219,11.6257 -7.1651,17.31781 -17.10219,27.30395 -8.57523,7.39843 -24.28097,9.1082 -37.41406,5.25094 -10.18808,-1.82229 -21.37158,-8.10109 -31.26965,-5.67643 -12.7847,5.27537 -16.21615,22.49725 -32.82987,20.94606 -8.87349,-0.86603 -15.42343,-6.38555 -24.05201,-7.97123 -4.21484,-1.11979 -8.51324,-2.00888 -12.83953,-2.72723 z"
       id="path4367"
       inkscape:connector-curvature="0"
       sodipodi:nodetypes="ccccccccccccccccccccccccccccccc" />
    <path
       style="fill:#ffffff;stroke:none;stroke-width:1"
       d="m 481.33413,569.27983 c -26.16799,-11.86997 -29.23382,-39.59074 -20.73941,-48.80022 8.49436,-9.2095 12.7305,-19.1347 12.40759,-27.59531 -0.32293,-8.46061 -5.50646,-17.21425 -10.12026,-24.21281 -4.61385,-6.99861 0.88784,-16.71803 5.41776,-24.19003 4.52995,-7.47208 25.74725,-46.21168 25.74725,-46.21168 0,0 -33.81232,12.14437 -40.8764,20.86652 -7.0641,8.72215 -8.88284,16.10827 -10.78771,20.43039 -1.90487,4.32223 -5.43175,20.28888 -2.44001,28.74234 2.99167,8.45347 10.76629,15.12526 14.36709,20.98686 3.60084,5.86151 2.03948,12.29665 -2.9751,20.77153 -5.01458,8.47491 -9.53561,29.71668 2.24235,44.7525 6.98238,8.91376 16.67122,13.76389 27.75685,14.45991 z"
       id="path3023"
       inkscape:connector-curvature="0"
       sodipodi:nodetypes="csssscssssssc"
       inkscape:transform-center-x="-13.368944"
       inkscape:transform-center-y="102.37524" />
    <path
       style="fill:#ffffff;fill-opacity:1;fill-rule:evenodd;stroke:none;stroke-width:1.06190097px;stroke-linecap:butt;stroke-linejoin:miter;stroke-opacity:1"
       d="m 150.66487,261.25351 c -5.79206,-9.38395 1.39884,-21.1587 7.13211,-25.32654 6.42753,-7.75181 14.68565,-7.68979 22.40363,-7.10714 7.67766,1.52456 13.30603,-5.94263 18.29141,-13.66174 7.89065,-10.0153 19.3479,-13.45221 28.65929,-6.14864 6.92028,4.9785 14.92276,11.09907 22.50809,5.38783 9.04582,-5.78002 20.56004,-10.83769 29.29148,-1.29847 6.21125,11.07833 16.52363,6.36786 24.12218,1.99602 9.75981,-5.12859 20.44142,-8.24221 30.52218,-3.26855 6.68399,2.91109 14.9733,4.33191 18.27081,15.29973 3.98009,12.01178 8.26193,26.35055 17.58319,29.9504 6.59787,3.10866 16.08895,4.99226 17.74994,17.49637 -0.19334,11.15839 -3.68675,22.16127 -6.86389,31.87978 -9.39343,12.59173 -23.80101,2.90851 -35.73026,6.39515 -7.8,2.24535 -14.19832,15.65927 -27.23653,17.39559 -18.05433,2.9086 -21.72666,-8.00517 -32.68569,-2.65613 -12.92394,4.99892 -16.45515,-1.0283 -28.70038,7.97225 -13.94377,8.36366 -30.3487,5.65305 -42.5837,-7.78913 -5.25111,-6.68056 -17.54194,2.47298 -24.22848,3.75047 -8.93158,0.45083 -13.51391,2.59638 -20.11112,-8.88101 -5.28858,-8.18584 -3.86593,-5.59758 -7.3887,-14.70153 -3.68296,-8.98848 -12.23691,-10.9447 -14.80815,-21.57874 -1.96953,-8.78877 4.86047,-15.91418 3.80259,-25.10597 z"
       id="path4367-3"
       inkscape:connector-curvature="0"
       sodipodi:nodetypes="ccccccccccccccccccccccc" />
    <path
       style="opacity:1;fill:#ffffff;fill-rule:evenodd;stroke:none;stroke-width:0.99999994px;stroke-linecap:butt;stroke-linejoin:miter;stroke-opacity:1"
       d="m 309.34922,457.71798 c -15.64979,-24.8542 8.77501,-47.91607 8.58626,-62.92677 -0.19481,-15.49635 -40.69805,-21.31418 -41.62679,-35.6781 -0.92874,-14.36402 24.25197,-42.90833 22.3945,-65.352 -1.85748,-22.44378 -33.11728,-22.62637 -30.33094,3.4084 2.78634,26.03475 -20.58525,41.20496 -15.67743,61.79602 8.18516,34.34048 37.35935,31.20382 47.00302,40.86297 6.38476,6.395 -4.2802,22.87728 -1.49386,38.139 2.78634,15.26172 11.14524,19.75048 11.14524,19.75048 z"
       id="path4272"
       inkscape:connector-curvature="0"
       sodipodi:nodetypes="csssssssc" />
    <path
       style="color:#000000;display:inline;overflow:visible;visibility:visible;fill:#ffffff;fill-opacity:1;fill-rule:nonzero;stroke:none;stroke-width:1.09947145px;marker:none;enable-background:accumulate"
       d="m 2035.1564,976.92632 c -1.1672,-24.73089 16.6147,-61.85257 50.2071,-77.22508 49.8989,-22.8346 74.6672,-13.56392 116.8754,-12.51338 39.2085,0.97588 101.9598,8.77471 134.9028,36.28284 25.4856,21.28103 41.1629,54.54784 35.3263,80.5277 -5.8363,25.9797 -22.0937,60.9378 -65.7662,68.1046 -46.8391,7.6864 -124.9252,1.1782 -169.5721,2.5716 -39.9311,1.2462 -64.201,-7.6412 -85.2121,-25.9799 -21.3011,-18.5917 -15.5938,-47.0376 -16.7612,-71.76838 z"
       id="path3373"
       inkscape:connector-curvature="0"
       sodipodi:nodetypes="zsssssssz" />
    <path
       style="fill:#ffffff;fill-rule:evenodd;stroke:none;stroke-width:0.99999994px;stroke-linecap:butt;stroke-linejoin:miter;stroke-opacity:1"
       d="m 899.94866,1223.5898 c 35.45272,3.4907 87.36719,-13.0192 58.70518,-65.5744 56.55256,26.313 102.88426,45.8066 191.74326,-27.7326 -7.5202,81.4659 32.927,73.8546 69.391,58.2141 -34.9953,27.4139 27.8226,43.1229 61.613,44.6628 -71.4804,59.2943 -32.9699,67.3435 -0.9035,76.7065 -64.3968,-3.5532 -58.1345,32.0871 -45.0701,52.0996 -60.2623,-42.8941 -145.0466,-17.5824 -135.7844,12.5816 -26.8851,-17.3709 -48.1726,-64.3702 -114.92732,4.554 24.54742,-59.5014 -7.62876,-53.2559 -59.72234,-23.9247 8.16419,-20.2671 56.68773,-51.086 -25.04478,-47.8499 51.0516,-19.2669 61.75739,-45.3663 0,-83.737 z"
       id="path4584"
       inkscape:connector-curvature="0"
       sodipodi:nodetypes="cccccccccccc" />
    <path
       style="color:#000000;display:inline;overflow:visible;visibility:visible;fill:#ffffff;fill-opacity:1;fill-rule:nonzero;stroke:none;stroke-width:1px;marker:none;enable-background:accumulate"
       d="m 1284.4552,1484.7539 c -74.0623,-16.7815 -162.4554,-85.4407 -173.3256,-102.2336 5.7646,-4.0191 72.5018,-4.3109 72.5018,-4.3109 -25.8476,-20.7242 -129.727,-70.2911 -122.0213,-64.8466 -4.5243,-14.4638 68.3453,-13.6441 68.3453,-13.6441 0,0 96.3576,81.9196 112.2383,92.2829 -16.3671,10.5299 -65.2194,8.0221 -73.0419,9.9521 2.0894,11.1694 89.3696,76.2156 115.3034,82.8002 z"
       id="path4456"
       inkscape:connector-curvature="0"
       sodipodi:nodetypes="cccccccc" />
  </g>
  <g
     inkscape:groupmode="layer"
     id="layer1"
     inkscape:label="txt">
    <text
       xml:space="preserve"
       style="font-style:normal;font-variant:normal;font-weight:normal;font-stretch:normal;line-height:0%;font-family:Lavi;-inkscape-font-specification:Lavi;text-align:center;letter-spacing:0px;word-spacing:0px;text-anchor:middle;fill:#000000;fill-opacity:1;stroke:none"
       x="263.90179"
       y="261.97235"
       id="text4246"><tspan
         sodipodi:role="line"
         style="font-size:37.33333206px;line-height:1.20000005"
         x="263.90179"
         y="261.97235"
         id="tspan4252">Oh no!</tspan><tspan
         sodipodi:role="line"
         style="font-size:37.33333206px;line-height:1.20000005"
         x="263.90179"
         y="306.77234"
         id="tspan903">Che schifo!</tspan></text>
    <text
       xml:space="preserve"
       style="font-style:normal;font-variant:normal;font-weight:normal;font-stretch:normal;line-height:0%;font-family:Lavi;-inkscape-font-specification:Lavi;text-align:center;letter-spacing:0px;word-spacing:0px;text-anchor:middle;fill:#000000;fill-opacity:1;stroke:none"
       x="542.72931"
       y="196.0433"
       id="text4246-3"><tspan
         sodipodi:role="line"
         style="font-size:37.33333206px;line-height:1.20000005"
         x="542.72931"
         y="196.0433"
         id="tspan923">Bleah!</tspan><tspan
         sodipodi:role="line"
         style="font-size:37.33333206px;line-height:1.20000005"
         x="542.72931"
         y="240.84331"
         id="tspan905">Quel coso</tspan><tspan
         sodipodi:role="line"
         style="font-size:37.33333206px;line-height:1.20000005"
         x="542.72931"
         y="285.64331"
         id="tspan921">è finito</tspan><tspan
         sodipodi:role="line"
         style="font-size:37.33333206px;line-height:1.20000005"
         x="542.72931"
         y="330.4433"
         id="tspan919">in bocca</tspan><tspan
         sodipodi:role="line"
         style="font-size:37.33333206px;line-height:1.20000005"
         x="542.72931"
         y="375.24332"
         id="tspan917">di qualcuno!</tspan></text>
    <text
       xml:space="preserve"
       style="font-style:normal;font-variant:normal;font-weight:normal;font-stretch:normal;line-height:0%;font-family:Lavi;-inkscape-font-specification:Lavi;text-align:center;letter-spacing:0px;word-spacing:0px;text-anchor:middle;fill:#000000;fill-opacity:1;stroke:none"
       x="886.47461"
       y="202.70126"
       id="text4246-9"><tspan
         sodipodi:role="line"
         style="font-size:45px;line-height:1.20000005"
         x="886.47461"
         y="202.70126"
         id="tspan891">Ah ah!</tspan><tspan
         sodipodi:role="line"
         style="font-size:45px;line-height:1.20000005"
         x="886.47461"
         y="256.70126"
         id="tspan920">Eccezzionale</tspan><tspan
         sodipodi:role="line"
         style="font-size:45px;line-height:1.20000005"
         x="886.47461"
         y="310.70126"
         id="tspan918">come sempre,</tspan><tspan
         sodipodi:role="line"
         style="font-size:45px;line-height:1.20000005"
         x="886.47461"
         y="364.70126"
         id="tspan922">Pepper!</tspan></text>
    <text
       xml:space="preserve"
       style="font-style:normal;font-variant:normal;font-weight:normal;font-stretch:normal;line-height:0%;font-family:Lavi;-inkscape-font-specification:Lavi;text-align:center;letter-spacing:0px;word-spacing:0px;text-anchor:middle;fill:#000000;fill-opacity:1;stroke:none"
       x="2004.7734"
       y="191.92598"
       id="text4246-9-2"><tspan
         sodipodi:role="line"
         style="font-size:45px;line-height:1.20000005"
         x="2004.7734"
         y="191.92598"
         id="tspan929">Ottimo Pepper, grazie</tspan><tspan
         sodipodi:role="line"
         style="font-size:45px;line-height:1.20000005"
         x="2004.7734"
         y="245.92598"
         id="tspan926">per questa… “spiegazione”.</tspan></text>
    <text
       xml:space="preserve"
       style="font-style:normal;font-variant:normal;font-weight:normal;font-stretch:normal;line-height:0%;font-family:Lavi;-inkscape-font-specification:Lavi;text-align:center;letter-spacing:0px;word-spacing:0px;text-anchor:middle;fill:#000000;fill-opacity:1;stroke:none"
       x="1860.3481"
       y="910.52747"
       id="text4246-9-2-6"><tspan
         sodipodi:role="line"
         style="font-size:45px;line-height:1.20000005"
         x="1860.3481"
         y="910.52747"
         id="tspan911">È ora di andare</tspan><tspan
         sodipodi:role="line"
         style="font-size:45px;line-height:1.20000005"
         x="1860.3481"
         y="964.52747"
         id="tspan1710">a dormire adesso,</tspan><tspan
         sodipodi:role="line"
         style="font-size:45px;line-height:1.20000005"
         x="1860.3481"
         y="1018.5275"
         id="tspan913">vero?</tspan></text>
    <text
       xml:space="preserve"
       style="font-style:normal;font-variant:normal;font-weight:normal;font-stretch:normal;font-size:10.59237862px;line-height:0%;font-family:Lavi;-inkscape-font-specification:Lavi;text-align:center;letter-spacing:0px;word-spacing:0px;text-anchor:middle;fill:#000000;fill-opacity:1;stroke:none;stroke-width:0.99999994"
       x="2200.416"
       y="947.43225"
       id="text4246-3-2"><tspan
         sodipodi:role="line"
         style="font-size:37.33333206px;line-height:1.20000005;stroke-width:0.99999994"
         x="2200.416"
         y="947.43225"
         id="tspan7378">E per</tspan><tspan
         sodipodi:role="line"
         style="font-size:37.33333206px;line-height:1.20000005;stroke-width:0.99999994"
         x="2200.416"
         y="992.23224"
         id="tspan1712">qualcuna di</tspan><tspan
         sodipodi:role="line"
         style="font-size:37.33333206px;line-height:1.20000005;stroke-width:0.99999994"
         x="2200.416"
         y="1037.0322"
         id="tspan899">lavarsi le mani.</tspan></text>
    <text
       xml:space="preserve"
       style="font-style:normal;font-variant:normal;font-weight:normal;font-stretch:normal;line-height:0%;font-family:Lavi;-inkscape-font-specification:Lavi;text-align:center;letter-spacing:0px;word-spacing:0px;text-anchor:middle;fill:#000000;fill-opacity:1;stroke:none"
       x="1084.2517"
       y="1249.4321"
       id="text4246-9-2-6-2"><tspan
         sodipodi:role="line"
         style="font-size:45px;line-height:1.20000005"
         x="1084.2517"
         y="1249.4321"
         id="tspan1035">Ehi!</tspan><tspan
         sodipodi:role="line"
         style="font-size:45px;line-height:1.20000005"
         x="1084.2517"
         y="1303.4321"
         id="tspan957">Aspettate!</tspan></text>
    <text
       xml:space="preserve"
       style="font-style:normal;font-variant:normal;font-weight:normal;font-stretch:normal;font-size:14.62346077px;line-height:0%;font-family:Lavi;-inkscape-font-specification:Lavi;text-align:center;letter-spacing:0px;word-spacing:0px;text-anchor:middle;fill:#ffffff;fill-opacity:0.78431373;stroke:none;stroke-width:0.99999994"
       x="1387.7701"
       y="2189.5938"
       id="text4246-7"
       transform="matrix(0.79017753,-0.5292546,0.38466968,1.0078897,0,0)"><tspan
         sodipodi:role="line"
         style="font-style:normal;font-variant:normal;font-weight:bold;font-stretch:normal;font-size:58.49384308px;line-height:1.20000005;font-family:Lavi;-inkscape-font-specification:'Lavi Bold';fill:#ffffff;fill-opacity:0.78431373;stroke-width:0.82059908"
         x="1387.7701"
         y="2189.5938"
         id="tspan4252-5">Stick!</tspan></text>
    <text
       xml:space="preserve"
       style="font-style:normal;font-variant:normal;font-weight:normal;font-stretch:normal;font-size:11.79470253px;line-height:0%;font-family:Lavi;-inkscape-font-specification:Lavi;text-align:center;letter-spacing:0px;word-spacing:0px;text-anchor:middle;fill:#ffffff;fill-opacity:0.78431373;stroke:none;stroke-width:0.99999994"
       x="-536.53265"
       y="2434.625"
       id="text4246-7-9"
       transform="matrix(0.80236382,-0.52121629,0.39060214,0.99258189,0,0)"><tspan
         sodipodi:role="line"
         style="font-style:normal;font-variant:normal;font-weight:bold;font-stretch:normal;font-size:47.17881012px;line-height:1.20000005;font-family:Lavi;-inkscape-font-specification:'Lavi Bold';fill:#ffffff;fill-opacity:0.78431373;stroke-width:0.82059908"
         x="-536.53265"
         y="2434.625"
         id="tspan4252-5-2">Tick!</tspan></text>
    <text
       xml:space="preserve"
       style="font-style:normal;font-variant:normal;font-weight:normal;font-stretch:normal;font-size:11.79470253px;line-height:0%;font-family:Lavi;-inkscape-font-specification:Lavi;text-align:center;letter-spacing:0px;word-spacing:0px;text-anchor:middle;fill:#ffffff;fill-opacity:0.78431373;stroke:none;stroke-width:0.99999994"
       x="-363.09036"
       y="2526.7615"
       id="text4246-7-9-2"
       transform="matrix(0.80236382,-0.52121629,0.39060214,0.99258189,0,0)"><tspan
         sodipodi:role="line"
         style="font-style:normal;font-variant:normal;font-weight:bold;font-stretch:normal;font-size:47.17881012px;line-height:1.20000005;font-family:Lavi;-inkscape-font-specification:'Lavi Bold';fill:#ffffff;fill-opacity:0.78431373;stroke-width:0.82059908"
         x="-363.09036"
         y="2526.7615"
         id="tspan4252-5-2-8">Tick!</tspan></text>
    <text
       xml:space="preserve"
       style="font-style:normal;font-variant:normal;font-weight:normal;font-stretch:normal;line-height:0%;font-family:Lavi;-inkscape-font-specification:Lavi;letter-spacing:0px;word-spacing:0px;fill:#000000;fill-opacity:1;stroke:none;stroke-width:0;stroke-miterlimit:4;stroke-dasharray:none;stroke-opacity:1;filter:url(#filter4375-4-1-1-1-9)"
       x="787.65729"
       y="1584.5073"
       id="text4580"
       transform="matrix(1.0562812,-1.0457132,0.34852463,1.662996,-176.82337,824.6776)"><tspan
         sodipodi:role="line"
         id="tspan4582"
         x="787.65729"
         y="1584.5073"
         style="font-size:70px;line-height:1.25;fill:#ffffff;stroke:none;stroke-width:0;stroke-miterlimit:4;stroke-dasharray:none"><tspan
           style="font-size:80.40014648px;stroke:none;stroke-width:0;stroke-miterlimit:4;stroke-dasharray:none"
           id="tspan4617">Stoc!</tspan></tspan></text>
    <text
       xml:space="preserve"
       style="font-style:normal;font-variant:normal;font-weight:normal;font-stretch:normal;font-size:15.75232887px;line-height:0%;font-family:Lavi;-inkscape-font-specification:Lavi;text-align:center;letter-spacing:0px;word-spacing:0px;text-anchor:middle;opacity:1;fill:#ffffff;fill-opacity:0.84180789;stroke:none;stroke-width:0.99999994"
       x="1881.7031"
       y="2489.1436"
       id="text4246-7-9-2-3"
       transform="matrix(0.98943475,-0.09116349,0.01957156,1.0088748,0,0)"><tspan
         sodipodi:role="line"
         style="font-style:normal;font-variant:normal;font-weight:bold;font-stretch:normal;font-size:63.00931549px;line-height:1.20000005;font-family:Lavi;-inkscape-font-specification:'Lavi Bold';fill:#ffffff;fill-opacity:0.84180789;stroke-width:0.82059902"
         x="1881.7031"
         y="2489.1436"
         id="tspan4252-5-2-8-6">?</tspan></text>
  </g>
</svg>
