<?xml version="1.0" encoding="UTF-8" standalone="no"?>
<!-- Created with Inkscape (http://www.inkscape.org/) -->

<svg
   xmlns:dc="http://purl.org/dc/elements/1.1/"
   xmlns:cc="http://creativecommons.org/ns#"
   xmlns:rdf="http://www.w3.org/1999/02/22-rdf-syntax-ns#"
   xmlns:svg="http://www.w3.org/2000/svg"
   xmlns="http://www.w3.org/2000/svg"
   xmlns:xlink="http://www.w3.org/1999/xlink"
   xmlns:sodipodi="http://sodipodi.sourceforge.net/DTD/sodipodi-0.dtd"
   xmlns:inkscape="http://www.inkscape.org/namespaces/inkscape"
   id="svg2"
   version="1.1"
   inkscape:version="0.92.3 (2405546, 2018-03-11)"
   width="2481"
   height="3503"
   sodipodi:docname="E06P03.svg">
  <sodipodi:namedview
     pagecolor="#ffffff"
     bordercolor="#666666"
     inkscape:pageopacity="0"
     inkscape:pageshadow="2"
     inkscape:window-width="1813"
     inkscape:window-height="955"
     id="namedview70"
     showgrid="false"
     inkscape:zoom="0.4"
     inkscape:cx="1320.1407"
     inkscape:cy="1052.174"
     inkscape:current-layer="layer3"
     inkscape:snap-nodes="false"
     inkscape:window-x="64"
     inkscape:window-y="0"
     inkscape:window-maximized="0"
     inkscape:lockguides="true"
     inkscape:snap-object-midpoints="false" />
  <metadata
     id="metadata8">
    <rdf:RDF>
      <cc:Work
         rdf:about="">
        <dc:format>image/svg+xml</dc:format>
        <dc:type
           rdf:resource="http://purl.org/dc/dcmitype/StillImage" />
        <dc:title />
      </cc:Work>
    </rdf:RDF>
  </metadata>
  <defs
     id="defs6">
    <filter
       inkscape:collect="always"
       id="filter3815">
      <feGaussianBlur
         inkscape:collect="always"
         stdDeviation="0.76455738"
         id="feGaussianBlur3817" />
    </filter>
  </defs>
  <sodipodi:namedview
     pagecolor="#ffffff"
     bordercolor="#666666"
     borderopacity="1"
     objecttolerance="10"
     gridtolerance="10"
     guidetolerance="10"
     inkscape:pageopacity="0"
     inkscape:pageshadow="2"
     inkscape:window-width="1920"
     inkscape:window-height="1025"
     id="namedview4"
     showgrid="false"
     inkscape:zoom="0.34782611"
     inkscape:cx="1043.3576"
     inkscape:cy="1270.5639"
     inkscape:window-x="0"
     inkscape:window-y="26"
     inkscape:window-maximized="1"
     inkscape:current-layer="layer3" />
  <g
     inkscape:groupmode="layer"
     id="layer2"
     inkscape:label="artwork"
     sodipodi:insensitive="true">
    <image
       sodipodi:absref="/home/fici/Desktop/P&amp;C/all/sl/../gfx_Pepper-and-Carrot_by-David-Revoy_E06P03.png"
       xlink:href="../gfx_Pepper-and-Carrot_by-David-Revoy_E06P03.png"
       y="0"
       x="0"
       id="image10"
       height="3503"
       width="2481" />
  </g>
  <g
     inkscape:groupmode="layer"
     id="layer3"
     inkscape:label="speechbubbles">
    <path
       style="fill:#ffffff;stroke:none;stroke-width:0.78875434"
       d="m 588.26475,2854.1994 c -3.21912,-36.4569 -6.43831,-110.8444 0,-127.0475 4.09715,0 10.82816,-0.3682 10.82816,-0.3682 l -6.43834,-19.8858 11.70605,4.7874 5.85306,-6.6288 -3.80445,-11.0473 10.53546,5.1554 5.26772,-10.6793 8.77956,7.7334 4.38984,-11.0477 9.65749,8.8382 17.85178,-4.7874 c 43.80636,-1.9514 87.12284,-4.93 133.15669,-2.2095 l 14.04734,-6.9968 4.09713,10.311 7.31625,0.3682 7.02367,-4.419 7.0237,4.7873 23.41212,-3.3142 7.60898,9.5746 9.07223,-8.1016 2.92648,10.6793 9.07224,-6.6284 1.46323,6.9966 21.6563,-8.1016 -3.2192,16.5714 c 0,0 16.09589,7.3652 27.50933,1.8414 1.17064,3.6825 -0.58525,10.3111 -0.58525,10.3111 l 5.85297,3.6825 v 9.5746 c 0,0 11.70615,12.5206 12.87672,15.8349 1.17063,3.3143 3.80441,93.9048 -0.29259,108.2667 3.21911,0 5.26764,2.2095 4.97505,4.4191 -0.29265,2.2094 -2.63393,8.4697 -2.63393,8.4697 0,0 3.21917,5.8921 2.34128,7.7334 -0.87799,1.8412 -2.63393,4.4189 -2.63393,4.4189 0,0 2.92658,4.7874 2.04853,6.2605 -0.87789,1.4729 -5.85296,4.0508 -7.90158,5.5237 2.34129,2.946 4.38982,9.2064 2.63393,10.6794 -1.75594,1.473 -5.8531,2.5777 -5.8531,2.5777 l -1.46324,3.6826 c 0,0 -0.58523,7.3652 -2.04845,7.7334 -1.46345,0.3683 -7.609,-3.6826 -8.48705,-2.9462 -0.87789,0.7366 -3.21917,6.6287 -4.68238,6.6287 -1.46324,0 -6.14578,-6.9969 -6.14578,-6.9969 -0.62532,1.5739 -77.91086,4.2154 -84.2838,2.5779 -6.41155,-1.6476 -31.60643,2.2095 -35.11825,2.2095 -3.51182,0 -18.1444,-1.1047 -20.19296,-1.8412 -2.04859,-0.7366 -10.24282,-3.3144 -13.16936,-2.9462 -2.92651,0.3682 -8.48692,4.051 -11.70605,4.051 -3.21919,0 -21.65631,-2.2096 -25.16813,-1.8414 -3.5118,0.3683 -19.60767,1.8414 -22.24155,1.8414 -2.63386,0 -32.19169,-4.051 -35.41087,-4.4192 -3.2192,-0.3683 -17.26649,3.6826 -19.90035,3.3144 -2.63393,-0.3683 -17.55917,-3.6827 -22.24162,-3.3144 -4.68242,0.3682 -22.24156,-4.7873 -23.41215,-4.4191 -1.17059,0.3683 -2.93833,0.7358 -13.75465,0 5.56042,-5.5237 3.80446,-10.311 3.80446,-10.311 l -4.09709,-2.9462 0.58528,-3.3142 -8.48693,-5.5237 1.17064,-4.0509 0.58526,-6.6285 -8.48684,-5.1556 13.46195,-14.73 z"
       id="path3894"
       inkscape:connector-curvature="0"
       sodipodi:nodetypes="cccccccccccccccccccccccccccccccscscccccsccssscssssssssssscccccccccc" />
    <path
       style="color:#000000;fill:#ffffff;fill-opacity:1;fill-rule:nonzero;stroke:none;stroke-width:1px;marker:none;visibility:visible;display:inline;overflow:visible;enable-background:accumulate"
       d="m 545.68385,2106.5543 c 0.92924,31.6909 15.53852,52.2214 23.60836,57.7317 8.06969,5.51 27.8159,19.9977 35.99606,27.9012 6.72231,6.5597 18.9915,14.5098 11.58161,18.2799 -7.40991,3.7703 -64.31872,11.3007 -65.81902,32.4013 -1.50054,21.1007 11.5192,27.961 33.86857,35.7108 22.34948,7.7502 51.41871,18.1603 52.37837,34.1408 0.95967,15.9804 -17.4603,25.021 -28.62018,26.9411 -11.15987,1.92 -81.38866,5.9308 -97.19855,13.2011 -15.8097,7.2704 -56.57965,35.8615 -42.75027,55.352 15.84012,-22.9807 24.99248,-33.4609 40.95221,-37.3811 15.95994,-3.9202 44.06732,-13.061 64.49678,-9.9711 20.42968,3.09 60.65877,11.58 73.49859,3.4995 12.83999,-8.0803 35.67019,-33.2912 30.75053,-50.3518 -4.91949,-17.0604 -21.35891,-34.7809 -56.00807,-44.2309 -22.3493,-7.7501 -32.60899,-13.0302 -32.33902,-17.9203 0.27015,-4.8901 18.69012,-13.9306 41.15957,-14.4208 22.46963,-0.4902 39.26943,-7.4905 37.82979,-17.8109 -1.43987,-10.3202 -25.01304,-34.7164 -28.85289,-44.0368 -3.83969,-9.3202 -32.82382,-61.3059 -32.82382,-61.3059 z"
       id="path5058"
       inkscape:connector-curvature="0"
       sodipodi:nodetypes="cscsssssscssssccscccc" />
    <path
       style="color:#000000;display:inline;overflow:visible;visibility:visible;fill:#ffffff;fill-opacity:1;fill-rule:nonzero;stroke:none;stroke-width:0.86786872px;marker:none;enable-background:accumulate"
       d="m 1120.4634,1045.5588 15.0851,0.8528 -5.9494,-18.3078 c 23.318,-2.8076 36.3094,2.0846 53.365,3.9466 l -29.3202,-21.8753 3.4797,-6.9685 c -4.7605,-3.55309 -11.5186,-5.70699 -13.7881,-11.00456 11.3992,-4.28468 19.9173,-4.93613 29.5429,-6.98412 -9.8133,-3.77849 -18.1763,-8.3801 -24.4223,-14.18344 l 29.979,-13.02302 -29.9993,-7.07834 c 19.6148,-16.93064 45.5356,-28.64837 69.2675,-42.17555 l -89.0953,12.19874 12.3666,-13.01174 c -9.7991,-5.52629 -8.5983,-2.51077 -12.8213,-3.70714 -2.5522,-4.32236 27.8127,-25.43875 25.085,-23.36987 -3.3994,0.93107 -32.69,5.85956 -32.69,5.85956 0,0 23.693,-20.58249 20.2056,-20.31486 -3.4873,0.26761 -31.6423,7.11942 -31.6423,7.11942 l 7.2162,-18.64783 -36.17,12.82804 12.7411,-23.4759 c -9.5798,2.05875 -15.8125,2.99909 -13.3712,-5.01125 0.9331,-15.52027 24.0749,-49.173 43.2154,-83.05957 -35.1845,32.20873 -58.3837,56.93475 -71.5032,59.48396 -53.32815,35.79883 -41.39,12.87778 -30.7931,-13.05025 l -31.79577,25.89531 -8.21318,-15.45328 -23.51709,21.90926 -2.72579,-20.56548 c -16.0407,2.68483 -22.70092,15.37494 -30.83612,26.49183 l -12.81523,-76.75371 -48.05211,69.36219 -14.93906,-26.32963 -5.3771,25.8783 -5.42921,-21.0281 -20.63033,30.39961 -21.7378,-24.46751 -14.27129,25.2205 c -19.41496,-24.8924 -45.13001,-43.91545 -74.00449,-59.99518 7.22954,26.49786 13.74762,52.27019 14.90321,72.57261 -9.602,2.86178 -20.04042,-0.58721 -30.69755,-5.68598 l 7.60511,17.51041 -38.1998,-9.13111 20.25792,26.59161 c -55.7763,5.18225 -45.18922,-0.46058 -58.42042,-2.21816 l 12.83617,17.10896 -40.2073,-10.98752 c 12.44407,14.01837 28.33899,29.0345 37.27737,42.03918 l -40.54398,-0.23924 c 17.29607,10.71852 38.21506,18.0618 51.2667,32.7345 l -34.92105,4.20951 35.76765,17.35957 -24.66013,13.28505 21.27565,1.04751 -31.70791,26.55871 46.4711,-1.5559 -50.08202,47.4031 63.28456,-14.2388 -1.09814,31.5813 32.75543,-25.2989 -25.36941,81.0246 c 25.1688,-30.2171 44.44934,-54.348 80.93556,-77.5312 l 13.63097,6.8952 13.40364,-5.1412 -0.52311,22.6312 47.83306,-31.1469 -3.56039,13.0062 14.11033,-13.1456 -1.28895,16.8526 24.38884,-21.976 -0.18996,17.5315 11.44342,-12.3639 5.43188,10.5895 14.27603,-8.0811 c 8.38145,28.3965 4.33693,57.7467 2.71244,86.9112 13.47517,-34.2779 32.18189,-65.7846 59.01192,-92.9884 l 11.26023,11.8641 10.41321,-12.5689 14.07464,14.1336 15.80005,-19.3922 c 16.1981,12.6066 25.6871,20.3639 33.1451,33.6414 -4.485,-12.636 -7.6517,-21.1126 -5.4696,-35.5742 55.9588,17.5903 54.6257,19.6443 76.088,30.1548 3.3937,-15.8869 8.1361,-21.4536 9.6407,-33.5773 z"
       id="path4024"
       inkscape:connector-curvature="0"
       sodipodi:nodetypes="cccccccccccccccccscccccccccccccccccccccccccccccccccccccccccccccccccccccccccccccccccccc" />
    <path
       style="color:#000000;fill:#ffffff;fill-opacity:1;fill-rule:nonzero;stroke:none;stroke-width:1px;marker:none;visibility:visible;display:inline;overflow:visible;enable-background:accumulate"
       d="m 1218.5434,1215.8472 c -17.1936,-41.8333 -41.081,-81.504 -50.4971,-125.8497 l -12.6066,38.3698 c -11.8734,-13.9727 -14.0263,-33.3359 -19.4799,-50.8688 l -11.8198,22.4071 c -27.61,-33.3215 -37.27,-72.0345 -55.6059,-108.14156 l -17.4063,40.70596 c 22.9228,34.3264 51.2492,64.5082 68.0938,103.4964 l 13.8358,-20.7022 c 7.7408,12.6408 14.9797,25.6123 19.9766,40.0614 l 14.9982,-27.5356 z"
       id="path4032"
       inkscape:connector-curvature="0"
       sodipodi:nodetypes="cccccccccccc" />
    <flowRoot
       xml:space="preserve"
       id="flowRoot2987-4-9"
       style="font-style:normal;font-variant:normal;font-weight:normal;font-stretch:normal;line-height:0.01%;font-family:Lavi;-inkscape-font-specification:Lavi;text-align:center;letter-spacing:0px;word-spacing:0px;text-anchor:middle;fill:#000000;fill-opacity:1;stroke:#000000;stroke-width:1.96720004;stroke-miterlimit:4;stroke-dasharray:none;stroke-opacity:1"
       transform="matrix(2.1937226,0,-0.23233278,2.5766533,35.554331,194.97596)"
       inkscape:transform-center-x="-14.999999"
       inkscape:transform-center-y="-32.499998"><flowRegion
         id="flowRegion2989-5-4"><rect
           id="rect2991-7-9"
           width="602.40173"
           height="310.73996"
           x="120.55251"
           y="265.53046"
           style="font-style:normal;font-variant:normal;font-weight:normal;font-stretch:normal;font-family:Lavi;-inkscape-font-specification:Lavi;text-align:center;text-anchor:middle;stroke:#000000;stroke-width:1.96720004;stroke-miterlimit:4;stroke-dasharray:none;stroke-opacity:1" /></flowRegion><flowPara
         style="font-size:48px;line-height:1.25;text-align:center;text-anchor:middle;stroke:#000000;stroke-width:1.96720004;stroke-miterlimit:4;stroke-dasharray:none;stroke-opacity:1"
         id="flowPara3030">KAJ ?!!</flowPara></flowRoot>    <path
       style="fill:#ffffff;stroke:none;stroke-width:0.9290278"
       d="m 374.35437,2022.056 c 13.50152,-71.5128 37.82437,-84.3559 99.65414,-107.8796 52.35768,-19.9199 265.19204,-12.2394 326.00572,-7.6471 78.16455,5.9024 142.90687,37.2194 171.02488,76.1717 28.11817,38.9522 -20.6419,143.2226 -91.95215,165.343 -71.31002,22.1205 -219.12794,28.8428 -322.30632,21.2664 -62.42792,-4.5841 -199.14865,-46.2227 -182.42627,-147.2544 z"
       id="path3021"
       inkscape:connector-curvature="0"
       sodipodi:nodetypes="csssssc" />
    <flowRoot
       xml:space="preserve"
       id="flowRoot2987-4-9-1"
       style="font-style:normal;font-variant:normal;font-weight:normal;font-stretch:normal;line-height:0.01%;font-family:Lavi;-inkscape-font-specification:Lavi;text-align:center;letter-spacing:0px;word-spacing:0px;text-anchor:middle;fill:#000000;fill-opacity:1;stroke:none"
       transform="translate(258.30039,1656.5602)"><flowRegion
         id="flowRegion2989-5-4-3"><rect
           id="rect2991-7-9-5"
           width="566.03296"
           height="290.90244"
           x="120.55251"
           y="265.53046"
           style="font-style:normal;font-variant:normal;font-weight:normal;font-stretch:normal;font-family:Lavi;-inkscape-font-specification:Lavi;text-align:center;text-anchor:middle" /></flowRegion><flowPara
         style="font-size:48px;line-height:1.25;text-align:center;text-anchor:middle"
         id="flowPara4488">Kot župan Komone,</flowPara><flowPara
         style="font-size:48px;line-height:1.25;text-align:center;text-anchor:middle"
         id="flowPara61">razglašam da se</flowPara><flowPara
         style="font-size:48px;line-height:1.25;text-align:center;text-anchor:middle"
         id="flowPara63">tekmovanje v napojih</flowPara><flowPara
         style="font-size:48px;line-height:1.25;text-align:center;text-anchor:middle"
         id="flowPara65">... začenja!</flowPara></flowRoot>    <path
       style="color:#000000;display:inline;overflow:visible;visibility:visible;fill:#ffffff;fill-opacity:1;fill-rule:nonzero;stroke:none;stroke-width:0.93918753px;marker:none;enable-background:accumulate"
       d="m 169.80876,2431.9207 c 9.68017,-65.4075 61.71075,-120.1361 119.79149,-130.8148 58.08062,-10.6789 537.24619,8.0089 573.54669,24.027 36.30038,16.0185 91.96108,28.0317 76.23099,140.1589 -15.73033,112.1274 -84.70107,136.1544 -153.67194,138.8243 -68.97074,2.6694 -479.16557,18.6876 -537.24632,-42.7152 -58.08049,-61.4029 -81.07081,-56.0635 -78.65091,-129.4802 z"
       id="path4010"
       inkscape:connector-curvature="0" />
    <flowRoot
       transform="translate(74.014237,2069.4345)"
       style="font-style:normal;font-variant:normal;font-weight:normal;font-stretch:normal;line-height:0.01%;font-family:Lavi;-inkscape-font-specification:Lavi;text-align:center;letter-spacing:0px;word-spacing:0px;text-anchor:middle;fill:#000000;fill-opacity:1;stroke:none"
       id="flowRoot3827"
       xml:space="preserve"><flowRegion
         id="flowRegion3829"><rect
           style="font-style:normal;font-variant:normal;font-weight:normal;font-stretch:normal;font-family:Lavi;-inkscape-font-specification:Lavi;text-align:center;text-anchor:middle"
           y="265.53046"
           x="120.55251"
           height="285.1524"
           width="727.03296"
           id="rect3831" /></flowRegion><flowPara
         id="flowPara3833"
         style="font-size:48px;line-height:1.25;text-align:center;text-anchor:middle">Našemu mestu je v veliko čast, </flowPara><flowPara
         style="font-size:48px;line-height:1.25;text-align:center;text-anchor:middle"
         id="flowPara4494">da pri prvi prireditvi tega tekmovanja pozdravljamo nič manj kot štiri čarovnice.</flowPara></flowRoot>    <path
       style="color:#000000;fill:#ffffff;fill-opacity:1;fill-rule:nonzero;stroke:none;stroke-width:1px;marker:none;visibility:visible;display:inline;overflow:visible;enable-background:accumulate"
       d="m 780.52613,2602.899 c 67.39048,-7.2879 57.08568,151.5067 86.26978,173.1099 9.7929,7.2493 31.4834,20.8279 44.6537,19.302 22.2217,-2.5742 36.1996,-31.978 105.26509,76.2516 14.5484,25.3304 64.6014,14.081 89.3863,-17.682 11.6551,-10.1772 41.1802,-16.077 77.8516,61.4689 13.8568,19.6534 45.1883,26.7156 63.2855,13.7581 9.1413,-7.2854 37.1244,-12.8074 54.186,9.6305 -28.6245,-35.0226 -70.9102,-17.2346 -84.2354,-19.4809 -16.2432,-3.961 -39.3841,-48.3247 -56.7917,-73.6014 -17.4077,-25.2767 -61.1235,-10.7157 -74.7267,-4.7692 -13.6034,5.9465 -27.7891,23.6628 -43.1211,15.4175 -15.3327,-8.246 -44.74689,-68.4598 -71.29649,-86.4517 -26.549,-17.9912 -54.1793,2.8818 -77.8695,-15.1637 -23.6905,-18.0456 -25.59,-113.7737 -41.9733,-143.1837 -15.9411,-32.6468 -53.5462,-54.4535 -53.5462,-54.4535 z"
       id="path3153"
       inkscape:connector-curvature="0"
       sodipodi:nodetypes="cssccccccsscssccc" />
    <flowRoot
       xml:space="preserve"
       id="flowRoot3849"
       style="font-style:normal;font-variant:normal;font-weight:normal;font-stretch:normal;line-height:0.01%;font-family:Lavi;-inkscape-font-specification:Lavi;text-align:center;letter-spacing:0px;word-spacing:0px;text-anchor:middle;fill:#000000;fill-opacity:1;stroke:none"
       transform="matrix(1.169845,0,0,1.169845,269.93192,2389.495)"><flowRegion
         id="flowRegion3851"><rect
           id="rect3853"
           width="617.78296"
           height="319.6524"
           x="120.55251"
           y="265.53046"
           style="font-style:normal;font-variant:normal;font-weight:normal;font-stretch:normal;font-family:Lavi;-inkscape-font-specification:Lavi;text-align:center;text-anchor:middle" /></flowRegion><flowPara
         style="font-size:48px;line-height:1.25;text-align:center;text-anchor:middle"
         id="flowPara3855">Prosim za</flowPara></flowRoot>    <flowRoot
       transform="translate(337.40699,2495.845)"
       style="font-style:normal;font-variant:normal;font-weight:normal;font-stretch:normal;line-height:0.01%;font-family:Lavi;-inkscape-font-specification:Lavi;text-align:center;letter-spacing:0px;word-spacing:0px;text-anchor:middle;fill:#000000;fill-opacity:1;stroke:none"
       id="flowRoot3857"
       xml:space="preserve"><flowRegion
         id="flowRegion3859"><rect
           style="font-style:normal;font-variant:normal;font-weight:normal;font-stretch:normal;font-family:Lavi;-inkscape-font-specification:Lavi;text-align:center;text-anchor:middle"
           y="265.53046"
           x="120.55251"
           height="319.6524"
           width="617.78296"
           id="rect3861" /></flowRegion><flowPara
         id="flowPara3863"
         style="font-size:64px;line-height:1.25;text-align:center;text-anchor:middle;stroke:#000000;stroke-width:2.5;stroke-miterlimit:4;stroke-dasharray:none;stroke-opacity:1">velik </flowPara></flowRoot>    <flowRoot
       xml:space="preserve"
       id="flowRoot2987-4-9-3"
       style="font-style:normal;font-variant:normal;font-weight:normal;font-stretch:normal;line-height:0.01%;font-family:Lavi;-inkscape-font-specification:Lavi;text-align:center;letter-spacing:0px;word-spacing:0px;text-anchor:middle;opacity:0.61395347;fill:#000000;fill-opacity:1;stroke:#000000;stroke-width:1.96720004;stroke-miterlimit:4;stroke-dasharray:none;stroke-opacity:1;filter:url(#filter3815)"
       transform="matrix(1.4875137,-0.12970238,-0.14419246,1.8926183,1051.5783,2020.7324)"
       inkscape:transform-center-x="-10.023203"
       inkscape:transform-center-y="-15.619773"><flowRegion
         id="flowRegion2989-5-4-8"><rect
           id="rect2991-7-9-0"
           width="826.12402"
           height="65.224297"
           x="120.55251"
           y="265.53046"
           style="font-style:normal;font-variant:normal;font-weight:normal;font-stretch:normal;font-family:Lavi;-inkscape-font-specification:Lavi;text-align:center;text-anchor:middle;stroke:#000000;stroke-width:1.96720004;stroke-miterlimit:4;stroke-dasharray:none;stroke-opacity:1" /></flowRegion><flowPara
         style="font-size:47.4396019px;line-height:1.25;text-align:center;text-anchor:middle;fill:#ffffff;fill-opacity:1;stroke:#959595;stroke-width:1.96720004;stroke-miterlimit:4;stroke-dasharray:none;stroke-opacity:1"
         id="flowPara3030-2">Komonsko tekmovanje v napojih</flowPara></flowRoot>    <flowRoot
       xml:space="preserve"
       id="flowRoot3849-0"
       style="font-style:normal;font-variant:normal;font-weight:normal;font-stretch:normal;line-height:0.01%;font-family:Lavi;-inkscape-font-specification:Lavi;text-align:center;letter-spacing:0px;word-spacing:0px;text-anchor:middle;fill:#000000;fill-opacity:1;stroke:none"
       transform="matrix(1.169845,0,0,1.169845,276.31523,2526.4234)"><flowRegion
         id="flowRegion3851-2"><rect
           id="rect3853-7"
           width="617.78296"
           height="319.6524"
           x="120.55251"
           y="265.53046"
           style="font-style:normal;font-variant:normal;font-weight:normal;font-stretch:normal;font-family:Lavi;-inkscape-font-specification:Lavi;text-align:center;text-anchor:middle" /></flowRegion><flowPara
         style="font-size:48px;line-height:1.25;text-align:center;text-anchor:middle"
         id="flowPara3855-1">aplavz za :</flowPara></flowRoot>  </g>
  <g
     inkscape:groupmode="layer"
     id="layer1"
     inkscape:label="txt" />
</svg>
