<?xml version="1.0" encoding="UTF-8" standalone="no"?>
<!-- Created with Inkscape (http://www.inkscape.org/) -->

<svg
   xmlns:dc="http://purl.org/dc/elements/1.1/"
   xmlns:cc="http://creativecommons.org/ns#"
   xmlns:rdf="http://www.w3.org/1999/02/22-rdf-syntax-ns#"
   xmlns:svg="http://www.w3.org/2000/svg"
   xmlns="http://www.w3.org/2000/svg"
   xmlns:xlink="http://www.w3.org/1999/xlink"
   xmlns:sodipodi="http://sodipodi.sourceforge.net/DTD/sodipodi-0.dtd"
   xmlns:inkscape="http://www.inkscape.org/namespaces/inkscape"
   id="svg2"
   version="1.1"
   inkscape:version="0.92.3 (2405546, 2018-03-11)"
   width="2481"
   height="3503"
   sodipodi:docname="E02P04.svg">
  <metadata
     id="metadata8">
    <rdf:RDF>
      <cc:Work
         rdf:about="">
        <dc:format>image/svg+xml</dc:format>
        <dc:type
           rdf:resource="http://purl.org/dc/dcmitype/StillImage" />
        <dc:title />
      </cc:Work>
    </rdf:RDF>
  </metadata>
  <defs
     id="defs6" />
  <sodipodi:namedview
     pagecolor="#ffffff"
     bordercolor="#666666"
     borderopacity="1"
     objecttolerance="10"
     gridtolerance="10"
     guidetolerance="10"
     inkscape:pageopacity="0"
     inkscape:pageshadow="2"
     inkscape:window-width="1920"
     inkscape:window-height="1025"
     id="namedview4"
     showgrid="false"
     inkscape:zoom="0.25606623"
     inkscape:cx="531.699"
     inkscape:cy="1017.3149"
     inkscape:window-x="0"
     inkscape:window-y="26"
     inkscape:window-maximized="1"
     inkscape:current-layer="layer1" />
  <g
     inkscape:groupmode="layer"
     id="layer2"
     inkscape:label="artwork"
     sodipodi:insensitive="true">
    <image
       sodipodi:absref="/home/deevad/peppercarrot/webcomics/ep02_Rainbow-potions/lang/vi/../gfx_Pepper-and-Carrot_by-David-Revoy_E02P04.png"
       xlink:href="../gfx_Pepper-and-Carrot_by-David-Revoy_E02P04.png"
       width="2481"
       height="3503"
       id="image10"
       x="-1.6728083e-06"
       y="0" />
  </g>
  <g
     inkscape:groupmode="layer"
     id="layer1"
     inkscape:label="text">
    <flowRoot
       transform="matrix(0.80173927,0.11837735,-0.12990701,0.87982663,1613.2739,1137.125)"
       style="color:#000000;font-style:normal;font-variant:normal;font-weight:normal;font-stretch:normal;line-height:0.01%;font-family:Arial;-inkscape-font-specification:Arial;letter-spacing:0px;word-spacing:0px;display:inline;overflow:visible;visibility:visible;fill:#8fc9ff;fill-opacity:1;fill-rule:nonzero;stroke:#8fc9ff;stroke-width:2.83808303;stroke-miterlimit:4;stroke-dasharray:none;stroke-opacity:1;marker:none;enable-background:accumulate"
       id="flowRoot4028"
       xml:space="preserve"><flowRegion
         style="stroke-width:6.7811141"
         id="flowRegion4030"><rect
           style="color:#000000;font-size:72px;display:inline;overflow:visible;visibility:visible;fill:#8fc9ff;fill-opacity:1;fill-rule:nonzero;stroke:#8fc9ff;stroke-width:2.83808303;stroke-miterlimit:4;stroke-dasharray:none;stroke-opacity:1;marker:none;enable-background:accumulate"
           y="425.30325"
           x="92.642677"
           height="91.750099"
           width="153.02928"
           id="rect4032" /></flowRegion><flowPara
         id="flowPara4034"
         style="color:#000000;font-style:normal;font-variant:normal;font-weight:normal;font-stretch:normal;font-size:64px;line-height:1.25;font-family:Lavi;-inkscape-font-specification:Lavi;text-align:center;text-anchor:middle;display:inline;overflow:visible;visibility:visible;fill:#8fc9ff;fill-opacity:1;fill-rule:nonzero;stroke:#8fc9ff;stroke-width:2.83808303;stroke-miterlimit:4;stroke-dasharray:none;stroke-opacity:1;marker:none;enable-background:accumulate">Ực</flowPara></flowRoot>    <flowRoot
       transform="matrix(0.85423478,0.13352688,-0.02029312,0.97637661,1554.3404,1016.459)"
       style="color:#000000;font-style:normal;font-variant:normal;font-weight:normal;font-stretch:normal;line-height:0.01%;font-family:Arial;-inkscape-font-specification:Arial;letter-spacing:0px;word-spacing:0px;display:inline;overflow:visible;visibility:visible;fill:#8fc9ff;fill-opacity:1;fill-rule:nonzero;stroke:#8fc9ff;stroke-width:2.63403606;stroke-miterlimit:4;stroke-dasharray:none;stroke-opacity:1;marker:none;enable-background:accumulate"
       id="flowRoot4044"
       xml:space="preserve"><flowRegion
         style="stroke-width:6.29357862"
         id="flowRegion4046"><rect
           style="color:#000000;font-size:72px;display:inline;overflow:visible;visibility:visible;fill:#8fc9ff;fill-opacity:1;fill-rule:nonzero;stroke:#8fc9ff;stroke-width:2.63403606;stroke-miterlimit:4;stroke-dasharray:none;stroke-opacity:1;marker:none;enable-background:accumulate"
           y="425.30325"
           x="92.642677"
           height="91.750099"
           width="153.02928"
           id="rect4048" /></flowRegion><flowPara
         id="flowPara4050"
         style="color:#000000;font-style:normal;font-variant:normal;font-weight:normal;font-stretch:normal;font-size:64px;line-height:1.25;font-family:Lavi;-inkscape-font-specification:Lavi;text-align:center;text-anchor:middle;display:inline;overflow:visible;visibility:visible;fill:#8fc9ff;fill-opacity:1;fill-rule:nonzero;stroke:#8fc9ff;stroke-width:2.63403606;stroke-miterlimit:4;stroke-dasharray:none;stroke-opacity:1;marker:none;enable-background:accumulate">Ực</flowPara></flowRoot>    <flowRoot
       xml:space="preserve"
       id="flowRoot4052"
       style="color:#000000;font-style:normal;font-variant:normal;font-weight:normal;font-stretch:normal;line-height:0.01%;font-family:Arial;-inkscape-font-specification:Arial;letter-spacing:0px;word-spacing:0px;display:inline;overflow:visible;visibility:visible;fill:#ffd28f;fill-opacity:1;fill-rule:nonzero;stroke:#ffd28f;stroke-width:2.08805585;stroke-miterlimit:4;stroke-dasharray:none;stroke-opacity:1;marker:none;enable-background:accumulate"
       transform="matrix(1.1088009,-0.25136484,-0.02634057,1.206877,1893.4106,958.098)"><flowRegion
         id="flowRegion4054"
         style="stroke-width:4.9890523"><rect
           id="rect4056"
           width="153.02928"
           height="91.750099"
           x="92.642677"
           y="425.30325"
           style="color:#000000;font-size:72px;display:inline;overflow:visible;visibility:visible;fill:#ffd28f;fill-opacity:1;fill-rule:nonzero;stroke:#ffd28f;stroke-width:2.08805585;stroke-miterlimit:4;stroke-dasharray:none;stroke-opacity:1;marker:none;enable-background:accumulate" /></flowRegion><flowPara
         style="color:#000000;font-style:normal;font-variant:normal;font-weight:normal;font-stretch:normal;font-size:64px;line-height:1.25;font-family:Lavi;-inkscape-font-specification:Lavi;text-align:center;text-anchor:middle;display:inline;overflow:visible;visibility:visible;fill:#ffd28f;fill-opacity:1;fill-rule:nonzero;stroke:#ffd28f;stroke-width:2.08805585;stroke-miterlimit:4;stroke-dasharray:none;stroke-opacity:1;marker:none;enable-background:accumulate"
         id="flowPara4058">Ực</flowPara></flowRoot>    <flowRoot
       xml:space="preserve"
       id="flowRoot4052-0"
       style="color:#000000;font-style:normal;font-variant:normal;font-weight:normal;font-stretch:normal;line-height:0.01%;font-family:Arial;-inkscape-font-specification:Arial;letter-spacing:0px;word-spacing:0px;display:inline;overflow:visible;visibility:visible;fill:#ffd28f;fill-opacity:1;fill-rule:nonzero;stroke:#ffd28f;stroke-width:2.79636216;stroke-miterlimit:4;stroke-dasharray:none;stroke-opacity:1;marker:none;enable-background:accumulate"
       transform="matrix(0.80332158,-0.19344879,-0.01908363,0.92880491,1964.0837,1161.021)"><flowRegion
         id="flowRegion4054-7"
         style="stroke-width:6.68142939"><rect
           id="rect4056-8"
           width="153.02928"
           height="91.750099"
           x="92.642677"
           y="425.30325"
           style="color:#000000;font-size:72px;display:inline;overflow:visible;visibility:visible;fill:#ffd28f;fill-opacity:1;fill-rule:nonzero;stroke:#ffd28f;stroke-width:2.79636216;stroke-miterlimit:4;stroke-dasharray:none;stroke-opacity:1;marker:none;enable-background:accumulate" /></flowRegion><flowPara
         style="color:#000000;font-style:normal;font-variant:normal;font-weight:normal;font-stretch:normal;font-size:64px;line-height:1.25;font-family:Lavi;-inkscape-font-specification:Lavi;text-align:center;text-anchor:middle;display:inline;overflow:visible;visibility:visible;fill:#ffd28f;fill-opacity:1;fill-rule:nonzero;stroke:#ffd28f;stroke-width:2.79636216;stroke-miterlimit:4;stroke-dasharray:none;stroke-opacity:1;marker:none;enable-background:accumulate"
         id="flowPara4058-8">Ực</flowPara></flowRoot>    <flowRoot
       xml:space="preserve"
       id="flowRoot4087"
       style="color:#000000;font-style:normal;font-variant:normal;font-weight:normal;font-stretch:normal;line-height:0.01%;font-family:Arial;-inkscape-font-specification:Arial;letter-spacing:0px;word-spacing:0px;display:inline;overflow:visible;visibility:visible;fill:#ff4446;fill-opacity:1;fill-rule:nonzero;stroke:#ff4346;stroke-width:2.24050236;stroke-miterlimit:4;stroke-dasharray:none;stroke-opacity:1;marker:none;enable-background:accumulate"
       transform="matrix(0.99679179,-0.00696438,-0.02367969,1.1604152,663.32993,1119.0105)"><flowRegion
         id="flowRegion4089"
         style="stroke-width:5.35329676"><rect
           id="rect4091"
           width="153.02928"
           height="91.750099"
           x="92.642677"
           y="425.30325"
           style="color:#000000;font-size:72px;display:inline;overflow:visible;visibility:visible;fill:#ff4446;fill-opacity:1;fill-rule:nonzero;stroke:#ff4346;stroke-width:2.24050236;stroke-miterlimit:4;stroke-dasharray:none;stroke-opacity:1;marker:none;enable-background:accumulate" /></flowRegion><flowPara
         style="color:#000000;font-style:normal;font-variant:normal;font-weight:normal;font-stretch:normal;font-size:64px;line-height:1.25;font-family:Lavi;-inkscape-font-specification:Lavi;text-align:center;text-anchor:middle;display:inline;overflow:visible;visibility:visible;fill:#ff4446;fill-opacity:1;fill-rule:nonzero;stroke:#ff4346;stroke-width:2.24050236;stroke-miterlimit:4;stroke-dasharray:none;stroke-opacity:1;marker:none;enable-background:accumulate"
         id="flowPara4093">Ực</flowPara></flowRoot>    <flowRoot
       transform="matrix(0.77277362,-0.13807191,-0.01835794,0.86455629,721.67376,1351.5525)"
       style="color:#000000;font-style:normal;font-variant:normal;font-weight:normal;font-stretch:normal;line-height:0.01%;font-family:Arial;-inkscape-font-specification:Arial;letter-spacing:0px;word-spacing:0px;display:inline;overflow:visible;visibility:visible;fill:#ff4446;fill-opacity:1;fill-rule:nonzero;stroke:#ff4346;stroke-width:2.95342517;stroke-miterlimit:4;stroke-dasharray:none;stroke-opacity:1;marker:none;enable-background:accumulate"
       id="flowRoot4095"
       xml:space="preserve"><flowRegion
         style="stroke-width:7.05670404"
         id="flowRegion4097"><rect
           style="color:#000000;font-size:72px;display:inline;overflow:visible;visibility:visible;fill:#ff4446;fill-opacity:1;fill-rule:nonzero;stroke:#ff4346;stroke-width:2.95342517;stroke-miterlimit:4;stroke-dasharray:none;stroke-opacity:1;marker:none;enable-background:accumulate"
           y="425.30325"
           x="92.642677"
           height="91.750099"
           width="153.02928"
           id="rect4099" /></flowRegion><flowPara
         id="flowPara4101"
         style="color:#000000;font-style:normal;font-variant:normal;font-weight:normal;font-stretch:normal;font-size:64px;line-height:1.25;font-family:Lavi;-inkscape-font-specification:Lavi;text-align:center;text-anchor:middle;display:inline;overflow:visible;visibility:visible;fill:#ff4446;fill-opacity:1;fill-rule:nonzero;stroke:#ff4346;stroke-width:2.95342517;stroke-miterlimit:4;stroke-dasharray:none;stroke-opacity:1;marker:none;enable-background:accumulate">Ực</flowPara></flowRoot>    <flowRoot
       xml:space="preserve"
       id="flowRoot4052-0-1-3"
       style="color:#000000;font-style:normal;font-variant:normal;font-weight:normal;font-stretch:normal;line-height:0.01%;font-family:Arial;-inkscape-font-specification:Arial;letter-spacing:0px;word-spacing:0px;display:inline;overflow:visible;visibility:visible;fill:#f7c587;fill-opacity:1;fill-rule:nonzero;stroke:#f7c587;stroke-width:3.45197153;stroke-miterlimit:4;stroke-dasharray:none;stroke-opacity:1;marker:none;enable-background:accumulate"
       transform="matrix(0.67145853,0.00160275,-0.0159511,0.72555485,2129.5934,2343.5373)"><flowRegion
         id="flowRegion4054-7-0-2"
         style="stroke-width:8.24789524"><rect
           id="rect4056-8-2-5"
           width="130.98526"
           height="72.916138"
           x="92.642677"
           y="425.30325"
           style="color:#000000;font-size:72px;display:inline;overflow:visible;visibility:visible;fill:#f7c587;fill-opacity:1;fill-rule:nonzero;stroke:#f7c587;stroke-width:3.45197153;stroke-miterlimit:4;stroke-dasharray:none;stroke-opacity:1;marker:none;enable-background:accumulate" /></flowRegion><flowPara
         style="color:#000000;font-style:normal;font-variant:normal;font-weight:normal;font-stretch:normal;font-size:64px;line-height:1.25;font-family:Lavi;-inkscape-font-specification:Lavi;text-align:center;text-anchor:middle;display:inline;overflow:visible;visibility:visible;fill:#f7c587;fill-opacity:1;fill-rule:nonzero;stroke:#f7c587;stroke-width:3.45197153;stroke-miterlimit:4;stroke-dasharray:none;stroke-opacity:1;marker:none;enable-background:accumulate"
         id="flowPara4058-8-1-3">m</flowPara></flowRoot>    <flowRoot
       xml:space="preserve"
       id="flowRoot4052-0-1-3-3"
       style="color:#000000;font-style:normal;font-variant:normal;font-weight:normal;font-stretch:normal;line-height:0.01%;font-family:Arial;-inkscape-font-specification:Arial;letter-spacing:0px;word-spacing:0px;display:inline;overflow:visible;visibility:visible;fill:#f7c587;fill-opacity:1;fill-rule:nonzero;stroke:#f7c587;stroke-width:2.94387889;stroke-miterlimit:4;stroke-dasharray:none;stroke-opacity:1;marker:none;enable-background:accumulate"
       transform="matrix(0.82281743,0.00179836,-0.01954677,0.81410508,2067.0272,2300.8563)"><flowRegion
         id="flowRegion4054-7-0-2-2"
         style="stroke-width:7.03389502"><rect
           id="rect4056-8-2-5-7"
           width="130.98526"
           height="72.916138"
           x="92.642677"
           y="425.30325"
           style="color:#000000;font-size:72px;display:inline;overflow:visible;visibility:visible;fill:#f7c587;fill-opacity:1;fill-rule:nonzero;stroke:#f7c587;stroke-width:2.94387889;stroke-miterlimit:4;stroke-dasharray:none;stroke-opacity:1;marker:none;enable-background:accumulate" /></flowRegion><flowPara
         style="color:#000000;font-style:normal;font-variant:normal;font-weight:normal;font-stretch:normal;font-size:64px;line-height:1.25;font-family:Lavi;-inkscape-font-specification:Lavi;text-align:center;text-anchor:middle;display:inline;overflow:visible;visibility:visible;fill:#f7c587;fill-opacity:1;fill-rule:nonzero;stroke:#f7c587;stroke-width:2.94387889;stroke-miterlimit:4;stroke-dasharray:none;stroke-opacity:1;marker:none;enable-background:accumulate"
         id="flowPara4058-8-1-3-0">m</flowPara></flowRoot>    <flowRoot
       xml:space="preserve"
       id="flowRoot4052-0-1-3-3-0"
       style="color:#000000;font-style:normal;font-variant:normal;font-weight:normal;font-stretch:normal;line-height:0.01%;font-family:Arial;-inkscape-font-specification:Arial;letter-spacing:0px;word-spacing:0px;display:inline;overflow:visible;visibility:visible;fill:#f7c587;fill-opacity:1;fill-rule:nonzero;stroke:#f7c587;stroke-width:2.00043869;stroke-miterlimit:4;stroke-dasharray:none;stroke-opacity:1;marker:none;enable-background:accumulate"
       transform="matrix(1.3357617,0.00239906,-0.03173223,1.0860362,1938.3349,2173.3013)"><flowRegion
         id="flowRegion4054-7-0-2-2-5"
         style="stroke-width:4.779706"><rect
           id="rect4056-8-2-5-7-9"
           width="130.98526"
           height="72.916138"
           x="92.642677"
           y="425.30325"
           style="color:#000000;font-size:72px;display:inline;overflow:visible;visibility:visible;fill:#f7c587;fill-opacity:1;fill-rule:nonzero;stroke:#f7c587;stroke-width:2.00043869;stroke-miterlimit:4;stroke-dasharray:none;stroke-opacity:1;marker:none;enable-background:accumulate" /></flowRegion><flowPara
         style="color:#000000;font-style:normal;font-variant:normal;font-weight:normal;font-stretch:normal;font-size:64px;line-height:1.25;font-family:Lavi;-inkscape-font-specification:Lavi;text-align:center;text-anchor:middle;display:inline;overflow:visible;visibility:visible;fill:#f7c587;fill-opacity:1;fill-rule:nonzero;stroke:#f7c587;stroke-width:2.00043869;stroke-miterlimit:4;stroke-dasharray:none;stroke-opacity:1;marker:none;enable-background:accumulate"
         id="flowPara4058-8-1-3-0-6">M</flowPara></flowRoot>    <flowRoot
       transform="matrix(1.0069281,-0.30087353,0.54127318,1.5307784,356.9853,2420.501)"
       style="color:#000000;font-style:normal;font-variant:normal;font-weight:normal;font-stretch:normal;line-height:0.01%;font-family:Arial;-inkscape-font-specification:Arial;letter-spacing:0px;word-spacing:0px;display:inline;overflow:visible;visibility:visible;fill:#ff4346;fill-opacity:1;fill-rule:nonzero;stroke:#ff4346;stroke-width:2.92116618;stroke-miterlimit:4;stroke-dasharray:none;stroke-opacity:1;marker:none;enable-background:accumulate"
       id="flowRoot4219"
       xml:space="preserve"><flowRegion
         style="stroke-width:4.40995407"
         id="flowRegion4221"><rect
           style="color:#000000;font-size:72px;display:inline;overflow:visible;visibility:visible;fill:#ff4346;fill-opacity:1;fill-rule:nonzero;stroke:#ff4346;stroke-width:2.92116618;stroke-miterlimit:4;stroke-dasharray:none;stroke-opacity:1;marker:none;enable-background:accumulate"
           y="425.30325"
           x="92.642677"
           height="72.916138"
           width="130.98526"
           id="rect4223" /></flowRegion><flowPara
         id="flowPara4225"
         style="color:#000000;font-style:normal;font-variant:normal;font-weight:normal;font-stretch:normal;font-size:64px;line-height:1.25;font-family:Lavi;-inkscape-font-specification:Lavi;text-align:center;text-anchor:middle;display:inline;overflow:visible;visibility:visible;fill:#ff4346;fill-opacity:1;fill-rule:nonzero;stroke:#ff4346;stroke-width:2.92116618;stroke-miterlimit:4;stroke-dasharray:none;stroke-opacity:1;marker:none;enable-background:accumulate">P</flowPara></flowRoot>    <flowRoot
       xml:space="preserve"
       id="flowRoot4227"
       style="color:#000000;font-style:normal;font-variant:normal;font-weight:normal;font-stretch:normal;line-height:0.01%;font-family:Arial;-inkscape-font-specification:Arial;letter-spacing:0px;word-spacing:0px;display:inline;overflow:visible;visibility:visible;fill:#ff4346;fill-opacity:1;fill-rule:nonzero;stroke:#ff4346;stroke-width:4.273736;stroke-miterlimit:4;stroke-dasharray:none;stroke-opacity:1;marker:none;enable-background:accumulate"
       transform="matrix(0.8453608,-0.22916725,0.45442283,1.1659526,443.03726,2539.615)"><flowRegion
         id="flowRegion4229"
         style="stroke-width:5.51477718"><rect
           id="rect4231"
           width="130.98526"
           height="72.916138"
           x="92.642677"
           y="425.30325"
           style="color:#000000;font-size:72px;display:inline;overflow:visible;visibility:visible;fill:#ff4346;fill-opacity:1;fill-rule:nonzero;stroke:#ff4346;stroke-width:4.273736;stroke-miterlimit:4;stroke-dasharray:none;stroke-opacity:1;marker:none;enable-background:accumulate" /></flowRegion><flowPara
         style="color:#000000;font-style:normal;font-variant:normal;font-weight:normal;font-stretch:normal;font-size:64px;line-height:1.25;font-family:Lavi;-inkscape-font-specification:Lavi;text-align:center;text-anchor:middle;display:inline;overflow:visible;visibility:visible;fill:#ff4346;fill-opacity:1;fill-rule:nonzero;stroke:#ff4346;stroke-width:4.273736;stroke-miterlimit:4;stroke-dasharray:none;stroke-opacity:1;marker:none;enable-background:accumulate"
         id="flowPara4233">h</flowPara></flowRoot>    <flowRoot
       xml:space="preserve"
       id="flowRoot4235"
       style="color:#000000;font-style:normal;font-variant:normal;font-weight:normal;font-stretch:normal;line-height:0.01%;font-family:Arial;-inkscape-font-specification:Arial;letter-spacing:0px;word-spacing:0px;display:inline;overflow:visible;visibility:visible;fill:#ff4346;fill-opacity:1;fill-rule:nonzero;stroke:#ff4346;stroke-width:5.82585049;stroke-miterlimit:4;stroke-dasharray:none;stroke-opacity:1;marker:none;enable-background:accumulate"
       transform="matrix(0.66787433,-0.30822952,0.22689749,0.77338595,610.53536,2721.08)"><flowRegion
         id="flowRegion4237"
         style="stroke-width:7.51760769"><rect
           id="rect4239"
           width="187.11639"
           height="85.837769"
           x="92.642677"
           y="425.30325"
           style="color:#000000;font-size:72px;display:inline;overflow:visible;visibility:visible;fill:#ff4346;fill-opacity:1;fill-rule:nonzero;stroke:#ff4346;stroke-width:5.82585049;stroke-miterlimit:4;stroke-dasharray:none;stroke-opacity:1;marker:none;enable-background:accumulate" /></flowRegion><flowPara
         style="color:#000000;font-style:normal;font-variant:normal;font-weight:normal;font-stretch:normal;font-size:64px;line-height:1.25;font-family:Lavi;-inkscape-font-specification:Lavi;text-align:center;text-anchor:middle;display:inline;overflow:visible;visibility:visible;fill:#ff4346;fill-opacity:1;fill-rule:nonzero;stroke:#ff4346;stroke-width:5.82585049;stroke-miterlimit:4;stroke-dasharray:none;stroke-opacity:1;marker:none;enable-background:accumulate"
         id="flowPara4241">ụt ! </flowPara></flowRoot>    <flowRoot
       xml:space="preserve"
       id="flowRoot4227-3"
       style="color:#000000;font-style:normal;font-variant:normal;font-weight:normal;font-stretch:normal;line-height:0.01%;font-family:Arial;-inkscape-font-specification:Arial;letter-spacing:0px;word-spacing:0px;display:inline;overflow:visible;visibility:visible;fill:#3481aa;fill-opacity:1;fill-rule:nonzero;stroke:#3481aa;stroke-width:4.80054903;stroke-miterlimit:4;stroke-dasharray:none;stroke-opacity:1;marker:none;enable-background:accumulate"
       transform="matrix(0.94084954,0.08007363,-0.02479608,0.91591788,1370.4975,2886.5237)"><flowRegion
         id="flowRegion4229-6"
         style="stroke-width:6.19456959"><rect
           id="rect4231-1"
           width="130.98526"
           height="72.916138"
           x="92.642677"
           y="425.30325"
           style="color:#000000;font-size:72px;display:inline;overflow:visible;visibility:visible;fill:#3481aa;fill-opacity:1;fill-rule:nonzero;stroke:#3481aa;stroke-width:4.80054903;stroke-miterlimit:4;stroke-dasharray:none;stroke-opacity:1;marker:none;enable-background:accumulate" /></flowRegion><flowPara
         style="color:#000000;font-style:normal;font-variant:normal;font-weight:normal;font-stretch:normal;font-size:64px;line-height:1.25;font-family:Lavi;-inkscape-font-specification:Lavi;text-align:center;text-anchor:middle;display:inline;overflow:visible;visibility:visible;fill:#3481aa;fill-opacity:1;fill-rule:nonzero;stroke:#3481aa;stroke-width:4.80054903;stroke-miterlimit:4;stroke-dasharray:none;stroke-opacity:1;marker:none;enable-background:accumulate"
         id="flowPara4233-6">S</flowPara></flowRoot>    <flowRoot
       xml:space="preserve"
       id="flowRoot4227-3-0"
       style="color:#000000;font-style:normal;font-variant:normal;font-weight:normal;font-stretch:normal;line-height:0.01%;font-family:Arial;-inkscape-font-specification:Arial;letter-spacing:0px;word-spacing:0px;display:inline;overflow:visible;visibility:visible;fill:#3481aa;fill-opacity:1;fill-rule:nonzero;stroke:#3481aa;stroke-width:5.86050367;stroke-miterlimit:4;stroke-dasharray:none;stroke-opacity:1;marker:none;enable-background:accumulate"
       transform="matrix(0.65290081,-0.16279439,0.17975994,0.84282685,1356.4046,2957.5207)"
       inkscape:transform-center-y="10.45748"
       inkscape:transform-center-x="-2.4565265"><flowRegion
         id="flowRegion4229-6-5"
         style="stroke-width:7.56232214"><rect
           id="rect4231-1-3"
           width="130.98526"
           height="72.916138"
           x="92.642677"
           y="425.30325"
           style="color:#000000;font-size:72px;display:inline;overflow:visible;visibility:visible;fill:#3481aa;fill-opacity:1;fill-rule:nonzero;stroke:#3481aa;stroke-width:5.86050367;stroke-miterlimit:4;stroke-dasharray:none;stroke-opacity:1;marker:none;enable-background:accumulate" /></flowRegion><flowPara
         style="color:#000000;font-style:normal;font-variant:normal;font-weight:normal;font-stretch:normal;font-size:64px;line-height:1.25;font-family:Lavi;-inkscape-font-specification:Lavi;text-align:center;text-anchor:middle;display:inline;overflow:visible;visibility:visible;fill:#3481aa;fill-opacity:1;fill-rule:nonzero;stroke:#3481aa;stroke-width:5.86050367;stroke-miterlimit:4;stroke-dasharray:none;stroke-opacity:1;marker:none;enable-background:accumulate"
         id="flowPara4233-6-6">S</flowPara></flowRoot>    <flowRoot
       xml:space="preserve"
       id="flowRoot4227-3-0-5"
       style="color:#000000;font-style:normal;font-variant:normal;font-weight:normal;font-stretch:normal;line-height:0.01%;font-family:Arial;-inkscape-font-specification:Arial;letter-spacing:0px;word-spacing:0px;display:inline;overflow:visible;visibility:visible;fill:#3481aa;fill-opacity:1;fill-rule:nonzero;stroke:#3481aa;stroke-width:6.28502321;stroke-miterlimit:4;stroke-dasharray:none;stroke-opacity:1;marker:none;enable-background:accumulate"
       transform="matrix(0.68016737,0.12571345,-0.13090459,0.71665214,1526.1008,2975.0737)"
       inkscape:transform-center-y="8.9796216"
       inkscape:transform-center-x="1.4090732"><flowRegion
         id="flowRegion4229-6-5-8"
         style="stroke-width:8.11011696"><rect
           id="rect4231-1-3-6"
           width="130.98526"
           height="72.916138"
           x="92.642677"
           y="425.30325"
           style="color:#000000;font-size:72px;display:inline;overflow:visible;visibility:visible;fill:#3481aa;fill-opacity:1;fill-rule:nonzero;stroke:#3481aa;stroke-width:6.28502321;stroke-miterlimit:4;stroke-dasharray:none;stroke-opacity:1;marker:none;enable-background:accumulate" /></flowRegion><flowPara
         style="color:#000000;font-style:normal;font-variant:normal;font-weight:normal;font-stretch:normal;font-size:64px;line-height:1.25;font-family:Lavi;-inkscape-font-specification:Lavi;text-align:center;text-anchor:middle;display:inline;overflow:visible;visibility:visible;fill:#3481aa;fill-opacity:1;fill-rule:nonzero;stroke:#3481aa;stroke-width:6.28502321;stroke-miterlimit:4;stroke-dasharray:none;stroke-opacity:1;marker:none;enable-background:accumulate"
         id="flowPara4233-6-6-5">S</flowPara></flowRoot>    <flowRoot
       xml:space="preserve"
       id="flowRoot4227-3-0-5-0"
       style="color:#000000;font-style:normal;font-variant:normal;font-weight:normal;font-stretch:normal;line-height:0.01%;font-family:Arial;-inkscape-font-specification:Arial;letter-spacing:0px;word-spacing:0px;display:inline;overflow:visible;visibility:visible;fill:#3481aa;fill-opacity:1;fill-rule:nonzero;stroke:#3481aa;stroke-width:4.88304234;stroke-miterlimit:4;stroke-dasharray:none;stroke-opacity:1;marker:none;enable-background:accumulate"
       transform="matrix(0.92017512,0.15394292,-0.17709633,0.8775794,1546.3485,2915.0527)"
       inkscape:transform-center-y="10.996137"
       inkscape:transform-center-x="1.906214"><flowRegion
         id="flowRegion4229-6-5-8-3"
         style="stroke-width:6.30101871"><rect
           id="rect4231-1-3-6-6"
           width="130.98526"
           height="72.916138"
           x="92.642677"
           y="425.30325"
           style="color:#000000;font-size:72px;display:inline;overflow:visible;visibility:visible;fill:#3481aa;fill-opacity:1;fill-rule:nonzero;stroke:#3481aa;stroke-width:4.88304234;stroke-miterlimit:4;stroke-dasharray:none;stroke-opacity:1;marker:none;enable-background:accumulate" /></flowRegion><flowPara
         style="color:#000000;font-style:normal;font-variant:normal;font-weight:normal;font-stretch:normal;font-size:64px;line-height:1.25;font-family:Lavi;-inkscape-font-specification:Lavi;text-align:center;text-anchor:middle;display:inline;overflow:visible;visibility:visible;fill:#3481aa;fill-opacity:1;fill-rule:nonzero;stroke:#3481aa;stroke-width:4.88304234;stroke-miterlimit:4;stroke-dasharray:none;stroke-opacity:1;marker:none;enable-background:accumulate"
         id="flowPara4233-6-6-5-6">P</flowPara></flowRoot>    <flowRoot
       xml:space="preserve"
       id="flowRoot4227-3-0-5-0-6"
       style="color:#000000;font-style:normal;font-variant:normal;font-weight:normal;font-stretch:normal;line-height:0.01%;font-family:Arial;-inkscape-font-specification:Arial;letter-spacing:0px;word-spacing:0px;display:inline;overflow:visible;visibility:visible;fill:#3481aa;fill-opacity:1;fill-rule:nonzero;stroke:#3481aa;stroke-width:4.88304234;stroke-miterlimit:4;stroke-dasharray:none;stroke-opacity:1;marker:none;enable-background:accumulate"
       transform="matrix(0.88450137,-0.28171053,0.3043792,0.84685299,1361.7812,2986.5027)"
       inkscape:transform-center-y="16.193746"><flowRegion
         id="flowRegion4229-6-5-8-3-8"
         style="stroke-width:6.30101871"><rect
           id="rect4231-1-3-6-6-2"
           width="130.98526"
           height="72.916138"
           x="92.642677"
           y="425.30325"
           style="color:#000000;font-size:72px;display:inline;overflow:visible;visibility:visible;fill:#3481aa;fill-opacity:1;fill-rule:nonzero;stroke:#3481aa;stroke-width:4.88304234;stroke-miterlimit:4;stroke-dasharray:none;stroke-opacity:1;marker:none;enable-background:accumulate" /></flowRegion><flowPara
         style="color:#000000;font-style:normal;font-variant:normal;font-weight:normal;font-stretch:normal;font-size:64px;line-height:1.25;font-family:Lavi;-inkscape-font-specification:Lavi;text-align:center;text-anchor:middle;display:inline;overflow:visible;visibility:visible;fill:#3481aa;fill-opacity:1;fill-rule:nonzero;stroke:#3481aa;stroke-width:4.88304234;stroke-miterlimit:4;stroke-dasharray:none;stroke-opacity:1;marker:none;enable-background:accumulate"
         id="flowPara4233-6-6-5-6-1">l</flowPara></flowRoot>    <flowRoot
       xml:space="preserve"
       id="flowRoot4227-3-0-5-0-6-6"
       style="color:#000000;font-style:normal;font-variant:normal;font-weight:normal;font-stretch:normal;line-height:0.01%;font-family:Arial;-inkscape-font-specification:Arial;letter-spacing:0px;word-spacing:0px;display:inline;overflow:visible;visibility:visible;fill:#3481aa;fill-opacity:1;fill-rule:nonzero;stroke:#3481aa;stroke-width:4.88304234;stroke-miterlimit:4;stroke-dasharray:none;stroke-opacity:1;marker:none;enable-background:accumulate"
       transform="matrix(0.79876131,-0.45182086,0.49293258,0.76627676,1314.6871,3042.4707)"
       inkscape:transform-center-y="9.4084428"
       inkscape:transform-center-x="-6.4103094"><flowRegion
         id="flowRegion4229-6-5-8-3-8-0"
         style="stroke-width:6.30101871"><rect
           id="rect4231-1-3-6-6-2-2"
           width="130.98526"
           height="72.916138"
           x="92.642677"
           y="425.30325"
           style="color:#000000;font-size:72px;display:inline;overflow:visible;visibility:visible;fill:#3481aa;fill-opacity:1;fill-rule:nonzero;stroke:#3481aa;stroke-width:4.88304234;stroke-miterlimit:4;stroke-dasharray:none;stroke-opacity:1;marker:none;enable-background:accumulate" /></flowRegion><flowPara
         style="color:#000000;font-style:normal;font-variant:normal;font-weight:normal;font-stretch:normal;font-size:64px;line-height:1.25;font-family:Lavi;-inkscape-font-specification:Lavi;text-align:center;text-anchor:middle;display:inline;overflow:visible;visibility:visible;fill:#3481aa;fill-opacity:1;fill-rule:nonzero;stroke:#3481aa;stroke-width:4.88304234;stroke-miterlimit:4;stroke-dasharray:none;stroke-opacity:1;marker:none;enable-background:accumulate"
         id="flowPara4233-6-6-5-6-1-6">a</flowPara></flowRoot>    <flowRoot
       xml:space="preserve"
       id="flowRoot4227-3-0-5-0-6-6-6"
       style="color:#000000;font-style:normal;font-variant:normal;font-weight:normal;font-stretch:normal;line-height:0.01%;font-family:Arial;-inkscape-font-specification:Arial;letter-spacing:0px;word-spacing:0px;display:inline;overflow:visible;visibility:visible;fill:#3481aa;fill-opacity:1;fill-rule:nonzero;stroke:#3481aa;stroke-width:4.88304234;stroke-miterlimit:4;stroke-dasharray:none;stroke-opacity:1;marker:none;enable-background:accumulate"
       transform="matrix(0.79876131,-0.45182086,0.49293258,0.76627676,1345.8844,3026.6867)"
       inkscape:transform-center-y="9.4088478"
       inkscape:transform-center-x="-6.4103167"><flowRegion
         id="flowRegion4229-6-5-8-3-8-0-0"
         style="stroke-width:6.30101871"><rect
           id="rect4231-1-3-6-6-2-2-7"
           width="130.98526"
           height="72.916138"
           x="92.642677"
           y="425.30325"
           style="color:#000000;font-size:72px;display:inline;overflow:visible;visibility:visible;fill:#3481aa;fill-opacity:1;fill-rule:nonzero;stroke:#3481aa;stroke-width:4.88304234;stroke-miterlimit:4;stroke-dasharray:none;stroke-opacity:1;marker:none;enable-background:accumulate" /></flowRegion><flowPara
         style="color:#000000;font-style:normal;font-variant:normal;font-weight:normal;font-stretch:normal;font-size:64px;line-height:1.25;font-family:Lavi;-inkscape-font-specification:Lavi;text-align:center;text-anchor:middle;display:inline;overflow:visible;visibility:visible;fill:#3481aa;fill-opacity:1;fill-rule:nonzero;stroke:#3481aa;stroke-width:4.88304234;stroke-miterlimit:4;stroke-dasharray:none;stroke-opacity:1;marker:none;enable-background:accumulate"
         id="flowPara4233-6-6-5-6-1-6-7">t</flowPara></flowRoot>  </g>
</svg>
