<?xml version="1.0" encoding="UTF-8" standalone="no"?>
<svg
   xmlns:dc="http://purl.org/dc/elements/1.1/"
   xmlns:cc="http://creativecommons.org/ns#"
   xmlns:rdf="http://www.w3.org/1999/02/22-rdf-syntax-ns#"
   xmlns:svg="http://www.w3.org/2000/svg"
   xmlns="http://www.w3.org/2000/svg"
   xmlns:xlink="http://www.w3.org/1999/xlink"
   xmlns:sodipodi="http://sodipodi.sourceforge.net/DTD/sodipodi-0.dtd"
   xmlns:inkscape="http://www.inkscape.org/namespaces/inkscape"
   sodipodi:docname="E06P02.svg"
   height="3503"
   width="2481"
   inkscape:version="1.0 (4035a4f, 2020-05-01)"
   version="1.1"
   id="svg2">
  <sodipodi:namedview
     inkscape:window-maximized="0"
     inkscape:window-y="23"
     inkscape:window-x="0"
     inkscape:document-rotation="0"
     inkscape:current-layer="layer1"
     inkscape:cy="3503.446"
     inkscape:cx="1175.7603"
     inkscape:zoom="0.38651685"
     showgrid="false"
     id="namedview70"
     inkscape:window-height="790"
     inkscape:window-width="1440"
     inkscape:pageshadow="2"
     inkscape:pageopacity="0"
     bordercolor="#666666"
     pagecolor="#ffffff" />
  <metadata
     id="metadata8">
    <rdf:RDF>
      <cc:Work
         rdf:about="">
        <dc:format>image/svg+xml</dc:format>
        <dc:type
           rdf:resource="http://purl.org/dc/dcmitype/StillImage" />
        <dc:title />
      </cc:Work>
    </rdf:RDF>
  </metadata>
  <defs
     id="defs6" />
  <sodipodi:namedview
     inkscape:current-layer="layer1"
     inkscape:window-maximized="1"
     inkscape:window-y="26"
     inkscape:window-x="0"
     inkscape:cy="873.16163"
     inkscape:cx="1469.3489"
     inkscape:zoom="0.46000001"
     showgrid="false"
     id="namedview4"
     inkscape:window-height="1025"
     inkscape:window-width="1920"
     inkscape:pageshadow="2"
     inkscape:pageopacity="0"
     guidetolerance="10"
     gridtolerance="10"
     objecttolerance="10"
     borderopacity="1"
     bordercolor="#666666"
     pagecolor="#ffffff" />
  <g
     sodipodi:insensitive="true"
     inkscape:label="artwork"
     id="layer2"
     inkscape:groupmode="layer">
    <image
       sodipodi:absref="/Users/julienj-mauduit/Downloads/lang-2/gfx_Pepper-and-Carrot_by-David-Revoy_E06P02.png"
       xlink:href="../gfx_Pepper-and-Carrot_by-David-Revoy_E06P02.png"
       width="2481"
       height="3503"
       id="image10"
       x="0"
       y="0" />
  </g>
  <g
     inkscape:label="speechbubbles"
     id="layer3"
     inkscape:groupmode="layer" />
  <g
     inkscape:label="txt"
     id="layer1"
     inkscape:groupmode="layer">
    <path
       sodipodi:nodetypes="csscccsssc"
       inkscape:connector-curvature="0"
       id="path3187"
       d="m 1126.196,2721.2257 c 135.5001,-128.2224 200.0239,-172.4369 303.2622,-190.1228 103.2381,-17.6857 394.8711,-0.1516 477.4766,95.0614 86.8277,100.0797 139.8017,280.7627 139.8017,446.5675 4.3016,48.636 -10.7539,55.2682 -10.7539,55.2682 l -53.7699,-39.7932 c 0,0 32.2619,64.1112 19.3571,-59.6896 -12.9047,-123.801 -70.7991,-330.2166 -143.9262,-400.96 -73.1271,-70.7432 -343.8302,-98.6292 -458.2966,-69.9255 -92.6876,23.2424 -148.1467,52.739 -273.151,163.594 z"
       style="fill:#ffffff;stroke:none" />
    <path
       sodipodi:nodetypes="zsssssssz"
       inkscape:connector-curvature="0"
       id="path4554"
       d="m 1506.5526,2516.7957 c 10.3274,-48.1341 117.508,-70.6089 153.1695,-67.1054 35.6616,3.5033 127.3888,18.5965 149.3775,19.2121 21.9887,0.6156 101.9429,-5.9136 130.8732,-7.6087 28.9303,-1.6951 63.4005,44.3607 60.1263,63.0569 -3.2742,18.6961 -26.7345,70.6452 -102.4957,74.7867 -75.7613,4.1417 -177.2489,-6.2147 -198.0383,-0.5341 -20.7897,5.6805 -110.2939,9.4373 -142.7864,-9.0076 -32.4926,-18.445 -60.5533,-24.6656 -50.2261,-72.7999 z"
       style="color:#000000;fill:#ffffff;fill-opacity:1;fill-rule:nonzero;stroke:none;stroke-width:1px;marker:none;visibility:visible;display:inline;overflow:visible;enable-background:accumulate" />
    <path
       inkscape:connector-curvature="0"
       id="path3063"
       d="m 697.54853,2099.3875 c 30.24788,20.3454 69.46645,28.5957 104.81474,18.1905 25.04315,-7.3659 46.51156,-25.2296 59.1682,-47.963 11.37636,-19.4744 21.52684,-39.7025 30.05435,-60.5865 1.05717,-2.2727 1.78491,-7.2765 3.43776,-2.6524 7.4238,12.2436 14.84756,24.4872 22.27136,36.7308 -7.65146,15.2359 -15.3029,30.4719 -22.95436,45.7078 -19.91161,21.5737 -45.91697,37.8505 -74.49276,44.9595 -25.79601,6.2332 -53.48492,3.5762 -77.80077,-6.9723 -16.13538,-6.7735 -30.9746,-16.3652 -44.49852,-27.4144 z"
       style="fill:#ffffff;stroke:none" />
    <path
       sodipodi:nodetypes="ccccccccccccccc"
       inkscape:connector-curvature="0"
       id="path3549"
       d="m 646.56589,812.49757 c 5.54026,-10.40243 29.48444,-40.89799 25.96253,-3.09796 38.46924,-43.6161 65.30287,-21.15041 92.79778,-2.44084 9.52859,-13.5107 13.287,-36.07246 37.45669,-26.6174 -1.64703,-15.23645 7.98019,-23.91803 27.66728,-26.75104 -24.05674,-13.04006 -27.53098,-22.94062 20.42627,-24.99637 -35.43722,-6.86514 -68.37183,-14.33673 -22.45965,-40.91499 -12.98569,-2.98801 -47.53756,19.8163 -22.81154,-59.62338 -25.78516,22.45898 -51.59743,32.92573 -74.83512,-26.97016 -11.96805,20.13276 -27.63251,32.46532 -50.55059,-1.53226 -8.38718,20.56416 -40.73275,17.00105 -52.00692,10.66207 20.81636,28.0281 18.12597,42.83986 -14.51867,39.77964 48.82733,52.39551 5.30689,38.48145 -4.81565,48.02423 40.73095,22.03277 19.34335,37.43743 9.43985,54.69287 48.88787,8.78131 29.14398,35.80229 28.24774,59.78559 z"
       style="color:#000000;fill:#ffffff;fill-opacity:1;fill-rule:nonzero;stroke:none;stroke-width:1px;marker:none;visibility:visible;display:inline;overflow:visible;enable-background:accumulate" />
    <path
       sodipodi:nodetypes="cccccccccccc"
       inkscape:connector-curvature="0"
       id="path4032"
       d="m 976.44338,847.56589 c -30.6895,-33.22336 -66.9003,-62.08779 -91.17475,-100.37564 l 1.54948,40.35805 c -15.99714,-8.96132 -24.76055,-26.36164 -35.9803,-40.89653 l -3.27371,25.12109 c -37.48833,-21.61613 -60.02929,-54.53911 -89.79475,-81.99702 l -2.13576,44.21988 c 33.44478,24.19089 70.51094,42.61441 99.88228,73.29247 l 5.75736,-24.2252 c 11.65945,9.15239 22.96362,18.78968 32.68105,30.59298 l 4.46649,-31.03554 z"
       style="color:#000000;fill:#ffffff;fill-opacity:1;fill-rule:nonzero;stroke:none;stroke-width:1px;marker:none;visibility:visible;display:inline;overflow:visible;enable-background:accumulate" />
    <flowRoot
       transform="matrix(2.0639129,0,-0.41696688,1.8332873,-36.565342,170.77136)"
       style="font-style:normal;font-variant:normal;font-weight:normal;font-stretch:normal;line-height:0.01%;font-family:Lavi;-inkscape-font-specification:Lavi;text-align:center;letter-spacing:0px;word-spacing:0px;text-anchor:middle;fill:#000000;fill-opacity:1;stroke:none"
       id="flowRoot2987-4-9"
       xml:space="preserve"><flowRegion
         id="flowRegion2989-5-4"><rect
           style="font-style:normal;font-variant:normal;font-weight:normal;font-stretch:normal;font-family:Lavi;-inkscape-font-specification:Lavi;text-align:center;text-anchor:middle"
           y="265.53046"
           x="120.55251"
           height="310.73996"
           width="602.40173"
           id="rect2991-7-9" /></flowRegion><flowPara
         id="flowPara3030"
         style="font-size:48px;line-height:1.25;text-align:center;text-anchor:middle">!!!</flowPara></flowRoot>
    <path
       sodipodi:nodetypes="cssssssssc"
       inkscape:connector-curvature="0"
       id="path3061"
       d="m 661.98441,1889.9445 c 21.40161,-77.8331 125.39127,-83.8846 140.3615,-89.6394 14.97025,-5.7548 96.46631,-3.5869 106.13159,-1.7338 9.6653,1.8529 121.5343,-8.639 133.613,4.96 7.3005,8.2193 155.0199,-0.8433 177.6235,12.2286 22.6035,13.0719 24.9984,115.997 21.5323,144.9521 -3.4661,28.9551 -37.6981,85.4899 -106.1572,106.751 -68.4592,21.2611 -196.23625,33.3062 -272.82986,21.5725 -76.59363,-11.7337 -132.66136,-29.7459 -152.98252,-52.7074 -20.32124,-22.9614 -62.82558,-108.3935 -47.29231,-146.3836 z"
       style="fill:#ffffff;stroke:none;stroke-width:0.92368" />
    <flowRoot
       transform="translate(564.96352,1567.399)"
       style="font-style:normal;font-variant:normal;font-weight:normal;font-stretch:normal;line-height:0.01%;font-family:Lavi;-inkscape-font-specification:Lavi;text-align:center;letter-spacing:0px;word-spacing:0px;text-anchor:middle;fill:#000000;fill-opacity:1;stroke:none"
       id="flowRoot2987-4-9-3"
       xml:space="preserve"><flowRegion
         id="flowRegion2989-5-4-0"><rect
           style="font-style:normal;font-variant:normal;font-weight:normal;font-stretch:normal;font-family:Lavi;-inkscape-font-specification:Lavi;text-align:center;text-anchor:middle"
           y="265.53046"
           x="120.55251"
           height="267.61493"
           width="553.52673"
           id="rect2991-7-9-6" /></flowRegion><flowPara
         id="flowPara3126"
         style="font-size:48px;line-height:1.25;text-align:center;text-anchor:middle">Carrot! Qué t'es rêvablle</flowPara><flowPara
         id="flowPara4170"
         style="font-size:48px;line-height:1.25;text-align:center;text-anchor:middle">  d'avaer apensaé</flowPara><flowPara
         id="flowPara3130"
         style="font-size:48px;line-height:1.25;text-align:center;text-anchor:middle"> à m'portaé au concous !</flowPara><flowPara
         id="flowPara3075"
         style="font-size:48px;line-height:1.25;text-align:center;text-anchor:middle"> </flowPara></flowRoot>
    <flowRoot
       transform="matrix(1.1668178,0,0,1.1668178,1270.1832,2179.6317)"
       style="font-style:normal;font-variant:normal;font-weight:normal;font-stretch:normal;line-height:0.01%;font-family:Lavi;-inkscape-font-specification:Lavi;text-align:center;letter-spacing:0px;word-spacing:0px;text-anchor:middle;fill:#000000;fill-opacity:1;stroke:none"
       id="flowRoot2987-4-9-1"
       xml:space="preserve"><flowRegion
         id="flowRegion2989-5-4-5"><rect
           style="font-style:normal;font-variant:normal;font-weight:normal;font-stretch:normal;font-family:Lavi;-inkscape-font-specification:Lavi;text-align:center;text-anchor:middle"
           y="265.53046"
           x="120.55251"
           height="310.73996"
           width="602.40173"
           id="rect2991-7-9-8" /></flowRegion><flowPara
         id="flowPara3030-6"
         style="font-size:48px;line-height:1.25;text-align:center;text-anchor:middle">In-cri-ya-blle !</flowPara></flowRoot>
    <path
       sodipodi:nodetypes="csssssc"
       inkscape:connector-curvature="0"
       id="path4010"
       d="m 1720.1342,2781.2408 c 7.7888,-68.5872 23.1883,-100.4107 69.9211,-111.6086 46.7326,-11.198 443.6193,-14.8433 472.8273,1.9535 29.2079,16.7972 73.9934,29.3946 61.3367,146.9728 -12.6569,117.5784 -70.6519,130.2734 -126.147,133.0731 -55.495,2.7994 -383.0445,32.0962 -429.7772,-32.2917 -46.7326,-64.388 -50.1081,-61.1133 -48.1609,-138.0991 z"
       style="color:#000000;fill:#ffffff;fill-opacity:1;fill-rule:nonzero;stroke:none;stroke-width:1px;marker:none;visibility:visible;display:inline;overflow:visible;enable-background:accumulate" />
    <flowRoot
       transform="translate(1633.7214,2429.0796)"
       style="font-style:normal;font-variant:normal;font-weight:normal;font-stretch:normal;line-height:0.01%;font-family:Lavi;-inkscape-font-specification:Lavi;text-align:center;letter-spacing:0px;word-spacing:0px;text-anchor:middle;fill:#000000;fill-opacity:1;stroke:none"
       id="flowRoot2987-4-9-1-3"
       xml:space="preserve"><flowRegion
         id="flowRegion2989-5-4-5-4"><rect
           style="font-style:normal;font-variant:normal;font-weight:normal;font-stretch:normal;font-family:Lavi;-inkscape-font-specification:Lavi;text-align:center;text-anchor:middle"
           y="265.53046"
           x="120.55251"
           height="339.48993"
           width="544.90173"
           id="rect2991-7-9-8-8" /></flowRegion><flowPara
         id="flowPara3030-6-6"
         style="font-size:48px;line-height:1.25;text-align:center;text-anchor:middle">T'as même apensaé à prenre eune pètiouns, més hardes, et mén capé... </flowPara><flowPara
         id="flowPara3124"
         style="font-size:48px;line-height:1.25;text-align:center;text-anchor:middle"> </flowPara></flowRoot>
    <path
       inkscape:connector-curvature="0"
       id="path4974"
       d="m 1811.9484,3114.9066 c 8.978,-69.0461 141.9813,-87.7211 249.5088,-82.6217 107.5275,5.0994 259.3864,27.9067 256.6637,77.5372 -2.7228,49.6305 -36.5552,94.6371 -65.5141,102.1617 -28.9587,7.5247 -179.13,14.7763 -223.6685,13.0065 -44.5383,-1.77 -226.0265,16.7958 -216.9899,-110.0837 z"
       style="color:#000000;display:inline;overflow:visible;visibility:visible;fill:#ffffff;fill-opacity:1;fill-rule:nonzero;stroke:none;stroke-width:0.897903px;marker:none;enable-background:accumulate" />
    <flowRoot
       transform="translate(1666.9126,2799.0932)"
       style="font-style:normal;font-variant:normal;font-weight:normal;font-stretch:normal;line-height:0.01%;font-family:Lavi;-inkscape-font-specification:Lavi;text-align:center;letter-spacing:0px;word-spacing:0px;text-anchor:middle;fill:#000000;fill-opacity:1;stroke:none"
       id="flowRoot2987-4-9-1-3-4"
       xml:space="preserve"><flowRegion
         id="flowRegion2989-5-4-5-4-1"><rect
           style="font-style:normal;font-variant:normal;font-weight:normal;font-stretch:normal;font-family:Lavi;-inkscape-font-specification:Lavi;text-align:center;text-anchor:middle"
           y="265.53046"
           x="120.55251"
           height="339.48993"
           width="544.90173"
           id="rect2991-7-9-8-8-4" /></flowRegion><flowPara
         id="flowPara3178"
         style="font-size:48px;line-height:1.25;text-align:center;text-anchor:middle">.. Viyouns veî quil pètiouns t'as pris ... </flowPara><flowPara
         id="flowPara3124-1"
         style="font-size:48px;line-height:1.25;text-align:center;text-anchor:middle"> </flowPara></flowRoot>
  </g>
</svg>
