<?xml version="1.0" encoding="UTF-8" standalone="no"?>
<svg
   xmlns:dc="http://purl.org/dc/elements/1.1/"
   xmlns:cc="http://creativecommons.org/ns#"
   xmlns:rdf="http://www.w3.org/1999/02/22-rdf-syntax-ns#"
   xmlns:svg="http://www.w3.org/2000/svg"
   xmlns="http://www.w3.org/2000/svg"
   xmlns:xlink="http://www.w3.org/1999/xlink"
   xmlns:sodipodi="http://sodipodi.sourceforge.net/DTD/sodipodi-0.dtd"
   xmlns:inkscape="http://www.inkscape.org/namespaces/inkscape"
   inkscape:export-ydpi="30.955259"
   inkscape:export-xdpi="30.955259"
   inkscape:export-filename="C:\Users\ruden\Desktop\E33P02.png"
   sodipodi:docname="E33P02.svg"
   height="3503"
   width="2481"
   inkscape:version="1.0 (1.0+r73+1)"
   version="1.1"
   id="svg2">
  <metadata
     id="metadata8">
    <rdf:RDF>
      <cc:Work
         rdf:about="">
        <dc:format>image/svg+xml</dc:format>
        <dc:type
           rdf:resource="http://purl.org/dc/dcmitype/StillImage" />
        <dc:title />
      </cc:Work>
    </rdf:RDF>
  </metadata>
  <defs
     id="defs6">
    <filter
       style="color-interpolation-filters:sRGB"
       id="filter3018-9-9"
       inkscape:label="dark-magic-speech"
       inkscape:menu="Distort"
       inkscape:menu-tooltip="Something like a water noise"
       height="1.3"
       y="-0.15000001"
       width="1.3"
       x="-0.15000001">
      <feTurbulence
         id="feTurbulence3020-3-0"
         numOctaves="5"
         seed="0"
         type="fractalNoise"
         baseFrequency="0.045999999999999999"
         result="result1" />
      <feGaussianBlur
         id="feGaussianBlur3022-77-9"
         stdDeviation="2"
         result="result2" />
      <feDisplacementMap
         id="feDisplacementMap3024-6-9"
         in2="result2"
         scale="50"
         yChannelSelector="B"
         xChannelSelector="R"
         in="SourceGraphic" />
    </filter>
    <filter
       width="1.1900001"
       style="color-interpolation-filters:sRGB"
       id="filter4375-4-1-1-1-9-5-8-6"
       inkscape:label="soundFX">
      <feFlood
         id="feFlood4377-7-9-0-8-1-7-3-7"
         flood-opacity="1"
         flood-color="rgb(92,53,102)"
         result="flood" />
      <feComposite
         id="feComposite4379-3-8-8-2-77-4-1-5"
         in2="SourceGraphic"
         in="flood"
         operator="in"
         result="composite1" />
      <feMorphology
         id="feMorphology4393-1-0-49-8-9-3-0-3"
         operator="dilate"
         radius="6.2000000000000002"
         result="result3" />
      <feComposite
         id="feComposite4385-9-5-7-0-8-8-7-56"
         in2="result3"
         in="SourceGraphic"
         operator="over"
         result="fbSourceGraphic" />
      <feColorMatrix
         result="fbSourceGraphicAlpha"
         in="fbSourceGraphic"
         values="0 0 0 -1 0 0 0 0 -1 0 0 0 0 -1 0 0 0 0 1 0"
         id="feColorMatrix4544-2" />
      <feTurbulence
         id="feTurbulence4546-9"
         type="fractalNoise"
         numOctaves="3"
         seed="37"
         baseFrequency="0.129 0.0050000000000000001"
         result="turbulence" />
      <feDisplacementMap
         id="feDisplacementMap4548-1"
         in2="turbulence"
         in="fbSourceGraphic"
         scale="10"
         yChannelSelector="A"
         xChannelSelector="B"
         result="fbSourceGraphic" />
      <feColorMatrix
         result="fbSourceGraphicAlpha"
         in="fbSourceGraphic"
         values="0 0 0 -1 0 0 0 0 -1 0 0 0 0 -1 0 0 0 0 1 0"
         id="feColorMatrix4670-2" />
      <feComposite
         id="feComposite4674-0"
         in2="fbSourceGraphic"
         in="flood"
         operator="in"
         result="composite1" />
      <feComposite
         id="feComposite4680-6"
         in2="composite1"
         in="fbSourceGraphic"
         operator="over"
         result="composite2" />
    </filter>
  </defs>
  <sodipodi:namedview
     inkscape:snap-global="false"
     inkscape:document-rotation="0"
     inkscape:current-layer="layer3"
     inkscape:window-maximized="1"
     inkscape:window-y="34"
     inkscape:window-x="2560"
     inkscape:cy="2205.2721"
     inkscape:cx="1369.9523"
     inkscape:zoom="0.48517716"
     showgrid="false"
     id="namedview4"
     inkscape:window-height="1020"
     inkscape:window-width="1920"
     inkscape:pageshadow="2"
     inkscape:pageopacity="0"
     guidetolerance="10"
     gridtolerance="10"
     objecttolerance="10"
     borderopacity="1"
     bordercolor="#666666"
     pagecolor="#ffffff" />
  <g
     sodipodi:insensitive="true"
     inkscape:label="artwork"
     id="layer2"
     inkscape:groupmode="layer">
    <image
       sodipodi:absref="/home/deevad/peppercarrot/webcomics/ep33_Spell-of-War/lang/gfx_Pepper-and-Carrot_by-David-Revoy_E33P02.png"
       xlink:href="../gfx_Pepper-and-Carrot_by-David-Revoy_E33P02.png"
       width="2481"
       height="3503"
       id="image10"
       x="0"
       y="0" />
  </g>
  <g
     style="display:inline"
     inkscape:label="speechbubbles"
     id="layer3"
     inkscape:groupmode="layer">
    <path
       style="fill:#0f0f0f;fill-opacity:1;fill-rule:evenodd;stroke:none;stroke-width:0.999996px;stroke-linecap:butt;stroke-linejoin:miter;stroke-opacity:1"
       d="m 1603.617,2900.7968 c 0,0 -27.3248,-23.7569 -41.3688,-35.7472 -14.043,-11.9899 -28.5234,-25.421 -51.5926,-37.4265 30.8469,13.6257 44.5534,17.6378 44.5534,17.6378 0,0 -30.7119,-30.2731 -78.5901,-47.7633 -24.6028,-8.9877 -65.2442,-10.0982 -90.2001,-8.8673 26.2546,-6.1035 46.8033,-9.281 46.8033,-9.281 0,0 -69.5507,-19.6686 -108.0388,-13.863 -38.4889,5.8053 -80.704,1.2939 -115.0144,43.7789 42.5625,-51.8884 78.9921,-52.8998 114.7823,-56.3237 50.6472,-4.8449 140.4415,8.5514 168.78,16.1899 -33.3821,2.0473 -42.6052,4.1201 -42.6052,4.1201 0,0 25.4783,0.4116 69.4951,23.1451 44.0157,22.7334 95.6203,69.3559 101.4489,78.2848 5.8296,8.9291 -18.453,26.1154 -18.453,26.1154 z"
       id="path1295-3"
       inkscape:connector-curvature="0"
       sodipodi:nodetypes="ccccsccccsccccc" />
    <path
       style="color:#000000;display:inline;overflow:visible;visibility:visible;fill:#0f0f0f;fill-opacity:1;fill-rule:nonzero;stroke:none;stroke-width:1px;marker:none;filter:url(#filter3018-9-9);enable-background:accumulate"
       d="m 428.67969,53.949219 c -42.9455,2.206213 -86.51838,3.637631 -128.08166,15.746955 -23.49333,7.328264 -39.45999,31.049046 -40.665,55.167646 -0.4046,7.7912 0.90221,15.53043 1.45739,23.28513 2.55016,24.46915 7.18432,49.1848 3.46855,73.79367 -2.90562,24.54702 -11.54303,48.37071 -11.16067,73.28696 1.42366,17.0493 13.4606,32.79899 29.80529,38.13413 16.48909,6.33013 34.43531,3.7008 51.61308,5.68997 37.57918,3.49927 74.04102,14.07558 111.45088,18.68977 29.17951,2.20449 57.43742,-6.92586 85.37626,-13.91984 18.95134,-4.82587 38.90136,-9.2127 54.64389,-21.52563 18.9388,-14.5978 29.08533,-38.76161 28.68769,-62.41517 -0.72272,-19.63423 -1.43002,-39.28001 -3.13477,-58.86133 -1.92634,-22.38361 -4.38235,-44.73495 -7.55434,-66.973 C 601.27593,116.90057 594.74506,99.315489 581.24955,87.563759 568.03119,76.555412 550.63768,72.710668 533.96349,70.713705 498.93504,64.873836 464.49354,53.733654 428.67969,53.949219 Z"
       id="path3986-45"
       inkscape:connector-curvature="0"
       sodipodi:nodetypes="csssssc"
       transform="matrix(0.93497009,0,0,0.90016842,1250.2766,2805.4742)" />
    <path
       style="display:inline;fill:#ffffff;fill-rule:evenodd;stroke:none;stroke-width:1px;stroke-linecap:butt;stroke-linejoin:miter;stroke-opacity:1"
       d="m 1868.5406,1280.1298 c 28.6417,18.4361 2.5003,35.4714 -33.5511,21.1251 37.5294,27.5168 16.7429,44.4292 -11.5636,43.4685 15.8943,19.1732 31.4284,37.549 -9.6403,71.1536 25.554,-2.9887 27.2385,-9.592 44.1536,-1.3166 8.4629,5.7695 8.5134,19.5545 1.8989,28.0112 -0.994,2.9465 34.2938,18.0449 26.7188,15.9902 11.6056,-15.4524 23.691,-16.5627 37.2081,-9.6223 4.124,4.3374 -3.2127,22.0449 -9.5711,39.7852 14.2567,-17.0933 30.1833,-45.1105 51.2661,-33.567 6.6014,1.8574 14.2777,11.3305 14.66,19.923 4.1714,-28.3283 75.9412,-42.7134 52.4498,-4.2265 38.1728,-26.3313 55.7721,-29.5985 86.7747,16.87 -1.6929,-19.0952 3.334,-31.2264 16.8884,-33.0484 14.325,-1.1155 33.1796,5.7952 50.3242,22.6849 -7.8648,-30.9755 8.4201,-46.4482 47.0086,-7.0416 -23.8038,-43.9688 25.9666,-24.6897 38.5311,-13.6179 l 8.5057,5.2123 c -12.5605,-13.3869 -42.6813,-37.7508 -0.112,-47.5971 -29.2963,-23.8557 1.9436,-25.3357 15.6361,-24.3845 -18.0108,-9.3773 -39.1145,-33.923 -7.4253,-47.7401 7.5653,-3.3442 15.5373,-4.9783 23.0279,-8.6193 -17.48,-2.2315 -35.1583,-2.5869 -52.4209,-7.0701 -4.1766,-5.2618 1.02,-12.8733 15.7172,-23.6261 -17.1288,3.1717 -24.1556,3.6339 -28.2201,-0.5993 -2.2561,-8.1731 1.7131,-16.7809 6.7508,-21.6863 37.0939,-32.4945 -439.738,-66.6191 -385.0156,-0.4609 z"
       id="path4508-2"
       inkscape:connector-curvature="0"
       sodipodi:nodetypes="ccccccccccccccccccccccccccc" />
    <path
       style="color:#000000;display:inline;overflow:visible;visibility:visible;opacity:1;fill:#ffffff;fill-opacity:1;fill-rule:nonzero;stroke:none;stroke-width:0.627559px;marker:none;enable-background:accumulate"
       d="m 290.33481,1901.5232 c -37.90487,0.2087 -76.50008,6.0274 -110.91733,22.569 -5.63342,2.8487 -11.35928,5.7353 -16.35025,9.6127 -7.48524,7.5105 -8.85349,18.7152 -8.96293,28.8233 -0.6854,23.6981 2.18627,48.2132 13.21687,69.5155 6.24003,11.375 16.75661,20.2496 29.01205,24.508 17.84968,7.016 37.26325,8.7265 56.28507,8.886 30.07799,-0.3391 59.75734,-6.7471 89.86877,-6.4581 25.41082,-0.3154 51.12613,0.066 76.04348,-5.6929 21.00941,-4.5083 41.68774,-11.3281 60.54017,-21.7391 6.8908,-4.1699 12.53661,-10.8821 13.95363,-18.9709 2.86315,-12.2247 0.26723,-24.7848 -1.21259,-37.0106 -2.25698,-14.0584 -7.81418,-28.4933 -19.32655,-37.5331 -13.687,-11.2112 -31.27999,-15.4383 -47.93453,-20.1589 -38.41841,-10.6158 -78.25933,-15.402 -118.05447,-16.2136 -5.38598,-0.1469 -10.77371,-0.1764 -16.16139,-0.1373 z"
       id="path4040-3"
       inkscape:connector-curvature="0"
       sodipodi:nodetypes="zssssz" />
    <path
       style="color:#000000;display:inline;overflow:visible;visibility:visible;opacity:1;fill:#ffffff;fill-opacity:1;fill-rule:nonzero;stroke:none;stroke-width:1.17525px;marker:none;enable-background:accumulate"
       d="M 386.0332 2029.3281 C 335.23986 2029.7429 285.56602 2042.0425 236.82375 2055.2399 C 219.68517 2059.8734 202.03197 2066.0059 189.20312 2078.8379 C 175.67858 2092.5576 169.4048 2111.341 164.32373 2129.4788 C 156.13938 2158.3236 150.13473 2188.7559 154.96539 2218.7419 C 159.39467 2246.6724 172.52933 2272.7497 190.35181 2294.5134 C 204.25417 2310.9282 223.01492 2324.188 244.52974 2327.9012 C 261.16949 2330.9778 278.16153 2330.8049 294.99537 2331.8405 C 336.06824 2333.2844 377.17173 2333.4124 418.26218 2333.9944 C 484.16155 2334.6225 550.06397 2335.5113 615.96567 2335.4532 C 637.07819 2334.4865 658.67731 2327.3818 673.88672 2312.2207 C 689.46288 2297.0038 697.74645 2276.0182 702.36983 2255.1079 C 708.12997 2229.1339 709.75002 2202.1851 706.78927 2175.7328 C 703.28737 2145.066 693.72053 2114.764 676.86364 2088.7704 C 658.93248 2063.3411 630.1151 2047.0469 599.95712 2040.8786 C 558.15988 2030.9917 514.93593 2032.2975 472.31145 2030.6467 C 443.55793 2029.8997 414.79878 2029.2002 386.0332 2029.3281 z "
       id="path4040-5"
       inkscape:connector-curvature="0"
       sodipodi:nodetypes="zssssz" />
    <path
       sodipodi:nodetypes="csccc"
       style="color:#000000;display:inline;overflow:visible;visibility:visible;fill:#ffffff;fill-opacity:1;fill-rule:nonzero;stroke:none;stroke-width:1px;marker:none;enable-background:accumulate"
       d="m 576.81651,1969.2888 c 7.88518,11.9538 14.91587,25.5164 14.63617,40.2108 -0.36106,15.5888 -8.81149,29.7901 -19.45505,40.6931 -12.17127,12.9287 -28.69751,21.4925 -38.60365,36.5715 -3.38773,4.3818 -5.55844,10.7494 -2.64656,15.9242 1.47567,3.2044 5.39218,4.0443 8.53129,3.0926 10.38429,-3.2204 21.30385,-4.4672 31.54171,-8.2051 15.31225,-16.9807 28.78775,-36.6953 33.7222,-59.3564 5.03094,-21.6253 -1.14003,-45.8981 -17.1672,-61.5342 -3.89901,-3.9477 -8.24271,-7.4293 -12.75617,-10.6465 0.73242,1.0834 1.46484,2.1667 2.19726,3.25 z"
       id="path3072-6"
       inkscape:connector-curvature="0" />
    <path
       style="display:inline;fill:#ffffff;stroke:none;stroke-width:0.87540984"
       d="m 933.97478,1372.4649 c -19.86263,1.103 -40.26293,2.928 -58.26172,9.925 -18.57924,10.6585 -29.22506,28.1429 -30.64563,45.6939 -1.80835,14.024 8.04058,28.7946 24.7551,35.0265 12.51375,4.8757 26.69495,5.912 40.22969,8.1671 25.67643,3.8058 52.04925,5.0186 78.09921,3.0647 20.77717,-1.25 41.55677,-2.7441 62.15367,-5.2029 8.974,-1.418 18.1794,-4.7907 22.7771,-11.1699 6.1196,-7.8697 8.068,-17.0834 9.952,-25.9893 2.8463,-17.6593 -6.563,-36.3791 -24.7431,-47.5604 -4.1429,-2.6004 -8.9501,-4.5384 -14.1621,-5.5186 -10.1322,-2.0421 -20.6837,-2.11 -31.0241,-3.1374 -26.2916,-2.0091 -52.69256,-3.4657 -79.13012,-3.2987 z"
       id="path3278-12"
       inkscape:connector-curvature="0" />
    <path
       style="color:#000000;display:inline;overflow:visible;visibility:visible;fill:#ffffff;fill-opacity:1;fill-rule:nonzero;stroke:none;stroke-width:0.955739px;marker:none;enable-background:accumulate"
       d="m 982.43416,1446.7441 c -37.40474,1.0101 -75.38643,4.1895 -110.80408,16.8047 -20.74772,7.9021 -37.75326,26.2752 -41.2278,48.1355 -4.92496,27.0079 5.3381,56.8186 27.69459,73.8106 19.37843,14.6734 43.71102,21.2442 67.65838,24.245 31.56614,3.9685 63.42055,5.3023 95.22325,5.5631 26.1083,-0.1757 52.2375,-0.7548 78.2798,-2.6565 17.5367,-1.5672 35.6563,-3.2522 51.5816,-11.2258 16.1342,-7.7721 29.7472,-20.9518 36.5786,-37.3747 9.2942,-21.3659 8.5275,-47.5225 -4.8102,-67.1269 -10.8322,-15.8123 -28.1467,-25.8682 -45.6754,-33.1912 -27.0037,-11.4233 -56.6515,-15.2384 -85.861,-15.6342 -22.8631,-0.8873 -45.7529,-1.9142 -68.63774,-1.3496 z"
       id="path4040-4-9"
       inkscape:connector-curvature="0"
       sodipodi:nodetypes="zssssz" />
    <path
       style="display:inline;fill:#ffffff;fill-rule:evenodd;stroke:none;stroke-width:1px;stroke-linecap:butt;stroke-linejoin:miter;stroke-opacity:1"
       d="m 983.56641,1540.9258 c -1.54733,-0.2856 -2.05258,1.3831 -1.09808,2.3984 6.90218,10.2571 11.32953,22.9594 9.29144,35.4258 -3.18525,16.1922 -9.80459,32.0595 -8.65454,48.8368 1.11911,13.9602 9.60256,26.2073 19.77957,35.3316 12.7705,11.6847 29.4582,19.7033 46.9627,19.9417 8.0219,-0.01 15.9545,-1.4957 23.8661,-2.677 2.0122,-0.3242 4.0201,-0.6741 6.0305,-1.0093 -21.3519,-1.0383 -42.6896,-10.0313 -57.063,-26.075 -7.9751,-11.2144 -9.1501,-25.6661 -7.8037,-38.9741 1.2287,-16.4415 5.3972,-33.1322 1.5972,-49.5368 -2.2772,-8.038 -5.4772,-16.8645 -13.1016,-21.291 -6.15616,-2.9998 -13.18911,-2.2768 -19.80659,-2.3711 z"
       id="path1082"
       inkscape:connector-curvature="0" />
    <path
       style="fill:#ffffff;fill-rule:evenodd;stroke:none;stroke-width:1px;stroke-linecap:butt;stroke-linejoin:miter;stroke-opacity:1"
       d="m 1933.254,1410.8683 c -17.4616,22.7763 -39.3723,39.5766 -57.282,62.0022 0,0 -28.8441,38.6564 -40.2395,96.5112 -5.8554,29.7294 -3.0199,76.4916 0.4632,104.8789 -8.0432,-29.0428 -12.8817,-52.0472 -12.8817,-52.0472 0,0 -11.3274,83.0625 -2.3977,126.1749 8.9296,43.1135 8.8172,92.2603 50.7527,124.3161 -51.2796,-39.9049 -61.596,-93.6872 -67.0642,-134.2683 -13.5488,-100.5489 -5.0623,-156.4951 -0.7888,-190.2746 5.0241,37.9036 7.7845,48.1184 7.7845,48.1184 0,0 -2.0367,-29.2668 14.4986,-83.5927 16.5353,-54.3249 54.1065,-121.429 61.6856,-129.6345 7.5793,-8.2066 45.4693,27.8156 45.4693,27.8156 z"
       id="path1295"
       inkscape:connector-curvature="0"
       sodipodi:nodetypes="ccsccccsccccc" />
  </g>
  <g
     inkscape:label="txt"
     id="layer1"
     inkscape:groupmode="layer">
    <text
       inkscape:label="king"
       xml:space="preserve"
       style="font-style:normal;font-variant:normal;font-weight:normal;font-stretch:normal;font-size:45px;line-height:0%;font-family:Lavi;-inkscape-font-specification:Lavi;text-align:center;letter-spacing:0px;word-spacing:0px;text-anchor:middle;fill:#000000;fill-opacity:1;stroke:none;stroke-width:0.88255"
       x="327.73688"
       y="1968.5836"
       id="text4246-5-6"><tspan
         sodipodi:role="line"
         style="font-size:45px;line-height:1.25;stroke-width:0.88255"
         x="327.73688"
         y="1968.5836"
         id="tspan439-5">Так, ладно,</tspan><tspan
         id="tspan4577"
         sodipodi:role="line"
         style="font-size:45px;line-height:1.25;stroke-width:0.88255"
         x="327.73688"
         y="2024.8336">ведьмочка.</tspan></text>
    <text
       inkscape:label="kingB"
       xml:space="preserve"
       style="font-style:normal;font-variant:normal;font-weight:normal;font-stretch:normal;font-size:45px;line-height:0%;font-family:Lavi;-inkscape-font-specification:Lavi;text-align:center;letter-spacing:0px;word-spacing:0px;text-anchor:middle;fill:#000000;fill-opacity:1;stroke:none;stroke-width:0.88255"
       x="436.06381"
       y="2088.6858"
       id="text4246-5-8"><tspan
         id="tspan858"
         sodipodi:role="line"
         style="font-size:45px;line-height:1.25;stroke-width:0.88255"
         x="436.06381"
         y="2088.6858">Если у тебя есть</tspan><tspan
         id="tspan4606"
         sodipodi:role="line"
         style="font-size:45px;line-height:1.25;stroke-width:0.88255"
         x="436.06381"
         y="2144.9358"> заклинание, которое</tspan><tspan
         id="tspan4608"
         sodipodi:role="line"
         style="font-size:45px;line-height:1.25;stroke-width:0.88255"
         x="436.06381"
         y="2201.1858"> сможет помочь нам,</tspan><tspan
         id="tspan4612"
         sodipodi:role="line"
         style="font-size:45px;line-height:1.25;stroke-width:0.88255"
         x="436.06381"
         y="2257.4358">время для него</tspan><tspan
         id="tspan4616"
         sodipodi:role="line"
         style="font-size:45px;line-height:1.25;stroke-width:0.88255"
         x="436.06381"
         y="2313.6858">сейчас или никогда!</tspan><tspan
         id="tspan4588"
         sodipodi:role="line"
         x="436.06381"
         y="2341.8108" /></text>
    <text
       inkscape:label="pepper"
       xml:space="preserve"
       style="font-style:normal;font-variant:normal;font-weight:normal;font-stretch:normal;line-height:0%;font-family:Lavi;-inkscape-font-specification:Lavi;text-align:center;letter-spacing:0px;word-spacing:0px;text-anchor:middle;fill:#000000;fill-opacity:1;stroke:none"
       x="969.09387"
       y="1441.5778"
       id="text4246-4-81"><tspan
         sodipodi:role="line"
         style="font-size:45px;line-height:1.25"
         x="969.09387"
         y="1441.5778"
         id="tspan4466-1">Ясно!</tspan></text>
    <text
       inkscape:label="pepperB"
       xml:space="preserve"
       style="font-style:normal;font-variant:normal;font-weight:normal;font-stretch:normal;line-height:0%;font-family:Lavi;-inkscape-font-specification:Lavi;text-align:center;letter-spacing:0px;word-spacing:0px;text-anchor:middle;fill:#000000;fill-opacity:1;stroke:none"
       x="1011.5928"
       y="1520.9244"
       id="text4246-4-2"><tspan
         id="tspan907"
         sodipodi:role="line"
         style="font-size:45px;line-height:1.25"
         x="1011.5928"
         y="1520.9244">Приготовьтесь</tspan><tspan
         id="tspan4604"
         sodipodi:role="line"
         style="font-size:45px;line-height:1.25"
         x="1011.5928"
         y="1577.1744">увидеть...</tspan></text>
    <text
       transform="matrix(1.0019251,-0.40193321,-0.06372629,1.3310734,596.66821,487.07533)"
       id="text4580-6-0-06-7"
       y="1584.5073"
       x="787.65729"
       style="font-style:normal;font-variant:normal;font-weight:normal;font-stretch:normal;line-height:0%;font-family:Lavi;-inkscape-font-specification:Lavi;letter-spacing:0px;word-spacing:0px;fill:#ffffff;fill-opacity:1;stroke:#98b9ca;stroke-width:0.714935;stroke-miterlimit:4;stroke-dasharray:none;stroke-opacity:1;filter:url(#filter4375-4-1-1-1-9-5-8-6)"
       xml:space="preserve"
       inkscape:label="soundfxA"><tspan
         style="font-size:70px;line-height:1.25;fill:#ffffff;fill-opacity:1;stroke:#98b9ca;stroke-width:0.714935;stroke-opacity:1"
         y="1584.5073"
         x="787.65729"
         id="tspan4582-1-1-2-0"
         sodipodi:role="line"><tspan
           id="tspan4315-8-6-9"
           style="font-size:93.1495px;fill:#ffffff;fill-opacity:1;stroke:#98b9ca;stroke-width:0.714935;stroke-opacity:1">Дззии!</tspan><tspan
           id="tspan4313-2-1-3"
           style="font-size:114.732px;fill:#ffffff;fill-opacity:1;stroke:#98b9ca;stroke-width:0.714935;stroke-opacity:1">!</tspan></tspan></text>
    <text
       inkscape:label="pepperC"
       xml:space="preserve"
       style="font-style:normal;font-variant:normal;font-weight:normal;font-stretch:normal;font-size:12.7808px;line-height:0%;font-family:Lavi;-inkscape-font-specification:Lavi;text-align:center;letter-spacing:0px;word-spacing:0px;text-anchor:middle;fill:#000000;fill-opacity:1;stroke:none;stroke-width:2.4;stroke-miterlimit:4;stroke-dasharray:none;stroke-opacity:1"
       x="2506.8997"
       y="1321.5737"
       id="text4246-6-9-8-8"
       transform="matrix(0.95264897,0,-0.256133,1.0497046,0,0)"><tspan
         id="tspan945"
         sodipodi:role="line"
         style="font-style:normal;font-variant:normal;font-weight:bold;font-stretch:normal;font-size:45.7425px;line-height:1.25;font-family:Lavi;-inkscape-font-specification:'Lavi Bold';stroke:none;stroke-width:2.4;stroke-miterlimit:4;stroke-dasharray:none;stroke-opacity:1"
         x="2506.8997"
         y="1321.5737">... МОЙ  ШЕДЕВР!</tspan><tspan
         id="tspan4596"
         sodipodi:role="line"
         x="2506.8997"
         y="1340.5559" /></text>
    <text
       inkscape:label="soundfxB"
       xml:space="preserve"
       style="font-style:normal;font-variant:normal;font-weight:normal;font-stretch:normal;line-height:0%;font-family:Lavi;-inkscape-font-specification:Lavi;letter-spacing:0px;word-spacing:0px;fill:#ffffff;fill-opacity:1;stroke:#98b9ca;stroke-width:0.562003;stroke-miterlimit:4;stroke-dasharray:none;stroke-opacity:1;filter:url(#filter4375-4-1-1-1-9-5-8-6)"
       x="787.65729"
       y="1584.5073"
       id="text4580-6-0-06-7-2"
       transform="matrix(1.2585454,-0.51781675,-0.08004832,1.7148423,946.02626,2.1829806)"><tspan
         sodipodi:role="line"
         id="tspan4582-1-1-2-0-3"
         x="787.65729"
         y="1584.5073"
         style="font-size:70px;line-height:1.25;fill:#ffffff;fill-opacity:1;stroke:#98b9ca;stroke-width:0.562003;stroke-opacity:1"><tspan
           style="font-size:93.1495px;fill:#ffffff;fill-opacity:1;stroke:#98b9ca;stroke-width:0.562003;stroke-opacity:1"
           id="tspan4315-8-6-9-7">Дззииии!</tspan><tspan
           style="font-size:114.732px;fill:#ffffff;fill-opacity:1;stroke:#98b9ca;stroke-width:0.562003;stroke-opacity:1"
           id="tspan4313-2-1-3-5">!</tspan></tspan></text>
    <text
       inkscape:label="magic"
       xml:space="preserve"
       style="font-style:normal;font-variant:normal;font-weight:normal;font-stretch:normal;line-height:0%;font-family:Lavi;-inkscape-font-specification:Lavi;text-align:center;letter-spacing:0px;word-spacing:0px;text-anchor:middle;opacity:1;fill:#ffffff;fill-opacity:1;stroke:none"
       x="1656.5211"
       y="2934.5144"
       id="text4180"
       transform="scale(0.99830099,1.0017019)"><tspan
         sodipodi:role="line"
         id="tspan4182"
         x="1656.5211"
         y="2934.5144"
         style="font-style:normal;font-variant:normal;font-weight:normal;font-stretch:normal;font-size:50.4467px;line-height:1.25;font-family:'Drukaatie burti';-inkscape-font-specification:'Drukaatie burti'">Realitas</tspan><tspan
         id="tspan965"
         sodipodi:role="line"
         x="1656.5211"
         y="2997.5728"
         style="font-style:normal;font-variant:normal;font-weight:normal;font-stretch:normal;font-size:50.4467px;line-height:1.25;font-family:'Drukaatie burti';-inkscape-font-specification:'Drukaatie burti'"> Hackeris</tspan><tspan
         id="tspan967"
         sodipodi:role="line"
         x="1656.5211"
         y="3060.6311"
         style="font-style:normal;font-variant:normal;font-weight:normal;font-stretch:normal;font-size:50.4467px;line-height:1.25;font-family:'Drukaatie burti';-inkscape-font-specification:'Drukaatie burti'"> Pepperus!</tspan></text>
    <text
       inkscape:label="soundfxC"
       xml:space="preserve"
       style="font-style:normal;font-variant:normal;font-weight:normal;font-stretch:normal;line-height:0%;font-family:Lavi;-inkscape-font-specification:Lavi;letter-spacing:0px;word-spacing:0px;fill:#ffffff;fill-opacity:1;stroke:#98b9ca;stroke-width:0.436835;stroke-miterlimit:4;stroke-dasharray:none;stroke-opacity:1;filter:url(#filter4375-4-1-1-1-9-5-8-6)"
       x="787.65729"
       y="1584.5073"
       id="text4580-6-0-06"
       transform="matrix(1.4073064,-0.76647412,-0.0895101,2.5383155,748.27548,-72.167442)"><tspan
         sodipodi:role="line"
         id="tspan4582-1-1-2"
         x="787.65729"
         y="1584.5073"
         style="font-size:70px;line-height:1.25;fill:#ffffff;fill-opacity:1;stroke:#98b9ca;stroke-width:0.436835;stroke-opacity:1"><tspan
           style="font-size:93.1495px;fill:#ffffff;fill-opacity:1;stroke:#98b9ca;stroke-width:0.436835;stroke-opacity:1"
           id="tspan4315-8-6">Дззиууу! !</tspan><tspan
           style="font-size:114.732px;fill:#ffffff;fill-opacity:1;stroke:#98b9ca;stroke-width:0.436835;stroke-opacity:1"
           id="tspan4313-2-1">!</tspan></tspan></text>
    <text
       id="text4600"
       y="1512.4784"
       x="1053.2524"
       style="font-style:normal;font-weight:normal;font-size:40px;line-height:1.25;font-family:sans-serif;letter-spacing:0px;word-spacing:0px;fill:#000000;fill-opacity:1;stroke:none"
       xml:space="preserve" />
  </g>
</svg>
