<?xml version="1.0" encoding="UTF-8" standalone="no"?>
<!-- Created with Inkscape (http://www.inkscape.org/) -->

<svg
   xmlns:dc="http://purl.org/dc/elements/1.1/"
   xmlns:cc="http://creativecommons.org/ns#"
   xmlns:rdf="http://www.w3.org/1999/02/22-rdf-syntax-ns#"
   xmlns:svg="http://www.w3.org/2000/svg"
   xmlns="http://www.w3.org/2000/svg"
   xmlns:xlink="http://www.w3.org/1999/xlink"
   xmlns:sodipodi="http://sodipodi.sourceforge.net/DTD/sodipodi-0.dtd"
   xmlns:inkscape="http://www.inkscape.org/namespaces/inkscape"
   id="svg2"
   version="1.1"
   inkscape:version="0.91 r13725"
   width="2481"
   height="3503"
   sodipodi:docname="E32P06.svg">
  <metadata
     id="metadata8">
    <rdf:RDF>
      <cc:Work
         rdf:about="">
        <dc:format>image/svg+xml</dc:format>
        <dc:type
           rdf:resource="http://purl.org/dc/dcmitype/StillImage" />
        <dc:title />
      </cc:Work>
    </rdf:RDF>
  </metadata>
  <defs
     id="defs6">
    <filter
       style="color-interpolation-filters:sRGB"
       id="filter3018-3-2-2-2-0-0-2"
       inkscape:label="Lapping"
       inkscape:menu="Distort"
       inkscape:menu-tooltip="Something like a water noise"
       height="1.3"
       y="-0.15000001"
       width="1.3"
       x="-0.15000001">
      <feTurbulence
         id="feTurbulence3020-6-9-0-9-9-6-2"
         numOctaves="5"
         seed="0"
         type="fractalNoise"
         baseFrequency="0.1"
         result="result1" />
      <feGaussianBlur
         id="feGaussianBlur3022-7-1-2-3-3-2-8"
         stdDeviation="2"
         result="result2" />
      <feDisplacementMap
         id="feDisplacementMap3024-5-2-3-1-6-6-9"
         in2="result2"
         scale="50"
         yChannelSelector="B"
         xChannelSelector="R"
         in="SourceGraphic" />
    </filter>
    <filter
       style="color-interpolation-filters:sRGB"
       id="filter3018-3-2-2-7"
       inkscape:label="Lapping"
       inkscape:menu="Distort"
       inkscape:menu-tooltip="Something like a water noise"
       height="1.3"
       y="-0.15000001"
       width="1.3"
       x="-0.15000001">
      <feTurbulence
         id="feTurbulence3020-6-9-0-4"
         numOctaves="5.1887608069164264"
         seed="0"
         type="fractalNoise"
         baseFrequency="0.089999999999999997"
         result="result1" />
      <feGaussianBlur
         id="feGaussianBlur3022-7-1-2-4"
         stdDeviation="1.53"
         result="result2"
         numOctaves="5" />
      <feDisplacementMap
         id="feDisplacementMap3024-5-2-3-3"
         in2="result2"
         scale="50"
         yChannelSelector="B"
         xChannelSelector="R"
         in="SourceGraphic" />
    </filter>
    <filter
       style="color-interpolation-filters:sRGB"
       id="filter3018-3-2-2-2-0-0-2-3"
       inkscape:label="Lapping"
       inkscape:menu="Distort"
       inkscape:menu-tooltip="Something like a water noise"
       height="1.3"
       y="-0.15000001"
       width="1.3"
       x="-0.15000001">
      <feTurbulence
         id="feTurbulence3020-6-9-0-9-9-6-2-6"
         numOctaves="5"
         seed="0"
         type="fractalNoise"
         baseFrequency="0.1"
         result="result1" />
      <feGaussianBlur
         id="feGaussianBlur3022-7-1-2-3-3-2-8-7"
         stdDeviation="2"
         result="result2" />
      <feDisplacementMap
         id="feDisplacementMap3024-5-2-3-1-6-6-9-5"
         in2="result2"
         scale="50"
         yChannelSelector="B"
         xChannelSelector="R"
         in="SourceGraphic" />
    </filter>
    <filter
       style="color-interpolation-filters:sRGB"
       id="filter4375-4-1-1-1-9-6-9-2-1"
       inkscape:label="deevad outline effect">
      <feFlood
         id="feFlood4377-7-9-0-8-1-0-2-2-06"
         flood-opacity="1"
         flood-color="rgb(0,0,0)"
         result="flood" />
      <feComposite
         id="feComposite4379-3-8-8-2-77-6-0-8-3"
         in2="SourceGraphic"
         in="flood"
         operator="in"
         result="composite1" />
      <feMorphology
         id="feMorphology4393-1-0-49-8-9-2-2-9-2"
         operator="dilate"
         radius="4"
         result="result3" />
      <feComposite
         id="feComposite4385-9-5-7-0-8-6-3-7-0"
         in2="result3"
         in="SourceGraphic"
         operator="over"
         result="composite2" />
    </filter>
    <filter
       style="color-interpolation-filters:sRGB"
       id="filter4375-4-1-1-1-9-6-9-2-1-5"
       inkscape:label="deevad outline effect">
      <feFlood
         id="feFlood4377-7-9-0-8-1-0-2-2-06-6"
         flood-opacity="1"
         flood-color="rgb(0,0,0)"
         result="flood" />
      <feComposite
         id="feComposite4379-3-8-8-2-77-6-0-8-3-2"
         in2="SourceGraphic"
         in="flood"
         operator="in"
         result="composite1" />
      <feMorphology
         id="feMorphology4393-1-0-49-8-9-2-2-9-2-9"
         operator="dilate"
         radius="4"
         result="result3" />
      <feComposite
         id="feComposite4385-9-5-7-0-8-6-3-7-0-1"
         in2="result3"
         in="SourceGraphic"
         operator="over"
         result="composite2" />
    </filter>
    <filter
       style="color-interpolation-filters:sRGB"
       id="filter4375-4-1-1-1-9-6-9-2-1-5-0"
       inkscape:label="deevad outline effect">
      <feFlood
         id="feFlood4377-7-9-0-8-1-0-2-2-06-6-9"
         flood-opacity="1"
         flood-color="rgb(0,0,0)"
         result="flood" />
      <feComposite
         id="feComposite4379-3-8-8-2-77-6-0-8-3-2-3"
         in2="SourceGraphic"
         in="flood"
         operator="in"
         result="composite1" />
      <feMorphology
         id="feMorphology4393-1-0-49-8-9-2-2-9-2-9-6"
         operator="dilate"
         radius="4"
         result="result3" />
      <feComposite
         id="feComposite4385-9-5-7-0-8-6-3-7-0-1-0"
         in2="result3"
         in="SourceGraphic"
         operator="over"
         result="composite2" />
    </filter>
  </defs>
  <sodipodi:namedview
     pagecolor="#ffffff"
     bordercolor="#666666"
     borderopacity="1"
     objecttolerance="10"
     gridtolerance="10"
     guidetolerance="10"
     inkscape:pageopacity="0"
     inkscape:pageshadow="2"
     inkscape:window-width="1366"
     inkscape:window-height="715"
     id="namedview4"
     showgrid="false"
     inkscape:zoom="0.43852551"
     inkscape:cx="1319.2831"
     inkscape:cy="834.48403"
     inkscape:window-x="-8"
     inkscape:window-y="-8"
     inkscape:window-maximized="1"
     inkscape:current-layer="layer3"
     inkscape:snap-global="false" />
  <g
     inkscape:groupmode="layer"
     id="layer2"
     inkscape:label="artwork"
     sodipodi:insensitive="true">
    <image
       sodipodi:absref="D:\Pepper&amp;Carrot translation\ep32_The-Battlefield_lang-pack\lang\cn\..\gfx_Pepper-and-Carrot_by-David-Revoy_E32P06.png"
       xlink:href="../gfx_Pepper-and-Carrot_by-David-Revoy_E32P06.png"
       y="0"
       x="0"
       id="image10"
       height="3503"
       width="2481" />
  </g>
  <g
     inkscape:groupmode="layer"
     id="layer3"
     inkscape:label="speechbubbles">
    <path
       style="color:#000000;display:inline;overflow:visible;visibility:visible;opacity:1;fill:#0f0f0f;fill-opacity:1;fill-rule:nonzero;stroke:none;stroke-width:1.5161984px;marker:none;filter:url(#filter3018-3-2-2-2-0-0-2);enable-background:accumulate"
       d="m 424.28125,241.74219 c -5.44532,12.77985 -9.70983,26.02148 -13.61914,39.33984 -12.06509,-0.847 -20.32082,-11.13546 -26.45313,-20.51562 -3.2034,-4.45683 -10.72759,-1.687 -11.32894,3.44048 -4.18608,7.60711 -5.02394,16.81834 -2.92692,25.18842 -4.80339,7.3079 -14.48854,6.52651 -22.13102,7.26191 -18.96808,2.05881 -38.21371,1.83433 -57.07991,-1.09003 7.88993,10.8803 18.59927,20.43536 22.10547,33.87304 -1.96098,9.7706 -14.88844,15.7305 -23.26758,9.87891 -9.19726,1.58319 -11.97899,15.14379 -5.11328,20.94727 5.60313,17.39876 -4.03002,36.95705 -19.37084,45.88123 -6.53524,5.92045 -13.07048,11.8409 -19.60573,17.76134 16.60164,12.51731 40.17083,8.34776 56.36524,21.65625 9.25053,9.12175 6.60828,25.39873 -2.75327,33.44259 -3.92253,4.79768 -9.37852,10.96065 -6.79727,17.57219 5.96934,7.05604 16.88477,5.53941 23.98034,1.12218 23.203,-10.41548 47.87873,-17.39207 72.9745,-21.39281 8.06341,2.96977 9.96475,14.5667 19.33593,15.21874 6.19502,-0.0229 11.48485,-3.95631 16.89473,-6.51246 12.68913,-7.3019 25.0992,-16.84818 40.25786,-17.83207 28.74915,-5.06262 58.38324,4.73981 81.72336,21.43661 5.83383,3.35104 14.37679,5.89716 19.94141,0.8231 3.79011,-7.31295 -1.29207,-14.93214 -3.81649,-21.70841 -1.7683,-14.74255 14.3797,-27.47147 28.39718,-23.6069 11.02791,-0.0672 22.17473,0.68572 33.07461,-1.41432 -1.1474,-10.33013 -14.27033,-15.1038 -13.57776,-26.0359 -1.35366,-14.31846 10.85275,-27.9273 24.99768,-29.10863 6.55825,-5.37284 2.56721,-16.64661 -4.91657,-18.91913 -8.6559,-6.21546 -18.90821,-13.47894 -19.97111,-25.03406 -2.08127,-17.55062 11.85731,-32.36535 10.35662,-49.83072 -1.30196,-8.02309 -9.30735,-14.72625 -17.57631,-13.02247 -13.06864,0.51435 -25.72856,4.30609 -38.73796,5.40504 -9.73169,1.49476 -19.4628,2.99423 -29.17811,4.59275 -6.12803,-12.55646 -8.3805,-26.66116 -15.10546,-38.95899 -11.86067,-3.11948 -23.39983,3.85925 -32.16574,11.19305 -6.54251,5.73605 -14.74113,12.39012 -24.06873,9.93981 -10.45346,-2.30316 -16.86482,-11.5823 -23.39598,-19.21459 -4.91624,-5.26817 -10.04182,-10.49591 -16.2719,-14.2171 -0.39193,0.81316 -0.78385,1.62631 -1.17578,2.43946 z"
       id="path3986-3-7-9-1"
       inkscape:connector-curvature="0"
       sodipodi:nodetypes="ccsccssssssssccsssssssc"
       transform="matrix(-0.52937761,-0.0191531,-0.00137307,-0.64459008,1526.1073,483.42527)" />
    <path
       style="display:inline;fill:#0f0f0f;fill-opacity:1;fill-rule:evenodd;stroke:#000000;stroke-width:0.99999994px;stroke-linecap:butt;stroke-linejoin:miter;stroke-opacity:1"
       d="m 1283.1685,380.21381 c -8.7028,0.37895 -15.3061,8.44811 -16.6455,16.62798 -0.9458,5.43709 0.778,10.85342 0.8151,16.30538 1.493,24.31778 -0.8073,48.64052 -1.2547,72.95477 -0.089,4.67154 -0.1738,9.34354 -0.1473,14.01617 2.9728,1.56986 4.914,-2.33553 7.5566,-2.94591 4.9033,-2.72285 10.3917,-4.66592 16.0547,-4.66151 2.9957,7.00367 1.2133,14.76158 1.8529,22.11215 -0.6202,30.73098 -4.727,61.24138 -6.7265,91.8867 -0.8302,8.49555 -1.938,16.96121 -3.1674,25.4074 13.2694,-48.46976 19.2485,-98.48236 28.7066,-147.74576 1.5543,-8.73813 2.9729,-17.5017 4.1352,-26.30112 -9.4009,4.84904 -18.9121,9.4792 -28.4277,14.09766 3.7361,-28.65621 14.2994,-55.90124 18.5125,-84.45231 -0.1628,-2.20935 -2.8572,-3.03715 -4.4715,-4.16683 -5.1455,-2.65935 -11.0801,-3.27824 -16.793,-3.13477 z"
       id="path1019"
       inkscape:connector-curvature="0"
       sodipodi:nodetypes="ccccccccccccc" />
    <path
       style="color:#000000;display:inline;overflow:visible;visibility:visible;opacity:1;fill:#0f0f0f;fill-opacity:1;fill-rule:nonzero;stroke:none;stroke-width:1.10715139px;stroke-linecap:butt;stroke-linejoin:miter;stroke-miterlimit:4;stroke-dasharray:none;stroke-dashoffset:0;stroke-opacity:1;marker:none;filter:url(#filter3018-3-2-2-2-0-0-2);enable-background:accumulate"
       d="m 382.98828,222.33398 c -51.26829,0.47229 -103.25861,1.9585 -152.94336,15.88868 -22.86253,7.20732 -43.74913,22.97677 -54.03446,44.98753 -7.78663,19.36974 -7.25119,40.67161 -6.51842,61.1611 0.8012,18.22899 3.63745,37.26396 14.05175,52.70448 11.91323,16.40696 32.44053,24.94312 52.37227,25.09625 28.45832,1.57649 57.15411,2.1694 85.14511,8.06537 46.44451,7.1706 93.59621,12.79573 140.62782,8.83754 61.2392,-3.74518 122.07089,-13.90236 183.54242,-13.65191 21.69295,-0.7394 44.05063,-0.91902 64.54627,-8.96679 15.18062,-7.31075 24.65888,-23.20973 27.40411,-39.44346 4.11435,-21.1804 -0.28482,-42.75823 -5.13525,-63.41604 -5.16415,-21.04395 -12.44703,-42.43169 -27.03092,-58.93267 -11.75574,-12.91456 -28.37461,-19.94999 -44.94144,-24.36556 -27.31048,-7.39332 -55.91289,-6.70172 -83.91036,-5.12696 -23.15116,1.20066 -46.38496,1.98356 -69.52801,0.1913 -41.19364,-1.71911 -82.41217,-3.13739 -123.64753,-3.02886 z"
       id="path3986-3-7-0-7"
       inkscape:connector-curvature="0"
       sodipodi:nodetypes="csssssc"
       transform="matrix(0.95246153,0,0,0.76627356,857.27596,86.869992)" />
  </g>
  <g
     inkscape:groupmode="layer"
     id="layer1"
     inkscape:label="txt">
    <text
       xml:space="preserve"
       style="font-style:normal;font-variant:normal;font-weight:normal;font-stretch:normal;font-size:14.09488487px;line-height:0%;font-family:Lavi;-inkscape-font-specification:Lavi;text-align:center;letter-spacing:0px;word-spacing:0px;text-anchor:middle;fill:#ffffff;fill-opacity:1;stroke:none;stroke-width:1"
       x="1272.141"
       y="243.23071"
       id="text4246-1-8"
       transform="scale(1.0104523,0.98965582)"
       sodipodi:linespacing="0%"><tspan
         sodipodi:role="line"
         style="font-style:normal;font-variant:normal;font-weight:normal;font-stretch:normal;font-size:52.8558197px;line-height:1.25;font-family:'WenQuanYi Micro Hei';-inkscape-font-specification:'WenQuanYi Micro Hei';fill:#ffffff;stroke-width:1"
         x="1272.141"
         y="243.23071"
         id="tspan308">嘿 !</tspan></text>
    <text
       xml:space="preserve"
       style="font-style:normal;font-variant:normal;font-weight:normal;font-stretch:normal;line-height:0%;font-family:'WenQuanYi Micro Hei';-inkscape-font-specification:'WenQuanYi Micro Hei';text-align:center;letter-spacing:0px;word-spacing:0px;text-anchor:middle;display:inline;fill:#ffffff;fill-opacity:1;stroke:none"
       x="1288.4932"
       y="320.66647"
       id="text4246-2-7"
       sodipodi:linespacing="0%"><tspan
         sodipodi:role="line"
         style="font-style:normal;font-variant:normal;font-weight:normal;font-stretch:normal;font-size:45px;line-height:1.25;font-family:'WenQuanYi Micro Hei';-inkscape-font-specification:'WenQuanYi Micro Hei';fill:#ffffff"
         x="1288.4932"
         y="320.66647"
         id="tspan859">我听说你们在找</tspan><tspan
         sodipodi:role="line"
         style="font-style:normal;font-variant:normal;font-weight:normal;font-stretch:normal;font-size:45px;line-height:1.25;font-family:'WenQuanYi Micro Hei';-inkscape-font-specification:'WenQuanYi Micro Hei';fill:#ffffff"
         x="1288.4932"
         y="376.91647"
         id="tspan863">一位真正的女巫 ?!?</tspan></text>
  </g>
</svg>
