<?xml version="1.0" encoding="UTF-8" standalone="no"?>
<svg
   xmlns:dc="http://purl.org/dc/elements/1.1/"
   xmlns:cc="http://creativecommons.org/ns#"
   xmlns:rdf="http://www.w3.org/1999/02/22-rdf-syntax-ns#"
   xmlns:svg="http://www.w3.org/2000/svg"
   xmlns="http://www.w3.org/2000/svg"
   xmlns:xlink="http://www.w3.org/1999/xlink"
   xmlns:sodipodi="http://sodipodi.sourceforge.net/DTD/sodipodi-0.dtd"
   xmlns:inkscape="http://www.inkscape.org/namespaces/inkscape"
   id="svg2"
   version="1.1"
   inkscape:version="1.0.2 (e86c870879, 2021-01-15)"
   width="2481"
   height="3503"
   sodipodi:docname="E32P07.svg">
  <metadata
     id="metadata8">
    <rdf:RDF>
      <cc:Work
         rdf:about="">
        <dc:format>image/svg+xml</dc:format>
        <dc:type
           rdf:resource="http://purl.org/dc/dcmitype/StillImage" />
        <dc:title />
      </cc:Work>
    </rdf:RDF>
  </metadata>
  <defs
     id="defs6" />
  <sodipodi:namedview
     pagecolor="#ffffff"
     bordercolor="#666666"
     borderopacity="1"
     objecttolerance="10"
     gridtolerance="10"
     guidetolerance="10"
     inkscape:pageopacity="0"
     inkscape:pageshadow="2"
     inkscape:window-width="1920"
     inkscape:window-height="1020"
     id="namedview4"
     showgrid="false"
     inkscape:zoom="0.44533032"
     inkscape:cx="881.14469"
     inkscape:cy="3698.753"
     inkscape:window-x="0"
     inkscape:window-y="0"
     inkscape:window-maximized="1"
     inkscape:current-layer="layer1"
     inkscape:document-rotation="0" />
  <g
     inkscape:groupmode="layer"
     id="layer2"
     inkscape:label="artwork"
     sodipodi:insensitive="true">
    <image
       sodipodi:absref="/media/twilight/Carlota/Proyectos/webcomics/ep32_The-Battlefield/lang/gfx_Pepper-and-Carrot_by-David-Revoy_E32P07.png"
       xlink:href="../gfx_Pepper-and-Carrot_by-David-Revoy_E32P07.png"
       width="2481"
       height="3503"
       id="image10"
       x="0"
       y="0" />
  </g>
  <g
     inkscape:groupmode="layer"
     id="layer3"
     inkscape:label="speechbubbles" />
  <g
     inkscape:groupmode="layer"
     id="layer1"
     inkscape:label="txt">
    <path
       style="color:#000000;display:inline;overflow:visible;visibility:visible;opacity:1;fill:#ffffff;fill-opacity:1;fill-rule:nonzero;stroke:none;stroke-width:1px;marker:none;enable-background:accumulate"
       d="m 1056.8386,2202.0169 c -10.399,3.1097 -19.0647,10.6359 -24.862,19.6711 -4.6138,7.2893 -17.2509,15.4965 -15.9508,24.1556 0.9045,6.2645 3.4885,12.2114 7.0602,17.4088 4.9823,4.1786 10.7717,7.2309 16.4747,10.2898 13.956,7.1808 39.0329,12.0634 54.1262,16.1118 11.6919,3.244 23.3837,6.488 35.0756,9.732 5.0949,3.3041 6.8782,10.3837 4.7324,15.9258 -2.5523,8.028 -5.7927,15.981 -6.4238,24.4649 0.469,8.3691 7.2362,15.6672 15.3278,17.4183 23.1263,6.8834 46.95,10.9935 70.7295,14.8666 16.8553,2.5917 33.8211,4.4192 50.6435,7.2326 8.6937,1.344 17.4528,2.335 26.2503,2.6075 -14.7027,-2.9835 -29.0454,-7.4415 -43.6031,-11.0191 -17.5491,-3.9894 -35.2233,-7.6141 -52.357,-13.1989 -12.1385,-3.8263 -24.3458,-7.4273 -36.5828,-10.9238 -2.1361,-0.6181 -4.2722,-1.2362 -6.4082,-1.8543 -3.8086,-2.8565 -4.791,-8.4047 -3.0215,-12.6797 3.1112,-10.0301 7.2356,-19.7537 9.5683,-30.0176 0.1907,-7.1989 -5.0046,-13.8258 -11.6328,-16.2568 -8.1859,-3.2713 -16.7215,-5.5386 -25.1516,-8.0754 -10.6728,-3.1009 -17.6074,-6.3044 -28.2511,-9.5031 -1.634,-0.5123 -3.3158,-0.9349 -4.8985,-1.5745 -6.4463,-4.0275 -11.4798,-10.04 -14.9988,-16.7269 -0.6308,-10.1283 2.4237,-19.9428 4.0156,-29.8414 0.7111,-3.8042 0.5769,-8.0798 -1.8053,-11.3085 -2.8415,-4.4602 -11.7784,-7.3612 -17.0919,-7.1782 -0.3216,0.091 -0.6432,0.1823 -0.9649,0.2734 z m 241.4961,179.3652 c 1.4323,-0.5267 2.8646,-1.0533 4.2969,-1.58 -1.4323,0.5267 -2.8646,1.0533 -4.2969,1.58 z"
       id="path4496-04"
       inkscape:connector-curvature="0"
       sodipodi:nodetypes="ccccccccccccccccccccccccccccccc" />
    <path
       style="display:inline;fill:#ffffff;stroke:none;stroke-width:0.900478"
       d="m 711.75492,1905.4081 c -45.70339,0.4576 -91.97723,2.7441 -136.10116,14.7728 -21.54197,5.847 -42.59103,16.2085 -56.45791,33.1266 -10.18564,12.5975 -12.81909,28.9982 -12.30842,44.4111 0.41231,13.295 1.76088,27.2637 9.44196,38.831 5.82812,9.0361 15.02877,15.6846 24.61173,20.9912 17.83744,9.5108 38.1714,13.5422 58.03686,17.5585 49.89283,9.436 101.01194,10.5152 151.74608,10.702 51.60573,-0.023 103.3032,-1.0537 154.66205,-6.0832 26.58237,-2.9808 53.58281,-8.6634 76.46287,-22.2221 17.29845,-10.4821 30.41802,-27.8411 32.51722,-47.283 1.6082,-13.5933 -0.2283,-27.5392 -5.0331,-40.4407 -6.5014,-16.8601 -19.484,-31.7154 -36.70265,-39.8596 -20.31103,-10.1879 -43.50312,-13.3074 -66.08757,-15.8555 -30.51403,-3.1206 -61.2225,-3.9042 -91.83367,-5.8237 -34.2871,-1.6969 -68.61392,-2.9144 -102.95429,-2.8254 z"
       id="path3280-8-1"
       inkscape:connector-curvature="0"
       sodipodi:nodetypes="csssc" />
    <path
       style="color:#000000;display:inline;overflow:visible;visibility:visible;fill:#ffffff;fill-opacity:1;fill-rule:nonzero;stroke:none;stroke-width:0.97895557px;marker:none;enable-background:accumulate"
       d="m 983.28151,2056.7858 c -50.10598,0.5744 -100.70079,7.7998 -147.82635,27.416 -15.73477,6.7372 -31.62841,15.2464 -42.72038,29.8288 -20.19294,26.1938 -25.79022,65.7094 -12.33475,97.05 12.52543,30.5643 39.2705,52.7543 68.74282,59.1851 48.66201,15.0199 99.4108,20.0981 149.78806,19.424 30.98669,0.098 62.59649,-0.1164 92.47739,-10.3913 21.0802,-7.1493 41.5066,-18.5493 57.1221,-36.1304 21.2658,-24.2898 32.6302,-59.6174 27.9979,-93.3569 -2.4067,-16.9489 -10.2382,-32.8238 -21.8091,-44.1835 -11.9948,-12.264 -27.1294,-19.8722 -42.4908,-25.3729 -28.9248,-11.0107 -59.1251,-17.3557 -89.4269,-21.4074 -13.1262,-1.4981 -26.32559,-2.1705 -39.51999,-2.0615 z"
       id="path4546-1"
       inkscape:connector-curvature="0"
       sodipodi:nodetypes="cssssc" />
    <text
       xml:space="preserve"
       style="font-style:normal;font-variant:normal;font-weight:normal;font-stretch:normal;line-height:0%;font-family:Lavi;-inkscape-font-specification:Lavi;text-align:center;letter-spacing:0px;word-spacing:0px;text-anchor:middle;display:inline;fill:#000000;fill-opacity:1;stroke:none"
       x="766.1582"
       y="1976.0724"
       id="text4246-7-6-1-7-6-3-5-6"><tspan
         sodipodi:role="line"
         style="font-size:45px;line-height:1.25"
         x="766.1582"
         y="1976.0724"
         id="tspan979">Pensándolo bien, </tspan><tspan
         sodipodi:role="line"
         style="font-size:45px;line-height:1.25"
         x="766.1582"
         y="2032.3224"
         id="tspan848">mejor llama a esa niña.</tspan></text>
    <text
       xml:space="preserve"
       style="font-style:normal;font-variant:normal;font-weight:normal;font-stretch:normal;line-height:0%;font-family:Lavi;-inkscape-font-specification:Lavi;text-align:center;letter-spacing:0px;word-spacing:0px;text-anchor:middle;display:inline;fill:#000000;fill-opacity:1;stroke:none"
       x="969.6701"
       y="2132.6045"
       id="text4246-7-6-1-7-6-3-5-6-4"><tspan
         sodipodi:role="line"
         style="font-size:45px;line-height:1.25"
         x="976.70135"
         y="2132.6045"
         id="tspan862">Ésta nos </tspan><tspan
         sodipodi:role="line"
         style="font-size:45px;line-height:1.25"
         x="976.70135"
         y="2188.8545"
         id="tspan834">costará mucho </tspan><tspan
         sodipodi:role="line"
         style="font-size:45px;line-height:1.25"
         x="969.6701"
         y="2245.1045"
         id="tspan836">dinero.</tspan></text>
    <text
       xml:space="preserve"
       style="font-style:normal;font-variant:normal;font-weight:normal;font-stretch:normal;font-size:43.8573px;line-height:0%;font-family:Lavi;-inkscape-font-specification:'Lavi, Normal';font-variant-ligatures:normal;font-variant-caps:normal;font-variant-numeric:normal;font-feature-settings:normal;text-align:center;letter-spacing:0px;word-spacing:0px;writing-mode:lr-tb;text-anchor:middle;display:inline;fill:#241c1c;fill-opacity:1;stroke:#000000;stroke-width:0.822;stroke-miterlimit:4;stroke-dasharray:none;stroke-opacity:1"
       x="3388.5708"
       y="3317.343"
       id="text4213"
       transform="matrix(0.96049651,0,-0.32716292,1.0411282,0,0)"><tspan
         sodipodi:role="line"
         id="tspan3562"
         x="3388.5708"
         y="3317.343"
         style="font-style:normal;font-variant:normal;font-weight:normal;font-stretch:normal;font-size:43.8573px;line-height:1.25;font-family:Lavi;-inkscape-font-specification:'Lavi, Normal';font-variant-ligatures:normal;font-variant-caps:normal;font-variant-numeric:normal;font-feature-settings:normal;text-align:center;writing-mode:lr-tb;text-anchor:middle;stroke-width:0.822">CONTINAURÁ…</tspan><tspan
         sodipodi:role="line"
         x="3388.5708"
         y="3344.7539"
         id="tspan856" /><tspan
         sodipodi:role="line"
         x="3388.5708"
         y="3344.7539"
         id="tspan858" /></text>
  </g>
</svg>
