<?xml version="1.0" encoding="UTF-8" standalone="no"?>
<svg
   xmlns:dc="http://purl.org/dc/elements/1.1/"
   xmlns:cc="http://creativecommons.org/ns#"
   xmlns:rdf="http://www.w3.org/1999/02/22-rdf-syntax-ns#"
   xmlns:svg="http://www.w3.org/2000/svg"
   xmlns="http://www.w3.org/2000/svg"
   xmlns:xlink="http://www.w3.org/1999/xlink"
   xmlns:sodipodi="http://sodipodi.sourceforge.net/DTD/sodipodi-0.dtd"
   xmlns:inkscape="http://www.inkscape.org/namespaces/inkscape"
   id="svg2"
   version="1.1"
   inkscape:version="1.0.2 (e86c870879, 2021-01-15)"
   width="2481"
   height="3503"
   sodipodi:docname="E31P05.svg">
  <metadata
     id="metadata8">
    <rdf:RDF>
      <cc:Work
         rdf:about="">
        <dc:format>image/svg+xml</dc:format>
        <dc:type
           rdf:resource="http://purl.org/dc/dcmitype/StillImage" />
        <dc:title />
      </cc:Work>
    </rdf:RDF>
  </metadata>
  <defs
     id="defs6">
    <filter
       style="color-interpolation-filters:sRGB"
       id="filter4375-4-1-1-1-9-5-8-86"
       inkscape:label="Drop Shadow">
      <feFlood
         id="feFlood4377-7-9-0-8-1-7-3-2"
         flood-opacity="1"
         flood-color="rgb(162,101,216)"
         result="flood" />
      <feComposite
         id="feComposite4379-3-8-8-2-77-4-1-84"
         in2="SourceGraphic"
         in="flood"
         operator="in"
         result="composite1" />
      <feMorphology
         id="feMorphology4393-1-0-49-8-9-3-0-7"
         operator="dilate"
         radius="6.2000000000000002"
         result="result3" />
      <feComposite
         id="feComposite4385-9-5-7-0-8-8-7-24"
         in2="result3"
         in="SourceGraphic"
         operator="over"
         result="fbSourceGraphic" />
      <feColorMatrix
         result="fbSourceGraphicAlpha"
         in="fbSourceGraphic"
         values="0 0 0 -1 0 0 0 0 -1 0 0 0 0 -1 0 0 0 0 1 0"
         id="feColorMatrix4544-0" />
      <feTurbulence
         id="feTurbulence4546-62"
         type="fractalNoise"
         numOctaves="3"
         seed="37"
         baseFrequency="0.129 0.0050000000000000001"
         result="turbulence" />
      <feDisplacementMap
         id="feDisplacementMap4548-9"
         in2="turbulence"
         in="fbSourceGraphic"
         scale="6.6"
         yChannelSelector="G"
         xChannelSelector="R"
         result="fbSourceGraphic" />
      <feColorMatrix
         result="fbSourceGraphicAlpha"
         in="fbSourceGraphic"
         values="0 0 0 -1 0 0 0 0 -1 0 0 0 0 -1 0 0 0 0 1 0"
         id="feColorMatrix4670-90" />
      <feFlood
         id="feFlood4672-81"
         flood-opacity="1"
         flood-color="rgb(37,37,37)"
         result="flood"
         in="fbSourceGraphic" />
      <feComposite
         id="feComposite4674-3"
         in2="fbSourceGraphic"
         in="flood"
         operator="in"
         result="composite1" />
      <feGaussianBlur
         id="feGaussianBlur4676-1"
         in="composite1"
         stdDeviation="0"
         result="blur" />
      <feOffset
         id="feOffset4678-1"
         dx="6"
         dy="6"
         result="offset" />
      <feComposite
         id="feComposite4680-0"
         in2="offset"
         in="fbSourceGraphic"
         operator="over"
         result="composite2" />
    </filter>
    <filter
       style="color-interpolation-filters:sRGB"
       id="filter3018-9-9"
       inkscape:label="Lapping"
       inkscape:menu="Distort"
       inkscape:menu-tooltip="Something like a water noise"
       height="1.3"
       y="-0.15000001"
       width="1.3"
       x="-0.15000001">
      <feTurbulence
         id="feTurbulence3020-3-0"
         numOctaves="5"
         seed="0"
         type="fractalNoise"
         baseFrequency="0.045999999999999999"
         result="result1" />
      <feGaussianBlur
         id="feGaussianBlur3022-77-9"
         stdDeviation="2"
         result="result2" />
      <feDisplacementMap
         id="feDisplacementMap3024-6-9"
         in2="result2"
         scale="50"
         yChannelSelector="B"
         xChannelSelector="R"
         in="SourceGraphic" />
    </filter>
    <filter
       style="color-interpolation-filters:sRGB"
       id="filter3018-9-9-8"
       inkscape:label="Lapping"
       inkscape:menu="Distort"
       inkscape:menu-tooltip="Something like a water noise"
       height="1.3"
       y="-0.15000001"
       width="1.3"
       x="-0.15000001">
      <feTurbulence
         id="feTurbulence3020-3-0-7"
         numOctaves="5"
         seed="0"
         type="fractalNoise"
         baseFrequency="0.045999999999999999"
         result="result1" />
      <feGaussianBlur
         id="feGaussianBlur3022-77-9-9"
         stdDeviation="2"
         result="result2" />
      <feDisplacementMap
         id="feDisplacementMap3024-6-9-2"
         in2="result2"
         scale="50"
         yChannelSelector="B"
         xChannelSelector="R"
         in="SourceGraphic" />
    </filter>
    <filter
       style="color-interpolation-filters:sRGB"
       id="filter4375-4-1-1-15-1-3-0"
       inkscape:label="deevad outline effect">
      <feFlood
         id="feFlood4377-7-9-0-4-4-4-0"
         flood-opacity="1"
         flood-color="rgb(0,0,0)"
         result="flood" />
      <feComposite
         id="feComposite4379-3-8-8-6-0-7-3"
         in2="SourceGraphic"
         in="flood"
         operator="in"
         result="composite1" />
      <feMorphology
         id="feMorphology4393-1-0-49-8-2-7-4"
         operator="dilate"
         radius="0.90000000000000002"
         result="result3" />
      <feComposite
         id="feComposite4385-9-5-7-2-1-2-6-7"
         in2="result3"
         in="SourceGraphic"
         operator="over"
         result="composite2" />
    </filter>
    <filter
       style="color-interpolation-filters:sRGB"
       id="filter4375-4-1-1-1-9-5-8-3-8"
       inkscape:label="Drop Shadow">
      <feFlood
         id="feFlood4377-7-9-0-8-1-7-3-8-3"
         flood-opacity="1"
         flood-color="rgb(32,32,32)"
         result="flood" />
      <feComposite
         id="feComposite4379-3-8-8-2-77-4-1-8-7"
         in2="SourceGraphic"
         in="flood"
         operator="in"
         result="composite1" />
      <feMorphology
         id="feMorphology4393-1-0-49-8-9-3-0-31-8"
         operator="dilate"
         radius="6.2000000000000002"
         result="result3" />
      <feComposite
         id="feComposite4385-9-5-7-0-8-8-7-8-2"
         in2="result3"
         in="SourceGraphic"
         operator="over"
         result="fbSourceGraphic" />
      <feColorMatrix
         result="fbSourceGraphicAlpha"
         in="fbSourceGraphic"
         values="0 0 0 -1 0 0 0 0 -1 0 0 0 0 -1 0 0 0 0 1 0"
         id="feColorMatrix4544-96-1" />
      <feTurbulence
         id="feTurbulence4546-4-0"
         type="fractalNoise"
         numOctaves="3"
         seed="37"
         baseFrequency="0.129 0.0050000000000000001"
         result="turbulence" />
      <feDisplacementMap
         id="feDisplacementMap4548-3-5"
         in2="turbulence"
         in="fbSourceGraphic"
         scale="6.6"
         yChannelSelector="G"
         xChannelSelector="R"
         result="fbSourceGraphic" />
      <feColorMatrix
         result="fbSourceGraphicAlpha"
         in="fbSourceGraphic"
         values="0 0 0 -1 0 0 0 0 -1 0 0 0 0 -1 0 0 0 0 1 0"
         id="feColorMatrix4670-33-8" />
      <feFlood
         id="feFlood4672-8-5"
         flood-opacity="0.40999999999999998"
         flood-color="rgb(41,41,41)"
         result="flood"
         in="fbSourceGraphic" />
      <feComposite
         id="feComposite4674-6-5"
         in2="fbSourceGraphic"
         in="flood"
         operator="in"
         result="composite1" />
      <feGaussianBlur
         id="feGaussianBlur4676-0-0"
         in="composite1"
         stdDeviation="0"
         result="blur" />
      <feOffset
         id="feOffset4678-4-7"
         dx="6"
         dy="6"
         result="offset" />
      <feComposite
         id="feComposite4680-8-3"
         in2="offset"
         in="fbSourceGraphic"
         operator="over"
         result="composite2" />
    </filter>
  </defs>
  <sodipodi:namedview
     pagecolor="#ffffff"
     bordercolor="#666666"
     borderopacity="1"
     objecttolerance="10"
     gridtolerance="10"
     guidetolerance="10"
     inkscape:pageopacity="0"
     inkscape:pageshadow="2"
     inkscape:window-width="1920"
     inkscape:window-height="1020"
     id="namedview4"
     showgrid="false"
     inkscape:zoom="0.38724376"
     inkscape:cx="1157.5738"
     inkscape:cy="2709.1214"
     inkscape:window-x="0"
     inkscape:window-y="0"
     inkscape:window-maximized="1"
     inkscape:current-layer="layer1"
     inkscape:snap-global="false"
     inkscape:document-rotation="0" />
  <g
     inkscape:groupmode="layer"
     id="layer2"
     inkscape:label="artwork"
     sodipodi:insensitive="true">
    <image
       sodipodi:absref="/media/twilight/Carlota/Proyectos/webcomics/ep31_The-Fight/lang/gfx_Pepper-and-Carrot_by-David-Revoy_E31P05.png"
       xlink:href="../gfx_Pepper-and-Carrot_by-David-Revoy_E31P05.png"
       width="2481"
       height="3503"
       id="image10"
       x="0"
       y="0" />
  </g>
  <g
     inkscape:groupmode="layer"
     id="layer3"
     inkscape:label="speechbubbles">
    <path
       style="display:inline;fill:#ffffff;stroke:none;stroke-width:1"
       d="m 382.49566,1171.2358 c -2.01062,-17.6243 12.0717,-67.9969 90.08514,-68.7361 78.01344,-0.7392 103.59741,17.4259 107.8701,48.7172 6.75943,49.5031 -33.32995,64.9214 -91.87056,71.674 -60.34906,6.9619 -99.1075,-7.2308 -106.08468,-51.6551 z"
       id="path3280-9"
       inkscape:connector-curvature="0"
       sodipodi:nodetypes="csssc" />
    <path
       style="display:inline;fill:#ffffff;stroke:none;stroke-width:0.99999994"
       d="m 838.74219,1351.1008 c 5.14046,-12.1801 -5.32637,-23.7674 -18.08678,-28.0133 -12.76108,-4.2447 -17.11873,-5.8511 -32.46479,-5.5922 -15.34651,0.2588 -33.87645,-18.63 -39.83871,-26.5569 -5.96336,-7.9256 -57.72306,-32.5688 -57.72306,-32.5688 0,0 2.85238,31.2418 7.85563,42.0344 5.00412,10.7938 5.65455,6.0882 9.89238,10.0535 4.23783,3.964 26.45958,14.3405 40.45236,18.6892 10.98819,3.4161 24.49176,7.9704 43.02369,5.8983 12.31041,-1.3778 27.85053,9.2829 21.92175,18.3747 -6.57944,10.0897 0.64735,15.6711 22.40302,23.6778 20.17992,7.4261 56.16383,14.0502 56.16383,14.0502 -66.35709,-27.7338 -59.36137,-26.3947 -53.59932,-40.0469 z"
       id="path3023-0"
       inkscape:connector-curvature="0"
       sodipodi:nodetypes="sssscsssssscs" />
    <path
       style="color:#000000;display:inline;overflow:visible;visibility:visible;fill:#ffffff;fill-opacity:1;fill-rule:nonzero;stroke:none;stroke-width:1px;marker:none;enable-background:accumulate"
       d="m 944.57883,1605.1703 c -30.33271,27.8223 -40.63193,41.7036 -32.65289,89.1503 7.9795,47.4457 -10.38684,49.099 -10.38684,49.099 l -22.6221,-25.0848 c 0,0 -10.78332,-87.9521 65.66183,-113.1645 z"
       id="path3072-56"
       inkscape:connector-curvature="0"
       sodipodi:nodetypes="ccccc" />
    <path
       style="fill:#ffffff;fill-rule:evenodd;stroke:none;stroke-width:1px;stroke-linecap:butt;stroke-linejoin:miter;stroke-opacity:1"
       d="m 2355.6287,3352.3735 -62.4863,-105.9956 -20.7592,1.1293 0.9846,29.7863 c -198.2559,-209.0923 -141.9506,-96.6792 1.661,30.8425 l 12.9698,3.243 3.2425,-25.94 z"
       id="path1111"
       inkscape:connector-curvature="0"
       sodipodi:nodetypes="cccccccc" />
    <path
       style="color:#000000;display:inline;overflow:visible;visibility:visible;fill:#ffffff;fill-opacity:1;fill-rule:nonzero;stroke:none;stroke-width:1.06663275px;marker:none;enable-background:accumulate"
       d="m 1921.4528,3088.3103 c -7.5693,20.3024 -54.0952,23.2223 -71.384,19.5956 35.3397,21.5486 34.6141,35.5404 -12.2449,38.9533 80.0993,38.401 15.5694,33.9812 3.2357,44.5847 62.2797,12.3148 35.2262,30.4145 24.8174,47.9943 71.0539,-1.2914 48.76,27.0365 52.5122,49.0272 5.6661,-10.5156 33.1914,-42.8045 36.1188,-7.7438 -0.098,-6.6401 44.7305,-62.8859 116.0337,-11.2294 -2.6246,-27.504 20.9472,-33.7993 44.8221,3.6613 -8.9571,-40.9976 71.5021,-31.2003 114.3462,-19.3973 -22.2825,-24.3894 11.2309,-35.3463 47.4298,-31.3315 -5.5216,-13.5507 6.3199,-23.2798 33.5997,-29.5951 -36.7896,-7.2968 -43.8103,-15.6446 23.6573,-26.6198 -51.6093,0.4822 -99.7692,-0.06 -40.3313,-32.9585 -19.0105,-0.2525 -63.1564,27.0535 -44.7809,-49.9183 -31.8048,25.3302 -66.1702,39.7556 -111.6099,-10.328 -19.7919,26.1482 -55.2103,39.7685 -71.9071,8.2059 -5.138,13.7803 -28.2085,19.5247 -47.9218,20.6697 -7.8175,-5.2119 -15.9411,-12.358 -24.486,-21.7761 -12.7294,20.59 -32.3417,34.7875 -71.907,8.2058 z"
       id="path3549-3-7-9"
       inkscape:connector-curvature="0"
       sodipodi:nodetypes="cccccccccccccccccccc" />
    <path
       style="color:#000000;display:inline;overflow:visible;visibility:visible;opacity:1;vector-effect:none;fill:#000000;fill-opacity:1;fill-rule:nonzero;stroke:none;stroke-width:0.89139485px;stroke-linecap:butt;stroke-linejoin:miter;stroke-miterlimit:4;stroke-dasharray:none;stroke-dashoffset:0;stroke-opacity:1;marker:none;filter:url(#filter3018-9-9);enable-background:accumulate"
       d="m 568.82556,2217.9956 c 20.35374,-58.0159 71.84002,-99.3668 204.06836,-127.8459 84.78944,-18.2616 135.87813,-13.5537 178.25372,3.7865 20.01567,8.1908 47.17519,73.4649 36.6338,132.3857 -10.54149,58.921 -61.62983,129.2861 -191.63016,151.7389 -130.00027,22.4519 -130.37727,20.4609 -151.08113,13.2133 -39.33514,-13.7704 -96.59841,-115.2625 -76.24459,-173.2785 z"
       id="path4530-1"
       inkscape:connector-curvature="0"
       sodipodi:nodetypes="zsssssz"
       transform="matrix(1.1166522,-0.10874592,0.09629405,0.93917904,-297.05103,223.44816)" />
    <path
       style="color:#000000;display:inline;overflow:visible;visibility:visible;fill:#ffffff;fill-opacity:1;fill-rule:nonzero;stroke:none;stroke-width:1.21682394px;marker:none;enable-background:accumulate"
       d="m 737.50081,1703.0768 c 13.74023,-29.7704 35.89075,-38.1183 124.06771,-34.9272 47.36868,1.7139 105.92859,0.9817 104.20673,79.7305 -1.4199,64.9383 -56.69446,75.7703 -109.76091,77.3504 -35.56923,1.0594 -91.23791,-4.1744 -107.76382,-31.0594 -19.91123,-32.3925 -20.14303,-64.4419 -10.74971,-91.0943 z"
       id="path4546-6-5-5"
       inkscape:connector-curvature="0"
       sodipodi:nodetypes="cssssc" />
    <path
       style="color:#000000;display:inline;overflow:visible;visibility:visible;fill:#ffffff;fill-opacity:1;fill-rule:nonzero;stroke:none;stroke-width:0.96365166px;marker:none;enable-background:accumulate"
       d="m 416.6648,1277.568 c 2.7192,-22.4493 4.178,-51.0968 35.9691,-63.7674 31.79115,-12.6714 99.05317,-15.0021 168.92497,-10.5526 37.42732,2.3828 99.32962,-0.085 128.01524,12.8081 18.74194,8.4235 39.14481,24.3732 35.59637,57.2602 -3.5486,32.888 -31.31858,53.7311 -65.94302,61.6141 -34.62451,7.883 -69.3312,7.6157 -99.55558,7.2497 -29.18268,-0.3533 -51.81528,-0.7377 -90.63246,-5.1924 -38.81715,-4.4554 -82.42116,-6.264 -93.66073,-17.4911 -7.03568,-7.0281 -11.89887,-14.0334 -14.91077,-21.02 -3.01197,-6.9867 -4.17255,-13.9549 -3.80312,-20.9086 z"
       id="path4546-6-8"
       inkscape:connector-curvature="0"
       sodipodi:nodetypes="csssssssssc" />
    <path
       style="fill:#ffffff;stroke:none;stroke-width:0.92865902"
       d="m 2091.8061,892.13907 c -3.1518,49.02125 -62.3688,63.68466 -104.6985,64.74626 -71.9102,5.37658 -144.9864,0.98528 -215.5356,-13.04186 -45.6289,-12.47334 -68.9864,-74.8966 -32.031,-107.51026 38.0681,-25.61637 87.6739,-24.66797 132.1013,-30.47416 62.925,-3.99428 128.2512,-0.97757 187.7024,20.51076 26.5323,11.82935 36.2143,39.30223 32.4614,65.76926 z"
       id="path3100-2-3"
       inkscape:connector-curvature="0" />
    <path
       style="fill:#ffffff;stroke:none;stroke-width:0.98008114"
       d="m 1958.7254,738.96364 c -3.3306,60.75983 -65.9109,78.93453 -110.6444,80.25033 -75.9942,6.66406 -153.2205,1.22122 -227.7763,-16.16485 -48.2203,-15.46019 -72.9042,-92.83126 -33.85,-133.25456 40.2301,-31.75045 92.653,-30.57494 139.6035,-37.77148 66.4986,-4.95075 135.5347,-1.21165 198.3623,25.42225 28.0391,14.66199 38.2711,48.71351 34.3049,81.51831 z"
       id="path3100-2"
       inkscape:connector-curvature="0" />
    <path
       style="color:#000000;display:inline;overflow:visible;visibility:visible;fill:#ffffff;fill-opacity:1;fill-rule:nonzero;stroke:none;stroke-width:1px;marker:none;enable-background:accumulate"
       d="m 366.93185,765.16568 c -14.52106,25.38401 -14.12226,29.37216 -3.84683,39.71783 10.27644,10.34571 28.24694,21.81722 28.294,48.35038 0.048,26.53331 -11.40014,37.63007 -18.43834,45.4423 17.99392,4.59778 43.67647,28.43441 55.52347,21.32581 11.84699,-7.10861 -12.77868,22.26186 -12.77868,22.26186 0,0 -48.39781,1.76058 -63.31887,-17.12444 -14.92107,-18.88493 12.55046,-52.19852 15.22453,-70.47392 2.67404,-18.2753 -21.32605,-35.54142 -22.10024,-50.39147 -0.77516,-14.85029 12.05701,-28.6919 21.44096,-39.10835 z"
       id="path4538-7"
       inkscape:connector-curvature="0"
       sodipodi:nodetypes="ccscccsscc" />
    <path
       style="fill:#ffffff;fill-rule:evenodd;stroke:none;stroke-width:1px;stroke-linecap:butt;stroke-linejoin:miter;stroke-opacity:1"
       d="m 280.26826,949.8856 c 1.30092,-19.455 16.91203,-55.122 40.32881,-61.607 23.41667,-6.485 88.46306,-6.485 101.47236,-3.242 13.0093,3.242 33.82416,27.02 39.0279,36.748 5.20375,9.727 19.51394,44.313 -3.90272,58.364 -23.41679,14.05101 -46.83346,24.859 -71.55115,23.778 -24.7177,-1.081 -74.15297,-8.64699 -85.86124,-21.616 -11.7084,-12.97 -19.51396,-32.425 -19.51396,-32.425 z"
       id="path1355"
       inkscape:connector-curvature="0" />
    <path
       style="color:#000000;display:inline;overflow:visible;visibility:visible;fill:#ffffff;fill-opacity:1;fill-rule:nonzero;stroke:none;stroke-width:0.86172825px;marker:none;enable-background:accumulate"
       d="m 1970.8269,562.44869 c -37.9175,4.25331 -75.7593,39.09104 -74.742,73.98841 -9.2637,38.72473 -17.7448,26.50086 -17.7448,26.50086 l -22.7264,-25.55892 c 0,0 34.1381,-81.95988 115.2132,-74.93035 z"
       id="path3072-5-5"
       inkscape:connector-curvature="0"
       sodipodi:nodetypes="ccccc" />
    <path
       style="display:inline;fill:#ffffff;fill-opacity:1;fill-rule:evenodd;stroke:none;stroke-width:1px;stroke-linecap:butt;stroke-linejoin:miter;stroke-opacity:1"
       d="m 94.626144,1930.8268 2.131968,119.7971 c 16.626358,9.4264 52.381138,32.2807 27.394228,59.1906 44.7032,-30.512 69.18377,-28.1575 42.62207,5.4721 31.58553,-28.9239 71.87987,-49.9947 57.12277,-16.7662 11.33998,-20.8712 73.0613,-39.2613 64.2175,-13.7209 35.60728,-29.9149 61.56903,-2.5326 68.23493,21.9544 25.35251,-39.2139 49.07895,-32.9302 74.43136,-33.1676 4.3067,3.798 13.02238,7.2039 24.262,14.8024 0.88518,-7.436 18.46268,-13.6692 30.90205,-7.43 l 1.42131,-151.5532 z"
       id="path4508-2"
       inkscape:connector-curvature="0"
       sodipodi:nodetypes="cccccccccccc" />
    <path
       style="color:#000000;display:inline;overflow:visible;visibility:visible;fill:#ffffff;fill-opacity:1;fill-rule:nonzero;stroke:none;stroke-width:0.99999988px;marker:none;enable-background:accumulate"
       d="m 418.73536,2055.1489 c 3.84838,34.7867 6.74214,80.4189 3.34466,87.8991 6.54891,-5.4068 13.08002,-8.3131 18.13766,-10.723 3.59478,16.93 1.37715,72.9444 0.69916,104.7157 14.25523,-47.1378 17.38386,-114.509 14.12659,-141.5765 -5.74943,7.8798 -11.53154,12.3511 -15.31572,12.9092 -5.65161,-11.5208 -1.74846,-60.5538 -1.24906,-60.9055 z"
       id="path5066-6"
       inkscape:connector-curvature="0"
       sodipodi:nodetypes="cccccccc" />
    <path
       style="color:#000000;display:inline;overflow:visible;visibility:visible;fill:#000000;fill-opacity:1;fill-rule:nonzero;stroke:none;stroke-width:1.25845337px;marker:none;filter:url(#filter3018-9-9);enable-background:accumulate"
       d="m 242.72907,238.4265 c 0,-43.16665 41.77313,-75.34884 127.54615,-85.0916 88.07104,-10.00379 249.70116,-15.35559 288.45226,4.24531 38.751,19.601 30.81374,42.98675 32.80104,82.18855 1.9872,39.2018 -70.66992,79.95433 -157.5944,97.0713 -119.00792,23.43477 -209.10789,37.33253 -256.80149,23.33183 -47.6936,-14.0007 -30.42906,-74.14319 -34.40356,-121.74539 z"
       id="path3986-45"
       inkscape:connector-curvature="0"
       sodipodi:nodetypes="csssssc"
       transform="matrix(0.76931211,0.08232987,-0.06789223,0.68352218,-56.104771,2551.2388)" />
    <path
       style="color:#000000;display:inline;overflow:visible;visibility:visible;fill:#000000;fill-opacity:1;fill-rule:nonzero;stroke:none;stroke-width:1px;marker:none;enable-background:accumulate"
       d="m 320.34575,2699.3541 c -2.27872,-20.874 -3.1096,-48.2508 0.63297,-52.729 -6.80567,3.2268 -13.4802,4.9539 -18.65609,6.3868 -2.83396,-10.1632 1.92623,-43.7544 4.0453,-62.8087 -16.41704,28.2374 -22.60454,68.6381 -20.56814,84.8808 6.11684,-4.712 12.11193,-7.3796 15.92818,-7.7049 5.13961,6.9238 -0.99272,36.3236 -1.50894,36.5333 z"
       id="path5066-6-2"
       inkscape:connector-curvature="0"
       sodipodi:nodetypes="cccccccc" />
    <path
       style="display:inline;opacity:1;vector-effect:none;fill:#000000;fill-opacity:1;stroke:none;stroke-width:0.99999994;stroke-linecap:butt;stroke-linejoin:miter;stroke-miterlimit:4;stroke-dasharray:none;stroke-dashoffset:0;stroke-opacity:1"
       d="m 738.50838,2535.2565 c -48.6175,-23.276 -83.2149,-109.492 -49.7683,-157.706 19.7334,-28.446 29.6777,-45.463 29.6777,-45.463 l -35.9455,-11.844 c -83.024,107.754 -0.6527,193.212 56.0361,215.013 z"
       id="path3063-1-0"
       inkscape:connector-curvature="0"
       sodipodi:nodetypes="csccc" />
    <path
       style="fill:none;fill-rule:evenodd;stroke:none;stroke-width:1px;stroke-linecap:butt;stroke-linejoin:miter;stroke-opacity:1"
       d="m 1229.6739,2517.2391 c 52.5,-95 140.1801,-194.321 260.0423,-201.3276 69.5344,-4.0647 215.7486,1.3167 289.9577,158.8276 57.9405,122.9803 48.8135,180.5223 25.1694,276.5394"
       id="path1304"
       inkscape:connector-curvature="0"
       sodipodi:nodetypes="cssc" />
  </g>
  <g
     inkscape:groupmode="layer"
     id="layer1"
     inkscape:label="txt">
    <text
       xml:space="preserve"
       style="font-style:normal;font-variant:normal;font-weight:normal;font-stretch:normal;line-height:0%;font-family:Lavi;-inkscape-font-specification:Lavi;text-align:center;letter-spacing:0px;word-spacing:0px;text-anchor:middle;fill:#000000;fill-opacity:1;stroke:none"
       x="378.7392"
       y="960.86554"
       id="text4246-3-7-7-6-7-2-9-6-1-4"><tspan
         sodipodi:role="line"
         style="font-size:45px;line-height:1.2"
         x="378.7392"
         y="960.86554"
         id="tspan1183-0">Pfft…</tspan></text>
    <text
       xml:space="preserve"
       style="font-style:normal;font-variant:normal;font-weight:normal;font-stretch:normal;line-height:0%;font-family:Lavi;-inkscape-font-specification:Lavi;text-align:center;letter-spacing:0px;word-spacing:0px;text-anchor:middle;fill:#000000;fill-opacity:1;stroke:none"
       x="1760.0575"
       y="694.46844"
       id="text4246-3-7-7-6-7-2-9-6-1"><tspan
         sodipodi:role="line"
         style="font-size:40px;line-height:1.2"
         x="1760.0575"
         y="694.46844"
         id="tspan1050">¿Escondiéndote en</tspan><tspan
         sodipodi:role="line"
         style="font-size:40px;line-height:1.2"
         x="1760.0575"
         y="742.46844"
         id="tspan856">una <tspan
   style="font-style:normal;font-variant:normal;font-weight:bold;font-stretch:normal;font-family:Lavi;-inkscape-font-specification:'Lavi Bold'"
   id="tspan932">microdimensión</tspan></tspan><tspan
         sodipodi:role="line"
         style="font-size:40px;line-height:1.2"
         x="1760.0575"
         y="790.46844"
         id="tspan860">a tu edad?</tspan></text>
    <text
       xml:space="preserve"
       style="font-style:normal;font-variant:normal;font-weight:normal;font-stretch:normal;line-height:0%;font-family:Lavi;-inkscape-font-specification:Lavi;text-align:center;letter-spacing:0px;word-spacing:0px;text-anchor:middle;fill:#000000;fill-opacity:1;stroke:none"
       x="1908.8818"
       y="874.92896"
       id="text4246-3-7-7-6-7-2-9-6-1-3"><tspan
         sodipodi:role="line"
         style="font-size:40px;line-height:1.2"
         x="1908.8818"
         y="874.92896"
         id="tspan891">Qué derrota</tspan><tspan
         sodipodi:role="line"
         style="font-size:40px;line-height:1.2"
         x="1908.8818"
         y="922.92896"
         id="tspan927">tan <tspan
   style="font-style:italic;font-variant:normal;font-weight:normal;font-stretch:normal;font-family:Lavi;-inkscape-font-specification:'Lavi Italic'"
   id="tspan929">ridícula…</tspan></tspan></text>
    <text
       xml:space="preserve"
       style="font-style:normal;font-variant:normal;font-weight:normal;font-stretch:normal;line-height:0%;font-family:Lavi;-inkscape-font-specification:Lavi;text-align:center;letter-spacing:0px;word-spacing:0px;text-anchor:middle;fill:#000000;fill-opacity:1;stroke:#000000;stroke-width:0.1;stroke-miterlimit:4;stroke-dasharray:none;stroke-opacity:1"
       x="482.26468"
       y="1174.3885"
       id="text4246-3-2-9"><tspan
         sodipodi:role="line"
         style="font-style:italic;font-variant:normal;font-weight:normal;font-stretch:normal;font-size:45px;line-height:1.25;font-family:Lavi;-inkscape-font-specification:'Lavi Italic';stroke:#000000;stroke-width:0.1;stroke-miterlimit:4;stroke-dasharray:none;stroke-opacity:1"
         x="482.26468"
         y="1174.3885"
         id="tspan4259-0">¡Error!</tspan></text>
    <text
       xml:space="preserve"
       style="font-style:normal;font-variant:normal;font-weight:normal;font-stretch:normal;font-size:13.7088px;line-height:0%;font-family:Lavi;-inkscape-font-specification:Lavi;text-align:center;letter-spacing:0px;word-spacing:0px;text-anchor:middle;fill:#000000;fill-opacity:1;stroke:none;stroke-width:1"
       x="693.1756"
       y="1254.9276"
       id="text4246-8-34"
       transform="skewX(-4.4463202)"><tspan
         sodipodi:role="line"
         style="font-style:normal;font-variant:normal;font-weight:bold;font-stretch:normal;font-size:51.4081px;line-height:1.2;font-family:Lavi;-inkscape-font-specification:'Lavi Bold';stroke-width:0.875349"
         x="693.1756"
         y="1254.9276"
         id="tspan4252-0-4">¡Un agujero</tspan><tspan
         sodipodi:role="line"
         style="font-style:normal;font-variant:normal;font-weight:bold;font-stretch:normal;font-size:51.4081px;line-height:1.2;font-family:Lavi;-inkscape-font-specification:'Lavi Bold';stroke-width:0.875349"
         x="693.1756"
         y="1316.6173"
         id="tspan931">de gusano!</tspan></text>
    <text
       xml:space="preserve"
       style="font-style:normal;font-variant:normal;font-weight:normal;font-stretch:normal;line-height:0%;font-family:Lavi;-inkscape-font-specification:Lavi;letter-spacing:0px;word-spacing:0px;display:inline;fill:#ffffff;fill-opacity:1;stroke:none;stroke-width:1.92738;stroke-miterlimit:4;stroke-dasharray:none;stroke-opacity:1;filter:url(#filter4375-4-1-1-1-9-5-8-86)"
       x="787.65729"
       y="1584.5073"
       id="text4580-6-0-34"
       transform="matrix(0.35442438,-0.18307708,-0.04197362,0.52947523,476.28326,769.51742)"><tspan
         sodipodi:role="line"
         id="tspan4582-1-1-03"
         x="787.65729"
         y="1584.5073"
         style="font-size:70px;line-height:1.25;fill:#ffffff;fill-opacity:1;stroke:none;stroke-width:1.92738;stroke-opacity:1"><tspan
           style="font-size:93.1495px;fill:#ffffff;fill-opacity:1;stroke:none;stroke-width:1.92738;stroke-opacity:1"
           id="tspan4315-8-91">¡¡Bzz!</tspan><tspan
           style="font-size:114.732px;fill:#ffffff;fill-opacity:1;stroke:none;stroke-width:1.92738;stroke-opacity:1"
           id="tspan4313-2-96">!</tspan></tspan></text>
    <text
       xml:space="preserve"
       style="font-style:normal;font-variant:normal;font-weight:normal;font-stretch:normal;font-size:9.76105px;line-height:0%;font-family:Lavi;-inkscape-font-specification:Lavi;text-align:center;letter-spacing:0px;word-spacing:0px;text-anchor:middle;fill:#000000;fill-opacity:1;stroke:none;stroke-width:1"
       x="849.59625"
       y="1721.0502"
       id="text4246-3-7-7-6-7-2-9-6-1-3-1"><tspan
         sodipodi:role="line"
         style="font-size:32.5368px;line-height:1.2;stroke-width:1"
         x="849.59625"
         y="1721.0502"
         id="tspan137">¡Gracias por</tspan><tspan
         sodipodi:role="line"
         style="font-size:32.5368px;line-height:1.2;stroke-width:1"
         x="849.59625"
         y="1760.0944"
         id="tspan935">la salida,</tspan><tspan
         sodipodi:role="line"
         style="font-size:32.5368px;line-height:1.2;stroke-width:1"
         x="854.68011"
         y="1799.1385"
         id="tspan139">Carrot! </tspan></text>
    <text
       xml:space="preserve"
       style="font-style:normal;font-variant:normal;font-weight:normal;font-stretch:normal;font-size:11.2861px;line-height:0%;font-family:Lavi;-inkscape-font-specification:Lavi;text-align:center;letter-spacing:0px;word-spacing:0px;text-anchor:middle;fill:#000000;fill-opacity:1;stroke:none;stroke-width:1"
       x="615.36902"
       y="1993.876"
       id="text4246-8-34-3"
       transform="skewX(-8.884909)"><tspan
         sodipodi:role="line"
         style="font-style:normal;font-variant:normal;font-weight:bold;font-stretch:normal;font-size:42.3227px;line-height:1.2;font-family:Lavi;-inkscape-font-specification:'Lavi Bold';fill:#000000;stroke-width:0.875349"
         x="615.36902"
         y="1993.876"
         id="tspan4252-0-4-6">¡Jaque mate,</tspan><tspan
         sodipodi:role="line"
         style="font-style:normal;font-variant:normal;font-weight:bold;font-stretch:normal;font-size:42.3227px;line-height:1.2;font-family:Lavi;-inkscape-font-specification:'Lavi Bold';fill:#000000;stroke-width:0.875349"
         x="615.36902"
         y="2044.6632"
         id="tspan1119">profesora Cayenne!</tspan></text>
    <text
       xml:space="preserve"
       style="font-style:normal;font-variant:normal;font-weight:normal;font-stretch:normal;font-size:16.7241px;line-height:0%;font-family:Lavi;-inkscape-font-specification:Lavi;text-align:center;letter-spacing:0px;word-spacing:0px;text-anchor:middle;opacity:1;fill:#ffffff;fill-opacity:1;stroke:none;stroke-width:1"
       x="846.76416"
       y="2777.3665"
       id="text4180"
       transform="matrix(0.998301,0,-0.20061783,1.0017019,0,0)"><tspan
         sodipodi:role="line"
         id="tspan4182"
         x="846.76416"
         y="2777.3665"
         style="font-style:normal;font-variant:normal;font-weight:normal;font-stretch:normal;font-size:70.3062px;line-height:1.25;font-family:Drukah;-inkscape-font-specification:Drukah;stroke-width:1">¡GURGES…</tspan></text>
    <text
       xml:space="preserve"
       style="font-style:normal;font-variant:normal;font-weight:normal;font-stretch:normal;font-size:24.9818px;line-height:0%;font-family:Lavi;-inkscape-font-specification:Lavi;text-align:center;letter-spacing:0px;word-spacing:0px;text-anchor:middle;opacity:1;fill:#ffffff;fill-opacity:1;stroke:none;stroke-width:1"
       x="846.401"
       y="2444.5032"
       id="text4180-6"
       transform="matrix(0.96407587,-0.32145084,-0.00953047,1.0404405,0,0)"
       inkscape:transform-center-x="-0.033241186"
       inkscape:transform-center-y="-6.3784822"><tspan
         sodipodi:role="line"
         id="tspan4182-1"
         x="846.401"
         y="2444.5032"
         style="font-style:normal;font-variant:normal;font-weight:normal;font-stretch:normal;font-size:105.021px;line-height:1.25;font-family:Drukah;-inkscape-font-specification:Drukah;stroke-width:1">…ATER!</tspan><tspan
         sodipodi:role="line"
         x="846.401"
         y="2489.8416"
         id="tspan1187" /></text>
    <text
       xml:space="preserve"
       style="color:#000000;font-style:normal;font-variant:normal;font-weight:normal;font-stretch:normal;font-size:59.0451px;line-height:0.01%;font-family:Lavi;-inkscape-font-specification:'Lavi, Normal';font-variant-ligatures:normal;font-variant-caps:normal;font-variant-numeric:normal;font-feature-settings:normal;text-align:start;letter-spacing:0.0100853px;word-spacing:0px;writing-mode:lr-tb;text-anchor:start;display:inline;overflow:visible;visibility:visible;opacity:0.6;fill:#ffffff;fill-opacity:1;fill-rule:nonzero;stroke:#ffffff;stroke-width:2.65057;stroke-linecap:butt;stroke-linejoin:miter;stroke-miterlimit:4;stroke-dasharray:none;stroke-dashoffset:0;stroke-opacity:1;marker:none;filter:url(#filter4375-4-1-1-15-1-3-0);enable-background:accumulate"
       id="text1702-6"
       x="-15"
       y="-10"
       transform="matrix(0.98154839,0,-0.00560868,1,25.472084,-13.109641)"><textPath
         xlink:href="#path1304"
         id="textPath1306"
         style="font-style:italic;font-variant:normal;font-weight:normal;font-stretch:normal;font-size:66.6667px;font-family:Lavi;-inkscape-font-specification:'Lavi Italic';letter-spacing:8px;stroke:#ffffff;stroke-width:2.65057;stroke-miterlimit:4;stroke-dasharray:none;stroke-opacity:1">¡ ¡ ¡ Swwwiiiiiipppp!!!</textPath></text>
    <text
       xml:space="preserve"
       style="font-style:normal;font-variant:normal;font-weight:normal;font-stretch:normal;line-height:0%;font-family:Lavi;-inkscape-font-specification:Lavi;letter-spacing:0px;word-spacing:0px;display:inline;fill:#637cab;fill-opacity:1;stroke:#000000;stroke-width:0.522203;stroke-miterlimit:4;stroke-dasharray:none;stroke-opacity:1;filter:url(#filter4375-4-1-1-1-9-5-8-3-8)"
       x="787.65729"
       y="1584.5073"
       id="text4580-6-0-8-8"
       transform="matrix(0.90992457,1.0129518,-0.51490843,2.121195,1709.206,-2057.3113)"><tspan
         sodipodi:role="line"
         id="tspan4582-1-1-8-2"
         x="787.65729"
         y="1584.5073"
         style="font-style:normal;font-variant:normal;font-weight:bold;font-stretch:normal;font-size:70px;line-height:1.25;font-family:'Noto Sans';-inkscape-font-specification:'Noto Sans Bold';letter-spacing:5.87611px;fill:#637cab;fill-opacity:1;stroke:#000000;stroke-width:0.522203;stroke-opacity:1"><tspan
           style="font-style:normal;font-variant:normal;font-weight:bold;font-stretch:normal;font-size:93.1495px;font-family:'Noto Sans';-inkscape-font-specification:'Noto Sans Bold';letter-spacing:5.87611px;fill:#637cab;fill-opacity:1;stroke:#000000;stroke-width:0.522203;stroke-opacity:1"
           id="tspan4315-8-97-3"
           dy="0 0 0 0 0 0"><tspan
   style="font-style:normal;font-variant:normal;font-weight:bold;font-stretch:normal;font-size:105.357px;font-family:'Noto Sans';-inkscape-font-specification:'Noto Sans Bold';fill:#637cab;fill-opacity:1;stroke-width:0.522203"
   id="tspan1359">¡¡¡V</tspan><tspan
   style="font-style:normal;font-variant:normal;font-weight:bold;font-stretch:normal;font-size:96.6374px;font-family:'Noto Sans';-inkscape-font-specification:'Noto Sans Bold';fill:#637cab;fill-opacity:1;stroke-width:0.522203"
   id="tspan1361">R</tspan><tspan
   style="font-style:normal;font-variant:normal;font-weight:bold;font-stretch:normal;font-size:87.9176px;font-family:'Noto Sans';-inkscape-font-specification:'Noto Sans Bold';fill:#637cab;fill-opacity:1;stroke-width:0.522203"
   id="tspan1363">O</tspan><tspan
   id="tspan1369"
   style="font-style:normal;font-variant:normal;font-weight:bold;font-stretch:normal;font-size:79.1978px;font-family:'Noto Sans';-inkscape-font-specification:'Noto Sans Bold';fill:#637cab;fill-opacity:1;stroke-width:0.522203">OM</tspan>!</tspan><tspan
           style="font-style:normal;font-variant:normal;font-weight:bold;font-stretch:normal;font-size:114.732px;font-family:'Noto Sans';-inkscape-font-specification:'Noto Sans Bold';letter-spacing:5.87611px;fill:#637cab;fill-opacity:1;stroke:#000000;stroke-width:0.522203;stroke-opacity:1"
           id="tspan4313-2-76-0">!!</tspan></tspan></text>
    <text
       xml:space="preserve"
       style="font-style:normal;font-variant:normal;font-weight:normal;font-stretch:normal;font-size:16.2769px;line-height:0%;font-family:Lavi;-inkscape-font-specification:Lavi;text-align:center;letter-spacing:0px;word-spacing:0px;text-anchor:middle;fill:#000000;fill-opacity:1;stroke:none;stroke-width:1.92824"
       x="2796.1824"
       y="3105.9114"
       id="text4246-1-44"
       transform="matrix(0.96784555,0,-0.20410544,1.0332227,0,0)"><tspan
         sodipodi:role="line"
         style="font-style:normal;font-variant:normal;font-weight:bold;font-stretch:normal;font-size:61.0383px;line-height:1.25;font-family:Lavi;-inkscape-font-specification:'Lavi Bold';stroke-width:1.92824"
         x="2796.1824"
         y="3105.9114"
         id="tspan1013-76"><tspan
           style="font-size:80.5796px;stroke-width:1.92824"
           id="tspan867-1">¡¡¡BASTA!!!</tspan><tspan
           id="tspan885-1"
           style="font-size:118.749px;stroke-width:1.92824"><tspan
             style="font-size:125.314px;stroke-width:1.92824"
             id="tspan48-8" /></tspan></tspan></text>
  </g>
</svg>
