<?xml version="1.0" encoding="UTF-8" standalone="no"?>
<svg
   xmlns:dc="http://purl.org/dc/elements/1.1/"
   xmlns:cc="http://creativecommons.org/ns#"
   xmlns:rdf="http://www.w3.org/1999/02/22-rdf-syntax-ns#"
   xmlns:svg="http://www.w3.org/2000/svg"
   xmlns="http://www.w3.org/2000/svg"
   xmlns:xlink="http://www.w3.org/1999/xlink"
   xmlns:sodipodi="http://sodipodi.sourceforge.net/DTD/sodipodi-0.dtd"
   xmlns:inkscape="http://www.inkscape.org/namespaces/inkscape"
   id="svg2"
   version="1.1"
   inkscape:version="1.0 (4035a4fb49, 2020-05-01)"
   width="2481"
   height="3503"
   sodipodi:docname="E34P09.svg">
  <metadata
     id="metadata8">
    <rdf:RDF>
      <cc:Work
         rdf:about="">
        <dc:format>image/svg+xml</dc:format>
        <dc:type
           rdf:resource="http://purl.org/dc/dcmitype/StillImage" />
        <dc:title />
      </cc:Work>
    </rdf:RDF>
  </metadata>
  <defs
     id="defs6">
    <filter
       style="color-interpolation-filters:sRGB"
       id="filter4375-4-1-1-1-9-5-8-8-5-5-3-3-3-0"
       inkscape:label="soundFX1">
      <feFlood
         id="feFlood4377-7-9-0-8-1-7-3-1-2-7-6-6-5-96"
         flood-opacity="1"
         flood-color="rgb(52,52,52)"
         result="flood" />
      <feComposite
         id="feComposite4379-3-8-8-2-77-4-1-0-6-4-7-7-6-3"
         in2="SourceGraphic"
         in="flood"
         operator="in"
         result="composite1"
         baseFrequency="0.053999999999999999 0.053999999999999999" />
      <feMorphology
         id="feMorphology4393-1-0-49-8-9-3-0-1-9-9-5-5-2-8"
         operator="dilate"
         radius="2.5856550817276021"
         result="result3" />
      <feComposite
         id="feComposite4385-9-5-7-0-8-8-7-5-4-9-3-3-9-5"
         in2="result3"
         in="SourceGraphic"
         operator="over"
         result="fbSourceGraphic" />
      <feColorMatrix
         result="fbSourceGraphicAlpha"
         in="fbSourceGraphic"
         values="0 0 0 -1 0 0 0 0 -1 0 0 0 0 -1 0 0 0 0 1 0"
         id="feColorMatrix4544-9-4-4-5-5-1-6" />
      <feTurbulence
         id="feTurbulence4546-3-6-5-6-6-2-1"
         type="fractalNoise"
         numOctaves="4"
         seed="147"
         baseFrequency="0.046080819231719368"
         result="turbulence" />
      <feDisplacementMap
         id="feDisplacementMap4548-8-0-9-2-2-7-1"
         in2="turbulence"
         in="fbSourceGraphic"
         scale="13.20326"
         yChannelSelector="G"
         xChannelSelector="R"
         result="fbSourceGraphic" />
      <feColorMatrix
         result="fbSourceGraphicAlpha"
         in="fbSourceGraphic"
         values="0 0 0 -1 0 0 0 0 -1 0 0 0 0 -1 0 0 0 0 1 0"
         id="feColorMatrix4670-7-7-3-9-9-0-5" />
      <feFlood
         id="feFlood4672-4-4-5-1-1-9-9"
         flood-opacity="1"
         flood-color="rgb(28,28,28)"
         result="flood"
         in="fbSourceGraphic" />
      <feComposite
         id="feComposite4674-8-3-7-2-2-3-8"
         in2="fbSourceGraphic"
         in="flood"
         operator="in"
         result="composite1" />
      <feGaussianBlur
         id="feGaussianBlur4676-3-7-08-7-7-6-4"
         in="composite1"
         stdDeviation="0"
         result="blur" />
      <feOffset
         id="feOffset4678-6-9-1-0-0-0-8"
         dx="-8.3919392296330813"
         dy="1.5526614972014983"
         result="offset" />
      <feComposite
         id="feComposite4680-4-0-9-9-9-6-1"
         in2="offset"
         in="fbSourceGraphic"
         operator="over"
         result="composite2" />
    </filter>
    <filter
       style="color-interpolation-filters:sRGB"
       id="filter4375-4-1-1-1-9-5-8-8-5-5-3-3-3-0-6"
       inkscape:label="soundFX1">
      <feFlood
         id="feFlood4377-7-9-0-8-1-7-3-1-2-7-6-6-5-96-3"
         flood-opacity="1"
         flood-color="rgb(52,52,52)"
         result="flood" />
      <feComposite
         id="feComposite4379-3-8-8-2-77-4-1-0-6-4-7-7-6-3-2"
         in2="SourceGraphic"
         in="flood"
         operator="in"
         result="composite1"
         baseFrequency="0.053999999999999999 0.053999999999999999" />
      <feMorphology
         id="feMorphology4393-1-0-49-8-9-3-0-1-9-9-5-5-2-8-0"
         operator="dilate"
         radius="2.5856550817276021"
         result="result3" />
      <feComposite
         id="feComposite4385-9-5-7-0-8-8-7-5-4-9-3-3-9-5-6"
         in2="result3"
         in="SourceGraphic"
         operator="over"
         result="fbSourceGraphic" />
      <feColorMatrix
         result="fbSourceGraphicAlpha"
         in="fbSourceGraphic"
         values="0 0 0 -1 0 0 0 0 -1 0 0 0 0 -1 0 0 0 0 1 0"
         id="feColorMatrix4544-9-4-4-5-5-1-6-1" />
      <feTurbulence
         id="feTurbulence4546-3-6-5-6-6-2-1-5"
         type="fractalNoise"
         numOctaves="4"
         seed="147"
         baseFrequency="0.046080819231719368"
         result="turbulence" />
      <feDisplacementMap
         id="feDisplacementMap4548-8-0-9-2-2-7-1-5"
         in2="turbulence"
         in="fbSourceGraphic"
         scale="13.20326"
         yChannelSelector="G"
         xChannelSelector="R"
         result="fbSourceGraphic" />
      <feColorMatrix
         result="fbSourceGraphicAlpha"
         in="fbSourceGraphic"
         values="0 0 0 -1 0 0 0 0 -1 0 0 0 0 -1 0 0 0 0 1 0"
         id="feColorMatrix4670-7-7-3-9-9-0-5-4" />
      <feFlood
         id="feFlood4672-4-4-5-1-1-9-9-7"
         flood-opacity="1"
         flood-color="rgb(28,28,28)"
         result="flood"
         in="fbSourceGraphic" />
      <feComposite
         id="feComposite4674-8-3-7-2-2-3-8-6"
         in2="fbSourceGraphic"
         in="flood"
         operator="in"
         result="composite1" />
      <feGaussianBlur
         id="feGaussianBlur4676-3-7-08-7-7-6-4-5"
         in="composite1"
         stdDeviation="0"
         result="blur" />
      <feOffset
         id="feOffset4678-6-9-1-0-0-0-8-6"
         dx="-8.3919392296330813"
         dy="1.5526614972014983"
         result="offset" />
      <feComposite
         id="feComposite4680-4-0-9-9-9-6-1-9"
         in2="offset"
         in="fbSourceGraphic"
         operator="over"
         result="composite2" />
    </filter>
  </defs>
  <sodipodi:namedview
     pagecolor="#ffffff"
     bordercolor="#666666"
     borderopacity="1"
     objecttolerance="10"
     gridtolerance="10"
     guidetolerance="10"
     inkscape:pageopacity="0"
     inkscape:pageshadow="2"
     inkscape:window-width="960"
     inkscape:window-height="1027"
     id="namedview4"
     showgrid="false"
     inkscape:zoom="0.36440298"
     inkscape:cx="1196.8131"
     inkscape:cy="491.39506"
     inkscape:window-x="-8"
     inkscape:window-y="-8"
     inkscape:window-maximized="0"
     inkscape:current-layer="layer1"
     inkscape:document-rotation="0"
     inkscape:snap-global="false"
     borderlayer="true" />
  <g
     inkscape:groupmode="layer"
     id="layer2"
     inkscape:label="artwork"
     sodipodi:insensitive="true">
    <image
       sodipodi:absref="D:\Pepper&amp;Carrot translation\peppercarrot_ep34_The-Knighting-of-Shichimi\lang\gfx_Pepper-and-Carrot_by-David-Revoy_E34P09.png"
       xlink:href="../gfx_Pepper-and-Carrot_by-David-Revoy_E34P09.png"
       y="0"
       x="0"
       id="image10"
       height="3503"
       width="2481" />
  </g>
  <g
     inkscape:groupmode="layer"
     id="layer3"
     inkscape:label="speechbubbles"
     style="display:inline">
    <path
       style="color:#000000;display:inline;overflow:visible;visibility:visible;fill:#ffffff;fill-opacity:1;fill-rule:nonzero;stroke:none;stroke-width:1.06937px;marker:none;enable-background:accumulate"
       d="m 1413.9252,2288.6897 c -21.0035,-5.3737 -81.566,-47.9371 -7.2888,-45.7139 -54.6661,-17.9093 -47.3991,-53.5519 -2.4758,-74.369 -58.9238,4.2548 -100.5769,0.6207 -70.2151,-36.1664 -79.2184,3.5955 -122.8044,10.2673 -109.8003,-28.5578 -40.1503,42.6369 -78.6617,34.6793 -88.5825,-15.1981 -6.9274,35.2294 -81.7002,33.1271 -167.99998,12.6992 8.30388,14.5849 88.47908,54.7735 -30.55105,45.7152 47.04927,26.0011 49.14048,39.3386 -30.92339,50.3382 40.80347,11.6971 66.82446,27.5422 3.23088,52.7159 41.20562,7.9508 106.39464,5.6199 27.23252,53.7673 52.19075,-22.7557 139.25082,-6.3139 101.72672,30.3911 102.2721,-41.2428 121.9423,-30.2458 137.385,-0.6941 38.0267,-43.2711 92.9821,-38.37 124.9467,-13.2168 -15.5391,-38.3461 66.3526,-31.727 113.3151,-31.7108 z"
       id="path3549-3-78-5"
       inkscape:connector-curvature="0"
       sodipodi:nodetypes="ccccccccccccccc" />
    <path
       style="color:#000000;display:inline;overflow:visible;visibility:visible;fill:#ffffff;fill-opacity:1;fill-rule:nonzero;stroke:none;stroke-width:1.15895px;marker:none;enable-background:accumulate"
       d="m 1148.1759,2438.2778 c -38.1321,-0.1024 -77.1528,3.8852 -109.4182,13.7003 -34.9374,10.7543 -58.71997,28.2415 -69.77379,46.9224 -10.79068,18.2568 -8.7354,38.3035 7.639,55.7006 7.52911,7.7957 19.93494,14.2925 33.01459,20.1546 8.3372,3.9307 18.1978,7.0992 28.8873,9.4606 15.9156,3.5233 32.925,5.8229 49.9603,7.8175 28.9812,3.1901 59.1368,4.0865 88.709,2.3938 20.4218,-1.0711 40.9732,-2.8443 59.8835,-6.7317 23.5852,-5.0747 44.1349,-12.8564 61.816,-21.6766 11.59,-5.8955 20.7098,-12.8741 25.9944,-20.5125 12.1601,-16.9007 9.3784,-35.6392 -3.6231,-52.2444 -11.0961,-14.3489 -30.3069,-27.3974 -56.0281,-36.8384 -25.3616,-9.4737 -56.3975,-15.5083 -88.5832,-17.3577 -9.438,-0.5745 -18.9623,-0.8178 -28.4777,-0.7885 z"
       id="path3365-3"
       inkscape:connector-curvature="0"
       sodipodi:nodetypes="cssccsc" />
    <path
       style="display:inline;fill:#ffffff;fill-rule:evenodd;stroke:none;stroke-width:0.751182px;stroke-linecap:butt;stroke-linejoin:miter;stroke-opacity:1"
       d="m 160.77471,2178.3014 c 21.99896,15.4854 24.69309,26.3321 5.63099,20.4614 18.55043,10.0518 14.71277,12.4045 1.08528,17.1922 36.51326,24.4548 27.23541,43.6346 16.88057,62.6904 37.69879,-12.4703 39.79627,3.1556 49.69031,12.6289 7.78577,-21.966 12.36762,-8.9462 16.05562,13.8355 7.80624,-28.1251 13.71461,-30.9458 17.89434,-10.6921 7.66798,-18.0963 18.04782,-25.8691 31.54426,-21.7761 24.74454,-18.8161 34.83517,2.0894 49.66208,10.1563 -1.50124,-20.9272 8.95457,-27.6689 34.42707,-9.7974 -0.67582,-12.678 17.05822,-14.4501 36.18486,1.5178 -26.77462,-32.662 13.32434,-5.1755 19.29818,-3.7698 -13.01466,-16.8982 -2.71194,-30.5655 48.08806,-11.6003 -16.16441,-2.6139 -27.21229,-22.6852 -5.37288,-32.6043 -24.31056,-5.1191 -24.05441,-14.3364 -10.89241,-25.707 -27.75712,-11.6987 0.0865,-29.059 14.05656,-45.0066 -28.20693,9.9992 -50.72364,12.341 -55.74128,-8.8667 -42.86556,21.775 -36.45317,11.7548 -32.28747,3.1842 -26.63727,23.4223 -31.39253,5.2858 -31.79949,-0.4752 -36.91388,26.4286 -70.16886,7.3454 -85.10398,-4.7944 -6.19628,30.182 -21.43156,20.5741 -36.70431,10.802 11.38277,20.2767 -2.41999,20.224 -17.86592,13.1647 6.49931,13.7681 -3.38994,27.5254 -29.82232,10.2042 9.51701,9.0113 -3.88049,15.5367 -34.90812,-0.7477 z"
       id="path4289-9"
       inkscape:connector-curvature="0"
       sodipodi:nodetypes="cccccccccccccccccccccccc" />
    <path
       style="fill:#ffffff;fill-rule:evenodd;stroke:none;stroke-width:1.58498px;stroke-linecap:butt;stroke-linejoin:miter;stroke-opacity:1"
       d="m 829.1882,1208.2481 c 37.35092,91.7805 51.51885,84.7087 57.32522,41.9832 10.20589,15.4323 12.37847,60.6932 41.58136,5.5858 18.03165,40.023 32.57311,34.914 44.25484,-7.1739 31.32358,75.8538 50.42328,32.0394 67.23178,15.1094 42.4152,42.4272 159.0716,48.8759 210.1363,-5.8369 10.8157,19.5051 22.3407,34.8489 44.0248,-1.9364 -2.1215,44.5449 26.1739,7.5009 50.2001,-49.2058 -3.0774,33.3537 -18.8772,90.2026 13.9344,57.2753 3.7989,23.8344 0.7976,55.3699 70.9795,4.0248 -20.4126,67.9175 38.6478,-1.2141 95.8768,-67.1871 -36.0665,57.5257 -85.3421,128.2944 -23.7474,105.1684 -34.6289,48.1932 -31.5267,65.8771 66.7821,63.4999 -93.0477,24.8181 -115.8859,57.3228 -60.2661,123.2148 -40.244,-31.0307 -98.0323,-35.2418 -48.356,7.5461 -50.0581,-34.2663 -57.2697,-17.672 -39.455,10.4041 -54.6533,-49.3277 -28.952,-9.7825 -25.9213,29.1527 -39.3439,-24.5276 -65.6834,-52.6972 -59.8913,10.0835 -40.9464,-48.1752 -47.9291,-30.9006 -52.7427,-9.4462 -72.7005,-72.8026 -63.2956,-29.2975 -77.2666,-18.9061 -21.0209,-26.9338 -20.4888,-4.8298 -16.6137,24.8798 -20.1181,-31.4777 -38.3442,-43.6108 -51.7213,-6.1606 -12.6038,-17.3167 -24.9723,-41.8525 -39.3279,-5.4578 -17.3604,-19.8523 -35.6711,-27.744 -58.09,16.0725 -9.5353,-26.4714 -23.6051,-45.5282 -70.7693,-10.4684 -8.89088,-56.7978 -49.27174,-47.6201 -99.90503,-16.9621 1.55425,-33.3735 -2.44502,-55.2983 -54.92035,22.7077 10.90209,-34.0901 23.31897,-70.0258 -8.45867,-52.1235 19.94033,-65.2228 -7.97088,-47.7521 -67.08058,-34.4229 60.38344,-37.9606 91.72998,-76.2312 33.42097,-75.6147 40.07236,-37.8995 36.92955,-57.7575 18.8668,-56.1043 2.7368,-11.7108 35.36826,-32.981 -10.34378,-32.175 24.14089,-15.9508 59.75236,-11.3665 50.26204,-87.5263 z"
       id="path4656"
       inkscape:connector-curvature="0"
       sodipodi:nodetypes="ccccccccccccccccccccccccccccccccc" />
    <path
       style="fill:#ffffff;fill-rule:evenodd;stroke:none;stroke-width:0.852134px;stroke-linecap:butt;stroke-linejoin:miter;stroke-opacity:1"
       d="m 690.1345,1227.7316 c 27.41589,10.8337 97.73364,16.8376 2.79374,49.1491 50.25636,0.7745 78.05895,1.4045 30.73102,15.3163 64.31417,0.2526 1.3642,7.93 -30.42836,15.4538 35.00208,-0.2074 86.8674,-5.8293 7.97909,19.7294 65.2518,-7.4379 47.84116,1.6295 -17.90886,19.352 63.72945,-14.4879 90.0562,-12.4462 63.0337,-1.0035 26.73296,-3.5777 30.05212,7.5233 -22.80424,18.5637 71.92756,-14.9476 70.40175,-9.2808 74.26744,27.7489 17.09674,-65.218 20.00543,-14.4207 24.10106,16.9053 27.25378,-97.2294 64.09961,-25.4238 72.17808,-14.9547 -6.77983,-75.5723 42.88914,-44.4243 55.87468,-15.6939 -3.34763,-18.4305 12.57725,-55.652 60.10795,-10.5069 -11.33293,-16.6183 -3.6201,-33.8749 39.0696,7.2668 -12.9463,-27.507 11.0362,-35.3743 85.7556,-9.4511 -0.5765,-13.677 -7.8637,-28.0427 70.6938,-3.8708 -1.4739,-12.5554 -17.4912,-29.7994 89.3993,-7.4119 0.6974,-21.9249 17.9156,-23.314 47.9138,-13.2248 -5.1247,-18.8158 27.6368,-10.333 69.1606,2.2387 -26.4467,-25.6623 9.6132,-22.9251 61.7248,-15.0742 -5.0602,-12.4664 -12.2946,-25.2591 18.1592,-32.3855 -58.8814,-36.6947 -6.7958,-39.6744 11.1749,-43.5907 -29.4938,-1.1289 -51.5414,-13.979 -13.5592,-24.1616 -44.2238,5.9628 -27.9846,-12.1427 -25.553,-22.0201 l -71.2402,-15.141 -69.8435,-6.7193 -83.812,-6.6584 -78.2247,-1.0645 -79.6215,0.3463 -69.8433,3.1133 -60.06531,-6.7617 -61.46216,7.2903 -86.60577,-1.028 -41.90601,24.061 c 14.11156,23.0594 -30.48286,22.8635 -71.24025,24.1877 z"
       id="path4323"
       inkscape:connector-curvature="0"
       sodipodi:nodetypes="ccccccccccccccccccccccccccccccccccc" />
    <path
       style="color:#000000;display:inline;overflow:visible;visibility:visible;fill:#ffffff;fill-opacity:1;fill-rule:nonzero;stroke:none;stroke-width:1.17307px;marker:none;enable-background:accumulate"
       d="m 1926.575,2196.8854 c -39.1755,1.364 -78.4763,1.4713 -117.4866,5.159 -20.1258,2.1904 -40.2637,7.4654 -56.6433,18.0412 -22.4768,13.8139 -37.2517,36.0475 -40.6367,59.5192 -4.9376,24.7029 -8.1894,50.3139 -1.9679,75.0757 6.2612,19.7256 26.3622,34.7534 48.9773,40.0269 47.3776,12.8944 97.3106,16.8998 146.7884,17.7337 31.4418,0.5439 62.894,0.1881 94.3371,-0.019 44.2046,-0.9069 88.2559,-4.5842 132.1886,-8.6867 18.7295,-2.1089 37.7415,-4.713 55.0874,-11.4204 18.2826,-7.3518 33.6929,-20.2218 41.6187,-36.2611 12.2838,-23.2332 12.1121,-50.2655 3.597,-74.4074 -8.6459,-23.8672 -27.6601,-44.9223 -52.8268,-57.5959 -25.7934,-13.6812 -56.1784,-19.6316 -86.212,-20.8546 -53.9612,-3.8493 -108.0894,-6.2489 -162.2405,-6.4658 -1.5269,0.052 -3.0538,0.1031 -4.5807,0.1547 z"
       id="path4546-6-5-5"
       inkscape:connector-curvature="0"
       sodipodi:nodetypes="cssssc" />
    <path
       style="color:#000000;display:inline;overflow:visible;visibility:visible;fill:#ffffff;fill-opacity:1;fill-rule:nonzero;stroke:none;stroke-width:0.710908px;marker:none;enable-background:accumulate"
       d="m 427.36079,1539.322 c -18.49435,2.3317 -20.41009,4.4325 -21.96654,15.8617 -1.55611,11.4299 -0.85275,28.3587 -14.56075,40.6485 -13.70771,12.2903 -23.6764,10.0093 -30.31719,9.0645 4.26773,13.7681 1.4232,41.4005 9.47615,45.7822 8.05295,4.3816 -16.23573,2.0167 -16.23573,2.0167 0,0 -18.78665,-30.5045 -14.52874,-48.8854 4.25786,-18.3808 31.63742,-15.9961 42.0788,-22.7096 10.44133,-6.7135 10.50842,-30.2213 17.90427,-37.5835 7.39563,-7.363 19.29539,-5.4547 28.14973,-4.1951 z"
       id="path4538-7"
       inkscape:connector-curvature="0"
       sodipodi:nodetypes="ccscccsscc" />
    <path
       style="color:#000000;display:inline;overflow:visible;visibility:visible;fill:#ffffff;fill-opacity:1;fill-rule:nonzero;stroke:none;stroke-width:0.576009px;marker:none;enable-background:accumulate"
       d="m 269.38616,1653.529 c 23.98622,-18.7388 72.99975,-31.6297 113.83578,1.6461 32.33893,26.3516 21.53309,64.4595 4.25504,76.2832 -17.27802,11.8238 -72.26174,14.2552 -97.55286,8.4261 -19.52455,-4.5006 -40.92884,-15.7046 -42.10867,-45.5966 -0.48149,-12.2006 -2.41553,-22.02 21.57071,-40.7588 z"
       id="path4040-2-9"
       inkscape:connector-curvature="0"
       sodipodi:nodetypes="zssssz" />
    <path
       style="color:#000000;display:inline;overflow:visible;visibility:visible;fill:#ffffff;fill-opacity:1;fill-rule:nonzero;stroke:none;stroke-width:0.590855px;marker:none;enable-background:accumulate"
       d="m 248.38875,1580.4882 c 25.2386,-18.1575 76.81125,-29.8607 119.77943,4.4047 34.02742,27.1353 22.65738,64.9814 4.47719,76.3864 -18.18014,11.405 -76.0347,12.504 -102.64632,6.062 -20.54397,-4.9737 -43.06584,-16.6964 -44.30727,-46.617 -0.50663,-12.2123 -2.54165,-22.0785 22.69697,-40.2361 z"
       id="path4040-2"
       inkscape:connector-curvature="0"
       sodipodi:nodetypes="zssssz" />
    <path
       style="display:inline;fill:#ffffff;stroke:none;stroke-width:0.653193"
       d="m 1997.4497,1035.6857 c -1.6375,-12.7766 27.7227,-44.76185 170.9405,-42.35595 143.2177,2.40589 188.0427,16.45945 192.2396,39.17015 6.6392,35.9274 -68.7075,45.5282 -176.8985,48.1896 -111.5333,2.7431 -188.0125,-21.9186 -186.2816,-45.0038 z"
       id="path3280-8-3-6"
       inkscape:connector-curvature="0"
       sodipodi:nodetypes="csssc" />
    <path
       style="display:inline;fill:#ffffff;stroke:none;stroke-width:1.14252"
       d="m 2044.627,178.50712 c -54.0056,0.64984 -108.5399,0.34613 -161.6966,6.16413 -35.4047,3.84834 -70.6384,9.65867 -101.3961,19.93307 -23.4263,8.2686 -40.1544,21.3745 -47.1869,35.75001 -9.1202,18.10066 -3.5468,38.42974 17.1333,53.79243 12.855,9.68025 31.5585,16.91445 52.1575,21.34882 25.535,5.88709 52.707,9.37025 79.6244,12.96928 77.6206,9.65619 158.6975,12.47335 237.7057,6.17356 31.8455,-2.46886 63.5229,-6.01537 93.9262,-11.67325 28.7136,-5.71715 56.3348,-13.90802 77.4442,-25.86629 18.1851,-11.27146 26.1643,-26.38755 25.6785,-41.03883 -0.01,-12.73334 -5.9252,-25.91606 -20.9718,-36.08584 -14.9648,-9.75445 -35.8778,-16.19657 -56.6705,-21.88751 -31.3034,-8.0821 -65.7302,-11.72001 -99.7181,-15.09218 -31.6269,-3.14275 -63.8456,-4.71512 -96.0298,-4.4874 z"
       id="path3280-8-3"
       inkscape:connector-curvature="0"
       sodipodi:nodetypes="csssc" />
    <path
       style="color:#000000;display:inline;overflow:visible;visibility:visible;fill:#ffffff;fill-opacity:1;fill-rule:nonzero;stroke:none;stroke-width:0.608783px;marker:none;enable-background:accumulate"
       d="m 1751.2966,118.06982 c -18.0333,0.18933 -36.0674,0.22455 -54.1008,0.0344 -11.8069,-0.14349 -23.6739,0.0747 -35.3256,1.9339 -21.7025,3.33547 -42.8876,10.36344 -60.9783,21.58126 -5.0414,3.15184 -9.8752,6.71023 -13.2123,11.37103 -12.5007,16.257 -12.9164,39.54684 0.49,55.49229 8.9508,10.35064 22.6898,16.12839 36.063,20.81189 33.1778,11.68115 69.2079,15.30029 104.6925,15.4305 30.6511,0.016 61.6457,3.38414 92.0083,-1.81956 26.5951,-4.66092 52.6534,-14.43113 72.6572,-30.91977 12.1858,-10.71873 18.2326,-27.36074 13.0367,-42.12219 -4.9328,-15.01303 -18.236,-26.96879 -33.7278,-33.98225 -24.2465,-11.69586 -52.0403,-16.28689 -79.4047,-17.27415 -14.0556,-0.58807 -28.1303,-0.61588 -42.1982,-0.53739 z"
       id="path3525-8"
       inkscape:connector-curvature="0"
       sodipodi:nodetypes="cscsc" />
    <path
       style="fill:#ffffff;fill-rule:evenodd;stroke:none;stroke-width:1.06468px;stroke-linecap:butt;stroke-linejoin:miter;stroke-opacity:1"
       d="m 860.06761,311.06902 c 0,0 22.37691,25.375 30.38987,41.353 9.55841,41.6769 -15.08254,52.26548 -11.80509,72.946 4.69971,21.617 12.77263,34.196 42.40829,52.053 -36.46109,-14.098 -60.72938,-25.376 -65.42892,-46.992 -4.6996,-21.617 12.02504,-48.872 9.37974,-58.27 -2.64548,-9.399 -11.01511,-33.835 -33.19349,-51.692 -22.17826,-17.857 28.2496,-9.398 28.2496,-9.398 z"
       id="path1303"
       inkscape:connector-curvature="0"
       sodipodi:nodetypes="cccccccc" />
    <path
       style="color:#000000;display:inline;overflow:visible;visibility:visible;fill:#ffffff;fill-opacity:1;fill-rule:nonzero;stroke:none;stroke-width:0.909875px;marker:none;enable-background:accumulate"
       d="m 1280.4415,1003.8123 c -57.8736,0.4379 -116.3554,4.493 -169.9214,14.9375 -26.9688,4.9534 -49.1204,14.6806 -62.9546,26.3561 -19.5584,15.0643 -27.1064,32.8777 -26.496,50.2832 -0.3773,15.812 2.2038,32.0364 15.4261,46.8028 11.0692,11.8825 26.074,23.5245 49.0272,31.3132 17.4816,5.7523 39.0891,7.8655 60.1232,8.74 51.1865,2.3283 102.948,-2.4036 153.8744,1.7854 37.5043,2.699 75.1225,6.7347 113.3288,5.6057 23.0101,-0.9545 44.9907,-4.5076 67.7028,-6.2686 14.9249,-1.19 30.6545,-1.9751 43.8188,-5.7163 3.7527,-0.8452 5.9814,-2.508 7.1859,-4.2967 3.0602,-4.5643 1.4929,-9.4171 0.8615,-14.0913 -1.9211,-9.2591 -4.6668,-18.713 -0.2496,-27.9155 4.9136,-19.6413 14.4512,-39.3177 10.2257,-59.1849 -3.6325,-14.1875 -13.5152,-28.4397 -33.2183,-39.6712 -17.7946,-9.137 -42.8095,-14.3284 -67.6462,-18.1373 -38.0675,-5.58 -77.9448,-7.7535 -117.521,-9.6675 -14.4868,-0.5718 -29.0246,-0.9111 -43.5673,-0.8746 z"
       id="path4040-40"
       inkscape:connector-curvature="0"
       sodipodi:nodetypes="zsssszccccccccz" />
    <path
       style="display:inline;fill:#ffffff;stroke:none;stroke-width:0.835256"
       d="m 788.2413,81.331492 c -70.12426,1.825543 -148.22429,-1.731446 -185.90649,0.678657 -5.36123,60.043911 -25.23986,106.422831 -18.47885,134.941981 5.88344,23.61841 12.48949,47.23077 22.61952,70.52614 6.68958,13.17862 19.32563,26.1223 40.81349,35.22304 23.91311,10.45271 54.86447,16.08668 85.54903,20.22293 74.085,10.01476 154.31722,10.86007 228.20404,-0.0316 19.98562,-2.85669 38.97876,-7.21417 56.23496,-12.83174 32.4982,-10.43476 59.8828,-24.54907 79.2501,-40.85383 19.1249,-17.16669 24.875,-36.77122 28.9423,-55.88408 4.8639,-23.30753 2.9503,-47.43274 -13.9196,-69.62491 -12.982,-16.75776 -32.807,-32.52238 -60.0328,-44.82873 C 1017.8727,104.31134 974.9029,95.935005 931.71875,90.270855 885.03562,84.176813 836.62321,81.127123 788.2413,81.331492 Z"
       id="path3280-5"
       inkscape:connector-curvature="0"
       sodipodi:nodetypes="ccsscccccccccc" />
    <path
       style="fill:#ffffff;fill-rule:evenodd;stroke:none;stroke-width:1.36569px;stroke-linecap:butt;stroke-linejoin:miter;stroke-opacity:1"
       d="m 1286.8844,1024.2997 c 8.7674,-29.78391 -2.55,-70.85726 -21.3421,-92.5188 19.294,12.00335 47.6581,40.90723 49.4868,77.5364 2.8542,57.1668 -26.6522,18.0902 -26.6522,18.0902 z"
       id="path4248"
       inkscape:connector-curvature="0"
       sodipodi:nodetypes="ccscc" />
    <path
       style="color:#000000;display:inline;overflow:visible;visibility:visible;fill:#ffffff;fill-opacity:1;fill-rule:nonzero;stroke:none;stroke-width:1.27845px;marker:none;enable-background:accumulate"
       d="m 2108.8441,453.54309 c 47.5494,-40.109 11.4958,-121.92186 -22.0631,-138.04748 -43.9644,-41.61081 21.7355,-52.5057 21.7355,-52.5057 l 27.3389,46.67174 c -4.9414,6.99806 59.5251,106.49368 -27.0113,143.88144 z"
       id="path3072-56"
       inkscape:connector-curvature="0"
       sodipodi:nodetypes="ccccc" />
    <path
       style="fill:#ffffff;fill-rule:evenodd;stroke:none;stroke-width:1px;stroke-linecap:butt;stroke-linejoin:miter;stroke-opacity:1"
       d="m 2145.9447,911.76156 c 17.8164,6.86787 32.8659,22.27667 36.9127,41.22902 2.4357,13.03639 -1.9004,26.29118 -8.401,37.50329 -6.139,11.51773 -13.902,22.87523 -15.1546,36.21623 -0.038,3.7486 4.352,7.1591 7.7995,4.9374 5.4591,-2.2621 9.1063,-7.2123 13.9986,-10.3572 13.619,-10.9723 25.9848,-24.85172 30.732,-42.05359 4.3293,-16.93725 -3.8025,-35.55082 -17.8163,-45.50969 -14.6218,-11.8782 -32.4276,-19.47815 -50.851,-23.07104 0.9267,0.36853 1.8534,0.73706 2.7801,1.10558 z"
       id="path914"
       inkscape:connector-curvature="0"
       sodipodi:nodetypes="cscc" />
    <path
       style="fill:#ffffff;fill-rule:evenodd;stroke:none;stroke-width:1px;stroke-linecap:butt;stroke-linejoin:miter;stroke-opacity:1"
       d="m 1524.5169,1592.7326 -101.7503,-92.9388 -6.0669,33.3207 -71.4256,-61.6811 -11.1854,27.4382 91.4542,66.5103 8.19,-37.7549 z"
       id="path4667"
       inkscape:connector-curvature="0" />
    <path
       style="color:#000000;display:inline;overflow:visible;visibility:visible;fill:#ffffff;fill-opacity:1;fill-rule:nonzero;stroke:none;stroke-width:1.14715px;marker:none;enable-background:accumulate"
       d="m 369.31381,2178.6001 c -40.4116,58.36 -53.3089,167.707 24.2468,263.215 -108.4132,-99.32 -82.2954,-214.062 -72.6196,-244.978 2.0322,-33.697 48.3728,-18.237 48.3728,-18.237 z"
       id="path4008-0"
       inkscape:connector-curvature="0"
       sodipodi:nodetypes="cccc" />
    <path
       style="color:#000000;display:inline;overflow:visible;visibility:visible;fill:#ffffff;fill-opacity:1;fill-rule:nonzero;stroke:none;stroke-width:1px;marker:none;enable-background:accumulate"
       d="m 2021.0511,2442.5228 c -16.2035,68.7147 -23.8042,123.8365 19.1198,161.3448 -35.9827,-18.9303 -60.1167,-37.3437 -55.228,-133.0047 3.2811,-29.3033 15.4575,-25.6682 36.1082,-28.3401 z"
       id="path4064-5"
       inkscape:connector-curvature="0"
       sodipodi:nodetypes="cccc" />
    <path
       style="fill:#ffffff;fill-rule:evenodd;stroke:none;stroke-width:1.0599px;stroke-linecap:butt;stroke-linejoin:miter;stroke-opacity:1"
       d="m 1312.6704,2517.7831 c 23.7195,-14.0861 43.1327,-10.969 67.1439,-1.3968 -21.0663,-24.318 -50.0172,-29.1023 -87.4659,-14.9118 -44.493,16.8599 17.6099,16.5876 17.6099,16.5876 z"
       id="path4248-5"
       inkscape:connector-curvature="0"
       sodipodi:nodetypes="ccscc" />
    <path
       style="fill:#ffffff;fill-opacity:1;stroke:none;stroke-width:0.542573"
       d="m 2101.5701,2463.5387 c -13.8448,-4.5023 -19.1697,-8.6829 -16.6847,-11.2559 -23.1843,-21.5129 -3.4636,-41.3861 -0.7101,-43.737 -0.01,-1.592 -7.4549,0.6431 -8.5198,-0.643 -1.065,-1.2869 7.3094,-12.0255 5.8895,-12.6686 -1.4201,-0.6437 -31.8041,3.9856 -36.419,1.0911 -4.6149,-2.8945 -2.1301,-10.2913 -3.5499,-10.6129 -1.42,-0.3215 -14.5549,1.6078 -16.3299,1.2862 -1.7748,-0.3215 -4.9698,-9.9691 -6.7447,-10.2907 -1.7751,-0.3215 -9.9399,4.1808 -11.3599,3.8592 -1.42,-0.3216 -0.71,-8.3614 -2.4849,-8.6829 -1.7751,-0.3216 -9.5849,6.753 -10.6499,6.4315 -1.065,-0.3216 -4.9699,-16.4013 -6.745,-17.3659 -1.7749,-0.9647 -13.1347,17.6874 -14.1996,18.0089 -1.065,0.3222 -7.8099,-21.8681 -9.23,-22.1897 -1.42,-0.3215 -8.5198,15.1152 -9.5848,14.7936 -1.065,-0.3216 -7.8099,-9.3267 -9.2298,-9.9698 -1.42,-0.643 -10.6499,19.9389 -12.0699,19.9389 -1.42,0 -13.4897,-8.6829 -14.5547,-10.2907 -1.065,-1.6083 -2.13,8.3615 -3.55,8.3615 -1.4199,0 -17.7497,-5.7891 -18.1048,-5.4676 -0.3549,0.3216 2.4851,6.4322 1.42,6.4322 -1.0649,0 -17.7496,-8.0398 -18.4597,-6.4322 -0.7099,1.6084 -36.2094,-8.0398 -38.6944,-6.7536 -2.485,1.2868 15.9748,26.371 14.1999,28.3009 -1.775,1.9292 -8.165,-0.3215 -8.52,0.6431 -0.355,0.9646 3.905,5.1453 2.8401,6.4315 -1.0651,1.2868 -13.1349,6.4321 -14.1999,8.0399 -1.065,1.6083 5.3249,5.789 3.905,6.7536 -1.4201,0.9653 -22.3648,7.0753 -22.7197,8.6836 -0.355,1.6078 10.6499,9.326 9.2298,11.5768 -1.4199,2.2515 -5.3249,3.2161 -4.9699,4.8245 0.355,1.6077 7.1,3.5376 6.7449,5.1453 -0.3549,1.6077 -3.9048,9.6483 -4.9698,10.9344 -1.0651,1.2862 7.4548,0.6431 7.4548,1.9293 0,1.2868 -0.6271,20.6031 -13.239,32.291 22.0592,-7.7421 31.3437,-3.9901 43.0586,-1.4178 11.7148,2.573 7.0999,18.6528 8.8748,19.6174 1.7749,0.9652 14.9098,-5.4669 16.6848,-3.2161 1.775,2.2515 2.4849,6.4321 3.905,6.4321 1.4198,0 9.5847,-9.0045 11.3597,-8.6829 1.775,0.3215 18.4597,14.472 20.9448,14.7935 2.485,0.3216 12.0697,-5.4675 14.1998,-5.789 2.13,-0.3216 3.9048,7.7183 5.6798,7.0752 1.775,-0.6431 13.1348,-6.4321 14.9096,-5.789 1.7751,0.6437 3.1951,3.216 4.6151,2.573 1.4199,-0.6432 7.8099,-3.2161 7.8099,-3.2161 0,0 4.6149,1.9299 6.7448,1.9299 2.1301,0 16.6847,-10.6129 18.4598,-11.256 1.7749,-0.6431 19.9975,10.9614 18.9325,12.8907 2.2617,-8.4443 13.1907,-13.7539 15.502,-14.1768 2.4849,-0.9653 9.9398,1.9292 10.6497,0.9646 0.7101,-0.9646 2.84,-6.1106 4.97,-6.4322 2.13,-0.3215 7.0999,-1.6077 7.0999,-1.6077 l -0.7099,-1.9298 c 0,0 14.9096,5.1459 16.6847,7.0751 1.775,1.93 -1.065,-8.3614 -2.13,-10.9343 6.3899,2.5729 25.2046,8.0398 26.6246,9.6482 1.42,1.6077 -2.4849,-5.789 -4.615,-8.0399 2.84,0.9646 5.325,1.2862 5.325,1.2862 l -8.165,-7.7183 2.4852,-0.6431 c 0,0 -5.325,-3.5376 -5.325,-5.1453 0,-1.6084 13.8447,-3.5376 13.8447,-3.5376 0,0 -5.6799,-2.8945 -4.26,-4.5023 1.4201,-1.6083 4.9701,-2.573 4.9701,-2.573 l 0.7098,-4.1807 z"
       id="path5888-3"
       inkscape:connector-curvature="0"
       sodipodi:nodetypes="cccccsscccccccsccscscsccsccccccsccscscssccsccscscccccccsccccccsccccc" />
  </g>
  <g
     inkscape:groupmode="layer"
     id="layer1"
     inkscape:label="txt">
    <text
       xml:space="preserve"
       style="font-style:normal;font-variant:normal;font-weight:normal;font-stretch:normal;font-size:80px;line-height:1.25;font-family:'WenQuanYi Micro Hei';-inkscape-font-specification:'WenQuanYi Micro Hei';letter-spacing:0px;word-spacing:0px;fill:#ffffff;fill-opacity:1;stroke:#ffffff;stroke-width:0.668774;stroke-miterlimit:4;stroke-dasharray:none;stroke-opacity:1;filter:url(#filter4375-4-1-1-1-9-5-8-8-5-5-3-3-3-0)"
       id="text4580-6-0-0-0-9-3-3-2-0"
       transform="matrix(1.1484433,-0.31259721,-0.62973044,2.2133476,1615.3614,-1809.1372)"
       x="-607.91235"
       y="1245.0809"><tspan
         id="tspan1534-6"
         style="font-style:normal;font-variant:normal;font-weight:normal;font-stretch:normal;font-size:61.3371px;font-family:'WenQuanYi Micro Hei';-inkscape-font-specification:'WenQuanYi Micro Hei'"><tspan
           id="tspan882"
           style="font-style:normal;font-variant:normal;font-weight:normal;font-stretch:normal;font-size:71.8115px;font-family:'WenQuanYi Micro Hei';-inkscape-font-specification:'WenQuanYi Micro Hei'">变化~~</tspan></tspan></text>
    <text
       xml:space="preserve"
       style="font-style:normal;font-variant:normal;font-weight:normal;font-stretch:normal;font-size:45px;line-height:1.25;font-family:'WenQuanYi Micro Hei';-inkscape-font-specification:'WenQuanYi Micro Hei';text-align:center;letter-spacing:0px;word-spacing:0px;text-anchor:middle;fill:#000000;fill-opacity:1;stroke:none"
       x="844.39124"
       y="178.4855"
       id="text4246-3-2-2-6-3-7-9-3-3-56-9-3-20"><tspan
         style="font-style:normal;font-variant:normal;font-weight:normal;font-stretch:normal;font-size:45px;font-family:'WenQuanYi Micro Hei';-inkscape-font-specification:'WenQuanYi Micro Hei'"
         sodipodi:role="line"
         x="844.39124"
         y="178.4855"
         id="tspan218">很好，你用更短的时间</tspan><tspan
         id="tspan130"
         style="font-style:normal;font-variant:normal;font-weight:normal;font-stretch:normal;font-size:45px;font-family:'WenQuanYi Micro Hei';-inkscape-font-specification:'WenQuanYi Micro Hei'"
         sodipodi:role="line"
         x="844.39124"
         y="234.7355">到达了你上一任的等级,</tspan><tspan
         id="tspan132"
         style="font-style:normal;font-variant:normal;font-weight:normal;font-stretch:normal;font-size:45px;font-family:'WenQuanYi Micro Hei';-inkscape-font-specification:'WenQuanYi Micro Hei'"
         sodipodi:role="line"
         x="844.39124"
         y="290.9855">这是我没有料到的…</tspan></text>
    <text
       xml:space="preserve"
       style="font-style:normal;font-variant:normal;font-weight:normal;font-stretch:normal;font-size:45px;line-height:1.25;font-family:'WenQuanYi Micro Hei';-inkscape-font-specification:'WenQuanYi Micro Hei';text-align:center;letter-spacing:0px;word-spacing:0px;text-anchor:middle;fill:#000000;fill-opacity:1;stroke:none"
       x="1295.2898"
       y="1087.8527"
       id="text4246-3-2-2-6-3-7-9-3-3-56-9-3-20-3"><tspan
         style="font-style:normal;font-variant:normal;font-weight:normal;font-stretch:normal;font-size:45px;font-family:'WenQuanYi Micro Hei';-inkscape-font-specification:'WenQuanYi Micro Hei'"
         sodipodi:role="line"
         x="1295.2898"
         y="1087.8527"
         id="tspan133">这让我不得不提前下手，</tspan><tspan
         id="tspan138"
         style="font-style:normal;font-variant:normal;font-weight:normal;font-stretch:normal;font-size:45px;font-family:'WenQuanYi Micro Hei';-inkscape-font-specification:'WenQuanYi Micro Hei'"
         sodipodi:role="line"
         x="1295.2898"
         y="1144.1027">但这是个好消息。</tspan></text>
    <text
       xml:space="preserve"
       style="font-style:normal;font-variant:normal;font-weight:normal;font-stretch:normal;font-size:45px;line-height:1.25;font-family:'WenQuanYi Micro Hei';-inkscape-font-specification:'WenQuanYi Micro Hei';text-align:center;letter-spacing:0px;word-spacing:0px;text-anchor:middle;fill:#000000;fill-opacity:1;stroke:none"
       x="1729.1007"
       y="191.33838"
       id="text4246-3-2-2-6-3-7-9-3-3-56-9-3-20-3-2"><tspan
         style="font-style:normal;font-variant:normal;font-weight:normal;font-stretch:normal;font-size:45px;font-family:'WenQuanYi Micro Hei';-inkscape-font-specification:'WenQuanYi Micro Hei'"
         sodipodi:role="line"
         x="1729.1007"
         y="191.33838"
         id="tspan994-7">下手？</tspan></text>
    <text
       xml:space="preserve"
       style="font-style:normal;font-variant:normal;font-weight:normal;font-stretch:normal;font-size:45px;line-height:1.25;font-family:'WenQuanYi Micro Hei';-inkscape-font-specification:'WenQuanYi Micro Hei';text-align:center;letter-spacing:0px;word-spacing:0px;text-anchor:middle;fill:#000000;fill-opacity:1;stroke:none"
       x="2028.2909"
       y="242.40437"
       id="text4246-3-2-2-6-3-7-9-3-3-56-9-3-20-3-2-0"><tspan
         style="font-style:normal;font-variant:normal;font-weight:normal;font-stretch:normal;font-size:45px;font-family:'WenQuanYi Micro Hei';-inkscape-font-specification:'WenQuanYi Micro Hei'"
         sodipodi:role="line"
         x="2028.2909"
         y="242.40437"
         id="tspan233">所以你就是在试探我，</tspan><tspan
         id="tspan147"
         style="font-style:normal;font-variant:normal;font-weight:normal;font-stretch:normal;font-size:45px;font-family:'WenQuanYi Micro Hei';-inkscape-font-specification:'WenQuanYi Micro Hei'"
         sodipodi:role="line"
         x="2028.2909"
         y="298.65436">跟我迟到这件事无关？</tspan></text>
    <text
       xml:space="preserve"
       style="font-style:normal;font-variant:normal;font-weight:normal;font-stretch:normal;font-size:45px;line-height:1.25;font-family:'WenQuanYi Micro Hei';-inkscape-font-specification:'WenQuanYi Micro Hei';text-align:center;letter-spacing:0px;word-spacing:0px;text-anchor:middle;fill:#000000;fill-opacity:1;stroke:none"
       x="2179.271"
       y="1053.5718"
       id="text4246-3-2-2-6-3-7-9-3-3-56-9-3-20-3-2-0-3"><tspan
         style="font-style:normal;font-variant:normal;font-weight:normal;font-stretch:normal;font-size:45px;font-family:'WenQuanYi Micro Hei';-inkscape-font-specification:'WenQuanYi Micro Hei'"
         sodipodi:role="line"
         x="2179.271"
         y="1053.5718"
         id="tspan137">你真够变态！</tspan></text>
    <text
       xml:space="preserve"
       style="font-style:normal;font-variant:normal;font-weight:normal;font-stretch:normal;font-size:45px;line-height:1.25;font-family:'WenQuanYi Micro Hei';-inkscape-font-specification:'WenQuanYi Micro Hei';text-align:center;letter-spacing:0px;word-spacing:0px;text-anchor:middle;fill:#000000;fill-opacity:1;stroke:none"
       x="314.83337"
       y="1631.6757"
       id="text4246-3-2-2-6-3-7-9-3-3-56-9-3-20-3-2-0-3-1"><tspan
         style="font-style:normal;font-variant:normal;font-weight:normal;font-stretch:normal;font-size:45px;font-family:'WenQuanYi Micro Hei';-inkscape-font-specification:'WenQuanYi Micro Hei'"
         sodipodi:role="line"
         x="314.83337"
         y="1631.6757"
         id="tspan1224">嘿….</tspan></text>
    <text
       xml:space="preserve"
       style="font-style:normal;font-variant:normal;font-weight:normal;font-stretch:normal;font-size:45px;line-height:1.25;font-family:'WenQuanYi Micro Hei';-inkscape-font-specification:'WenQuanYi Micro Hei';text-align:center;letter-spacing:0px;word-spacing:0px;text-anchor:middle;fill:#000000;fill-opacity:1;stroke:none"
       x="327.27063"
       y="1708.0287"
       id="text4246-3-2-2-6-3-7-9-3-3-56-9-3-20-3-2-0-3-1-2"><tspan
         style="font-style:normal;font-variant:normal;font-weight:normal;font-stretch:normal;font-size:45px;font-family:'WenQuanYi Micro Hei';-inkscape-font-specification:'WenQuanYi Micro Hei'"
         sodipodi:role="line"
         x="327.27063"
         y="1708.0287"
         id="tspan1224-2">嘿。</tspan></text>
    <text
       xml:space="preserve"
       style="font-style:normal;font-variant:normal;font-weight:normal;font-stretch:normal;font-size:51.7551px;line-height:1.25;font-family:'WenQuanYi Micro Hei';-inkscape-font-specification:'WenQuanYi Micro Hei';text-align:center;letter-spacing:0px;word-spacing:0px;text-anchor:middle;fill:#000000;fill-opacity:1;stroke:none;stroke-width:1.15011"
       x="1276.6477"
       y="1284.0323"
       id="text4246-3-2-2-6-3-7-9-3-3-56-9-3-20-3-3"
       transform="skewX(-7.1285627)"><tspan
         style="font-style:normal;font-variant:normal;font-weight:normal;font-stretch:normal;font-size:51.7551px;font-family:'WenQuanYi Micro Hei';-inkscape-font-specification:'WenQuanYi Micro Hei';stroke-width:1.15011"
         sodipodi:role="line"
         x="1276.6477"
         y="1284.0323"
         id="tspan237">你们这群人都在看什么呢？</tspan></text>
    <text
       xml:space="preserve"
       style="font-style:normal;font-variant:normal;font-weight:normal;font-stretch:normal;font-size:47.4643px;line-height:1.25;font-family:'WenQuanYi Micro Hei';-inkscape-font-specification:'WenQuanYi Micro Hei';text-align:center;letter-spacing:0px;word-spacing:0px;text-anchor:middle;fill:#000000;fill-opacity:1;stroke:none;stroke-width:1.05476"
       x="1308.1432"
       y="1354.4337"
       id="text4246-3-2-2-6-3-7-9-3-3-56-9-3-20-3-3-2"
       transform="skewX(-7.1285625)"><tspan
         style="font-style:normal;font-variant:normal;font-weight:normal;font-stretch:normal;font-size:47.4643px;font-family:'WenQuanYi Micro Hei';-inkscape-font-specification:'WenQuanYi Micro Hei';stroke-width:1.05476"
         sodipodi:role="line"
         x="1308.1432"
         y="1354.4337"
         id="tspan146">我刚刚受到袭击，</tspan><tspan
         id="tspan157"
         style="font-style:normal;font-variant:normal;font-weight:normal;font-stretch:normal;font-size:47.4643px;font-family:'WenQuanYi Micro Hei';-inkscape-font-specification:'WenQuanYi Micro Hei';stroke-width:1.05476"
         sodipodi:role="line"
         x="1308.1432"
         y="1413.764">你们一个个都无动于衷么？</tspan><tspan
         id="tspan159"
         style="font-style:normal;font-variant:normal;font-weight:normal;font-stretch:normal;font-size:47.4643px;font-family:'WenQuanYi Micro Hei';-inkscape-font-specification:'WenQuanYi Micro Hei';stroke-width:1.05476"
         sodipodi:role="line"
         x="1308.1432"
         y="1473.0945">给我抓住她！！</tspan></text>
    <text
       xml:space="preserve"
       style="font-style:normal;font-variant:normal;font-weight:normal;font-stretch:normal;font-size:55.0712px;line-height:1.25;font-family:'WenQuanYi Micro Hei';-inkscape-font-specification:'WenQuanYi Micro Hei';text-align:center;letter-spacing:0px;word-spacing:0px;text-anchor:middle;fill:#000000;fill-opacity:1;stroke:none;stroke-width:1.22379"
       x="615.60278"
       y="2231.3035"
       id="text4246-3-2-2-6-3-7-9-3-3-56-9-3-20-3-3-2-7"
       transform="matrix(0.99725425,0,-0.12471947,1.0027533,0,0)"><tspan
         style="font-style:normal;font-variant:normal;font-weight:normal;font-stretch:normal;font-size:55.0712px;font-family:'WenQuanYi Micro Hei';-inkscape-font-specification:'WenQuanYi Micro Hei';stroke-width:1.22379"
         sodipodi:role="line"
         x="615.60278"
         y="2231.3035"
         id="tspan150">要活口！</tspan></text>
    <text
       xml:space="preserve"
       style="font-style:normal;font-variant:normal;font-weight:normal;font-stretch:normal;font-size:56px;line-height:1.25;font-family:'WenQuanYi Micro Hei';-inkscape-font-specification:'WenQuanYi Micro Hei';text-align:center;letter-spacing:0px;word-spacing:0px;text-anchor:middle;fill:#000000;fill-opacity:1;stroke:none;stroke-width:1.57727"
       x="1546.9048"
       y="2006.6577"
       id="text4246-3-2-2-6-3-7-9-3-3-56-9-3-20-3-3-2-7-2"
       transform="matrix(0.89307378,0,-0.11169036,1.1197283,0,0)"><tspan
         style="font-style:normal;font-variant:normal;font-weight:normal;font-stretch:normal;font-size:56px;font-family:'WenQuanYi Micro Hei';-inkscape-font-specification:'WenQuanYi Micro Hei';stroke-width:1.57727"
         sodipodi:role="line"
         x="1546.9048"
         y="2006.6577"
         id="tspan1414-3">抓住她！！！</tspan></text>
    <text
       xml:space="preserve"
       style="font-style:normal;font-variant:normal;font-weight:normal;font-stretch:normal;font-size:45px;line-height:1.25;font-family:'WenQuanYi Micro Hei';-inkscape-font-specification:'WenQuanYi Micro Hei';text-align:center;letter-spacing:0px;word-spacing:0px;text-anchor:middle;fill:#000000;fill-opacity:1;stroke:none"
       x="1165.3292"
       y="2498.3032"
       id="text4246-3-2-2-6-3-7-9-3-3-56-9-3-20-3-2-0-3-19"><tspan
         style="font-style:normal;font-variant:normal;font-weight:normal;font-stretch:normal;font-size:45px;font-family:'WenQuanYi Micro Hei';-inkscape-font-specification:'WenQuanYi Micro Hei'"
         sodipodi:role="line"
         x="1165.3292"
         y="2498.3032"
         id="tspan171">七味粉，</tspan><tspan
         id="tspan170"
         style="font-style:normal;font-variant:normal;font-weight:normal;font-stretch:normal;font-size:45px;font-family:'WenQuanYi Micro Hei';-inkscape-font-specification:'WenQuanYi Micro Hei'"
         sodipodi:role="line"
         x="1165.3292"
         y="2554.5532">我们后会有期。</tspan></text>
    <text
       xml:space="preserve"
       style="font-style:normal;font-variant:normal;font-weight:normal;font-stretch:normal;font-size:45px;line-height:1.25;font-family:'WenQuanYi Micro Hei';-inkscape-font-specification:'WenQuanYi Micro Hei';text-align:center;letter-spacing:0px;word-spacing:0px;text-anchor:middle;fill:#000000;fill-opacity:1;stroke:none"
       x="1978.2208"
       y="2267.5603"
       id="text4246-3-2-2-6-3-7-9-3-3-56-9-3-20-3-2-0-3-19-8-3"><tspan
         id="tspan180"
         style="font-style:normal;font-variant:normal;font-weight:normal;font-stretch:normal;font-size:45px;font-family:'WenQuanYi Micro Hei';-inkscape-font-specification:'WenQuanYi Micro Hei'"
         sodipodi:role="line"
         x="1978.2208"
         y="2267.5603">抱歉萝卜头，我们</tspan><tspan
         id="tspan178"
         style="font-style:normal;font-variant:normal;font-weight:normal;font-stretch:normal;font-size:45px;font-family:'WenQuanYi Micro Hei';-inkscape-font-specification:'WenQuanYi Micro Hei'"
         sodipodi:role="line"
         x="1978.2208"
         y="2323.8103">不得不再一次</tspan><tspan
         id="tspan188"
         style="font-style:normal;font-variant:normal;font-weight:normal;font-stretch:normal;font-size:45px;font-family:'WenQuanYi Micro Hei';-inkscape-font-specification:'WenQuanYi Micro Hei'"
         sodipodi:role="line"
         x="1978.2208"
         y="2380.0603">超速飞行了。</tspan></text>
    <text
       xml:space="preserve"
       style="font-style:normal;font-variant:normal;font-weight:normal;font-stretch:normal;font-size:45px;line-height:1.25;font-family:'WenQuanYi Micro Hei';-inkscape-font-specification:'WenQuanYi Micro Hei';text-align:center;letter-spacing:0px;word-spacing:0px;text-anchor:middle;fill:#000000;fill-opacity:1;stroke:none"
       x="1972.9514"
       y="2451.7556"
       id="text4246-3-2-2-6-3-7-9-3-3-56-9-3-20-3-2-0-3-19-8"><tspan
         style="font-style:normal;font-variant:normal;font-weight:normal;font-stretch:normal;font-size:45px;font-family:'WenQuanYi Micro Hei';-inkscape-font-specification:'WenQuanYi Micro Hei'"
         sodipodi:role="line"
         x="1972.9514"
         y="2451.7556"
         id="tspan1046">抓紧了。</tspan></text>
    <text
       xml:space="preserve"
       style="font-style:normal;font-variant:normal;font-weight:normal;font-stretch:normal;font-size:6.99764px;line-height:0%;font-family:'WenQuanYi Micro Hei';-inkscape-font-specification:'WenQuanYi Micro Hei';letter-spacing:0px;word-spacing:0px;fill:#000000;fill-opacity:1;stroke:#000000;stroke-width:6.65341;stroke-miterlimit:4;stroke-dasharray:none;stroke-opacity:1;paint-order:stroke fill markers"
       x="1234.3364"
       y="2988.7241"
       id="text4580-25"
       transform="matrix(0.70061135,-0.52267462,0.27429036,1.222697,0,0)"><tspan
         sodipodi:role="line"
         id="tspan4582-4"
         x="1234.3364"
         y="2988.7241"
         style="font-style:normal;font-variant:normal;font-weight:normal;font-stretch:normal;font-size:40.8195px;line-height:100%;font-family:'WenQuanYi Micro Hei';-inkscape-font-specification:'WenQuanYi Micro Hei';letter-spacing:2.84772px;fill:#ffffff;stroke:#000000;stroke-width:6.65341;stroke-miterlimit:4;stroke-dasharray:none;stroke-opacity:1;paint-order:stroke fill markers"><tspan
           style="font-style:normal;font-variant:normal;font-weight:normal;font-stretch:normal;font-size:46.8842px;line-height:100%;font-family:'WenQuanYi Micro Hei';-inkscape-font-specification:'WenQuanYi Micro Hei';letter-spacing:2.84772px;stroke:#000000;stroke-width:6.65341;stroke-miterlimit:4;stroke-dasharray:none;stroke-opacity:1;paint-order:stroke fill markers"
           id="tspan4617-9">爬~~</tspan></tspan></text>
    <text
       xml:space="preserve"
       style="font-style:normal;font-variant:normal;font-weight:normal;font-stretch:normal;font-size:6.12727px;line-height:0%;font-family:'WenQuanYi Micro Hei';-inkscape-font-specification:'WenQuanYi Micro Hei';letter-spacing:0px;word-spacing:0px;fill:#000000;fill-opacity:1;stroke:#000000;stroke-width:5.82585;stroke-miterlimit:4;stroke-dasharray:none;stroke-opacity:1;paint-order:stroke fill markers"
       x="1244.6915"
       y="2939.7729"
       id="text4580-25-6"
       transform="matrix(0.70061135,-0.52267462,0.27429036,1.222697,0,0)"><tspan
         sodipodi:role="line"
         id="tspan4582-4-1"
         x="1244.6915"
         y="2939.7729"
         style="font-style:normal;font-variant:normal;font-weight:normal;font-stretch:normal;font-size:35.7423px;line-height:100%;font-family:'WenQuanYi Micro Hei';-inkscape-font-specification:'WenQuanYi Micro Hei';letter-spacing:2.49352px;fill:#ffffff;stroke:#000000;stroke-width:5.82585;stroke-miterlimit:4;stroke-dasharray:none;stroke-opacity:1;paint-order:stroke fill markers"><tspan
           style="font-style:normal;font-variant:normal;font-weight:normal;font-stretch:normal;font-size:41.0527px;line-height:100%;font-family:'WenQuanYi Micro Hei';-inkscape-font-specification:'WenQuanYi Micro Hei';letter-spacing:2.49352px;stroke:#000000;stroke-width:5.82585;stroke-miterlimit:4;stroke-dasharray:none;stroke-opacity:1;paint-order:stroke fill markers"
           id="tspan4617-9-0">爬~</tspan></tspan></text>
    <text
       xml:space="preserve"
       style="font-style:normal;font-variant:normal;font-weight:normal;font-stretch:normal;font-size:80px;line-height:1.25;font-family:'WenQuanYi Micro Hei';-inkscape-font-specification:'WenQuanYi Micro Hei';letter-spacing:0px;word-spacing:0px;fill:#ffffff;fill-opacity:1;stroke:#ffffff;stroke-width:0.668774;stroke-miterlimit:4;stroke-dasharray:none;stroke-opacity:1;filter:url(#filter4375-4-1-1-1-9-5-8-8-5-5-3-3-3-0-6)"
       id="text4580-6-0-0-0-9-3-3-2-0-3"
       transform="matrix(1.2199315,-0.31719701,-0.66892978,2.2459164,3443.4589,177.24169)"
       x="-607.91235"
       y="1245.0809"><tspan
         id="tspan1534-6-7"
         style="font-style:normal;font-variant:normal;font-weight:normal;font-stretch:normal;font-size:61.3371px;font-family:'WenQuanYi Micro Hei';-inkscape-font-specification:'WenQuanYi Micro Hei'"><tspan
           style="font-style:normal;font-variant:normal;font-weight:normal;font-stretch:normal;font-size:66.5743px;font-family:'WenQuanYi Micro Hei';-inkscape-font-specification:'WenQuanYi Micro Hei'"
           id="tspan1814-4">飞起~~~</tspan></tspan></text>
  </g>
</svg>
