<?xml version="1.0" encoding="UTF-8" standalone="no"?>
<svg
   xmlns:dc="http://purl.org/dc/elements/1.1/"
   xmlns:cc="http://creativecommons.org/ns#"
   xmlns:rdf="http://www.w3.org/1999/02/22-rdf-syntax-ns#"
   xmlns:svg="http://www.w3.org/2000/svg"
   xmlns="http://www.w3.org/2000/svg"
   xmlns:xlink="http://www.w3.org/1999/xlink"
   xmlns:sodipodi="http://sodipodi.sourceforge.net/DTD/sodipodi-0.dtd"
   xmlns:inkscape="http://www.inkscape.org/namespaces/inkscape"
   id="svg2"
   version="1.1"
   inkscape:version="1.0.2 (e86c870879, 2021-01-15)"
   width="2481"
   height="3503"
   sodipodi:docname="E35P05.svg">
  <metadata
     id="metadata8">
    <rdf:RDF>
      <cc:Work
         rdf:about="">
        <dc:format>image/svg+xml</dc:format>
        <dc:type
           rdf:resource="http://purl.org/dc/dcmitype/StillImage" />
        <dc:title />
      </cc:Work>
    </rdf:RDF>
  </metadata>
  <defs
     id="defs6" />
  <sodipodi:namedview
     pagecolor="#ffffff"
     bordercolor="#666666"
     borderopacity="1"
     objecttolerance="10"
     gridtolerance="10"
     guidetolerance="10"
     inkscape:pageopacity="0"
     inkscape:pageshadow="2"
     inkscape:window-width="1920"
     inkscape:window-height="967"
     id="namedview4"
     showgrid="false"
     inkscape:zoom="0.56568545"
     inkscape:cx="1607.5066"
     inkscape:cy="3097.8399"
     inkscape:window-x="0"
     inkscape:window-y="72"
     inkscape:window-maximized="1"
     inkscape:current-layer="layer1"
     inkscape:document-rotation="0"
     inkscape:snap-global="false"
     inkscape:pagecheckerboard="0" />
  <g
     inkscape:groupmode="layer"
     id="layer2"
     inkscape:label="artwork"
     sodipodi:insensitive="true">
    <image
       sodipodi:absref="/felles/omsetting/pepper-carrot/webcomics/new-ep35_The-Reflection/lang/gfx_Pepper-and-Carrot_by-David-Revoy_E35P05.png"
       xlink:href="../gfx_Pepper-and-Carrot_by-David-Revoy_E35P05.png"
       width="2481"
       height="3503"
       id="image10"
       x="0"
       y="0" />
  </g>
  <g
     inkscape:groupmode="layer"
     id="layer3"
     inkscape:label="speechbubbles">
    <path
       style="color:#000000;display:inline;overflow:visible;visibility:visible;fill:#ffffff;fill-opacity:1;fill-rule:nonzero;stroke:none;stroke-width:1.147px;marker:none;enable-background:accumulate"
       d="m 1281.1324,3036.6191 c 2.7637,-35.2866 15.1513,-34.9849 57.803,-3.067 -11.2548,-62.9304 46.0092,-65.9059 99.3787,-72.2891 -6.121,-17.6816 -29.7511,-37.9887 8.556,-49.0096 -20.5758,-10.5394 -20.6423,-24.5601 -2.4092,-41.6866 -42.5961,8.1611 -58.6183,3.1364 -8.238,-34.8365 -47.5499,21.5729 -93.0853,40.777 -75.1522,-14.6168 -18.0058,7.5397 -28.0513,51.3953 -98.5732,-28.8246 -0.7984,36.9373 -71.5609,67.3285 -106.3119,19.6447 17.5928,39.7309 -40.0756,85.3245 -67.1168,53.4256 16.0641,22.2732 2.787,44.0543 -17.4559,47.7038 57.4736,5.8931 45.9437,19.3944 6.1594,41.7916 118.3778,3.496 53.2316,25.7471 53.8118,40.8097 72.064,-13.8535 67.4328,14.2909 77.7502,35.1552 68.6279,-63.6402 47.7783,-52.2733 71.7981,5.7996 z"
       id="path3549-3-1"
       inkscape:connector-curvature="0"
       sodipodi:nodetypes="ccccccccccccccc" />
    <path
       style="color:#000000;display:inline;overflow:visible;visibility:visible;fill:#ffffff;fill-opacity:1;fill-rule:nonzero;stroke:none;stroke-width:1.0931px;marker:none;enable-background:accumulate"
       d="m 1215.7139,2906.758 c -7.2736,30.0563 -48.297,32.5766 -63.3986,26.4672 30.4418,33.6236 29.3806,54.5143 -11.9508,57.758 69.3134,60.5985 22.1486,70.9626 1.4991,66.7946 54.4237,20.8835 57.3229,70.3701 20.3846,72.7463 62.5549,0.8888 42.0833,42.3617 44.7202,75.3924 5.303,-15.4994 30.4967,-62.6866 32.0127,-10.1468 34.2322,-38.979 75.5818,-58.1159 95.17,5.2157 16.6712,-44.1297 33.2925,-62.7807 32.0131,-10.1468 41.3059,-68.457 92.53,-24.0815 129.869,-4.7331 -8.5003,-20.9938 -45.0591,-58.9365 28.5726,-50.7379 -25.9106,-19.8306 -26.9936,-47.5137 30.4567,-56.8792 -32.1483,-12.3711 -38.0729,-25.1317 21.6191,-38.8641 -45.4222,-1.3283 -87.7786,-4.0497 -34.4885,-50.8811 -16.7185,-1.1331 -56.3854,37.9442 -37.8912,-76.4165 -28.7484,36.6108 -59.4203,56.8175 -97.886,-19.8729 -18.2039,38.313 -49.778,57.2718 -63.5143,9.4158 -4.9372,20.4019 -25.4089,28.0747 -42.7883,29.0051 -6.7203,-8.1039 -13.6521,-19.1113 -20.8853,-33.5326 -11.8221,30.281 -29.5069,50.7315 -63.5141,9.4159 z"
       id="path3549-3-7"
       inkscape:connector-curvature="0"
       sodipodi:nodetypes="cccccccccccccccccccc" />
    <path
       style="fill:#ffffff;fill-rule:evenodd;stroke:none;stroke-width:1.65188px;stroke-linecap:butt;stroke-linejoin:miter;stroke-opacity:1"
       d="m 1204.7404,2519.8617 c 50.5917,78.9459 60.9555,113.3414 65.2028,134.3512 -41.2056,-22.133 -58.2095,-26.0517 -64.1574,-16.5377 -5.9478,9.5142 78.8131,323.8736 78.8131,323.8736 l 27.3427,-77.0906 c 0,0 -45.9792,-134.5245 -55.8759,-162.7161 -9.897,-28.1916 -17.6794,-59.5815 -17.6794,-59.5815 0,0 32.7448,22.5895 42.5581,23.1114 9.813,0.5218 45.9229,-15.5328 -76.204,-165.4103 z"
       id="path891"
       inkscape:connector-curvature="0"
       inkscape:transform-center-x="-51.96084"
       inkscape:transform-center-y="220.66697"
       sodipodi:nodetypes="ccsccscsc" />
    <path
       style="fill:#ffffff;fill-rule:evenodd;stroke:none;stroke-width:1px;stroke-linecap:butt;stroke-linejoin:miter;stroke-opacity:1"
       d="m 2185.1028,3273.6979 c 1.0808,-21.9407 14.0506,-62.1647 33.5054,-69.4783 19.4547,-7.3136 73.4956,-7.3136 84.3038,-3.6562 10.8082,3.6562 28.1013,30.4722 32.4246,41.4432 4.3233,10.9697 16.2123,49.9747 -3.2424,65.8209 -19.4548,15.8463 -38.9095,28.0352 -59.4451,26.816 -20.5356,-1.2191 -61.6067,-9.7518 -71.334,-24.3778 -9.7274,-14.6271 -16.2123,-36.5678 -16.2123,-36.5678 z"
       id="path1355"
       inkscape:connector-curvature="0" />
    <path
       style="fill:#ffffff;fill-rule:evenodd;stroke:none;stroke-width:1.40704px;stroke-linecap:butt;stroke-linejoin:miter;stroke-opacity:1"
       d="m 2210.3858,3260.9854 c 0,0 -9.9729,30.1184 -20.5324,37.3461 -10.5597,7.2275 -37.179,18.9359 -56.6531,11.8546 35.6758,21.6634 55.6021,14.7863 64.3759,10.0326 8.7751,-4.7533 39.4153,-35.3687 39.4153,-35.3687 z"
       id="path1367"
       inkscape:connector-curvature="0" />
  </g>
  <g
     inkscape:groupmode="layer"
     id="layer1"
     inkscape:label="txt">
    <text
       xml:space="preserve"
       style="font-style:normal;font-variant:normal;font-weight:normal;font-stretch:normal;font-size:64px;line-height:1.25;font-family:Lavi;-inkscape-font-specification:Lavi;text-align:center;letter-spacing:0px;word-spacing:0px;text-anchor:middle;fill:#000000;fill-opacity:1;stroke:none"
       x="1770.2869"
       y="2939.7078"
       id="text4246-3-2-2"
       transform="skewX(-9.8231434)"><tspan
         style="font-style:normal;font-variant:normal;font-weight:bold;font-stretch:normal;font-size:64px;font-family:Lavi;-inkscape-font-specification:'Lavi Bold'"
         sodipodi:role="line"
         x="1770.2869"
         y="2939.7078"
         id="tspan905">SØREN!</tspan></text>
    <text
       xml:space="preserve"
       style="font-style:normal;font-variant:normal;font-weight:normal;font-stretch:normal;font-size:56px;line-height:1.25;font-family:Lavi;-inkscape-font-specification:Lavi;text-align:center;letter-spacing:0px;word-spacing:0px;text-anchor:middle;fill:#000000;fill-opacity:1;stroke:none"
       x="1344.6593"
       y="3043.1643"
       id="text4246-3-2-2-7"><tspan
         style="font-style:normal;font-variant:normal;font-weight:bold;font-stretch:normal;font-size:56px;font-family:Lavi;-inkscape-font-specification:'Lavi Bold'"
         sodipodi:role="line"
         x="1344.6593"
         y="3043.1643"
         id="tspan935">KVA GJER</tspan><tspan
         style="font-style:normal;font-variant:normal;font-weight:bold;font-stretch:normal;font-size:56px;font-family:Lavi;-inkscape-font-specification:'Lavi Bold'"
         sodipodi:role="line"
         x="1344.6593"
         y="3113.1643"
         id="tspan8937">ME NO?!</tspan></text>
    <text
       xml:space="preserve"
       style="font-style:normal;font-variant:normal;font-weight:normal;font-stretch:normal;font-size:56px;line-height:1.25;font-family:Lavi;-inkscape-font-specification:Lavi;text-align:center;letter-spacing:0px;word-spacing:0px;text-anchor:middle;fill:#000000;fill-opacity:1;stroke:none"
       x="2265.0007"
       y="3290.0986"
       id="text4246-3-2-2-7-3"><tspan
         style="font-style:normal;font-variant:normal;font-weight:bold;font-stretch:normal;font-size:56px;font-family:Lavi;-inkscape-font-specification:'Lavi Bold'"
         sodipodi:role="line"
         x="2265.0007"
         y="3290.0986"
         id="tspan935-6">Å!</tspan></text>
  </g>
</svg>
