<?xml version="1.0" encoding="UTF-8" standalone="no"?>
<!-- Created with Inkscape (http://www.inkscape.org/) -->

<svg
   xmlns:dc="http://purl.org/dc/elements/1.1/"
   xmlns:cc="http://creativecommons.org/ns#"
   xmlns:rdf="http://www.w3.org/1999/02/22-rdf-syntax-ns#"
   xmlns:svg="http://www.w3.org/2000/svg"
   xmlns="http://www.w3.org/2000/svg"
   xmlns:xlink="http://www.w3.org/1999/xlink"
   xmlns:sodipodi="http://sodipodi.sourceforge.net/DTD/sodipodi-0.dtd"
   xmlns:inkscape="http://www.inkscape.org/namespaces/inkscape"
   id="svg2"
   version="1.1"
   inkscape:version="0.92.2 2405546, 2018-03-11"
   width="2481"
   height="3503"
   sodipodi:docname="E27P02.svg">
  <metadata
     id="metadata8">
    <rdf:RDF>
      <cc:Work
         rdf:about="">
        <dc:format>image/svg+xml</dc:format>
        <dc:type
           rdf:resource="http://purl.org/dc/dcmitype/StillImage" />
        <dc:title />
      </cc:Work>
    </rdf:RDF>
  </metadata>
  <defs
     id="defs6" />
  <sodipodi:namedview
     pagecolor="#ffffff"
     bordercolor="#666666"
     borderopacity="1"
     objecttolerance="10"
     gridtolerance="10"
     guidetolerance="10"
     inkscape:pageopacity="0"
     inkscape:pageshadow="2"
     inkscape:window-width="1920"
     inkscape:window-height="1019"
     id="namedview4"
     showgrid="false"
     inkscape:zoom="0.4574026"
     inkscape:cx="1150.708"
     inkscape:cy="639.05072"
     inkscape:window-x="0"
     inkscape:window-y="27"
     inkscape:window-maximized="1"
     inkscape:current-layer="layer1"
     inkscape:snap-global="false" />
  <g
     inkscape:groupmode="layer"
     id="layer2"
     inkscape:label="artwork"
     sodipodi:insensitive="true">
    <image
       sodipodi:absref="/home/midgard/git/peppercarrot/comics/new-ep27_Coriander-s-Invention/lang/de/../gfx_Pepper-and-Carrot_by-David-Revoy_E27P02.png"
       xlink:href="../gfx_Pepper-and-Carrot_by-David-Revoy_E27P02.png"
       width="2481"
       height="3503"
       id="image10"
       x="0"
       y="0" />
  </g>
  <g
     inkscape:groupmode="layer"
     id="layer3"
     inkscape:label="speechbubbles">
    <path
       style="fill:#ffffff;fill-rule:evenodd;stroke:none;stroke-width:1.19121659px;stroke-linecap:butt;stroke-linejoin:miter;stroke-opacity:1"
       d="m 481.25829,186.50747 c 6.39548,2.08343 66.69575,0 72.17758,-1.04169 5.48185,-1.04172 46.59567,-9.37539 56.64571,-7.29196 10.05006,2.08341 79.4867,13.5422 92.27768,14.58391 12.79096,1.0417 74.00486,3.12512 84.96854,9.37538 10.96368,6.25024 25.58194,12.5005 33.80472,22.91759 8.22274,10.41708 20.10008,42.71005 19.18642,50.00201 -0.91364,7.29196 -13.7046,57.29396 -21.01372,64.58593 -7.30912,7.29196 -32.89104,31.25125 -40.20018,34.37638 -7.30912,3.12513 -23.75463,11.45879 -31.97741,14.58393 -8.22276,3.12512 -194.60539,6.25023 -217.44641,7.29195 -22.841,1.04171 -111.46413,-6.25026 -126.99603,-7.29195 -15.53188,-1.04172 -52.07749,2.08341 -75.83212,-8.33368 -23.75466,-10.41707 -40.20019,-48.96029 -47.50932,-56.25227 -7.30912,-7.29196 -20.10008,-38.54321 -19.18643,-50.002 0.91362,-11.45879 13.80194,-49.47451 22.93835,-52.59963 9.13639,-3.12513 51.98015,-18.23656 73.90751,-23.4451 21.92739,-5.20854 74.91852,-17.70904 84.96857,-16.66734 13.75654,2.09314 12.3113,0.20782 39.28654,5.20854 z"
       id="path1323"
       inkscape:connector-curvature="0"
       sodipodi:nodetypes="ccsscscsscsssccsscc" />
    <path
       style="fill:#ffffff;fill-rule:evenodd;stroke:none;stroke-width:0.99999994px;stroke-linecap:butt;stroke-linejoin:miter;stroke-opacity:1"
       d="m 172.66645,163.77351 c 10.53318,-19.15682 29.62457,-29.0442 39.49941,-31.51605 9.87486,-2.47185 26.33295,3.08981 35.54949,1.85389 9.21652,-1.23593 44.10767,-12.35924 57.27415,-11.74128 13.16646,0.61796 52.00756,4.32573 64.51571,4.9437 12.50814,0.61796 43.44936,3.0898 54.64086,9.88738 11.19151,6.79758 23.69965,14.21312 25.67462,21.0107 1.97497,6.79758 6.58324,19.77478 1.97497,30.89809 -4.60826,11.12331 -15.79976,30.28013 -30.28288,32.13401 -14.48312,1.85389 -86.2404,8.65147 -102.04016,8.0335 -15.79977,-0.61796 -59.24913,0 -69.78231,0 -10.53318,0 -48.71595,-4.32573 -59.90745,-12.35923 -11.1915,-8.0335 -19.7497,-24.10051 -21.06635,-33.9879 -1.31665,-9.88738 3.94994,-19.15681 3.94994,-19.15681 z"
       id="path1325"
       inkscape:connector-curvature="0" />
    <path
       style="fill:#ffffff;fill-rule:evenodd;stroke:none;stroke-width:1px;stroke-linecap:butt;stroke-linejoin:miter;stroke-opacity:1"
       d="m 544.4243,343.97954 c 6.17962,25.33643 -4.94369,76.0093 4.32573,89.60445 9.26943,13.59516 11.12331,11.74128 19.15682,18.53886 -12.35924,15.44904 -17.92089,33.36993 -16.68497,42.63936 1.23592,9.26942 4.32573,33.36993 35.84178,44.49324 -27.19032,-19.15681 -24.71847,-38.31363 -23.48255,-43.87528 1.23593,-5.56166 6.17962,-34.60586 21.62867,-42.0214 -15.44905,-11.74127 -23.48255,-24.71847 -23.48255,-32.13401 0,-7.41554 8.65146,-82.80688 8.65146,-82.80688 z"
       id="path1327"
       inkscape:connector-curvature="0" />
    <path
       style="fill:#ffffff;fill-rule:evenodd;stroke:none;stroke-width:0.93476725px;stroke-linecap:butt;stroke-linejoin:miter;stroke-opacity:1"
       d="m 1028.778,96.643012 c -32.42456,14.881648 -62.38624,27.061668 -66.70952,48.888068 -4.32327,21.8264 -16.21228,39.68437 -17.2931,54.56601 -1.08082,14.88164 7.26449,69.17294 14.83022,89.01512 7.56573,19.84219 48.6369,65.47922 54.0409,69.44766 5.4041,3.96843 41.0712,16.86585 58.3643,22.81851 17.2931,5.95266 155.6379,9.92109 180.4967,12.89742 24.8589,2.97633 91.8696,-13.88953 109.1628,-20.8343 17.2931,-6.94476 41.0711,-9.92109 51.8793,-21.8264 10.8082,-11.90531 35.667,-43.65281 39.9903,-57.54233 4.3232,-13.88954 4.3232,-61.51078 4.3232,-71.43188 0,-9.92109 -1.0808,-53.5739 -21.6163,-72.42397 -20.5356,-18.85008 -55.1218,-44.64493 -82.1423,-52.581797 -27.0205,-7.936874 -190.2241,-19.842186 -208.598,-20.834296 -18.374,-0.992109 -116.7285,19.842185 -116.7285,19.842185 z"
       id="path1329"
       inkscape:connector-curvature="0"
       sodipodi:nodetypes="cssscsscscscssc" />
    <path
       style="fill:#ffffff;fill-rule:evenodd;stroke:none;stroke-width:0.81280702px;stroke-linecap:butt;stroke-linejoin:miter;stroke-opacity:1"
       d="m 1051.4895,370.84535 c -23.7554,13.51482 -50.2518,26.18499 -55.7339,35.47643 -5.48199,9.29144 -12.79137,34.63174 -9.13674,46.45723 3.65475,11.82548 15.53254,60.81674 29.23754,70.10818 13.705,9.29144 57.5614,38.01046 79.4895,38.01046 21.9281,0 92.2808,10.9808 104.1586,10.13612 11.8776,-0.84467 106.1162,3.82581 126.2171,-4.62096 20.1007,-8.44678 50.056,-9.44028 65.5885,-14.50835 15.5322,-5.06805 35.5027,-13.06773 46.4668,-31.65062 10.9641,-18.58289 12.1998,-54.52366 2.9369,-79.30032 -9.0501,-24.20728 -25.5827,-43.92318 -52.993,-56.59335 -27.4101,-12.67014 -115.1227,-40.54448 -115.1227,-40.54448 l -131.5686,-10.9808 c 0,0 -21.0145,7.60209 -42.9427,18.58289 -21.9281,10.9808 -46.5973,19.42757 -46.5973,19.42757 z"
       id="path1331"
       inkscape:connector-curvature="0"
       sodipodi:nodetypes="csccsccccasccsc" />
    <path
       style="fill:#ffffff;fill-rule:evenodd;stroke:none;stroke-width:1px;stroke-linecap:butt;stroke-linejoin:miter;stroke-opacity:1"
       d="m 1358.5402,547.47471 c 0,0 27.0205,22.6972 35.667,37.82867 8.6466,15.13146 27.0205,36.74784 22.6972,76.73814 10.8082,-51.87931 10.8082,-67.01077 -20.5355,-116.72844 -31.3438,-49.71768 -37.8287,2.16163 -37.8287,2.16163 z"
       id="path1333"
       inkscape:connector-curvature="0" />
    <path
       style="fill:#ffffff;fill-rule:evenodd;stroke:none;stroke-width:1.08319819px;stroke-linecap:butt;stroke-linejoin:miter;stroke-opacity:1"
       d="m 1574.4714,231.8935 c 13.1253,-46.74643 17.5004,-74.01519 48.1261,-90.89585 30.6257,-16.88066 156.0452,-31.16429 173.5455,-32.4628 17.5004,-1.29851 70.0016,3.89554 94.7938,3.89554 24.7923,0 153.1285,-2.59703 173.5456,-2.59703 20.4172,0 103.5442,0 125.4196,2.59703 21.8754,2.59702 99.1689,18.17916 112.2943,29.86578 13.1252,11.6866 51.0427,61.03006 52.501,93.49287 1.4585,32.4628 -1.4583,85.7018 -27.7089,106.47799 -26.2506,20.77619 -87.5021,46.74643 -128.3363,54.53751 -40.8341,7.79107 -240.6305,16.88065 -263.9641,16.88065 -23.334,0 -122.5028,3.89554 -170.6289,-2.59702 -48.1262,-6.49256 -100.6273,-25.97024 -125.4195,-44.14941 -24.7922,-18.17918 -55.418,-31.16429 -64.1682,-66.22412 -8.7501,-35.05983 0,-68.82114 0,-68.82114 z"
       id="path1335"
       inkscape:connector-curvature="0" />
    <path
       style="fill:#ffffff;fill-rule:evenodd;stroke:none;stroke-width:0.95513475px;stroke-linecap:butt;stroke-linejoin:miter;stroke-opacity:1"
       d="m 1765.2285,423.03907 c 25.0982,26.61792 39.0992,47.56076 -10.4054,80.71719 44.8255,-0.72812 39.7507,20.05383 31.216,45.56614 61.0294,-20.5973 103.7649,-7.40942 109.834,32.54725 40.0648,-32.2476 46.1291,-26.46532 76.3057,-1.30189 36.1556,-49.89404 57.1139,-15.54139 83.2426,-10.41512 -5.3662,-23.03081 12.342,-43.92498 56.9946,-10.21797 -16.0281,-18.88765 -9.6816,-65.99877 51.6833,-69.19731 -27.5062,-10.89059 -66.7777,-22.51429 -20.8107,-69.00017 -70.812,-8.98442 -36.4443,-27.33589 -47.402,-41.66048 l -102.8972,-13.0189 -104.0532,7.81134 -53.1828,5.20756 c -1.2867,20.45876 4.0876,42.79545 -70.5249,42.96236 z"
       id="path1337"
       inkscape:connector-curvature="0"
       sodipodi:nodetypes="cccccccccccccc" />
    <path
       style="fill:#ffffff;fill-rule:evenodd;stroke:none;stroke-width:1px;stroke-linecap:butt;stroke-linejoin:miter;stroke-opacity:1"
       d="m 2083.819,528.58622 c 24.8588,19.45474 57.2834,63.76832 55.1217,92.95043 10.8082,-38.90948 -17.2931,-97.27371 -31.3437,-112.40517 -14.0507,-15.13147 -23.778,19.45474 -23.778,19.45474 z"
       id="path1339"
       inkscape:connector-curvature="0" />
    <path
       style="fill:#ffffff;fill-rule:evenodd;stroke:none;stroke-width:1.1900847px;stroke-linecap:butt;stroke-linejoin:miter;stroke-opacity:1"
       d="m 794.97383,1444.8485 c 15.57189,-34.2595 46.71568,-50.6446 88.98228,-59.5818 42.26659,-8.9372 150.40259,-4.6942 179.32189,-4.6942 28.9191,0 144.5963,7.4477 160.1681,19.3641 15.572,11.9164 53.3894,37.2387 42.2665,64.0505 -11.1228,26.8118 -24.4701,53.6236 -84.5331,68.519 -60.063,14.8954 -115.677,0 -137.9227,1.4896 -22.2456,1.4895 -47.68789,10.3863 -110.36043,7.6732 -63.1197,-2.7325 -147.14889,-19.105 -137.92254,-96.8204 z"
       id="path1341"
       inkscape:connector-curvature="0"
       sodipodi:nodetypes="cssccscsc" />
    <path
       style="fill:#ffffff;fill-rule:evenodd;stroke:none;stroke-width:1px;stroke-linecap:butt;stroke-linejoin:miter;stroke-opacity:1"
       d="m 1321.8416,1549.9601 c -25.1103,-26.3097 -29.3743,-46.7563 -36.94,-53.2412 -7.5658,-6.4849 -52.768,-40.79 -87.3542,-44.0325 -34.5862,-3.2424 -28.1013,24.8589 -28.1013,24.8589 0,0 36.7479,1.0808 51.8793,5.4041 15.1315,4.3232 48.6369,20.5355 54.041,24.8588 5.4041,4.3233 19.4547,27.0205 46.4752,42.1519 z"
       id="path1343"
       inkscape:connector-curvature="0"
       sodipodi:nodetypes="cccccsc" />
    <path
       style="fill:#ffffff;fill-rule:evenodd;stroke:none;stroke-width:1px;stroke-linecap:butt;stroke-linejoin:miter;stroke-opacity:1"
       d="m 1847.0115,1634.8585 c 65.8759,-41.0171 79.5483,-53.4465 129.266,-55.9324 49.7176,-2.4859 59.6612,-29.8306 59.6612,-29.8306 0,0 -34.8024,-1.243 -72.0906,6.2147 -37.2883,7.4576 -95.7066,37.2882 -116.8366,79.5483 z"
       id="path1345"
       inkscape:connector-curvature="0" />
    <path
       style="fill:#ffffff;fill-rule:evenodd;stroke:none;stroke-width:0.99999988px;stroke-linecap:butt;stroke-linejoin:miter;stroke-opacity:1"
       d="m 1980.1886,1519.225 c 17.7997,-20.9727 63.5703,-43.2562 91.5412,-47.1886 27.9708,-3.9323 116.9692,5.2432 136.0403,17.0403 19.071,11.7972 58.4846,20.9728 57.2132,58.9858 -1.2715,38.013 5.0856,55.0534 -24.1567,76.026 -29.2423,20.9728 -132.2261,15.7296 -155.1113,14.4188 -22.8854,-1.3107 -66.1131,-6.5539 -88.9984,-30.1483 -22.8853,-23.5942 -33.0565,-48.4993 -16.5283,-89.134 z"
       id="path1347"
       inkscape:connector-curvature="0" />
    <path
       style="fill:#ffffff;fill-rule:evenodd;stroke:none;stroke-width:1.00742781px;stroke-linecap:butt;stroke-linejoin:miter;stroke-opacity:1"
       d="m 2013.7571,1655.9885 c 20.1837,-34.8024 69.3812,-47.2318 80.7345,-47.2318 11.3533,0 99.6565,7.4576 116.0556,7.4576 16.3993,0 50.459,-7.4576 69.3811,-4.9717 18.9222,2.4859 54.2435,0 69.3812,24.8588 15.1377,24.8588 26.491,79.5483 22.7066,103.1642 -3.7844,23.6159 5.0459,54.6894 -11.3533,90.7347 -16.3992,36.0453 -22.7065,49.7177 -46.6746,60.9042 -23.968,11.1865 -137.5008,6.2147 -162.7302,2.4859 -25.2296,-3.7289 -74.4271,0 -95.8722,-6.2147 -21.445,-6.2148 -55.5048,-27.3448 -50.459,-53.4465 5.0459,-26.1018 -8.8303,-49.7177 -2.523,-94.4636 6.3075,-44.7459 11.3533,-83.2771 11.3533,-83.2771 z"
       id="path1349"
       inkscape:connector-curvature="0" />
    <path
       style="fill:#ffffff;fill-rule:evenodd;stroke:none;stroke-width:0.9497577px;stroke-linecap:butt;stroke-linejoin:miter;stroke-opacity:1"
       d="m 121.67495,2399.1151 c 0,-35.8207 23.33815,-41.7908 38.55868,-41.7908 15.22053,0 64.94091,-4.7762 72.04383,-4.7762 7.10291,0 59.8674,7.1642 68.99972,13.1343 9.13232,5.9701 23.33814,10.7462 21.30875,32.2386 -2.02941,21.4925 0,33.4327 -20.29404,39.4028 -20.29405,5.9702 -99.44079,8.3582 -113.64662,7.1642 -14.20582,-1.194 -35.51456,-10.7463 -45.66158,-17.9104 -10.14701,-7.1641 -23.33815,-9.5522 -21.30874,-27.4625 z"
       id="path1351"
       inkscape:connector-curvature="0" />
    <path
       style="fill:#ffffff;fill-rule:evenodd;stroke:none;stroke-width:0.95459604px;stroke-linecap:butt;stroke-linejoin:miter;stroke-opacity:1"
       d="m 308.01296,2417.6302 c 48.43232,-12.1176 82.67249,-9.2431 96.99413,-7.4454 15.07213,1.8919 53.26201,13.0665 65.21879,22.8597 11.95677,9.7932 27.20433,29.6343 26.11735,41.3861 -1.08698,11.7519 6.95384,44.0425 5.86686,59.7116 -1.08699,15.6691 -12.6715,69.5583 -20.28035,92.0827 -7.60887,22.5243 -26.08752,48.9658 -107.61101,53.8624 -81.52349,4.8966 -131.52456,2.938 -163.04697,-4.8966 -31.52242,-7.8345 -71.74068,-12.731 -82.61048,-49.9451 -10.8698,-37.2142 -14.13073,-79.3248 -10.8698,-96.9525 3.26094,-17.6278 6.52189,-56.8004 10.8698,-63.6557 4.34792,-6.8552 17.4812,-33.5515 27.26402,-39.4274 9.78282,-5.8759 152.08766,-7.5798 152.08766,-7.5798 z"
       id="path1353"
       inkscape:connector-curvature="0"
       sodipodi:nodetypes="csssscscsscsc" />
    <path
       style="fill:#ffffff;fill-rule:evenodd;stroke:none;stroke-width:1px;stroke-linecap:butt;stroke-linejoin:miter;stroke-opacity:1"
       d="m 532.84375,2533.5054 c 1.08082,-19.4547 14.05064,-55.1218 33.50539,-61.6067 19.45474,-6.4849 73.49568,-6.4849 84.30387,-3.2424 10.80819,3.2424 28.1013,27.0204 32.42457,36.7478 4.32328,9.7274 16.21229,44.3136 -3.24245,58.3642 -19.45474,14.0507 -38.90949,24.8589 -59.44505,23.778 -20.53556,-1.0808 -61.60668,-8.6465 -71.33405,-21.6163 -9.72737,-12.9699 -16.21228,-32.4246 -16.21228,-32.4246 z"
       id="path1355"
       inkscape:connector-curvature="0" />
    <path
       style="fill:#ffffff;fill-rule:evenodd;stroke:none;stroke-width:1px;stroke-linecap:butt;stroke-linejoin:miter;stroke-opacity:1"
       d="m 371.0335,2676.4849 c 0,0 10.62431,7.3553 12.25882,23.7003 1.63451,16.3451 -0.81725,35.142 -13.89333,54.7561 28.60391,-32.6902 43.31449,-55.5733 34.32469,-83.36 -8.9898,-27.7866 -32.69018,4.9036 -32.69018,4.9036 z"
       id="path1357"
       inkscape:connector-curvature="0" />
    <path
       style="fill:#ffffff;fill-rule:evenodd;stroke:none;stroke-width:1px;stroke-linecap:butt;stroke-linejoin:miter;stroke-opacity:1"
       d="m 609.41023,2578.6689 c 0,0 17.16235,24.5177 9.80706,38.411 -7.35529,13.8933 -8.9898,18.7968 -25.33489,35.1419 26.9694,-17.9796 37.5937,-31.0556 40.86272,-43.3145 3.26902,-12.2588 5.72078,-35.9592 5.72078,-42.4972 0,-6.538 -31.05567,12.2588 -31.05567,12.2588 z"
       id="path1359"
       inkscape:connector-curvature="0" />
    <path
       style="fill:#ffffff;fill-rule:evenodd;stroke:none;stroke-width:1.13734281px;stroke-linecap:butt;stroke-linejoin:miter;stroke-opacity:1"
       d="m 721.7991,2535.3976 c -9.39843,-51.0608 0.13317,-100.906 7.9786,-127.3962 15.69055,-38.9206 46.94985,-73.9657 68.64875,-67.3559 16.91717,-4.8629 117.92006,-21.6482 135.77707,-19.2167 17.85701,2.4313 118.32618,5.5315 137.12298,27.4147 18.7969,21.8831 34.2573,34.2228 45.5355,57.3219 11.2781,23.0988 17.716,68.6279 23.3551,75.9222 5.639,7.2945 3.5713,43.584 -1.1279,64.2515 -4.6992,20.6674 -21.6164,37.6878 -46.0523,44.9822 -24.4359,7.2945 -57.3304,17.0201 -78.9468,18.236 -21.61634,1.2157 -71.428,1.2157 -109.0217,-2.4315 -44.76237,-11.3998 -72.61993,-11.6908 -117.26947,-16.8965 -8.45859,-1.2157 -64.12015,-22.007 -65.99983,-54.8317 z"
       id="path1361"
       inkscape:connector-curvature="0"
       sodipodi:nodetypes="ccccccccccccc" />
    <path
       style="fill:#ffffff;fill-rule:evenodd;stroke:none;stroke-width:1px;stroke-linecap:butt;stroke-linejoin:miter;stroke-opacity:1"
       d="m 1048.8643,2568.0828 c 40.4132,37.5937 65.789,69.5483 47.932,102.4428 29.1351,-35.714 14.0976,-69.5483 -24.4359,-117.4803 -38.5336,-47.932 -23.4961,15.0375 -23.4961,15.0375 z"
       id="path1363"
       inkscape:connector-curvature="0" />
    <path
       style="fill:#ffffff;fill-rule:evenodd;stroke:none;stroke-width:1px;stroke-linecap:butt;stroke-linejoin:miter;stroke-opacity:1"
       d="m 1362.7766,2499.8218 c -0.8172,-27.7867 20.4314,-32.6902 31.8729,-34.3247 11.4416,-1.6345 58.8423,-9.807 76.8219,3.269 17.9796,13.0761 22.8832,35.142 14.7106,43.3145 -8.1725,8.1726 -34.3247,20.4314 -50.6698,21.2486 -16.345,0.8173 -51.487,-4.0862 -62.9285,-15.5278 -11.4416,-11.4416 -9.8071,-17.9796 -9.8071,-17.9796 z"
       id="path1365"
       inkscape:connector-curvature="0" />
    <path
       style="fill:#ffffff;fill-rule:evenodd;stroke:none;stroke-width:1px;stroke-linecap:butt;stroke-linejoin:miter;stroke-opacity:1"
       d="m 1445.7231,2523.112 c 0,0 19.6141,10.6243 24.5176,19.6141 4.9035,8.9898 13.0761,31.0556 8.9898,45.7662 13.0761,-26.1521 8.1725,-42.4972 4.9035,-49.8525 -3.269,-7.3553 -23.7004,-34.3247 -23.7004,-34.3247 z"
       id="path1367"
       inkscape:connector-curvature="0" />
    <path
       style="fill:#ffffff;fill-rule:evenodd;stroke:none;stroke-width:1px;stroke-linecap:butt;stroke-linejoin:miter;stroke-opacity:1"
       d="m 1811.2557,2452.444 c 4.5211,-52.9602 32.7775,-69.1724 51.992,-76.7382 19.2144,-7.5657 98.3326,-18.3739 125.4588,-17.2931 27.1262,1.0808 127.7194,11.889 144.6733,12.9698 16.9539,1.0809 59.9037,25.9397 63.2945,32.4246 3.3908,6.4849 18.0842,23.778 13.5631,43.2328 -4.521,19.4547 -30.517,45.3944 -55.3828,55.1217 -24.8657,9.7274 -124.3284,17.2931 -143.5429,15.1315 -19.2144,-2.1616 -51.9919,-5.4041 -71.2064,-5.4041 -19.2144,0 -80.2484,-1.0808 -96.0721,-12.9698 -15.8236,-11.889 -32.7775,-46.4752 -32.7775,-46.4752 z"
       id="path1369"
       inkscape:connector-curvature="0" />
    <path
       style="fill:#ffffff;fill-rule:evenodd;stroke:none;stroke-width:1px;stroke-linecap:butt;stroke-linejoin:miter;stroke-opacity:1"
       d="m 1988.5393,2507.5657 c 15.6768,24.1512 6.1632,34.5534 -20.368,35.6671 20.5199,9.9586 46.1337,15.5923 40.7359,47.556 22.7818,-0.375 37.1938,-19.937 73.551,10.8082 21.4995,-25.3561 42.999,-13.281 64.4986,-2.1617 10.3119,-11.3113 29.2981,-12.0311 69.0248,-6.4849 -3.0677,-25.0109 21.8624,-36.1565 45.2622,-44.3136 -19.8128,-13.1763 -37.659,-27.5479 -24.8943,-60.5258 -28.7916,7.2773 -53.0033,6.6803 -66.7616,-11.889 -28.5646,4.157 -50.0209,21.8927 -89.3928,5.4041 -21.2019,19.9279 -44.8336,21.2885 -69.0248,18.3739 5.5129,17.7643 -0.9947,21.4958 -22.631,7.5657 z"
       id="path1371"
       inkscape:connector-curvature="0"
       sodipodi:nodetypes="cccccccccccc" />
    <path
       style="fill:#ffffff;fill-rule:evenodd;stroke:none;stroke-width:1px;stroke-linecap:butt;stroke-linejoin:miter;stroke-opacity:1"
       d="m 2142.1832,2571.3341 c -3.2425,28.1012 8.6465,79.9806 34.5862,113.4859 -3.2425,16.2123 1.0808,33.5054 15.1315,47.5561 -12.9699,-29.1821 -7.5658,-36.7479 -1.0809,-50.7985 -12.9698,-20.5356 -31.3437,-69.1724 -34.5862,-109.1627 -3.2424,-39.9903 -14.0506,-1.0808 -14.0506,-1.0808 z"
       id="path1373"
       inkscape:connector-curvature="0" />
  </g>
  <g
     inkscape:groupmode="layer"
     id="layer1"
     inkscape:label="txt">
    <text
       xml:space="preserve"
       style="font-style:normal;font-variant:normal;font-weight:normal;font-stretch:normal;line-height:0%;font-family:Lavi;-inkscape-font-specification:Lavi;text-align:center;letter-spacing:0px;word-spacing:0px;text-anchor:middle;fill:#000000;fill-opacity:1;stroke:none"
       x="320.61392"
       y="193.67375"
       id="text4246"><tspan
         sodipodi:role="line"
         style="font-size:45px;line-height:1.20000005"
         x="320.61392"
         y="193.67375"
         id="tspan4252">Wisst ihr...</tspan></text>
    <text
       xml:space="preserve"
       style="font-style:normal;font-variant:normal;font-weight:normal;font-stretch:normal;line-height:0%;font-family:Lavi;-inkscape-font-specification:Lavi;text-align:center;letter-spacing:0px;word-spacing:0px;text-anchor:middle;fill:#000000;fill-opacity:1;stroke:none"
       x="551.00256"
       y="261.08548"
       id="text4246-3"><tspan
         sodipodi:role="line"
         style="font-size:45px;line-height:1.20000005"
         x="551.00256"
         y="261.08548"
         id="tspan841">Ich habe wieder über die</tspan><tspan
         sodipodi:role="line"
         style="font-size:45px;line-height:1.20000005"
         x="551.00256"
         y="315.08548"
         id="tspan94">Sicherheitsmassnahmen</tspan><tspan
         sodipodi:role="line"
         style="font-size:45px;line-height:1.20000005"
         x="551.00256"
         y="369.08548"
         id="tspan96">nachgedacht...</tspan></text>
    <text
       xml:space="preserve"
       style="font-style:normal;font-variant:normal;font-weight:normal;font-stretch:normal;line-height:0%;font-family:Lavi;-inkscape-font-specification:Lavi;text-align:center;letter-spacing:0px;word-spacing:0px;text-anchor:middle;fill:#000000;fill-opacity:1;stroke:none"
       x="1203.0967"
       y="169.41882"
       id="text4246-3-7"><tspan
         sodipodi:role="line"
         style="font-size:45px;line-height:1.20000005"
         x="1203.0967"
         y="169.41882"
         id="tspan872">So viele junge Könige</tspan><tspan
         sodipodi:role="line"
         style="font-size:45px;line-height:1.20000005"
         x="1203.0967"
         y="223.41882"
         id="tspan112">und Königinnen wurden</tspan><tspan
         sodipodi:role="line"
         style="font-size:45px;line-height:1.20000005"
         x="1203.0967"
         y="277.41882"
         id="tspan114">während ihrer Krönung</tspan><tspan
         sodipodi:role="line"
         style="font-size:45px;line-height:1.20000005"
         x="1203.0967"
         y="331.41882"
         id="tspan116">ermordet.</tspan></text>
    <text
       xml:space="preserve"
       style="font-style:normal;font-variant:normal;font-weight:normal;font-stretch:normal;line-height:0%;font-family:Lavi;-inkscape-font-specification:Lavi;text-align:center;letter-spacing:0px;word-spacing:0px;text-anchor:middle;fill:#000000;fill-opacity:1;stroke:none"
       x="1222.4489"
       y="418.91788"
       id="text4246-3-7-7"><tspan
         sodipodi:role="line"
         style="font-size:45px;line-height:1.20000005"
         x="1222.4489"
         y="418.91788"
         id="tspan746">Es ist teil der</tspan><tspan
         sodipodi:role="line"
         style="font-size:45px;line-height:1.20000005"
         x="1222.4489"
         y="472.91788"
         id="tspan123">Geschichte meiner</tspan><tspan
         sodipodi:role="line"
         style="font-size:45px;line-height:1.20000005"
         x="1222.4489"
         y="526.91791"
         id="tspan125">Familie geworden.</tspan></text>
    <text
       xml:space="preserve"
       style="font-style:normal;font-variant:normal;font-weight:normal;font-stretch:normal;line-height:0%;font-family:Lavi;-inkscape-font-specification:Lavi;text-align:center;letter-spacing:0px;word-spacing:0px;text-anchor:middle;fill:#000000;fill-opacity:1;stroke:none"
       x="1961.5282"
       y="165.83386"
       id="text4246-3-7-7-6"><tspan
         sodipodi:role="line"
         style="font-size:45px;line-height:1.20000005"
         x="1961.5282"
         y="165.83386"
         id="tspan992">Und nun werden wir in</tspan><tspan
         sodipodi:role="line"
         style="font-size:45px;line-height:1.20000005"
         x="1961.5282"
         y="219.83386"
         id="tspan132">einigen Stunden tausende Gäste</tspan><tspan
         sodipodi:role="line"
         style="font-size:45px;line-height:1.20000005"
         x="1961.5282"
         y="273.83386"
         id="tspan996">aus der ganzen Welt empfangen und</tspan><tspan
         sodipodi:role="line"
         style="font-size:45px;line-height:1.20000005"
         x="1961.5282"
         y="327.83386"
         id="tspan146">alle Aufmerksamkeit wird auf</tspan><tspan
         sodipodi:role="line"
         style="font-size:45px;line-height:1.20000005"
         x="1961.5282"
         y="381.83386"
         id="tspan150">mich gerichtet sein.</tspan></text>
    <text
       xml:space="preserve"
       style="font-style:normal;font-variant:normal;font-weight:normal;font-stretch:normal;line-height:0%;font-family:Lavi;-inkscape-font-specification:Lavi;text-align:center;letter-spacing:0px;word-spacing:0px;text-anchor:middle;fill:#000000;fill-opacity:1;stroke:none"
       x="1028.3363"
       y="1445.7167"
       id="text4246-3-7-7-6-7"><tspan
         sodipodi:role="line"
         style="font-size:45px;line-height:1.20000005"
         x="1028.3363"
         y="1445.7167"
         id="tspan1042">Mach dir keine</tspan><tspan
         sodipodi:role="line"
         style="font-size:45px;line-height:1.20000005"
         x="1028.3363"
         y="1499.7167"
         id="tspan1067">Sorgen, Coriander.</tspan></text>
    <text
       xml:space="preserve"
       style="font-style:normal;font-variant:normal;font-weight:normal;font-stretch:normal;line-height:0%;font-family:Lavi;-inkscape-font-specification:Lavi;text-align:center;letter-spacing:0px;word-spacing:0px;text-anchor:middle;fill:#000000;fill-opacity:1;stroke:none"
       x="1957.3252"
       y="459.72366"
       id="text4246-3-7-7-6-7-7"><tspan
         sodipodi:role="line"
         style="font-size:45px;line-height:1.20000005"
         x="1957.3252"
         y="459.72366"
         id="tspan156">Ich habe</tspan><tspan
         sodipodi:role="line"
         style="font-size:45px;line-height:1.20000005"
         x="1957.3252"
         y="513.72369"
         id="tspan154">solche Angst!</tspan></text>
    <text
       xml:space="preserve"
       style="font-style:normal;font-variant:normal;font-weight:normal;font-stretch:normal;line-height:0%;font-family:Lavi;-inkscape-font-specification:Lavi;text-align:center;letter-spacing:0px;word-spacing:0px;text-anchor:middle;fill:#000000;fill-opacity:1;stroke:none"
       x="2121.4336"
       y="1547.2563"
       id="text4246-3-7-7-6-7-2"><tspan
         sodipodi:role="line"
         style="font-size:45px;line-height:1.20000005"
         x="2121.4336"
         y="1547.2563"
         id="tspan1067-8">Wir haben</tspan><tspan
         sodipodi:role="line"
         style="font-size:45px;line-height:1.20000005"
         x="2121.4336"
         y="1601.2563"
         id="tspan1092">einen Plan.</tspan></text>
    <text
       xml:space="preserve"
       style="font-style:normal;font-variant:normal;font-weight:normal;font-stretch:normal;line-height:0%;font-family:Lavi;-inkscape-font-specification:Lavi;text-align:center;letter-spacing:0px;word-spacing:0px;text-anchor:middle;fill:#000000;fill-opacity:1;stroke:none"
       x="2189.9197"
       y="1691.4915"
       id="text4246-3-7-7-6-7-2-9"><tspan
         sodipodi:role="line"
         style="font-size:45px;line-height:1.20000005"
         x="2189.9197"
         y="1691.4915"
         id="tspan1121">Shichimi und</tspan><tspan
         sodipodi:role="line"
         style="font-size:45px;line-height:1.20000005"
         x="2189.9197"
         y="1745.4915"
         id="tspan173">ich werden deine</tspan><tspan
         sodipodi:role="line"
         style="font-size:45px;line-height:1.20000005"
         x="2189.9197"
         y="1799.4915"
         id="tspan175">Leibwächter sein,</tspan><tspan
         sodipodi:role="line"
         style="font-size:45px;line-height:1.20000005"
         x="2189.9197"
         y="1853.4915"
         id="tspan177">nicht wahr?</tspan></text>
    <text
       xml:space="preserve"
       style="font-style:normal;font-variant:normal;font-weight:normal;font-stretch:normal;line-height:0%;font-family:Lavi;-inkscape-font-specification:Lavi;text-align:center;letter-spacing:0px;word-spacing:0px;text-anchor:middle;fill:#000000;fill-opacity:1;stroke:none"
       x="226.1396"
       y="2409.7466"
       id="text4246-3-7-7-6-7-2-9-6"><tspan
         sodipodi:role="line"
         style="font-size:45px;line-height:1.20000005"
         x="226.1396"
         y="2409.7466"
         id="tspan1121-3">Genau.</tspan></text>
    <text
       xml:space="preserve"
       style="font-style:normal;font-variant:normal;font-weight:normal;font-stretch:normal;line-height:0%;font-family:Lavi;-inkscape-font-specification:Lavi;text-align:center;letter-spacing:0px;word-spacing:0px;text-anchor:middle;fill:#000000;fill-opacity:1;stroke:none"
       x="308.79276"
       y="2475.5852"
       id="text4246-3-7-7-6-7-2-9-6-1"><tspan
         sodipodi:role="line"
         style="font-size:45px;line-height:1.20000005"
         x="308.79276"
         y="2475.5852"
         id="tspan1183">Du solltest eine</tspan><tspan
         sodipodi:role="line"
         style="font-size:45px;line-height:1.20000005"
         x="308.79276"
         y="2529.5852"
         id="tspan193">Pause machen</tspan><tspan
         sodipodi:role="line"
         style="font-size:45px;line-height:1.20000005"
         x="308.79276"
         y="2583.5852"
         id="tspan195">und an etwas</tspan><tspan
         sodipodi:role="line"
         style="font-size:45px;line-height:1.20000005"
         x="308.79276"
         y="2637.5852"
         id="tspan197">anderes denken.</tspan></text>
    <text
       xml:space="preserve"
       style="font-style:normal;font-variant:normal;font-weight:normal;font-stretch:normal;line-height:0%;font-family:Lavi;-inkscape-font-specification:Lavi;text-align:center;letter-spacing:0px;word-spacing:0px;text-anchor:middle;fill:#000000;fill-opacity:1;stroke:none"
       x="618.41107"
       y="2544.4858"
       id="text4246-3-7-7-6-7-2-9-6-1-4"><tspan
         sodipodi:role="line"
         style="font-size:45px;line-height:1.20000005"
         x="618.41107"
         y="2544.4858"
         id="tspan1183-0">OK.</tspan></text>
    <text
       xml:space="preserve"
       style="font-style:normal;font-variant:normal;font-weight:normal;font-stretch:normal;line-height:0%;font-family:Lavi;-inkscape-font-specification:Lavi;text-align:center;letter-spacing:0px;word-spacing:0px;text-anchor:middle;fill:#000000;fill-opacity:1;stroke:none"
       x="926.28687"
       y="2397.7114"
       id="text4246-3-7-7-6-7-2-9-6-1-4-3"><tspan
         sodipodi:role="line"
         style="font-size:45px;line-height:1.20000005"
         x="926.28687"
         y="2397.7114"
         id="tspan210">Ich weiss was!</tspan><tspan
         sodipodi:role="line"
         style="font-size:45px;line-height:1.20000005"
         x="926.28687"
         y="2451.7114"
         id="tspan218">Ich könnte euch</tspan><tspan
         sodipodi:role="line"
         style="font-size:45px;line-height:1.20000005"
         x="926.28687"
         y="2505.7114"
         id="tspan222">meine neuste</tspan><tspan
         sodipodi:role="line"
         style="font-size:45px;line-height:1.20000005"
         x="926.28687"
         y="2559.7114"
         id="tspan224">Erfindung zeigen.</tspan></text>
    <text
       xml:space="preserve"
       style="font-style:normal;font-variant:normal;font-weight:normal;font-stretch:normal;line-height:0%;font-family:Lavi;-inkscape-font-specification:Lavi;text-align:center;letter-spacing:0px;word-spacing:0px;text-anchor:middle;fill:#000000;fill-opacity:1;stroke:none"
       x="1429.6105"
       y="2501.0703"
       id="text4246-3-7-7-6-7-2-9-6-1-4-3-1"><tspan
         sodipodi:role="line"
         style="font-size:45px;line-height:1.20000005"
         x="1429.6105"
         y="2501.0703"
         id="tspan1249-3">...</tspan></text>
    <text
       xml:space="preserve"
       style="font-style:normal;font-variant:normal;font-weight:normal;font-stretch:normal;line-height:0%;font-family:Lavi;-inkscape-font-specification:Lavi;text-align:center;letter-spacing:0px;word-spacing:0px;text-anchor:middle;fill:#000000;fill-opacity:1;stroke:none"
       x="2008.2061"
       y="2425.7151"
       id="text4246-3-7-7-6-7-2-9-6-1-4-3-1-2"><tspan
         sodipodi:role="line"
         style="font-size:45px;line-height:1.20000005"
         x="2008.2061"
         y="2425.7151"
         id="tspan1298">Es ist unten, in</tspan><tspan
         sodipodi:role="line"
         style="font-size:45px;line-height:1.20000005"
         x="2008.2061"
         y="2479.7151"
         id="tspan228">der Werkstatt.</tspan></text>
    <text
       xml:space="preserve"
       style="font-style:normal;font-variant:normal;font-weight:normal;font-stretch:normal;line-height:0%;font-family:Lavi;-inkscape-font-specification:Lavi;text-align:center;letter-spacing:0px;word-spacing:0px;text-anchor:middle;fill:#000000;fill-opacity:1;stroke:none"
       x="2118.0996"
       y="2553.5225"
       id="text4246-3-7-7-6-7-2-9-6-1-4-3-1-2-6"><tspan
         sodipodi:role="line"
         style="font-size:45px;line-height:1.20000005"
         x="2118.0996"
         y="2553.5225"
         id="tspan1298-5">Mir nach!</tspan></text>
  </g>
</svg>
