<?xml version="1.0" encoding="UTF-8" standalone="no"?>
<svg
   xmlns:dc="http://purl.org/dc/elements/1.1/"
   xmlns:cc="http://creativecommons.org/ns#"
   xmlns:rdf="http://www.w3.org/1999/02/22-rdf-syntax-ns#"
   xmlns:svg="http://www.w3.org/2000/svg"
   xmlns="http://www.w3.org/2000/svg"
   xmlns:xlink="http://www.w3.org/1999/xlink"
   xmlns:sodipodi="http://sodipodi.sourceforge.net/DTD/sodipodi-0.dtd"
   xmlns:inkscape="http://www.inkscape.org/namespaces/inkscape"
   sodipodi:docname="E28P01.svg"
   height="3503"
   width="2481"
   inkscape:version="1.0 (4035a4fb49, 2020-05-01)"
   version="1.1"
   id="svg2">
  <metadata
     id="metadata8">
    <rdf:RDF>
      <cc:Work
         rdf:about="">
        <dc:format>image/svg+xml</dc:format>
        <dc:type
           rdf:resource="http://purl.org/dc/dcmitype/StillImage" />
        <dc:title />
      </cc:Work>
    </rdf:RDF>
  </metadata>
  <defs
     id="defs6" />
  <sodipodi:namedview
     inkscape:document-rotation="0"
     inkscape:current-layer="layer3"
     inkscape:window-maximized="1"
     inkscape:window-y="24"
     inkscape:window-x="49"
     inkscape:cy="963.50197"
     inkscape:cx="1195.8392"
     inkscape:zoom="0.42287274"
     showgrid="false"
     id="namedview4"
     inkscape:window-height="1056"
     inkscape:window-width="1871"
     inkscape:pageshadow="2"
     inkscape:pageopacity="0"
     guidetolerance="10"
     gridtolerance="10"
     objecttolerance="10"
     borderopacity="1"
     bordercolor="#666666"
     pagecolor="#ffffff" />
  <g
     sodipodi:insensitive="true"
     inkscape:label="artwork"
     id="layer2"
     inkscape:groupmode="layer">
    <image
       sodipodi:absref="C:\Users\stero\Documents\Kernewek\Pepper and Carrot\webcomics\ep28_The-Festivities\lang\gfx_Pepper-and-Carrot_by-David-Revoy_E28P01.png"
       xlink:href="../gfx_Pepper-and-Carrot_by-David-Revoy_E28P01.png"
       width="2481"
       height="3503"
       id="image10"
       x="0"
       y="0" />
  </g>
  <g
     inkscape:label="speechbubbles"
     id="layer3"
     inkscape:groupmode="layer">
    <rect
       y="176.91313"
       x="189.13043"
       height="256.97903"
       width="426.08694"
       id="rect965"
       style="color:#000000;clip-rule:nonzero;display:inline;overflow:visible;visibility:visible;opacity:0.75;isolation:auto;mix-blend-mode:normal;color-interpolation:sRGB;color-interpolation-filters:linearRGB;solid-color:#000000;solid-opacity:1;vector-effect:none;fill:#ffffff;fill-opacity:1;fill-rule:nonzero;stroke:none;stroke-width:1.47651923;stroke-linecap:butt;stroke-linejoin:miter;stroke-miterlimit:4;stroke-dasharray:none;stroke-dashoffset:0;stroke-opacity:1;marker:none;paint-order:stroke fill markers;color-rendering:auto;image-rendering:auto;shape-rendering:auto;text-rendering:auto;enable-background:accumulate" />
    <rect
       y="1124.7391"
       x="532.49377"
       height="316.92706"
       width="444.28134"
       id="rect965-0"
       style="color:#000000;clip-rule:nonzero;display:inline;overflow:visible;visibility:visible;opacity:0.75;isolation:auto;mix-blend-mode:normal;color-interpolation:sRGB;color-interpolation-filters:linearRGB;solid-color:#000000;solid-opacity:1;vector-effect:none;fill:#ffffff;fill-opacity:1;fill-rule:nonzero;stroke:none;stroke-width:1.60375226;stroke-linecap:butt;stroke-linejoin:miter;stroke-miterlimit:4;stroke-dasharray:none;stroke-dashoffset:0;stroke-opacity:1;marker:none;paint-order:stroke fill markers;color-rendering:auto;image-rendering:auto;shape-rendering:auto;text-rendering:auto;enable-background:accumulate" />
    <rect
       y="2201.4783"
       x="1731.9913"
       height="265.54346"
       width="509.74765"
       id="rect965-0-6"
       style="color:#000000;clip-rule:nonzero;display:inline;overflow:visible;visibility:visible;opacity:0.75;isolation:auto;mix-blend-mode:normal;color-interpolation:sRGB;color-interpolation-filters:linearRGB;solid-color:#000000;solid-opacity:1;vector-effect:none;fill:#ffffff;fill-opacity:1;fill-rule:nonzero;stroke:none;stroke-width:1.48019707;stroke-linecap:butt;stroke-linejoin:miter;stroke-miterlimit:4;stroke-dasharray:none;stroke-dashoffset:0;stroke-opacity:1;marker:none;paint-order:stroke fill markers;color-rendering:auto;image-rendering:auto;shape-rendering:auto;text-rendering:auto;enable-background:accumulate" />
    <rect
       y="2960.2283"
       x="1526.5852"
       height="122.55676"
       width="523.92377"
       id="rect965-0-6-2"
       style="color:#000000;clip-rule:nonzero;display:inline;overflow:visible;visibility:visible;opacity:0.75;isolation:auto;mix-blend-mode:normal;color-interpolation:sRGB;color-interpolation-filters:linearRGB;solid-color:#000000;solid-opacity:1;vector-effect:none;fill:#ffffff;fill-opacity:1;fill-rule:nonzero;stroke:none;stroke-width:1.466;stroke-linecap:butt;stroke-linejoin:miter;stroke-miterlimit:4;stroke-dasharray:none;stroke-dashoffset:0;stroke-opacity:1;marker:none;paint-order:stroke fill markers;color-rendering:auto;image-rendering:auto;shape-rendering:auto;text-rendering:auto;enable-background:accumulate" />
  </g>
  <g
     inkscape:label="txt"
     id="layer1"
     inkscape:groupmode="layer">
    <text
       id="text4246"
       y="238.46811"
       x="399.8457"
       style="font-style:normal;font-variant:normal;font-weight:normal;font-stretch:normal;line-height:0%;font-family:Lavi;-inkscape-font-specification:Lavi;text-align:center;letter-spacing:0px;word-spacing:0px;text-anchor:middle;fill:#000000;fill-opacity:1;stroke:none"
       xml:space="preserve"><tspan
         id="tspan7073"
         y="238.46811"
         x="399.8457"
         style="font-size:45px;line-height:1.2"
         sodipodi:role="line">An teyr loor</tspan><tspan
         id="tspan41"
         y="292.46811"
         x="399.8457"
         style="font-size:45px;line-height:1.2"
         sodipodi:role="line">a Hereva</tspan><tspan
         id="tspan43"
         y="346.46811"
         x="399.8457"
         style="font-size:45px;line-height:1.2"
         sodipodi:role="line">a veu alinys</tspan><tspan
         id="tspan45"
         y="400.46811"
         x="399.8457"
         style="font-size:45px;line-height:1.2"
         sodipodi:role="line">an nos na,</tspan></text>
    <text
       id="text4246-3"
       y="1190.7747"
       x="754.31586"
       style="font-style:normal;font-variant:normal;font-weight:normal;font-stretch:normal;line-height:0%;font-family:Lavi;-inkscape-font-specification:Lavi;text-align:center;letter-spacing:0px;word-spacing:0px;text-anchor:middle;fill:#000000;fill-opacity:1;stroke:none"
       xml:space="preserve"><tspan
         id="tspan6812"
         y="1190.7747"
         x="754.31586"
         style="font-size:45px;line-height:1.2"
         sodipodi:role="line">ha'ga golow</tspan><tspan
         id="tspan61"
         y="1244.7747"
         x="754.31586"
         style="font-size:45px;line-height:1.2"
         sodipodi:role="line">dastewynnys</tspan><tspan
         id="tspan63"
         y="1298.7747"
         x="754.31586"
         style="font-size:45px;line-height:1.2"
         sodipodi:role="line">a gawsyas gwel</tspan><tspan
         id="tspan65"
         y="1352.7747"
         x="754.31586"
         style="font-size:45px;line-height:1.2"
         sodipodi:role="line">marthys teg yn</tspan><tspan
         id="tspan67"
         y="1406.7747"
         x="754.31586"
         style="font-size:45px;line-height:1.2"
         sodipodi:role="line">penneglos Zombiah.</tspan></text>
    <text
       id="text4246-3-5"
       y="2269.1292"
       x="1989.337"
       style="font-style:normal;font-variant:normal;font-weight:normal;font-stretch:normal;line-height:0%;font-family:Lavi;-inkscape-font-specification:Lavi;text-align:center;letter-spacing:0px;word-spacing:0px;text-anchor:middle;fill:#000000;fill-opacity:1;stroke:none"
       xml:space="preserve"><tspan
         id="tspan925"
         y="2269.1292"
         x="1989.337"
         style="font-size:45px;line-height:1.2"
         sodipodi:role="line">Yn-dann an golow</tspan><tspan
         id="tspan86"
         y="2323.1292"
         x="1989.337"
         style="font-size:45px;line-height:1.2"
         sodipodi:role="line">hudel ma, ow howethes</tspan><tspan
         id="tspan88"
         y="2377.1292"
         x="1989.337"
         style="font-size:45px;line-height:1.2"
         sodipodi:role="line">Coriander a dheuth</tspan><tspan
         id="tspan90"
         y="2431.1292"
         x="1989.337"
         style="font-size:45px;line-height:1.2"
         sodipodi:role="line">ha bos...</tspan></text>
    <text
       id="text4246-3-5-7"
       y="3037.1704"
       x="1790.938"
       style="font-style:normal;font-variant:normal;font-weight:normal;font-stretch:normal;line-height:0%;font-family:Lavi;-inkscape-font-specification:Lavi;text-align:center;letter-spacing:0px;word-spacing:0px;text-anchor:middle;fill:#000000;fill-opacity:1;stroke:none"
       xml:space="preserve"><tspan
         id="tspan963"
         y="3037.1704"
         x="1790.938"
         style="font-size:45px;line-height:1.2"
         sodipodi:role="line">Myghternes a Gwalicita</tspan></text>
  </g>
</svg>
