<?xml version="1.0" encoding="UTF-8" standalone="no"?>
<!-- Created with Inkscape (http://www.inkscape.org/) -->

<svg
   xmlns:dc="http://purl.org/dc/elements/1.1/"
   xmlns:cc="http://creativecommons.org/ns#"
   xmlns:rdf="http://www.w3.org/1999/02/22-rdf-syntax-ns#"
   xmlns:svg="http://www.w3.org/2000/svg"
   xmlns="http://www.w3.org/2000/svg"
   xmlns:xlink="http://www.w3.org/1999/xlink"
   xmlns:sodipodi="http://sodipodi.sourceforge.net/DTD/sodipodi-0.dtd"
   xmlns:inkscape="http://www.inkscape.org/namespaces/inkscape"
   id="svg2"
   version="1.1"
   inkscape:version="0.92.3 (2405546, 2018-03-11)"
   width="2481"
   height="3503"
   sodipodi:docname="E24P05.svg"
   inkscape:export-filename="/home/calimero/peppercarrot/webcomics/ep24_The-Unity-Tree/lang/en/E24P05.svg.png"
   inkscape:export-xdpi="45"
   inkscape:export-ydpi="45">
  <metadata
     id="metadata8">
    <rdf:RDF>
      <cc:Work
         rdf:about="">
        <dc:format>image/svg+xml</dc:format>
        <dc:type
           rdf:resource="http://purl.org/dc/dcmitype/StillImage" />
        <dc:title />
      </cc:Work>
    </rdf:RDF>
  </metadata>
  <defs
     id="defs6">
    <filter
       style="color-interpolation-filters:sRGB"
       id="filter4375-4-1-1-1-9-5-8-0-9"
       inkscape:label="Drop Shadow">
      <feFlood
         id="feFlood4377-7-9-0-8-1-7-3-9-2"
         flood-opacity="1"
         flood-color="rgb(200,55,55)"
         result="flood" />
      <feComposite
         id="feComposite4379-3-8-8-2-77-4-1-3-2"
         in2="SourceGraphic"
         in="flood"
         operator="in"
         result="composite1" />
      <feMorphology
         id="feMorphology4393-1-0-49-8-9-3-0-6-8"
         operator="dilate"
         radius="6.2000000000000002"
         result="result3" />
      <feComposite
         id="feComposite4385-9-5-7-0-8-8-7-0-9"
         in2="result3"
         in="SourceGraphic"
         operator="over"
         result="fbSourceGraphic" />
      <feColorMatrix
         result="fbSourceGraphicAlpha"
         in="fbSourceGraphic"
         values="0 0 0 -1 0 0 0 0 -1 0 0 0 0 -1 0 0 0 0 1 0"
         id="feColorMatrix4544-6-7" />
      <feTurbulence
         id="feTurbulence4546-2-3"
         type="fractalNoise"
         numOctaves="3"
         seed="37"
         baseFrequency="0.129 0.0050000000000000001"
         result="turbulence" />
      <feDisplacementMap
         id="feDisplacementMap4548-6-6"
         in2="turbulence"
         in="fbSourceGraphic"
         scale="6.6"
         yChannelSelector="G"
         xChannelSelector="R"
         result="fbSourceGraphic" />
      <feColorMatrix
         result="fbSourceGraphicAlpha"
         in="fbSourceGraphic"
         values="0 0 0 -1 0 0 0 0 -1 0 0 0 0 -1 0 0 0 0 1 0"
         id="feColorMatrix4670-1-1" />
      <feFlood
         id="feFlood4672-8-2"
         flood-opacity="1"
         flood-color="rgb(80,22,22)"
         result="flood"
         in="fbSourceGraphic" />
      <feComposite
         id="feComposite4674-7-9"
         in2="fbSourceGraphic"
         in="flood"
         operator="in"
         result="composite1" />
      <feGaussianBlur
         id="feGaussianBlur4676-9-3"
         in="composite1"
         stdDeviation="0"
         result="blur" />
      <feOffset
         id="feOffset4678-2-1"
         dx="6"
         dy="6"
         result="offset" />
      <feComposite
         id="feComposite4680-0-9"
         in2="offset"
         in="fbSourceGraphic"
         operator="over"
         result="composite2" />
    </filter>
    <filter
       style="color-interpolation-filters:sRGB"
       id="filter4375-4-1-1-1-9-5-8"
       inkscape:label="Drop Shadow">
      <feFlood
         id="feFlood4377-7-9-0-8-1-7-3"
         flood-opacity="1"
         flood-color="rgb(200,55,55)"
         result="flood" />
      <feComposite
         id="feComposite4379-3-8-8-2-77-4-1"
         in2="SourceGraphic"
         in="flood"
         operator="in"
         result="composite1" />
      <feMorphology
         id="feMorphology4393-1-0-49-8-9-3-0"
         operator="dilate"
         radius="6.2000000000000002"
         result="result3" />
      <feComposite
         id="feComposite4385-9-5-7-0-8-8-7"
         in2="result3"
         in="SourceGraphic"
         operator="over"
         result="fbSourceGraphic" />
      <feColorMatrix
         result="fbSourceGraphicAlpha"
         in="fbSourceGraphic"
         values="0 0 0 -1 0 0 0 0 -1 0 0 0 0 -1 0 0 0 0 1 0"
         id="feColorMatrix4544" />
      <feTurbulence
         id="feTurbulence4546"
         type="fractalNoise"
         numOctaves="3"
         seed="37"
         baseFrequency="0.129 0.0050000000000000001"
         result="turbulence" />
      <feDisplacementMap
         id="feDisplacementMap4548"
         in2="turbulence"
         in="fbSourceGraphic"
         scale="6.6"
         yChannelSelector="G"
         xChannelSelector="R"
         result="fbSourceGraphic" />
      <feColorMatrix
         result="fbSourceGraphicAlpha"
         in="fbSourceGraphic"
         values="0 0 0 -1 0 0 0 0 -1 0 0 0 0 -1 0 0 0 0 1 0"
         id="feColorMatrix4670" />
      <feFlood
         id="feFlood4672"
         flood-opacity="1"
         flood-color="rgb(80,22,22)"
         result="flood"
         in="fbSourceGraphic" />
      <feComposite
         id="feComposite4674"
         in2="fbSourceGraphic"
         in="flood"
         operator="in"
         result="composite1" />
      <feGaussianBlur
         id="feGaussianBlur4676"
         in="composite1"
         stdDeviation="0"
         result="blur" />
      <feOffset
         id="feOffset4678"
         dx="6"
         dy="6"
         result="offset" />
      <feComposite
         id="feComposite4680"
         in2="offset"
         in="fbSourceGraphic"
         operator="over"
         result="composite2" />
    </filter>
    <filter
       inkscape:collect="always"
       style="color-interpolation-filters:sRGB"
       id="filter4210"
       x="-0.0015578248"
       width="1.0031157"
       y="-0.0045528179"
       height="1.0091056">
      <feGaussianBlur
         inkscape:collect="always"
         stdDeviation="0.2079876"
         id="feGaussianBlur4212" />
    </filter>
  </defs>
  <sodipodi:namedview
     pagecolor="#ffffff"
     bordercolor="#666666"
     borderopacity="1"
     objecttolerance="10"
     gridtolerance="10"
     guidetolerance="10"
     inkscape:pageopacity="0"
     inkscape:pageshadow="2"
     inkscape:window-width="1299"
     inkscape:window-height="713"
     id="namedview4"
     showgrid="false"
     inkscape:zoom="0.42118673"
     inkscape:cx="1216.7961"
     inkscape:cy="735.80857"
     inkscape:window-x="67"
     inkscape:window-y="27"
     inkscape:window-maximized="1"
     inkscape:current-layer="layer3"
     inkscape:snap-global="false" />
  <g
     inkscape:groupmode="layer"
     id="layer2"
     inkscape:label="artwork"
     sodipodi:insensitive="true">
    <image
       sodipodi:absref="/home/emmiline/Documents/git/webcomics/ep24_The-Unity-Tree/lang/da/../gfx_Pepper-and-Carrot_by-David-Revoy_E24P05.png"
       xlink:href="../gfx_Pepper-and-Carrot_by-David-Revoy_E24P05.png"
       y="0"
       x="0"
       id="image10"
       height="3503"
       width="2481" />
  </g>
  <g
     inkscape:groupmode="layer"
     id="layer3"
     inkscape:label="speechbubbles"
     style="display:inline">
    <path
       style="color:#000000;display:inline;overflow:visible;visibility:visible;fill:#ffffff;fill-opacity:1;fill-rule:nonzero;stroke:none;stroke-width:1.03505945px;marker:none;enable-background:accumulate"
       d="m 945.5533,206.67198 c 10.75769,-62.02109 100.9886,-105.27049 328.1115,-87.68503 121.6594,9.41967 259.979,17.10926 245.6355,108.00236 -14.3437,90.893 -213.3622,83.40775 -254.6001,84.47707 -41.2382,1.06944 -254.8162,-14.01623 -290.4595,-45.98127 -22.31179,-20.00925 -30.48033,-39.56512 -28.6874,-58.81313 z"
       id="path4546-6"
       inkscape:connector-curvature="0"
       sodipodi:nodetypes="cssssc" />
    <path
       style="color:#000000;display:inline;overflow:visible;visibility:visible;fill:#ffffff;fill-opacity:1;fill-rule:nonzero;stroke:none;stroke-width:1.35797298px;marker:none;enable-background:accumulate"
       d="m 939.01569,394.47426 c 11.07221,-82.46259 103.94261,-139.96658 337.70951,-116.58514 125.2183,12.52429 267.584,22.74831 252.821,143.59887 -14.7634,120.85043 -219.6035,110.8981 -262.0478,112.31987 -42.4447,1.42193 -262.2704,-18.63582 -298.9562,-61.13622 -22.96445,-26.60411 -31.37192,-52.6054 -29.52651,-78.19738 z"
       id="path4546-6-5"
       inkscape:connector-curvature="0"
       sodipodi:nodetypes="cssssc" />
    <path
       style="fill:#ffffff;stroke:none;stroke-width:1"
       d="m 168.74575,2316.7158 c -0.54397,-18.6867 17.01131,-70.3849 92.25367,-64.4369 75.24236,5.948 98.46191,27.2341 100.10505,60.4716 2.59938,52.5808 -37.25531,65.3212 -94.20677,67.3683 -58.71078,2.1104 -94.94112,-16.1383 -98.15195,-63.403 z"
       id="path3280"
       inkscape:connector-curvature="0"
       sodipodi:nodetypes="csssc" />
    <path
       style="fill:#ffffff;stroke:none;stroke-width:0.85659713"
       d="m 106.6367,2528.1746 c -1.08476,-54.529 33.92301,-205.3875 183.96716,-188.0309 150.04413,17.3567 197.5631,79.4437 199.62393,176.46 3.22175,151.6665 4.08903,219.5549 -238.86915,210.7255 -123.33717,-4.4822 -138.31908,-57.0463 -144.72194,-199.1546 z"
       id="path3280-5"
       inkscape:connector-curvature="0"
       sodipodi:nodetypes="csssc" />
    <path
       style="fill:#ffffff;stroke:none;stroke-width:1.04111636"
       d="m 108.4932,2820.1134 c -0.93557,-34.1938 29.2568,-128.7931 158.66198,-117.909 129.40516,10.8835 170.38775,49.8168 172.16513,110.653 2.77858,95.1059 3.60522,136.1533 -206.01206,132.1402 C 132.20603,2943.0622 114.01532,2906.6 108.4932,2820.1134 Z"
       id="path3280-5-9"
       inkscape:connector-curvature="0"
       sodipodi:nodetypes="csssc" />
    <path
       style="color:#000000;display:inline;overflow:visible;visibility:visible;fill:#ffffff;fill-opacity:1;fill-rule:nonzero;stroke:none;stroke-width:1px;marker:none;enable-background:accumulate"
       d="m 508.60291,2797.2517 c -14.75738,52.3452 -33.97784,59.8163 -47.29721,66.911 -2.99609,-4.2927 -9.494,-10.7643 -9.494,-10.7643 0,0 -25.03044,16.8093 -36.39159,19.4555 -11.36113,2.6461 -15.10988,-13.4489 -15.10988,-13.4489 0,0 47.94685,-34.1242 56.37661,-45.0707 7.82099,12.1521 12.93111,16.9506 14.25419,22.6311 8.74137,-1.0378 31.94301,-21.4136 37.66188,-39.7137 z"
       id="path4456"
       inkscape:connector-curvature="0" />
    <path
       style="fill:#ffffff;stroke:none;stroke-width:0.91655236"
       d="m 1464.1091,2415.764 c -1.5414,-26.7253 26.0954,-93.6292 160.9065,-88.5969 134.811,5.0323 177.0048,34.4291 180.9554,81.9332 6.2495,75.1501 -64.6744,95.2328 -166.5149,100.7991 -104.9865,5.7383 -176.9764,-45.8472 -175.347,-94.1354 z"
       id="path3280-8"
       inkscape:connector-curvature="0"
       sodipodi:nodetypes="csssc" />
    <path
       style="fill:#ffffff;stroke:none;stroke-width:1.01856339"
       d="m 1477.1601,2606.5833 c 10.9648,-64.8554 44.466,-148.8003 274.1816,-141.2336 229.7156,7.5664 302.7853,51.665 308.3446,123.1934 10.6491,137.015 -104.8972,121.8392 -278.4314,130.2087 -178.8949,8.628 -320.5119,-17.1235 -304.0948,-112.1685 z"
       id="path3280-8-2"
       inkscape:connector-curvature="0"
       sodipodi:nodetypes="csssc" />
    <path
       style="color:#000000;display:inline;overflow:visible;visibility:visible;fill:#ffffff;fill-opacity:1;fill-rule:nonzero;stroke:none;stroke-width:1px;marker:none;enable-background:accumulate"
       d="m 1737.0918,2693.1341 c 14.3116,13.119 20.5898,27.3224 21.7824,31.4966 1.1926,4.1742 -2.1039,30.5204 2.0703,35.291 4.1742,4.7705 19.6785,5.3668 21.4675,8.9448 1.7889,3.5779 -3.5779,22.0637 0,25.6416 3.5779,3.5779 28.6232,13.119 29.8159,16.1006 1.1926,2.9816 7.7521,19.0822 19.6784,31.6048 -11.33,-31.6048 -7.7521,-38.1643 -11.9263,-42.9348 -4.1742,-4.7706 -15.9274,-10.1807 -18.3127,-15.5476 -2.3853,-5.3668 6.711,-25.7283 0.086,-28.0269 -4.7705,-4.7705 -19.8083,-10.2673 -19.8083,-10.2673 4.1743,-4.7706 18.356,-27.8538 -1.3225,-55.8807 -19.6785,-28.027 -43.5312,3.5779 -43.5312,3.5779 z"
       id="path5050"
       inkscape:connector-curvature="0"
       sodipodi:nodetypes="csccscccccccc" />
    <path
       style="color:#000000;display:inline;overflow:visible;visibility:visible;fill:#ffffff;fill-opacity:1;fill-rule:nonzero;stroke:none;stroke-width:0.97641122px;marker:none;enable-background:accumulate"
       d="m 1393.3307,3193.1142 c -6.9652,-36.8205 11.609,-134.6248 154.3981,-126.5703 142.7891,8.0544 166.0069,54.08 169.4895,67.8876 3.4826,13.8077 33.6657,92.0512 -77.7794,112.7627 -111.4453,20.7115 -211.2815,-1.1507 -246.1082,-54.08 z"
       id="path3525"
       inkscape:connector-curvature="0" />
    <path
       style="color:#000000;display:inline;overflow:visible;visibility:visible;fill:#ffffff;fill-opacity:1;fill-rule:nonzero;stroke:none;stroke-width:1px;marker:none;enable-background:accumulate"
       d="m 1518.4603,3003.92 c 24.221,32.6718 31.0089,45.6583 8.1243,87.1458 -22.8847,41.4875 -7.3195,49.5776 -7.3195,49.5776 l 28.2503,-15.3766 c 0,0 42.659,-91.8473 -29.0551,-121.3468 z"
       id="path3072"
       inkscape:connector-curvature="0" />
    <path
       style="color:#000000;display:inline;overflow:visible;visibility:visible;fill:#ffffff;fill-opacity:1;fill-rule:nonzero;stroke:none;stroke-width:1.46151018px;marker:none;enable-background:accumulate"
       d="m 1701.4635,382.93369 c -2.3592,-87.96774 100.9252,-141.54913 384.351,-126.98834 147.0231,7.55321 325.8959,16.23157 301.6089,148.30247 -21.4058,116.40276 -261.5463,99.16696 -310.1107,100.54056 -48.5653,1.37375 -300.0892,-5.24615 -342.0649,-46.30664 -26.2757,-25.70278 -35.8957,-50.82313 -33.7843,-75.54805 z"
       id="path4546-6-5-3"
       inkscape:connector-curvature="0"
       sodipodi:nodetypes="cssssc" />
    <path
       style="display:inline;fill:#ffffff;stroke:none;stroke-width:0.99999994"
       d="m 1904.6699,658.17317 c 51.4934,-25.05742 101.3335,-84.50569 87.939,-140.05224 -8.1157,-33.6558 -17.2505,-51.47851 -17.2505,-51.47851 l 37.7708,-2.39424 11.5884,36.59761 c 0,0 3.2849,108.24957 -120.0477,157.32738 z"
       id="path3063-1-6"
       inkscape:connector-curvature="0"
       sodipodi:nodetypes="cscccc" />
    <path
       style="display:inline;fill:#ffffff;stroke:none;stroke-width:0.99999994"
       d="m 1251.2541,685.09232 c -48.6175,-23.27518 -83.2149,-109.49172 -49.7683,-157.70546 19.7334,-28.44595 29.6777,-45.4626 29.6777,-45.4626 l -35.9455,-11.84422 c -83.024,107.75331 -0.6527,193.21215 56.0361,215.01228 z"
       id="path3063-1"
       inkscape:connector-curvature="0"
       sodipodi:nodetypes="csccc" />
  </g>
  <g
     inkscape:groupmode="layer"
     id="layer1"
     inkscape:label="txt"
     style="display:inline">
    <text
       xml:space="preserve"
       style="font-style:normal;font-variant:normal;font-weight:normal;font-stretch:normal;line-height:0%;font-family:Lavi;-inkscape-font-specification:Lavi;letter-spacing:0px;word-spacing:0px;fill:#ffffff;fill-opacity:1;stroke:#c83737;stroke-width:0.99236238;stroke-miterlimit:4;stroke-dasharray:none;stroke-opacity:1;filter:url(#filter4375-4-1-1-1-9-5-8-0-9)"
       x="787.65729"
       y="1584.5073"
       id="text4580-6-0-2-4"
       transform="matrix(0.83434398,-0.14790328,-0.40858731,0.88612324,531.23181,-1085.7696)"><tspan
         sodipodi:role="line"
         id="tspan4582-1-1-3-7"
         x="787.65729"
         y="1584.5073"
         style="font-size:70px;line-height:1.25;fill:#ffffff;fill-opacity:1;stroke:#c83737;stroke-opacity:1"><tspan
           style="font-size:93.14950562px;fill:#ffffff;fill-opacity:1;stroke:#c83737;stroke-opacity:1"
           id="tspan4315-8-7-8">FFlop !</tspan><tspan
           style="font-size:114.73223114px;fill:#ffffff;fill-opacity:1;stroke:#c83737;stroke-opacity:1"
           id="tspan4313-2-5-4">!</tspan></tspan></text>
    <text
       xml:space="preserve"
       style="font-style:normal;font-variant:normal;font-weight:normal;font-stretch:normal;line-height:0%;font-family:Lavi;-inkscape-font-specification:Lavi;text-align:center;letter-spacing:0px;word-spacing:0px;text-anchor:middle;fill:#000000;fill-opacity:1;stroke:none"
       x="1231.6572"
       y="365.46378"
       id="text4246"><tspan
         sodipodi:role="line"
         style="font-size:45px;line-height:1.25"
         x="1231.6572"
         y="365.46378"
         id="tspan922">Jeg ser intet problem i at</tspan><tspan
         sodipodi:role="line"
         style="font-size:45px;line-height:1.25"
         x="1231.6572"
         y="421.71378"
         id="tspan109">tage dette træ med tilbage</tspan><tspan
         sodipodi:role="line"
         style="font-size:45px;line-height:1.25"
         x="1231.6572"
         y="477.96378"
         id="tspan111">til den virkelige verden...</tspan></text>
    <text
       xml:space="preserve"
       style="font-style:normal;font-variant:normal;font-weight:normal;font-stretch:normal;line-height:0%;font-family:Lavi;-inkscape-font-specification:Lavi;text-align:center;letter-spacing:0px;word-spacing:0px;text-anchor:middle;fill:#000000;fill-opacity:1;stroke:none"
       x="1234.4897"
       y="188.79892"
       id="text4246-7"><tspan
         sodipodi:role="line"
         style="font-size:45px;line-height:1.25"
         x="1234.4897"
         y="188.79892"
         id="tspan881-3">Så! Den rette størrelse.</tspan><tspan
         sodipodi:role="line"
         style="font-size:45px;line-height:1.25"
         x="1234.4897"
         y="245.04892"
         id="tspan906">Nu er det perfekt!</tspan></text>
    <text
       xml:space="preserve"
       style="font-style:normal;font-variant:normal;font-weight:normal;font-stretch:normal;line-height:0%;font-family:Lavi;-inkscape-font-specification:Lavi;text-align:center;letter-spacing:0px;word-spacing:0px;text-anchor:middle;fill:#000000;fill-opacity:1;stroke:none"
       x="263.42697"
       y="2326.1411"
       id="text4246-7-6"><tspan
         sodipodi:role="line"
         style="font-size:45px;line-height:1.25"
         x="263.42697"
         y="2326.1411"
         id="tspan906-9">Nå!</tspan></text>
    <text
       xml:space="preserve"
       style="font-style:normal;font-variant:normal;font-weight:normal;font-stretch:normal;line-height:0%;font-family:Lavi;-inkscape-font-specification:Lavi;text-align:center;letter-spacing:0px;word-spacing:0px;text-anchor:middle;fill:#000000;fill-opacity:1;stroke:none"
       x="298.66428"
       y="2418.4778"
       id="text4246-7-6-1"><tspan
         sodipodi:role="line"
         style="font-size:45px;line-height:1.25"
         x="298.66428"
         y="2418.4778"
         id="tspan997">Tid til at</tspan><tspan
         sodipodi:role="line"
         style="font-size:45px;line-height:1.25"
         x="298.66428"
         y="2474.7278"
         id="tspan157">tage tilbage til</tspan><tspan
         sodipodi:role="line"
         style="font-size:45px;line-height:1.25"
         x="298.66428"
         y="2530.9778"
         id="tspan161">virkeligheden,</tspan><tspan
         sodipodi:role="line"
         style="font-size:45px;line-height:1.25"
         x="298.66428"
         y="2587.2278"
         id="tspan163">så de kan se, hvor</tspan><tspan
         sodipodi:role="line"
         style="font-size:45px;line-height:1.25"
         x="298.66428"
         y="2643.4778"
         id="tspan165">kreativt, kaos</tspan><tspan
         sodipodi:role="line"
         style="font-size:45px;line-height:1.25"
         x="298.66428"
         y="2699.7278"
         id="tspan167">kan være!</tspan></text>
    <text
       xml:space="preserve"
       style="font-style:normal;font-variant:normal;font-weight:normal;font-stretch:normal;line-height:0%;font-family:Lavi;-inkscape-font-specification:Lavi;letter-spacing:0px;word-spacing:0px;fill:#ffffff;fill-opacity:1;stroke:#c83737;stroke-width:0.99236238;stroke-miterlimit:4;stroke-dasharray:none;stroke-opacity:1;filter:url(#filter4375-4-1-1-1-9-5-8)"
       x="787.65729"
       y="1584.5073"
       id="text4580-6-0"
       transform="matrix(0.84200562,-0.09503576,-0.46361166,0.85861645,1426.8384,990.64508)"><tspan
         sodipodi:role="line"
         id="tspan4582-1-1"
         x="787.65729"
         y="1584.5073"
         style="font-size:70px;line-height:1.25;fill:#ffffff;fill-opacity:1;stroke:#c83737;stroke-opacity:1"><tspan
           style="font-size:93.14950562px;fill:#ffffff;fill-opacity:1;stroke:#c83737;stroke-opacity:1"
           id="tspan4315-8">Pof!</tspan><tspan
           style="font-size:114.73223114px;fill:#ffffff;fill-opacity:1;stroke:#c83737;stroke-opacity:1"
           id="tspan4313-2">!</tspan></tspan></text>
    <text
       xml:space="preserve"
       style="font-style:normal;font-variant:normal;font-weight:normal;font-stretch:normal;line-height:0%;font-family:Lavi;-inkscape-font-specification:Lavi;text-align:center;letter-spacing:0px;word-spacing:0px;text-anchor:middle;fill:#000000;fill-opacity:1;stroke:none"
       x="1637.5579"
       y="2396.8755"
       id="text4246-7-6-1-7"><tspan
         sodipodi:role="line"
         style="font-size:45px;line-height:1.25"
         x="1637.5579"
         y="2396.8755"
         id="tspan1080">Hm, Pepper</tspan><tspan
         sodipodi:role="line"
         style="font-size:45px;line-height:1.25"
         x="1637.5579"
         y="2453.1255"
         id="tspan1016">er tilbage.</tspan></text>
    <text
       xml:space="preserve"
       style="font-style:normal;font-variant:normal;font-weight:normal;font-stretch:normal;line-height:0%;font-family:Lavi;-inkscape-font-specification:Lavi;text-align:center;letter-spacing:0px;word-spacing:0px;text-anchor:middle;fill:#000000;fill-opacity:1;stroke:none"
       x="1773.2721"
       y="2554.6619"
       id="text4246-7-6-1-7-6"><tspan
         sodipodi:role="line"
         style="font-size:45px;line-height:1.25"
         x="1773.2721"
         y="2554.6619"
         id="tspan1111">Flot, Cayenne.</tspan><tspan
         sodipodi:role="line"
         style="font-size:45px;line-height:1.25"
         x="1773.2721"
         y="2610.9119"
         id="tspan1027">Dine opdragelsesmetoder</tspan><tspan
         sodipodi:role="line"
         style="font-size:45px;line-height:1.25"
         x="1773.2721"
         y="2667.1619"
         id="tspan106">har båret frugt.</tspan></text>
    <text
       xml:space="preserve"
       style="font-style:normal;font-variant:normal;font-weight:normal;font-stretch:normal;line-height:0%;font-family:Lavi;-inkscape-font-specification:Lavi;text-align:center;letter-spacing:0px;word-spacing:0px;text-anchor:middle;fill:#000000;fill-opacity:1;stroke:none"
       x="1561.8807"
       y="3143.0315"
       id="text4246-7-6-1-7-1"><tspan
         sodipodi:role="line"
         style="font-size:45px;line-height:1.25"
         x="1561.8807"
         y="3143.0315"
         id="tspan1034">Tak,</tspan><tspan
         sodipodi:role="line"
         style="font-size:45px;line-height:1.25"
         x="1561.8807"
         y="3199.2815"
         id="tspan186">mester Timian.</tspan></text>
    <text
       xml:space="preserve"
       style="font-style:normal;font-variant:normal;font-weight:normal;font-stretch:normal;line-height:0%;font-family:Lavi;-inkscape-font-specification:Lavi;text-align:center;letter-spacing:0px;word-spacing:0px;text-anchor:middle;fill:#000000;fill-opacity:1;stroke:none"
       x="272.42892"
       y="2773.5068"
       id="text4246-7-6-1-9"><tspan
         sodipodi:role="line"
         style="font-size:45px;line-height:1.25"
         x="272.42892"
         y="2773.5068"
         id="tspan1010">Jeg glæder</tspan><tspan
         sodipodi:role="line"
         style="font-size:45px;line-height:1.25"
         x="272.42892"
         y="2829.7568"
         id="tspan180">mig til at se</tspan><tspan
         sodipodi:role="line"
         style="font-size:45px;line-height:1.25"
         x="272.42892"
         y="2886.0068"
         id="tspan182">deres ansigter!</tspan></text>
    <text
       xml:space="preserve"
       style="font-style:normal;font-variant:normal;font-weight:normal;font-stretch:normal;line-height:0%;font-family:Lavi;-inkscape-font-specification:Lavi;text-align:center;letter-spacing:0px;word-spacing:0px;text-anchor:middle;display:inline;opacity:0.35800003;fill:#000000;fill-opacity:1;stroke:none;stroke-width:1.38229895;filter:url(#filter4210)"
       x="1174.0292"
       y="1085.962"
       id="text4246-5"
       transform="matrix(0.52402883,-0.06428355,0.03260008,0.44795473,566.67242,2644.5154)"><tspan
         sodipodi:role="line"
         style="font-style:normal;font-variant:normal;font-weight:normal;font-stretch:normal;font-size:45.00812149px;line-height:1.25;font-family:Fondamento;-inkscape-font-specification:Fondamento;stroke:#000000;stroke-width:4.69086981;stroke-miterlimit:4;stroke-dasharray:none;stroke-opacity:1"
         x="1174.0292"
         y="1085.962"
         id="tspan4217">Den KOMONANSKE</tspan><tspan
         sodipodi:role="line"
         style="font-style:normal;font-variant:normal;font-weight:normal;font-stretch:normal;font-size:45.00812149px;line-height:1.25;font-family:Fondamento;-inkscape-font-specification:Fondamento;stroke:#000000;stroke-width:4.69086981;stroke-miterlimit:4;stroke-dasharray:none;stroke-opacity:1"
         x="1179.5233"
         y="1142.2222"
         id="tspan4207"> </tspan><tspan
         sodipodi:role="line"
         style="font-style:normal;font-variant:normal;font-weight:normal;font-stretch:normal;font-size:45.00812149px;line-height:1.25;font-family:Fondamento;-inkscape-font-specification:Fondamento;stroke:#000000;stroke-width:4.69086981;stroke-miterlimit:4;stroke-dasharray:none;stroke-opacity:1"
         x="1179.5233"
         y="1198.4823"
         id="tspan4209"> </tspan></text>
    <text
       xml:space="preserve"
       style="font-style:normal;font-variant:normal;font-weight:normal;font-stretch:normal;line-height:0%;font-family:Lavi;-inkscape-font-specification:Lavi;text-align:center;letter-spacing:0px;word-spacing:0px;text-anchor:middle;fill:#000000;fill-opacity:1;stroke:none"
       x="2043.5706"
       y="335.3389"
       id="text4246-75"><tspan
         sodipodi:role="line"
         style="font-size:45px;line-height:1.25"
         x="2043.5706"
         y="335.3389"
         id="tspan958">Det er bare et enheds-træ,</tspan><tspan
         sodipodi:role="line"
         style="font-size:45px;line-height:1.25"
         x="2043.5706"
         y="391.5889"
         id="tspan124">ikke noget fra en</tspan><tspan
         sodipodi:role="line"
         style="font-size:45px;line-height:1.25"
         x="2043.5706"
         y="447.8389"
         id="tspan102">”Ødelæggelses-trylleformular”.</tspan></text>
  </g>
</svg>
