<?xml version="1.0" encoding="UTF-8" standalone="no"?>
<!-- Created with Inkscape (http://www.inkscape.org/) -->

<svg
   xmlns:dc="http://purl.org/dc/elements/1.1/"
   xmlns:cc="http://creativecommons.org/ns#"
   xmlns:rdf="http://www.w3.org/1999/02/22-rdf-syntax-ns#"
   xmlns:svg="http://www.w3.org/2000/svg"
   xmlns="http://www.w3.org/2000/svg"
   xmlns:xlink="http://www.w3.org/1999/xlink"
   xmlns:sodipodi="http://sodipodi.sourceforge.net/DTD/sodipodi-0.dtd"
   xmlns:inkscape="http://www.inkscape.org/namespaces/inkscape"
   id="svg2"
   version="1.1"
   inkscape:version="0.92.1 r15371"
   width="2481"
   height="3503"
   sodipodi:docname="E28P09.svg"
   inkscape:export-filename="/home/dash/Downloads/pepper carrot EPS/ep28_The-Festivities_lang-pack/lang/ph/E28P09.svg.png"
   inkscape:export-xdpi="96"
   inkscape:export-ydpi="96">
  <metadata
     id="metadata8">
    <rdf:RDF>
      <cc:Work
         rdf:about="">
        <dc:format>image/svg+xml</dc:format>
        <dc:type
           rdf:resource="http://purl.org/dc/dcmitype/StillImage" />
        <dc:title />
      </cc:Work>
    </rdf:RDF>
  </metadata>
  <defs
     id="defs6">
    <inkscape:path-effect
       effect="bspline"
       id="path-effect4633"
       is_visible="true"
       weight="33.333333"
       steps="2"
       helper_size="0"
       apply_no_weight="true"
       apply_with_weight="true"
       only_selected="false" />
    <inkscape:path-effect
       effect="bspline"
       id="path-effect4626"
       is_visible="true"
       weight="33.333333"
       steps="2"
       helper_size="0"
       apply_no_weight="true"
       apply_with_weight="true"
       only_selected="false" />
    <inkscape:path-effect
       effect="bspline"
       id="path-effect4620"
       is_visible="true"
       weight="33.333333"
       steps="2"
       helper_size="0"
       apply_no_weight="true"
       apply_with_weight="true"
       only_selected="false" />
    <filter
       inkscape:collect="always"
       style="color-interpolation-filters:sRGB"
       id="filter5047"
       x="-0.023497469"
       width="1.0469949"
       y="-0.013073631"
       height="1.0261473">
      <feGaussianBlur
         inkscape:collect="always"
         stdDeviation="0.7292837"
         id="feGaussianBlur5049" />
    </filter>
    <filter
       inkscape:collect="always"
       style="color-interpolation-filters:sRGB"
       id="filter5092"
       x="-0.088954034"
       width="1.1779081"
       y="-0.049493239"
       height="1.0989865">
      <feGaussianBlur
         inkscape:collect="always"
         stdDeviation="2.7608599"
         id="feGaussianBlur5094" />
    </filter>
  </defs>
  <sodipodi:namedview
     pagecolor="#ffffff"
     bordercolor="#666666"
     borderopacity="1"
     objecttolerance="10"
     gridtolerance="10"
     guidetolerance="10"
     inkscape:pageopacity="0"
     inkscape:pageshadow="2"
     inkscape:window-width="1920"
     inkscape:window-height="997"
     id="namedview4"
     showgrid="false"
     inkscape:zoom="0.36415091"
     inkscape:cx="1039.849"
     inkscape:cy="3133.4051"
     inkscape:window-x="0"
     inkscape:window-y="0"
     inkscape:window-maximized="1"
     inkscape:current-layer="layer3" />
  <g
     inkscape:groupmode="layer"
     id="layer2"
     inkscape:label="artwork"
     sodipodi:insensitive="true">
    <image
       sodipodi:absref="/home/dash/Downloads/pepper carrot EPS/ep28_The-Festivities_lang-pack/lang/ph/../gfx_Pepper-and-Carrot_by-David-Revoy_E28P09.png"
       xlink:href="../gfx_Pepper-and-Carrot_by-David-Revoy_E28P09.png"
       width="2481"
       height="3503"
       id="image10"
       x="0"
       y="0" />
  </g>
  <g
     inkscape:groupmode="layer"
     id="layer3"
     inkscape:label="speechbubbles">
    <path
       style="fill:#ffffff;fill-rule:evenodd;stroke:none;stroke-width:1.11447954px;stroke-linecap:butt;stroke-linejoin:miter;stroke-opacity:1"
       d="m 1068.9817,216.86999 c 18.3925,-87.89035 45.2737,-120.176606 77.8143,-127.351328 32.5405,-7.174719 149.9693,-5.381042 189.5838,-3.587353 39.6145,1.793677 94.7919,19.730481 103.2807,78.921941 8.4889,59.19146 8.4889,195.51119 -14.1481,229.59111 -22.6368,34.07993 -74.9846,55.60411 -127.3324,53.81043 -52.3477,-1.79369 -168.3616,16.14311 -199.4874,-44.84202 -31.1257,-60.98513 -32.5405,-141.70076 -29.7109,-186.54278 z"
       id="path889"
       inkscape:connector-curvature="0" />
    <path
       style="fill:#ffffff;fill-rule:evenodd;stroke:none;stroke-width:1px;stroke-linecap:butt;stroke-linejoin:miter;stroke-opacity:1"
       d="m 1115.0193,506.87426 c 34.1115,-49.03527 51.8779,-64.6697 63.2484,-73.19757 -2.8427,27.00493 -2.8427,32.69017 4.2639,32.69017 7.1066,0 170.5574,-137.15661 170.5574,-137.15661 l -87.4106,23.45165 c 0,0 -32.6902,47.61396 -46.9033,61.11642 -14.2132,13.50246 -29.1369,24.87296 -29.1369,24.87296 0,0 6.3959,-14.92378 4.2639,-19.89837 -2.132,-4.97459 -20.609,-17.7664 -78.8828,88.12135 z"
       id="path891"
       inkscape:connector-curvature="0" />
    <path
       style="fill:#ffffff;fill-rule:evenodd;stroke:none;stroke-width:1.40166497px;stroke-linecap:butt;stroke-linejoin:miter;stroke-opacity:1"
       d="m 2338.8015,90.067509 c 71.3878,9.5915 69.0422,34.324601 70.6477,51.487001 1.6057,17.1623 1.6057,171.6234 -3.2112,196.141 -4.817,24.5177 -32.1127,46.5835 -72.2533,49.0353 -40.1409,2.4517 -103.3905,6.761 -134.8731,-28.6039 -33.6784,-37.8314 -32.1126,-187.1513 -9.6337,-227.1967 22.4787,-40.045501 77.9357,-50.454201 149.3236,-40.862701 z"
       id="path893"
       inkscape:connector-curvature="0"
       sodipodi:nodetypes="zsscssz" />
    <path
       style="fill:#ffffff;fill-rule:evenodd;stroke:none;stroke-width:1px;stroke-linecap:butt;stroke-linejoin:miter;stroke-opacity:1"
       d="m 2267.1497,172.17705 c -25.3365,54.38062 -31.9986,68.79 -36.9423,79.91331 -4.9437,11.12331 1.2237,26.43947 21.9453,22.50245 28.8196,-5.4756 85.7031,8.41081 27.3562,113.25288 42.6394,-101.96369 -1.8539,-98.25592 -18.5389,-93.93019 -16.6849,4.32573 -76.0093,8.65147 -60.5602,-45.11121 15.449,-53.76267 50.0549,-124.2103 50.0549,-124.2103 l 25.9544,16.68497 z"
       id="path895"
       inkscape:connector-curvature="0"
       sodipodi:nodetypes="csscccccc" />
    <path
       style="fill:#ffffff;fill-rule:evenodd;stroke:none;stroke-width:1.15614307px;stroke-linecap:butt;stroke-linejoin:miter;stroke-opacity:1"
       d="m 2262.4465,768.48326 c 91.6848,10.9731 119.2581,104.9921 109.7322,201.25986 -9.526,96.26778 -69.0266,145.89678 -121.5691,147.62838 -43.59,0.3742 -110.5209,-12.1302 -124.3354,-111.1521 -13.8147,-99.02194 4.034,-246.54794 136.1723,-237.73614 z"
       id="path912"
       inkscape:connector-curvature="0"
       sodipodi:nodetypes="cscsc" />
    <text
       xml:space="preserve"
       style="font-style:normal;font-variant:normal;font-weight:normal;font-stretch:normal;font-size:43.85733414px;line-height:0%;font-family:Lavi;-inkscape-font-specification:'Lavi, Normal';font-variant-ligatures:normal;font-variant-caps:normal;font-variant-numeric:normal;font-feature-settings:normal;text-align:center;letter-spacing:0px;word-spacing:0px;writing-mode:lr-tb;text-anchor:middle;display:inline;fill:#241c1c;fill-opacity:1;stroke:#000000;stroke-width:0.82200003;stroke-miterlimit:4;stroke-dasharray:none;stroke-opacity:1"
       x="2421.6179"
       y="3314.9802"
       id="text4213"
       transform="matrix(0.96049651,0,-0.32716292,1.0411282,0,0)"><tspan
         sodipodi:role="line"
         id="tspan3562"
         x="2421.6179"
         y="3314.9802"
         style="font-style:normal;font-variant:normal;font-weight:normal;font-stretch:normal;font-size:43.85733414px;line-height:1.25;font-family:Lavi;-inkscape-font-specification:'Lavi, Normal';font-variant-ligatures:normal;font-variant-caps:normal;font-variant-numeric:normal;font-feature-settings:normal;text-align:center;writing-mode:lr-tb;text-anchor:middle;stroke-width:0.82200003">ITUTULOY...</tspan></text>
    <text
       xml:space="preserve"
       style="font-style:normal;font-variant:normal;font-weight:normal;font-stretch:normal;font-size:122.35467529px;line-height:0%;font-family:Lavi;-inkscape-font-specification:'Lavi, Normal';font-variant-ligatures:normal;font-variant-caps:normal;font-variant-numeric:normal;font-feature-settings:normal;text-align:center;letter-spacing:0px;word-spacing:0px;writing-mode:lr-tb;text-anchor:middle;display:inline;fill:#ff8080;fill-opacity:1;stroke-width:1.14974546"
       x="1348.1449"
       y="2295.9089"
       id="text4213-9-1"
       transform="matrix(1.1043265,0,-0.07160062,0.90552929,0,0)"
       inkscape:transform-center-x="-2679.6858"
       inkscape:transform-center-y="2374.7111"><tspan
         sodipodi:role="line"
         id="tspan3562-3-8"
         x="1348.1449"
         y="2295.9089"
         style="font-style:normal;font-variant:normal;font-weight:normal;font-stretch:normal;font-size:122.35467529px;line-height:1.25;font-family:Lavi;-inkscape-font-specification:'Lavi, Normal';font-variant-ligatures:normal;font-variant-caps:normal;font-variant-numeric:normal;font-feature-settings:normal;text-align:center;writing-mode:lr-tb;text-anchor:middle;fill:#ff8080;stroke-width:1.14974546">♥</tspan></text>
    <text
       xml:space="preserve"
       style="font-style:normal;font-variant:normal;font-weight:normal;font-stretch:normal;font-size:43.85733414px;line-height:0%;font-family:Lavi;-inkscape-font-specification:'Lavi, Normal';font-variant-ligatures:normal;font-variant-caps:normal;font-variant-numeric:normal;font-feature-settings:normal;text-align:center;letter-spacing:0px;word-spacing:0px;writing-mode:lr-tb;text-anchor:middle;display:inline;fill:#ffffff;fill-opacity:1;stroke:#ffffff;stroke-width:0.82200003;stroke-miterlimit:4;stroke-dasharray:none;stroke-opacity:1;"
       x="2853.6421"
       y="1353.517"
       id="text4213-9-7"
       transform="matrix(0.89140215,0.35770908,-0.69136611,0.84439112,0,0)"
       inkscape:transform-center-x="-15.373944"
       inkscape:transform-center-y="-61.971519"><tspan
         sodipodi:role="line"
         id="tspan3562-3-9"
         x="2853.6421"
         y="1353.517"
         style="font-style:normal;font-variant:normal;font-weight:normal;font-stretch:normal;font-size:43.85733414px;line-height:1.25;font-family:Lavi;-inkscape-font-specification:'Lavi, Normal';font-variant-ligatures:normal;font-variant-caps:normal;font-variant-numeric:normal;font-feature-settings:normal;text-align:center;writing-mode:lr-tb;text-anchor:middle;stroke-width:0.82200003;fill:#ffffff;stroke:#ffffff;">^    ^</tspan></text>
    <text
       xml:space="preserve"
       style="font-style:normal;font-variant:normal;font-weight:normal;font-stretch:normal;font-size:99.54820251px;line-height:0%;font-family:Lavi;-inkscape-font-specification:'Lavi, Normal';font-variant-ligatures:normal;font-variant-caps:normal;font-variant-numeric:normal;font-feature-settings:normal;text-align:center;letter-spacing:0px;word-spacing:0px;writing-mode:lr-tb;text-anchor:middle;display:inline;fill:#ffffff;fill-opacity:1;stroke:#ffffff;stroke-width:0.93543708"
       x="-24.918634"
       y="2235.627"
       id="text4213-9-1-2"
       transform="matrix(0.89094812,-0.25118426,0.33444892,1.0281089,0,0)"
       inkscape:transform-center-x="-2595.7877"
       inkscape:transform-center-y="1662.9687"><tspan
         sodipodi:role="line"
         id="tspan3562-3-8-0"
         x="-24.918634"
         y="2235.627"
         style="font-style:normal;font-variant:normal;font-weight:normal;font-stretch:normal;font-size:99.54820251px;line-height:1.25;font-family:Lavi;-inkscape-font-specification:'Lavi, Normal';font-variant-ligatures:normal;font-variant-caps:normal;font-variant-numeric:normal;font-feature-settings:normal;text-align:center;writing-mode:lr-tb;text-anchor:middle;fill:#ffffff;stroke:#ffffff;stroke-width:0.93543708">!!</tspan></text>
    <text
       xml:space="preserve"
       style="font-style:normal;font-variant:normal;font-weight:normal;font-stretch:normal;font-size:43.85733414px;line-height:0%;font-family:Lavi;-inkscape-font-specification:'Lavi, Normal';font-variant-ligatures:normal;font-variant-caps:normal;font-variant-numeric:normal;font-feature-settings:normal;text-align:center;letter-spacing:0px;word-spacing:0px;writing-mode:lr-tb;text-anchor:middle;display:inline;fill:#ffffff;fill-opacity:1;stroke:#ffffff;stroke-width:0.82200003;stroke-miterlimit:4;stroke-dasharray:none;stroke-opacity:1"
       x="3033.8423"
       y="2252.6599"
       id="text4213-9-7-2"
       transform="matrix(0.89140215,0.35770908,-0.69136611,0.84439112,0,0)"
       inkscape:transform-center-x="-15.373944"
       inkscape:transform-center-y="-61.971519"><tspan
         sodipodi:role="line"
         id="tspan3562-3-9-3"
         x="3033.8423"
         y="2252.6599"
         style="font-style:normal;font-variant:normal;font-weight:normal;font-stretch:normal;font-size:43.85733414px;line-height:1.25;font-family:Lavi;-inkscape-font-specification:'Lavi, Normal';font-variant-ligatures:normal;font-variant-caps:normal;font-variant-numeric:normal;font-feature-settings:normal;text-align:center;writing-mode:lr-tb;text-anchor:middle;fill:#ffffff;stroke:#ffffff;stroke-width:0.82200003">^    ^</tspan></text>
    <text
       xml:space="preserve"
       style="font-style:normal;font-variant:normal;font-weight:normal;font-stretch:normal;font-size:70.03476715px;line-height:0%;font-family:Lavi;-inkscape-font-specification:'Lavi, Normal';font-variant-ligatures:normal;font-variant-caps:normal;font-variant-numeric:normal;font-feature-settings:normal;text-align:center;letter-spacing:0px;word-spacing:0px;writing-mode:lr-tb;text-anchor:middle;display:inline;fill:#ffffff;fill-opacity:1;stroke:#ffffff;stroke-width:0.65810448"
       x="1197.3209"
       y="2827.95"
       id="text4213-9-1-2-7"
       transform="matrix(0.89094812,-0.25118426,0.33444892,1.0281089,0,0)"
       inkscape:transform-center-x="-1826.2047"
       inkscape:transform-center-y="1169.9421"><tspan
         sodipodi:role="line"
         id="tspan3562-3-8-0-5"
         x="1197.3209"
         y="2827.95"
         style="font-style:normal;font-variant:normal;font-weight:normal;font-stretch:normal;font-size:70.03476715px;line-height:1.25;font-family:Lavi;-inkscape-font-specification:'Lavi, Normal';font-variant-ligatures:normal;font-variant-caps:normal;font-variant-numeric:normal;font-feature-settings:normal;text-align:center;writing-mode:lr-tb;text-anchor:middle;fill:#ffffff;stroke:#ffffff;stroke-width:0.65810448">?!</tspan></text>
  </g>
  <g
     inkscape:groupmode="layer"
     id="layer1"
     inkscape:label="txt">
    <text
       xml:space="preserve"
       style="font-style:normal;font-variant:normal;font-weight:normal;font-stretch:normal;line-height:0%;font-family:Lavi;-inkscape-font-specification:Lavi;text-align:center;letter-spacing:0px;word-spacing:0px;text-anchor:middle;fill:#000000;fill-opacity:1;stroke:none"
       x="1252.9093"
       y="201.80408"
       id="text4246"><tspan
         sodipodi:role="line"
         style="font-size:45px;line-height:1.20000005"
         x="1252.9093"
         y="201.80408"
         id="tspan823">Oh! Pepper!?</tspan><tspan
         sodipodi:role="line"
         style="font-size:45px;line-height:1.20000005"
         x="1260.8195"
         y="255.80408"
         id="tspan831">May nasabi </tspan><tspan
         sodipodi:role="line"
         style="font-size:45px;line-height:1.20000005"
         x="1252.9093"
         y="309.80408"
         id="tspan4535">ba kami?</tspan><tspan
         sodipodi:role="line"
         style="font-size:45px;line-height:1.20000005"
         x="1260.8195"
         y="363.80408"
         id="tspan4537">nako sorry </tspan><tspan
         sodipodi:role="line"
         style="font-size:45px;line-height:1.20000005"
         x="1252.9093"
         y="417.80408"
         id="tspan4539">na</tspan></text>
    <text
       xml:space="preserve"
       style="font-style:normal;font-variant:normal;font-weight:normal;font-stretch:normal;line-height:0%;font-family:Lavi;-inkscape-font-specification:Lavi;text-align:center;letter-spacing:0px;word-spacing:0px;text-anchor:middle;fill:#000000;fill-opacity:1;stroke:none"
       x="2286.2876"
       y="228.98489"
       id="text4246-3"><tspan
         sodipodi:role="line"
         style="font-size:45px;line-height:1.20000005"
         x="2294.1978"
         y="228.98489"
         id="tspan4541">Hindi, </tspan><tspan
         sodipodi:role="line"
         style="font-size:45px;line-height:1.20000005"
         x="2286.2876"
         y="282.98489"
         id="tspan4545">wala no!</tspan></text>
    <text
       xml:space="preserve"
       style="font-style:normal;font-variant:normal;font-weight:normal;font-stretch:normal;line-height:0%;font-family:Lavi;-inkscape-font-specification:Lavi;text-align:center;letter-spacing:0px;word-spacing:0px;text-anchor:middle;fill:#ffffff;fill-opacity:1;stroke:none"
       x="727.73456"
       y="1507.7046"
       id="text4246-3-5"
       transform="rotate(-10.344754)"><tspan
         sodipodi:role="line"
         style="font-size:45px;line-height:1.20000005;fill:#ffffff"
         x="735.64471"
         y="1507.7046"
         id="tspan4549">ano </tspan><tspan
         sodipodi:role="line"
         style="font-size:45px;line-height:1.20000005;fill:#ffffff"
         x="727.73456"
         y="1561.7046"
         id="tspan4616">yun?</tspan></text>
    <text
       xml:space="preserve"
       style="font-style:normal;font-variant:normal;font-weight:normal;font-stretch:normal;line-height:0%;font-family:Lavi;-inkscape-font-specification:Lavi;text-align:center;letter-spacing:0px;word-spacing:0px;text-anchor:middle;fill:#000000;fill-opacity:1;stroke:none"
       x="2909.1399"
       y="-340.09232"
       id="text4246-3-3"><tspan
         sodipodi:role="line"
         style="font-size:45px;line-height:1.20000005"
         x="2909.1399"
         y="-340.09232"
         id="tspan831-3-67">Not at all!</tspan></text>
    <text
       xml:space="preserve"
       style="font-style:normal;font-variant:normal;font-weight:normal;font-stretch:normal;line-height:0%;font-family:Lavi;-inkscape-font-specification:Lavi;text-align:center;letter-spacing:0px;word-spacing:0px;text-anchor:middle;fill:#000000;fill-opacity:1;stroke:none"
       x="2248.1555"
       y="932.92023"
       id="text4246-3-5-6"><tspan
         sodipodi:role="line"
         style="font-size:45px;line-height:1.20000005"
         x="2248.1555"
         y="932.92023"
         id="tspan887-2">Salamat</tspan><tspan
         sodipodi:role="line"
         style="font-size:45px;line-height:1.20000005"
         x="2248.1555"
         y="986.92023"
         id="tspan4549-9"> ha guys!</tspan></text>
    <text
       xml:space="preserve"
       style="font-style:normal;font-variant:normal;font-weight:normal;font-stretch:normal;font-size:8.84578228px;line-height:0%;font-family:Lavi;-inkscape-font-specification:Lavi;text-align:center;letter-spacing:0px;word-spacing:0px;text-anchor:middle;fill:#ffffff;fill-opacity:1;stroke:none;stroke-width:0.73714852"
       x="1196.1145"
       y="1544.2122"
       id="text4246-3-5-1"
       transform="rotate(-10.687913)"><tspan
         sodipodi:role="line"
         style="font-size:33.17168427px;line-height:1.20000005;fill:#ffffff;stroke-width:0.73714852"
         x="1196.1145"
         y="1544.2122"
         id="tspan4549-2">may pinag</tspan><tspan
         sodipodi:role="line"
         style="font-size:33.17168427px;line-height:1.20000005;fill:#ffffff;stroke-width:0.73714852"
         x="1201.9454"
         y="1584.0182"
         id="tspan4594">dadaanan </tspan><tspan
         sodipodi:role="line"
         style="font-size:33.17168427px;line-height:1.20000005;fill:#ffffff;stroke-width:0.73714852"
         x="1196.1145"
         y="1623.8242"
         id="tspan4592">gurl!</tspan></text>
    <text
       xml:space="preserve"
       style="font-style:normal;font-variant:normal;font-weight:normal;font-stretch:normal;font-size:8.16194725px;line-height:0%;font-family:Lavi;-inkscape-font-specification:Lavi;text-align:center;letter-spacing:0px;word-spacing:0px;text-anchor:middle;fill:#ffffff;fill-opacity:1;stroke:none;stroke-width:0.68016231"
       x="1220.0175"
       y="2050.4536"
       id="text4246-3-5-7"
       transform="rotate(-26.505782)"><tspan
         sodipodi:role="line"
         style="font-size:30.60730362px;line-height:1.20000005;fill:#ffffff;stroke-width:0.68016231"
         x="1225.3976"
         y="2050.4536"
         id="tspan4549-0">sobra ka </tspan><tspan
         sodipodi:role="line"
         style="font-size:30.60730362px;line-height:1.20000005;fill:#ffffff;stroke-width:0.68016231"
         x="1220.0175"
         y="2087.1824"
         id="tspan4614">safron</tspan></text>
    <path
       style="opacity:0.571;fill:#ffffff;stroke:none;stroke-width:1px;stroke-linecap:butt;stroke-linejoin:miter;stroke-opacity:1;filter:url(#filter5092)"
       inkscape:path-effect="#path-effect4633"
       inkscape:original-d="m 1603.7972,1436.7544 c 2.1852,-7.6052 4.3697,-15.2105 6.5536,-22.8161 7.4441,3.6396 14.8877,7.2805 22.3306,10.9226 1.0529,22.5733 2.1046,45.1467 3.1554,67.7201 -15.3723,-3.8847 -30.7448,-7.7684 -46.1176,-11.6508 -14.7241,-39.2409 -29.4494,-78.4814 -44.1759,-117.7214 11.2461,-8.1719 22.4924,-16.3436 33.7387,-24.5152 9.2247,17.3947 18.4483,34.7899 27.6706,52.1858 -0.6294,-5.2541 -0.4845,-4.0464 -0.7282,-6.068 -8.5751,-12.5416 -17.1502,-25.0807 -25.7287,-37.6223 -7.0391,6.3917 -14.0769,12.7822 -21.1172,19.1752 4.5321,21.1977 9.0627,42.3945 13.5927,63.5938 13.8365,17.3136 27.6717,34.6279 41.5059,51.943 3.8036,-10.1952 7.6055,-20.3878 11.408,-30.5832 -2.3458,-9.3073 -4.6912,-18.6083 -7.0389,-27.9134 -5.0162,4.4498 -10.0325,8.8997 -15.049,13.3499 z"
       id="path4631"
       d="m 1607.3977,1430.7266 c -1.416,-1.5776 0.7686,-9.1829 5.5826,-11.1652 4.814,-1.9823 12.2576,1.6586 16.5052,14.7657 4.2477,13.1072 5.2995,35.6805 -1.8609,45.0254 -7.1604,9.3449 -22.5329,5.4613 -37.5818,-16.1007 -15.0489,-21.5621 -29.7742,-60.8025 -31.5137,-84.5086 -1.7396,-23.7061 9.5067,-31.8779 19.7416,-27.2661 10.2349,4.6118 19.4584,22.007 23.7549,28.0777 4.2965,6.0706 4.4414,7.2783 0.032,-0 -4.4095,-7.2813 -12.9846,-19.8204 -20.7928,-22.8957 -7.8082,-3.0754 -14.8459,3.3152 -16.1007,17.1106 -1.2547,13.7955 3.276,34.9922 12.4592,54.249 9.1833,19.2568 23.0186,36.571 31.8377,40.1305 8.8191,3.5594 12.6211,-6.6332 13.3491,-16.3843 0.7281,-9.7511 -1.6174,-19.0521 -5.2987,-21.4799 -3.6814,-2.4278 -8.6977,2.0221 -10.1137,0.4445 z"
       inkscape:connector-curvature="0"
       sodipodi:nodetypes="cccccccccccccccc" />
  </g>
</svg>
