<?xml version="1.0" encoding="UTF-8" standalone="no"?>
<!-- Created with Inkscape (http://www.inkscape.org/) -->

<svg
   xmlns:dc="http://purl.org/dc/elements/1.1/"
   xmlns:cc="http://creativecommons.org/ns#"
   xmlns:rdf="http://www.w3.org/1999/02/22-rdf-syntax-ns#"
   xmlns:svg="http://www.w3.org/2000/svg"
   xmlns="http://www.w3.org/2000/svg"
   xmlns:xlink="http://www.w3.org/1999/xlink"
   xmlns:sodipodi="http://sodipodi.sourceforge.net/DTD/sodipodi-0.dtd"
   xmlns:inkscape="http://www.inkscape.org/namespaces/inkscape"
   id="svg2"
   version="1.1"
   inkscape:version="0.92.3 (2405546, 2018-03-11)"
   width="2481"
   height="3503"
   sodipodi:docname="E16P04.svg">
  <sodipodi:namedview
     pagecolor="#ffffff"
     bordercolor="#666666"
     inkscape:pageopacity="0"
     inkscape:pageshadow="2"
     inkscape:window-width="1813"
     inkscape:window-height="955"
     id="namedview70"
     showgrid="false"
     inkscape:zoom="0.4"
     inkscape:cx="1250.6945"
     inkscape:cy="2232.557"
     inkscape:current-layer="layer3"
     inkscape:window-x="64"
     inkscape:window-y="0"
     inkscape:window-maximized="0" />
  <metadata
     id="metadata8">
    <rdf:RDF>
      <cc:Work
         rdf:about="">
        <dc:format>image/svg+xml</dc:format>
        <dc:type
           rdf:resource="http://purl.org/dc/dcmitype/StillImage" />
        <dc:title />
      </cc:Work>
    </rdf:RDF>
  </metadata>
  <defs
     id="defs6" />
  <sodipodi:namedview
     pagecolor="#ffffff"
     bordercolor="#666666"
     borderopacity="1"
     objecttolerance="10"
     gridtolerance="10"
     guidetolerance="10"
     inkscape:pageopacity="0"
     inkscape:pageshadow="2"
     inkscape:window-width="1920"
     inkscape:window-height="1025"
     id="namedview4"
     showgrid="false"
     inkscape:zoom="0.42773947"
     inkscape:cx="1005.419"
     inkscape:cy="787.30143"
     inkscape:window-x="0"
     inkscape:window-y="26"
     inkscape:window-maximized="1"
     inkscape:current-layer="layer1" />
  <g
     inkscape:groupmode="layer"
     id="layer2"
     inkscape:label="artwork"
     sodipodi:insensitive="true">
    <image
       sodipodi:absref="/home/fici/Desktop/P&amp;C/all/sl/../gfx_Pepper-and-Carrot_by-David-Revoy_E16P04.png"
       xlink:href="../gfx_Pepper-and-Carrot_by-David-Revoy_E16P04.png"
       y="0"
       x="0"
       id="image10"
       height="3503"
       width="2481" />
  </g>
  <g
     inkscape:groupmode="layer"
     id="layer3"
     inkscape:label="speechbubbles">
    <path
       style="fill:#ffffff;stroke:none;stroke-width:0.943838"
       d="m 189.37419,260.83007 c 8.42728,-56.46382 37.5395,-110.50784 212.979,-117.76744 87.7198,-3.6298 256.80759,-5.16681 340.98809,21.2062 84.18053,26.37302 83.45373,80.65608 83.83679,102.03165 0.38305,21.37558 7.4187,74.36291 -79.04547,95.13462 -86.46416,20.77171 -266.42817,9.32783 -337.29348,10.13447 -141.73065,1.61326 -216.86824,-0.23173 -221.46493,-110.7395 z"
       id="path3270"
       inkscape:connector-curvature="0"
       sodipodi:nodetypes="csssssc" />
    <path
       style="color:#000000;display:inline;overflow:visible;visibility:visible;fill:#ffffff;fill-opacity:1;fill-rule:nonzero;stroke:none;stroke-width:0.90146297px;marker:none;enable-background:accumulate"
       d="m 353.88765,382.51055 c 36.89477,-34.21977 356.3103,-54.9071 440.915,1.33086 70.61836,46.94106 43.06543,163.84101 -19.7384,190.76671 -62.80362,26.92579 -271.72847,23.80051 -363.2955,11.59309 -87.1844,-11.62319 -101.82413,-46.70636 -106.11264,-117.34609 -1.75031,-28.83082 11.33661,-52.12467 48.23154,-86.34457 z"
       id="path4040-4"
       inkscape:connector-curvature="0"
       sodipodi:nodetypes="zssssz" />
    <path
       style="color:#000000;display:inline;overflow:visible;visibility:visible;fill:#ffffff;fill-opacity:1;fill-rule:nonzero;stroke:none;stroke-width:1px;marker:none;enable-background:accumulate"
       d="M 548.56247,346.28345 C 818.67335,851.31918 962.4842,769.73858 1139.7545,716.83443 950.46167,803.3409 775.67489,874.14978 501.74228,369.42576 c -14.05374,-25.89419 46.82019,-23.14231 46.82019,-23.14231 z"
       id="path4008"
       inkscape:connector-curvature="0"
       sodipodi:nodetypes="ccsc" />
    <path
       style="color:#000000;display:inline;overflow:visible;visibility:visible;fill:#ffffff;fill-opacity:1;fill-rule:nonzero;stroke:none;stroke-width:1px;marker:none;enable-background:accumulate"
       d="m 748.16188,1059.3648 c -4.9419,-27.0877 8.23649,-99.03943 109.54588,-93.11397 101.30924,5.92537 117.78244,39.78497 120.25334,49.94287 2.4709,10.1579 23.8859,67.7194 -55.18475,82.9563 -79.07073,15.2368 -149.90485,-0.8466 -174.61447,-39.7852 z"
       id="path3525"
       inkscape:connector-curvature="0" />
    <path
       style="color:#000000;display:inline;overflow:visible;visibility:visible;fill:#ffffff;fill-opacity:1;fill-rule:nonzero;stroke:none;stroke-width:1px;marker:none;enable-background:accumulate"
       d="m 922.12831,1127.7684 c -5.86932,-28.4665 9.78218,-104.0808 130.10399,-97.8537 120.3215,6.2271 139.8861,41.8102 142.8206,52.4852 2.9348,10.6749 28.3686,71.1664 -65.5409,87.1789 -93.9095,16.0123 -178.03692,-0.8897 -207.38369,-41.8104 z"
       id="path3525-0"
       inkscape:connector-curvature="0" />
    <path
       style="color:#000000;display:inline;overflow:visible;visibility:visible;fill:#ffffff;fill-opacity:1;fill-rule:nonzero;stroke:none;stroke-width:0.92944402px;marker:none;enable-background:accumulate"
       d="m 926.42022,1262.0325 c 0.59322,-38.5544 21.44965,-80.9705 97.08088,-102.5492 75.6315,-21.5787 227.4649,-8.1033 254.6897,-2.4983 34.3869,7.0799 123.7985,31.3207 148.5278,60.8504 24.7295,29.5296 32.65,66.5436 22.1937,92.8153 -10.456,26.2713 -48.4593,51.5803 -80.7903,59.4826 -32.3309,7.9022 -231.4538,12.1941 -268.115,4.141 -36.6611,-8.0531 -96.544,-12.4926 -127.14279,-32.8544 -31.02125,-20.6424 -47.03739,-40.8329 -46.44399,-79.3874 z"
       id="path3373"
       inkscape:connector-curvature="0"
       sodipodi:nodetypes="zsssssssz" />
    <path
       style="color:#000000;display:inline;overflow:visible;visibility:visible;fill:#ffffff;fill-opacity:1;fill-rule:nonzero;stroke:none;stroke-width:1px;marker:none;enable-background:accumulate"
       d="m 1353.1045,1486.1109 c -17.6743,6.4442 -35.9622,13.4942 -56.6916,8.7928 -5.9074,-1.4988 -12.0586,-3.5824 -17.8157,-7.536 -5.6534,-5.6714 -8.1342,-14.8796 -7.7374,-22.3553 -0.038,-11.0732 3.5645,-21.3765 -0.132,-33.3984 -2.8396,-8.7238 -9.889,-13.0983 -15.6943,-17.3851 -14.8818,-10.591 -30.3953,-18.9029 -44.5591,-32.1972 -16.4134,-13.8335 -33.2388,-29.725 -44.6315,-51.3879 -4.4162,-8.6329 -8.2604,-18.1551 -8.7808,-27.4678 -2.1762,-24.1255 6.2222,-46.2462 22.341,-52.6796 10.8776,-2.6518 26.1352,8.6451 30.8391,24.9803 2.5746,8.6101 0.6371,16.5032 -2.7594,21.9348 -4.4219,12.1322 -2.2192,29.1384 4.6177,43.565 5.515,11.975 19.9292,13.9114 28.768,21.8543 10.6917,14.3128 22.5926,18.8565 35.242,26.2872 5.7643,3.498 17.2268,13.0885 21.8547,19.5004 5.3367,10.6553 3.6397,23.8849 1.2988,32.7032 -2.2102,9.2491 -6.7566,13.924 -2.6636,25.5015 2.0954,8.2407 10.4347,11.3429 15.4067,14.2225 16.3541,6.7626 22.9447,11.3822 37.3062,7.063 1.3135,-0.5605 2.5522,-1.2752 3.7912,-1.9972 z"
       id="path4496"
       inkscape:connector-curvature="0"
       sodipodi:nodetypes="cccccccccccccccccccccc" />
    <path
       style="color:#000000;display:inline;overflow:visible;visibility:visible;fill:#ffffff;fill-opacity:1;fill-rule:nonzero;stroke:none;stroke-width:0.98734713px;marker:none;enable-background:accumulate"
       d="m 388.97681,1750.4783 c -7.67448,16.8439 -50.95968,18.2563 -66.89415,14.8325 32.12022,18.8431 31.00042,30.5506 -12.60978,32.3684 73.13505,33.9602 13.37007,28.8212 1.58185,37.4326 57.42455,11.7033 31.73222,26.2686 21.50866,40.7678 66.00384,0.4981 44.4038,23.7401 47.18573,42.2509 5.59552,-8.6861 32.17835,-35.1304 33.77785,-5.6864 43.6577,-28.0911 96.24225,-46.2366 100.41763,2.9231 17.59042,-24.731 35.12805,-35.1833 33.77782,-5.6866 43.58357,-38.364 82.74944,-24.5547 122.14741,-13.7116 10.34768,-11.5793 11.55339,-29.3682 45.03054,-25.1995 -4.69389,-11.4771 6.60941,-19.3663 32.13598,-24.0513 -33.92078,-6.933 -40.17226,-14.0841 22.81102,-21.7799 -47.92658,-0.7444 -92.61846,-2.2695 -36.39014,-28.5144 -17.64038,-0.6352 -59.49404,21.2643 -39.98022,-42.8249 -30.33362,20.5173 -62.69689,31.8413 -103.28332,-11.137 -19.20757,21.4711 -52.52265,32.0959 -67.01637,5.2768 -5.20933,11.4334 -26.80996,15.7334 -45.14733,16.2548 -7.09109,-4.5416 -14.40473,-10.7102 -22.03683,-18.7922 -12.47408,16.9699 -31.13389,28.4306 -67.01635,5.2769 z"
       id="path3549-3-7"
       inkscape:connector-curvature="0"
       sodipodi:nodetypes="cccccccccccccccccccc" />
    <path
       style="color:#000000;display:inline;overflow:visible;visibility:visible;fill:#ffffff;fill-opacity:1;fill-rule:nonzero;stroke:none;stroke-width:0.95132929px;marker:none;enable-background:accumulate"
       d="m 418.22136,1892.888 c 19.63977,-19.988 185.42187,-41.6839 243.68828,-0.4927 58.26642,41.1912 22.92451,90.6206 -10.5071,106.3481 -33.43153,15.7275 -131.81582,32.9529 -176.70957,19.4722 -44.89385,-13.4808 -79.86328,-33.6319 -82.14612,-74.893 -0.93175,-16.8404 6.03466,-30.4465 25.67451,-50.4346 z"
       id="path4040"
       inkscape:connector-curvature="0"
       sodipodi:nodetypes="zssssz" />
    <path
       style="fill:#ffffff;fill-rule:evenodd;stroke:none;stroke-width:1px;stroke-linecap:butt;stroke-linejoin:miter;stroke-opacity:1"
       d="m 1714.2654,2080.7017 c 84.2926,8.4181 101.7865,32.4194 119.9299,8.2333 13.6724,-32.3165 73.9597,-7.8033 80.1837,-16.9339 13.3752,-19.6213 -23.6159,-28.5877 -14.9153,-48.4748 8.7006,-19.887 29.8306,-43.5029 29.8306,-43.5029 l 16.1582,9.9435 c 0,0 -26.2419,26.5691 -24.999,37.7556 1.2429,11.1864 26.242,48.0074 3.869,56.708 -22.3729,8.7006 -76.8117,-7.6784 -88.6225,17.2796 -11.8107,24.9579 -83.1478,-13.4558 -121.4346,-21.0084 z"
       id="path4407"
       inkscape:connector-curvature="0"
       sodipodi:nodetypes="ccssccsszc" />
    <path
       style="color:#000000;display:inline;overflow:visible;visibility:visible;fill:#ffffff;fill-opacity:1;fill-rule:nonzero;stroke:none;stroke-width:1px;marker:none;enable-background:accumulate"
       d="m 666.6939,1912.014 c 38.36403,14.2827 84.86956,27.5154 96.07851,29.8219 -4.37169,-11.6312 -5.81209,-22.2337 -7.1164,-30.5082 20.64043,5.7806 115.57926,37.1569 135.10867,51.9928 -46.72733,-38.0638 -117.47092,-65.994 -151.73555,-73.3007 -0.59494,10.8648 0.83117,17.7165 0.34378,23.4081 -17.19324,-2.942 -71.86892,-22.6256 -71.86892,-22.6256 z"
       id="path5066"
       inkscape:connector-curvature="0"
       inkscape:transform-center-x="-112.42356"
       inkscape:transform-center-y="21.85935" />
    <path
       style="fill:#ffffff;stroke:none;stroke-width:0.94899672"
       d="m 347.00036,2359.6368 c 1.62141,-55.1279 63.178,-63.2247 104.70603,-60.8217 34.52874,1.9981 167.31288,-11.9117 205.1544,38.4094 16.15885,21.4878 13.54099,77.5661 -8.91912,100.9098 -19.15316,19.9066 -53.96738,20.5191 -96.39506,26.7507 -52.68247,7.7377 -128.20449,-5.8877 -169.58244,-15.8346 -19.47779,-4.6823 -36.58528,-34.2859 -34.96381,-89.4136 z"
       id="path3100"
       inkscape:connector-curvature="0"
       sodipodi:nodetypes="zsssssz" />
    <path
       style="color:#000000;display:inline;overflow:visible;visibility:visible;fill:#ffffff;fill-opacity:1;fill-rule:nonzero;stroke:none;stroke-width:0.93752182px;marker:none;enable-background:accumulate"
       d="m 478.36262,2540.3406 c -3.0759,-119.0514 124.2554,-106.2913 214.89841,-115.5767 49.46878,-5.0676 228.99647,8.198 246.06038,113.818 9.82916,60.8402 -51.11735,112.7882 -75.26332,121.9235 -24.14581,9.1352 -140.82044,20.9828 -178.37435,18.1991 -37.55375,-2.7838 -210.95789,21.601 -207.32112,-138.3639 z"
       id="path4974"
       inkscape:connector-curvature="0"
       sodipodi:nodetypes="cssssc" />
    <path
       style="fill:#ffffff;fill-rule:evenodd;stroke:none;stroke-width:1px;stroke-linecap:butt;stroke-linejoin:miter;stroke-opacity:1"
       d="m 1237.025,3033.6211 c -25.9077,-74.9353 -135.8732,-262.1385 -253.0276,-244.8772 -71.26981,10.5007 -133.59485,24.8303 -156.2354,-60.7422 -5.53435,-9.3115 -79.49392,-55.5178 -68.47418,-45.6614 73.55047,108.3097 57.38616,155.8485 221.82078,126.0514 132.8264,-23.6523 255.9164,225.2294 255.9164,225.2294 z"
       id="path4652"
       inkscape:connector-curvature="0"
       sodipodi:nodetypes="cscccc" />
    <path
       style="fill:#ffffff;stroke:none;stroke-width:0.84002483"
       d="m 725.89754,2700.1773 c 1.92163,-60.8465 74.87968,-69.7833 124.09956,-67.131 40.92411,2.2054 198.3024,-13.1473 243.1529,42.3938 19.1518,23.7168 16.0491,85.6123 -10.5711,111.3774 -22.7007,21.9717 -63.9631,22.6477 -114.24927,29.5257 -62.44026,8.5403 -151.95052,-6.4984 -200.99236,-17.4772 -23.08553,-5.168 -43.36164,-37.8424 -41.43973,-98.6887 z"
       id="path3100-7"
       inkscape:connector-curvature="0"
       sodipodi:nodetypes="zsssssz" />
    <path
       style="color:#000000;display:inline;overflow:visible;visibility:visible;fill:#ffffff;fill-opacity:1;fill-rule:nonzero;stroke:none;stroke-width:0.91073054px;marker:none;enable-background:accumulate"
       d="m 537.64148,579.84113 c 26.65878,-24.99351 257.45652,-40.10316 318.5887,0.97204 51.02619,34.2849 31.11747,119.66652 -14.26222,139.33257 -45.37955,19.66611 -196.34086,17.38347 -262.50377,8.46738 -62.99619,-8.48937 -73.57432,-34.11348 -76.67304,-85.70747 -1.2647,-21.05751 8.19142,-38.07093 34.85033,-63.06452 z"
       id="path4040-4-3"
       inkscape:connector-curvature="0"
       sodipodi:nodetypes="zssssz" />
  </g>
  <g
     inkscape:groupmode="layer"
     id="layer1"
     inkscape:label="txt">
    <text
       xml:space="preserve"
       style="font-style:normal;font-variant:normal;font-weight:normal;font-stretch:normal;line-height:0%;font-family:Lavi;-inkscape-font-specification:Lavi;text-align:center;letter-spacing:0px;word-spacing:0px;text-anchor:middle;fill:#000000;fill-opacity:1;stroke:none"
       x="509.02002"
       y="219.69141"
       id="text4246"><tspan
         sodipodi:role="line"
         style="font-size:45px;line-height:1.25"
         x="509.02002"
         y="219.69141"
         id="tspan3572">Nismo več tako mlade</tspan><tspan
         sodipodi:role="line"
         style="font-size:45px;line-height:1.25"
         x="509.02002"
         y="275.94141"
         id="tspan76">kot včasih, zato je zdaj dober</tspan><tspan
         sodipodi:role="line"
         style="font-size:45px;line-height:1.25"
         x="509.02002"
         y="332.19141"
         id="tspan3576">čas za novo lekcijo.</tspan></text>
    <text
       xml:space="preserve"
       style="font-style:normal;font-variant:normal;font-weight:normal;font-stretch:normal;line-height:0%;font-family:Lavi;-inkscape-font-specification:Lavi;text-align:center;letter-spacing:0px;word-spacing:0px;text-anchor:middle;fill:#000000;fill-opacity:1;stroke:none"
       x="572.92719"
       y="412.90448"
       id="text4246-9"><tspan
         sodipodi:role="line"
         style="font-size:45px;line-height:1.25"
         x="572.92719"
         y="412.90448"
         id="tspan4199">Predlagam</tspan><tspan
         sodipodi:role="line"
         style="font-size:45px;line-height:1.25"
         x="572.92719"
         y="469.15448"
         id="tspan3580">srečanje z</tspan></text>
    <text
       xml:space="preserve"
       style="font-style:normal;font-variant:normal;font-weight:normal;font-stretch:normal;line-height:0%;font-family:Lavi;-inkscape-font-specification:Lavi;text-align:center;letter-spacing:0px;word-spacing:0px;text-anchor:middle;fill:#000000;fill-opacity:1;stroke:none"
       x="865.90961"
       y="1049.8156"
       id="text4246-9-6"><tspan
         sodipodi:role="line"
         style="font-size:45px;line-height:1.25"
         x="865.90961"
         y="1049.8156"
         id="tspan4183-4">Heh heh!</tspan></text>
    <text
       xml:space="preserve"
       style="font-style:normal;font-variant:normal;font-weight:normal;font-stretch:normal;line-height:0%;font-family:Lavi;-inkscape-font-specification:Lavi;text-align:center;letter-spacing:0px;word-spacing:0px;text-anchor:middle;fill:#000000;fill-opacity:1;stroke:none"
       x="1069.6064"
       y="1116.4899"
       id="text4246-9-6-2"><tspan
         sodipodi:role="line"
         style="font-size:45px;line-height:1.25"
         x="1069.6064"
         y="1116.4899"
         id="tspan4183-4-1">Modrec?</tspan></text>
    <text
       xml:space="preserve"
       style="font-style:normal;font-variant:normal;font-weight:normal;font-stretch:normal;line-height:0%;font-family:Lavi;-inkscape-font-specification:Lavi;text-align:center;letter-spacing:0px;word-spacing:0px;text-anchor:middle;fill:#000000;fill-opacity:1;stroke:none"
       x="1175.8119"
       y="1235.4901"
       id="text4246-9-6-2-4"><tspan
         sodipodi:role="line"
         style="font-size:45px;line-height:1.25"
         x="1175.8119"
         y="1235.4901"
         id="tspan3593">Mar nista premladi</tspan><tspan
         sodipodi:role="line"
         style="font-size:45px;line-height:1.25"
         x="1175.8119"
         y="1291.7401"
         id="tspan99">da bi razumeli njegov</tspan><tspan
         sodipodi:role="line"
         style="font-size:45px;line-height:1.25"
         x="1175.8119"
         y="1347.9901"
         id="tspan101">nauk?</tspan></text>
    <text
       xml:space="preserve"
       style="font-style:normal;font-variant:normal;font-weight:normal;font-stretch:normal;line-height:0%;font-family:Lavi;-inkscape-font-specification:Lavi;text-align:center;letter-spacing:0px;word-spacing:0px;text-anchor:middle;fill:#000000;fill-opacity:1;stroke:none"
       x="526.82526"
       y="1822.3103"
       id="text4246-9-6-2-4-7"><tspan
         sodipodi:role="line"
         style="font-size:45px;line-height:1.25"
         x="526.82526"
         y="1822.3103"
         id="tspan3597">Premladi</tspan><tspan
         sodipodi:role="line"
         style="font-size:45px;line-height:1.25"
         x="526.82526"
         y="1878.5603"
         id="tspan92">za nauk!?</tspan></text>
    <text
       xml:space="preserve"
       style="font-style:normal;font-variant:normal;font-weight:normal;font-stretch:normal;line-height:0%;font-family:Lavi;-inkscape-font-specification:Lavi;text-align:center;letter-spacing:0px;word-spacing:0px;text-anchor:middle;fill:#000000;fill-opacity:1;stroke:none"
       x="563.84741"
       y="1886.3512"
       id="text4246-9-6-2-4-7-3"
       transform="scale(0.96046588,1.0411614)"><tspan
         sodipodi:role="line"
         style="font-size:56.78048325px;line-height:1.25"
         x="563.84741"
         y="1886.3512"
         id="tspan4359">Greva!</tspan></text>
    <path
       style="color:#000000;display:inline;overflow:visible;visibility:visible;fill:#ffffff;fill-opacity:1;fill-rule:nonzero;stroke:none;stroke-width:1px;marker:none;enable-background:accumulate"
       d="m 1859.9208,2026.0859 c -20.4432,-14.3102 -27.5983,-27.5982 -25.5539,-35.7755 2.0443,-8.1772 20.4431,-50.0857 42.9305,-55.1965 22.4875,-5.1108 80.7504,-11.2437 94.0385,-6.1329 13.2881,5.1107 51.1079,38.842 51.1079,56.2186 0,17.3767 -7.1551,51.1079 -27.5983,61.3294 -20.4431,10.2216 -110.393,16.3546 -134.9247,-20.4431 z"
       id="path3349"
       inkscape:connector-curvature="0" />
    <text
       xml:space="preserve"
       style="font-style:normal;font-variant:normal;font-weight:normal;font-stretch:normal;line-height:0%;font-family:Lavi;-inkscape-font-specification:Lavi;text-align:center;letter-spacing:0px;word-spacing:0px;text-anchor:middle;fill:#000000;fill-opacity:1;stroke:none"
       x="1926.6875"
       y="2003.7067"
       id="text4246-9-6-2-4-7-38"><tspan
         sodipodi:role="line"
         style="font-size:45px;line-height:1.25"
         x="1926.6875"
         y="2003.7067"
         id="tspan4364-4">&quot;Obe&quot;?</tspan></text>
    <text
       xml:space="preserve"
       style="font-style:normal;font-variant:normal;font-weight:normal;font-stretch:normal;line-height:0%;font-family:Lavi;-inkscape-font-specification:Lavi;text-align:center;letter-spacing:0px;word-spacing:0px;text-anchor:middle;fill:#000000;fill-opacity:1;stroke:none"
       x="511.25903"
       y="2361.5552"
       id="text4246-9-6-2-4-7-3-4-8-5"><tspan
         sodipodi:role="line"
         style="font-size:45px;line-height:1.25"
         x="511.25903"
         y="2361.5552"
         id="tspan4251">Torej,</tspan><tspan
         sodipodi:role="line"
         style="font-size:45px;line-height:1.25"
         x="511.25903"
         y="2417.8052"
         id="tspan3604">tukaj smo.</tspan></text>
    <text
       xml:space="preserve"
       style="font-style:normal;font-variant:normal;font-weight:normal;font-stretch:normal;line-height:0%;font-family:Lavi;-inkscape-font-specification:Lavi;text-align:center;letter-spacing:0px;word-spacing:0px;text-anchor:middle;fill:#000000;fill-opacity:1;stroke:none"
       x="709.08716"
       y="2450.3796"
       id="text4246-9-6-2-4-7-3-4-8-5-3"><tspan
         sodipodi:role="line"
         style="font-size:45px;line-height:1.25"
         x="716.11841"
         y="2450.3796"
         id="tspan4580-41"> </tspan><tspan
         sodipodi:role="line"
         style="font-size:45px;line-height:1.25"
         x="709.08716"
         y="2506.6296"
         id="tspan3613">Pustila bom da</tspan><tspan
         sodipodi:role="line"
         style="font-size:45px;line-height:1.25"
         x="709.08716"
         y="2562.8796"
         id="tspan108">se sami soočita z</tspan><tspan
         sodipodi:role="line"
         style="font-size:45px;line-height:1.25"
         x="709.08716"
         y="2619.1296"
         id="tspan110">modrecem.</tspan><tspan
         sodipodi:role="line"
         style="font-size:45px;line-height:1.25"
         x="716.11841"
         y="2675.3796"
         id="tspan4251-3"> </tspan></text>
    <text
       xml:space="preserve"
       style="font-style:normal;font-variant:normal;font-weight:normal;font-stretch:normal;line-height:0%;font-family:Lavi;-inkscape-font-specification:Lavi;text-align:center;letter-spacing:0px;word-spacing:0px;text-anchor:middle;fill:#000000;fill-opacity:1;stroke:none"
       x="916.37567"
       y="2708.2715"
       id="text4246-9-6-2-4-7-3-4-8-5-3-2"><tspan
         sodipodi:role="line"
         style="font-size:45px;line-height:1.25"
         x="916.37567"
         y="2708.2715"
         id="tspan3624">Nahaja se na</tspan><tspan
         sodipodi:role="line"
         style="font-size:45px;line-height:1.25"
         x="916.37567"
         y="2764.5215"
         id="tspan114">vrhu te pečine.</tspan><tspan
         sodipodi:role="line"
         style="font-size:45px;line-height:1.25"
         x="923.40692"
         y="2820.7715"
         id="tspan4251-3-4"> </tspan></text>
    <path
       style="fill:#ffffff;fill-rule:evenodd;stroke:none"
       d="m 1613.7335,3119.4738 c 22.8206,65.5224 31.8525,60.4909 35.9109,30.0122 6.3221,11.0211 7.2917,43.3168 26.2711,4.027 11.0555,28.5744 20.3062,24.9438 28.0779,-5.0742 19.1482,54.1529 31.6312,22.9105 42.4229,10.8477 26.4688,30.3142 100.2553,35.0321 133.0701,-3.9544 6.6715,13.9277 16.1081,33.8757 22.6605,4.9428 9.376,12.1791 22.2364,-4.7723 37.4428,-41.3384 -2.2468,23.7947 -12.7577,64.3406 8.3073,40.8797 2.1911,17.0096 0.01,39.5072 44.8944,2.9427 -13.5301,48.4386 24.4752,-0.8275 61.293,-47.842 -23.346,41.0085 -55.1722,91.4525 -15.9749,75.0138 -22.3523,34.3511 -23.0916,57.2402 41.7043,45.3739 -42.4988,21.855 -74.9956,45.0556 -29.7053,78.7237 -28.4927,-0.9324 -35.5818,9.4602 -4.5197,40.039 -44.1713,-20.2556 -47.8454,-10.9393 -36.8203,9.1108 -9.0925,0.3254 -24.8974,-16.6353 -23.3281,11.1477 -24.685,-17.5396 -58.401,-55.3389 -55.2974,-10.5391 -25.4876,-34.414 -30.0625,-22.0955 -33.3018,-6.7926 -45.3675,-52.0175 -39.804,-20.9672 -48.7408,-13.5668 -13.065,-19.2382 -12.9264,-3.4666 -10.7397,17.7351 -12.4527,-22.4795 -23.8812,-31.1547 -32.6847,-4.4474 -7.8231,-12.368 -15.4325,-29.8866 -24.8459,-3.9334 -10.8113,-14.182 -22.3313,-19.8309 -36.9156,11.4096 -5.7987,-18.8971 -14.534,-32.508 -44.7036,-7.54 -5.1189,-40.5341 -30.7624,-34.0262 -63.0885,-12.2024 1.2831,-23.8104 -1.0521,-39.4578 -34.9684,16.147 7.2066,-24.3123 15.3887,-49.94 -4.8872,-37.1984 13.207,-46.5166 -34.066,-5.3246 -61.7614,7.476 31.861,-39.0106 78.3564,-86.403 41.441,-86.0215 25.7058,-27.001 28.5428,-40.5096 7.3702,-39.8521 1.8375,-8.3529 27.7594,-23.6559 -1.1838,-23.1263 15.4244,-11.3569 37.9256,-8.0504 32.6007,-62.3997 z"
       id="path4656"
       inkscape:connector-curvature="0"
       sodipodi:nodetypes="ccccccccccccccccccccccccccccccccc" />
    <path
       style="fill:#ffffff;fill-rule:evenodd;stroke:none;stroke-width:1px;stroke-linecap:butt;stroke-linejoin:miter;stroke-opacity:1"
       d="m 1395.9187,3167.1846 119.1853,69.1782 -1.1569,-33.8487 82.9076,45.0833 5.0953,-29.1891 -103.505,-45.5434 0.025,38.633 z"
       id="path4667"
       inkscape:connector-curvature="0"
       inkscape:transform-center-x="75.322047"
       inkscape:transform-center-y="-6.237049" />
    <text
       xml:space="preserve"
       style="font-style:normal;font-variant:normal;font-weight:normal;font-stretch:normal;line-height:0%;font-family:Lavi;-inkscape-font-specification:Lavi;text-align:center;letter-spacing:0px;word-spacing:0px;text-anchor:middle;fill:#000000;fill-opacity:1;stroke:none"
       x="1801.1235"
       y="3238.427"
       id="text4246-9-6-2-4-7-3-4-8-5-9"><tspan
         sodipodi:role="line"
         style="font-size:45px;line-height:1.25"
         x="1801.1235"
         y="3238.427"
         id="tspan4445">Pripravljeni na</tspan></text>
    <text
       xml:space="preserve"
       style="font-style:normal;font-variant:normal;font-weight:normal;font-stretch:normal;line-height:0%;font-family:Lavi;-inkscape-font-specification:Lavi;text-align:center;letter-spacing:0px;word-spacing:0px;text-anchor:middle;fill:#000000;fill-opacity:1;stroke:#000000;stroke-width:1.59401214;stroke-miterlimit:4;stroke-dasharray:none;stroke-opacity:1"
       x="2568.4854"
       y="2951.2043"
       id="text4246-6-6-6-3-9"
       transform="matrix(0.89466356,0,-0.16927076,1.1177386,0,0)"><tspan
         sodipodi:role="line"
         style="font-size:53.13374329px;line-height:1.25;stroke:#000000;stroke-width:1.59401214;stroke-miterlimit:4;stroke-dasharray:none;stroke-opacity:1"
         x="2568.4854"
         y="2951.2043"
         id="tspan4182-3-7">pravo lekcijo?</tspan></text>
    <text
       xml:space="preserve"
       style="font-style:normal;font-variant:normal;font-weight:normal;font-stretch:normal;line-height:0%;font-family:Lavi;-inkscape-font-specification:Lavi;text-align:center;letter-spacing:0px;word-spacing:0px;text-anchor:middle;fill:#000000;fill-opacity:1;stroke:#000000;stroke-width:1.54220855;stroke-miterlimit:4;stroke-dasharray:none;stroke-opacity:1"
       x="708.27551"
       y="496.0144"
       id="text4246-6-6-6-3-9-0"
       transform="matrix(0.92481111,0,-0.17497469,1.0813019,0,0)"><tspan
         sodipodi:role="line"
         style="font-size:51.40695572px;line-height:1.25;stroke:#000000;stroke-width:1.54220855;stroke-miterlimit:4;stroke-dasharray:none;stroke-opacity:1"
         x="708.27551"
         y="496.0144"
         id="tspan4182-3-7-6">Modrecem na gori</tspan></text>
    <text
       xml:space="preserve"
       style="font-style:normal;font-variant:normal;font-weight:normal;font-stretch:normal;line-height:0%;font-family:Lavi;-inkscape-font-specification:Lavi;text-align:center;letter-spacing:0px;word-spacing:0px;text-anchor:middle;fill:#000000;fill-opacity:1;stroke:none"
       x="698.46021"
       y="636.0462"
       id="text4246-9-9"><tspan
         sodipodi:role="line"
         style="font-size:45px;line-height:1.25"
         x="698.46021"
         y="636.0462"
         id="tspan3584">Njegov nasvet</tspan><tspan
         sodipodi:role="line"
         style="font-size:45px;line-height:1.25"
         x="698.46021"
         y="692.2962"
         id="tspan88">bo ključen...</tspan></text>
  </g>
</svg>
