{
   "id": 11,
   "original-language": "fr",
   "supporters": 502,
   "published": "2015-09-30",
   "pluxmlID": 301,
   "background-color": "#FFFFFF",
   "credits": {
      "art":[
         "David Revoy <https://framagit.org/Deevad>"
      ],
      "scenario":[
         "David Revoy <https://framagit.org/Deevad>"
      ]
   },
   "software":[
      {
         "name": "Krita",
         "version": "2.9.7"
      },
      {
         "name": "G'MIC",
         "version": "1.6.5.2"
      },
      {
         "name": "Inkscape",
         "version": "0.91"
      },
      {
         "name": "Linux Mint",
         "version": "17"
      }
   ]
}

