<?xml version="1.0" encoding="UTF-8" standalone="no"?>
<!-- Created with Inkscape (http://www.inkscape.org/) -->

<svg
   xmlns:dc="http://purl.org/dc/elements/1.1/"
   xmlns:cc="http://creativecommons.org/ns#"
   xmlns:rdf="http://www.w3.org/1999/02/22-rdf-syntax-ns#"
   xmlns:svg="http://www.w3.org/2000/svg"
   xmlns="http://www.w3.org/2000/svg"
   xmlns:xlink="http://www.w3.org/1999/xlink"
   xmlns:sodipodi="http://sodipodi.sourceforge.net/DTD/sodipodi-0.dtd"
   xmlns:inkscape="http://www.inkscape.org/namespaces/inkscape"
   id="svg2"
   version="1.1"
   inkscape:version="0.92.3 (2405546, 2018-03-11)"
   width="2481"
   height="3503"
   sodipodi:docname="E12P03.svg">
  <sodipodi:namedview
     pagecolor="#ffffff"
     bordercolor="#666666"
     inkscape:pageopacity="0"
     inkscape:pageshadow="2"
     inkscape:window-width="1813"
     inkscape:window-height="955"
     id="namedview70"
     showgrid="false"
     inkscape:zoom="0.4"
     inkscape:cx="734.64904"
     inkscape:cy="804.38294"
     inkscape:current-layer="layer1"
     inkscape:window-x="0"
     inkscape:window-y="0"
     inkscape:window-maximized="0" />
  <metadata
     id="metadata8">
    <rdf:RDF>
      <cc:Work
         rdf:about="">
        <dc:format>image/svg+xml</dc:format>
        <dc:type
           rdf:resource="http://purl.org/dc/dcmitype/StillImage" />
        <dc:title />
      </cc:Work>
    </rdf:RDF>
  </metadata>
  <defs
     id="defs6">
    <filter
       style="color-interpolation-filters:sRGB"
       id="filter4375-4-1-7-3-7"
       inkscape:label="deevad outline effect">
      <feFlood
         id="feFlood4377-7-9-2-4-1"
         flood-opacity="1"
         flood-color="rgb(60,100,48)"
         result="flood" />
      <feComposite
         id="feComposite4379-3-8-5-4-75"
         in2="SourceGraphic"
         in="flood"
         operator="in"
         result="composite1" />
      <feMorphology
         id="feMorphology4393-1-0-4-5-8"
         operator="dilate"
         radius="4"
         result="result3" />
      <feComposite
         id="feComposite4385-9-5-2-1-5"
         in2="result3"
         in="SourceGraphic"
         operator="over"
         result="composite2" />
    </filter>
    <filter
       style="color-interpolation-filters:sRGB"
       id="filter4375-4-1-7-3-7-6"
       inkscape:label="deevad outline effect">
      <feFlood
         id="feFlood4377-7-9-2-4-1-8"
         flood-opacity="1"
         flood-color="rgb(60,100,48)"
         result="flood" />
      <feComposite
         id="feComposite4379-3-8-5-4-75-5"
         in2="SourceGraphic"
         in="flood"
         operator="in"
         result="composite1" />
      <feMorphology
         id="feMorphology4393-1-0-4-5-8-4"
         operator="dilate"
         radius="4"
         result="result3" />
      <feComposite
         id="feComposite4385-9-5-2-1-5-1"
         in2="result3"
         in="SourceGraphic"
         operator="over"
         result="composite2" />
    </filter>
  </defs>
  <sodipodi:namedview
     pagecolor="#ffffff"
     bordercolor="#666666"
     borderopacity="1"
     objecttolerance="10"
     gridtolerance="10"
     guidetolerance="10"
     inkscape:pageopacity="0"
     inkscape:pageshadow="2"
     inkscape:window-width="1920"
     inkscape:window-height="1025"
     id="namedview4"
     showgrid="false"
     inkscape:zoom="0.52900001"
     inkscape:cx="1115.0786"
     inkscape:cy="1421.7276"
     inkscape:window-x="0"
     inkscape:window-y="26"
     inkscape:window-maximized="1"
     inkscape:current-layer="layer1" />
  <g
     inkscape:groupmode="layer"
     id="layer2"
     inkscape:label="artwork"
     sodipodi:insensitive="true">
    <image
       xlink:href="../gfx_Pepper-and-Carrot_by-David-Revoy_E12P03.png"
       width="2481"
       height="3503"
       id="image10"
       x="0"
       y="0" />
  </g>
  <g
     inkscape:groupmode="layer"
     id="layer3"
     inkscape:label="speechbubbles" />
  <g
     inkscape:groupmode="layer"
     id="layer1"
     inkscape:label="txt">
    <path
       style="color:#000000;display:inline;overflow:visible;visibility:visible;fill:#ffffff;fill-opacity:1;fill-rule:nonzero;stroke:none;stroke-width:1px;marker:none;enable-background:accumulate"
       d="m 1451.6891,2375.8093 c 58.7023,-40.2328 74.2517,-66.7852 83.6395,-84.5531 -18.192,-19.5453 -34.2979,-26.4643 -42.5827,-40.8563 31.517,-4.8173 59.7042,-4.3629 69.2765,1.3288 22.6858,-33.1454 -24.8003,-30.4847 -24.8003,-30.4847 0,0 -49.2813,4.066 -77.5084,12.5569 5.4898,31.6668 40.314,52.0029 45.4103,58.94 -10.9648,48.502 -45.6639,73.3026 -53.4349,83.0684 z"
       id="path5162"
       inkscape:connector-curvature="0"
       sodipodi:nodetypes="cccccccc" />
    <path
       style="color:#000000;display:inline;overflow:visible;visibility:visible;fill:#ffffff;fill-opacity:1;fill-rule:nonzero;stroke:none;stroke-width:1px;marker:none;enable-background:accumulate"
       d="m 360.65741,1428.9168 c 3.96899,-2.1762 19.79333,-6.9821 19.79333,-6.9821 0.55874,-0.5426 31.82703,-6.6724 33.89724,-3.2539 23.50142,-1.8382 18.51495,16.9819 16.90818,17.9577 23.09413,3.5551 36.75984,-0.6117 56.56622,-7.1964 -18.01666,1.9167 -27.40814,2.7487 -39.91218,-3.6394 -9.20058,-5.3807 -7.73265,-12.4453 -4.16316,-19.8417 -16.63434,-0.4326 -32.65372,-1.9056 -38.35236,-20.837 l -3.29059,-6.528 c -65.32627,-16.3385 -79.16215,32.6762 -41.44668,50.3208 z"
       id="path4448"
       inkscape:connector-curvature="0"
       sodipodi:nodetypes="cccccccccc" />
    <path
       style="display:inline;fill:#ffffff;fill-rule:evenodd;stroke:none;stroke-width:1.0481118px;stroke-linecap:butt;stroke-linejoin:miter;stroke-opacity:1"
       d="m 2370.9082,248.65253 c 0.2091,60.00442 -9.6008,55.06795 -33.5846,81.50546 -24.5527,27.06455 -34.4691,31.51442 -72.7028,42.0366 -31.658,8.71221 -51.371,-5.44306 -74.0382,2.48573 -22.6673,7.9284 -49.3316,32.26008 -80.7413,33.7761 -31.4099,1.5164 -60.1311,-38.06666 -80.2577,-39.01731 -20.1268,-0.95055 -51.7192,27.72158 -67.3736,26.98224 -15.6541,-0.73931 -48.9756,-25.80508 -66.8661,-26.65001 -17.8905,-0.84505 -37.5055,26.95832 -68.7124,22.48471 -31.2069,-4.47374 -52.6214,-31.02757 -72.8495,-28.98316 -20.2282,2.04426 -35.2192,29.00799 -70.7974,21.328 -35.5782,-7.67973 -60.6539,-28.15508 -74.2745,-22.7988 -13.6206,5.35613 -50.4421,31.094 -88.1551,20.31359 -37.7132,-10.78053 -49.9627,-44.4408 -70.0897,-45.39146 -20.1266,-0.95054 -44.9765,-14.92151 -56.0037,-35.69269 -14.6919,-27.6747 27.9859,-31.07671 15.5434,-61.19348 -10.7671,-26.06232 -13.9061,-23.48827 -7.7506,-54.12051 4.7304,-23.54022 31.9338,-31.98892 56.736,-36.81693 24.8021,-4.82812 19.168,-34.39081 48.3414,-36.01281 29.1734,-1.62187 44.0533,21.6214 75.3616,23.10005 31.3083,1.47866 61.8173,-39.228861 88.4503,-31.97151 26.6329,7.25733 55.5997,25.13316 88.8024,23.05587 53.6258,-3.35493 57.972,-23.58056 89.3818,-25.09685 31.4097,-1.51629 56.1036,28.2574 80.7031,29.41926 24.5996,1.16186 48.1617,-32.194448 83.7446,-24.55061 35.4492,7.61519 22.9581,12.22226 66.4853,19.82532 31.0357,5.42111 19.8493,-22.24148 80.7247,-20.55161 35.802,0.99384 35.8087,24.71216 66.2029,39.0563 31.0909,14.67268 60.2634,-17.0926 92.3821,-2.20239 39.6453,18.37952 59.2506,72.73624 51.3376,105.6809 z"
       id="path5057"
       inkscape:connector-curvature="0"
       sodipodi:nodetypes="cssssssssssssssssssssssssssssc" />
    <path
       style="color:#000000;display:inline;overflow:visible;visibility:visible;fill:#ffffff;fill-opacity:1;fill-rule:nonzero;stroke:none;stroke-width:1px;marker:none;enable-background:accumulate"
       d="m 1422.2566,272.72798 c -9.0465,17.17821 -22.1298,35.41844 -25.8633,37.63371 -3.7335,2.21528 -29.1071,-2.82552 -32.6588,2.42499 -3.5516,5.25048 -0.184,20.39637 -3.1892,23.03676 -3.005,2.64026 -22.248,2.15282 -24.7979,6.52322 -2.55,4.3704 -5.4057,31.01895 -7.9857,32.93092 -2.5801,1.91189 -16.4823,12.35157 -25.5588,27.07123 27.6826,-18.9975 34.9365,-17.20605 38.4881,-22.45653 3.5518,-5.25051 3.3409,-22.45998 7.9244,-26.13214 4.5834,-3.67214 23.0981,-3.60961 26.498,-9.43687 3.3999,-5.82716 2.2477,-17.23961 2.2477,-17.23961 5.6756,2.82332 37.3315,12.99419 59.43,-13.16691 22.0987,-26.16114 -14.5345,-41.18877 -14.5345,-41.18877 z"
       id="path5050"
       inkscape:connector-curvature="0" />
    <path
       style="color:#000000;display:inline;overflow:visible;visibility:visible;fill:#ffffff;fill-opacity:1;fill-rule:nonzero;stroke:none;stroke-width:1px;marker:none;enable-background:accumulate"
       d="m 302.45497,1247.2041 c -0.72586,10.7691 4.61327,46.7566 23.3544,17.1486 11.73064,53.8925 50.01371,45.6317 113.9568,25.6267 -30.0755,25.5248 -33.68351,63.3139 -4.70964,70.2726 -10.52722,10.176 -6.2823,22.0327 11.14346,35.3894 -30.96555,-4.2774 -40.13682,0.9564 5.15189,29.9566 -38.37944,-15.3101 -74.68819,-28.7424 -45.75549,16.9831 -14.34068,-5.2656 -34.47176,-41.7222 -57.06199,30.4356 -11.83439,-31.1777 -30.72405,-53.6181 -88.35886,-23.228 0.19749,-21.5567 -7.76041,-39.5401 -49.90586,-27.8686 3.92195,-19.8183 -29.52488,-35.7654 -44.17028,-37.6038 36.60897,-8.5199 42.68214,-20.873 9.24023,-37.3588 78.04732,-10.2422 27.69985,-25.0426 23.47944,-37.812 52.40176,7.2754 40.696,-16.2319 41.20861,-34.5048 52.5427,21.6245 49.23904,-9.4184 62.42729,-27.4366 z"
       id="path3549-3"
       inkscape:connector-curvature="0"
       sodipodi:nodetypes="ccccccccccccccc" />
    <flowRoot
       transform="matrix(0.90617713,0,-0.22078013,1.6225798,-90.595202,884.77795)"
       style="font-style:normal;font-variant:normal;font-weight:normal;font-stretch:normal;line-height:0.01%;font-family:Lavi;-inkscape-font-specification:Lavi;text-align:center;letter-spacing:0px;word-spacing:0px;text-anchor:middle;fill:#000000;fill-opacity:1;stroke:#000000;stroke-width:2.47324347;stroke-miterlimit:4;stroke-dasharray:none;stroke-opacity:1"
       id="flowRoot4212-3-7-8-6"
       xml:space="preserve"><flowRegion
         id="flowRegion4214-6-7-8-3"><rect
           style="font-style:normal;font-variant:normal;font-weight:normal;font-stretch:normal;font-family:Lavi;-inkscape-font-specification:Lavi;text-align:center;text-anchor:middle;stroke:#000000;stroke-width:2.47324347;stroke-miterlimit:4;stroke-dasharray:none;stroke-opacity:1"
           y="265.53046"
           x="120.55251"
           height="355.03918"
           width="798.1947"
           id="rect4216-4-0-26-5" /></flowRegion><flowPara
         style="font-size:48px;line-height:1.25;text-align:center;letter-spacing:5.20896292px;text-anchor:middle;stroke:#000000;stroke-width:2.47324347;stroke-miterlimit:4;stroke-dasharray:none;stroke-opacity:1"
         id="flowPara4358-7-1">Grrr !</flowPara></flowRoot>    <path
       style="color:#000000;display:inline;overflow:visible;visibility:visible;fill:#ffffff;fill-opacity:1;fill-rule:nonzero;stroke:none;stroke-width:1.11666322px;marker:none;enable-background:accumulate"
       d="m 1769.4956,1080.0965 -63.5498,-21.5282 16.0546,38.6549 c -29.6034,1.2889 -45.0273,-6.1658 -66.032,-10.1794 l 33.0159,30.5385 -5.5026,8.4832 c 5.3602,4.96 13.4485,8.343 15.4074,15.2693 -14.9544,4.3163 -25.7065,4.3135 -38.0739,5.9707 11.6369,5.7363 21.3252,12.3737 28.1691,20.3266 l -39.619,13.5726 36.3152,11.8742 c -27.3153,19.5261 -61.6468,31.8406 -93.543,46.6585 l 58.5824,-0.3132 -50.6009,43.7408 c 13.195,-2.8537 45.8789,-7.6355 65.8791,-12.6233 -12.4479,8.3116 -75.8418,59.9367 -72.0905,57.5828 4.402,-0.8484 93.0059,-38.6878 93.0059,-38.6878 0,0 -47.158,30.8236 -42.7559,30.8236 4.402,0 61.049,-13.8931 61.049,-13.8931 l -31.5513,39.6978 68.5361,-22.4473 -22.4612,26.7112 c 12.312,-1.6754 26.4432,-4.0281 22.0658,5.8746 43.9853,-18.9279 35.9597,-15.119 -2.31,30.4075 25.104,-13.5435 39.7035,-27.2749 75.5965,-41.9183 8.6509,13.0187 9.8734,31.1058 5.9657,48.5864 11.783,-13.2953 21.4796,-29.0437 44.0214,-29.6903 9.0658,2.9665 7.1262,12.4027 7.7037,20.3591 l 33.016,-25.4489 v 26.2973 c 15.239,-20.3577 28.5097,-25.7357 42.9207,-30.5389 11.9021,6.4626 23.8137,14.535 22.002,41.4405 17.6114,-22.8764 36.9229,-32.7563 52.8342,-26.1709 9.4642,10.5898 11.7289,22.7184 14.307,34.7801 2.7009,-11.3772 2.9693,-24.3431 11.0055,-32.2354 5.0096,7.5167 3.8971,17.4325 3.3016,27.1456 7.7682,-18.5356 19.2686,-27.5644 30.8147,-36.4767 17.4349,7.3877 19.2953,20.6014 23.1114,33.0836 5.9758,-14.588 7.6636,-17.1797 22.0104,-30.5387 43.4087,0.7761 66.5063,45.0379 82.54,83.133 -4.6453,-34.2443 -8.5217,-67.5009 -6.6032,-93.3126 12.4726,-2.6899 24.9453,2.6901 37.4181,10.1796 l -6.6032,-22.9042 46.2224,15.2694 -20.9103,-35.6285 c 70.557,-1.1416 56.3926,4.9729 72.6355,8.4831 l -13.2066,-22.9041 48.4236,17.8142 c -13.2285,-18.9538 -25.5324,-30.0657 -34.5481,-47.3958 l 45.5533,-5.1988 c -19.8381,-15.248 -29.3282,-23.1191 -47.6169,-38.64 l 33.3101,-9.7129 -41.8203,-25.4488 33.0159,-14.4212 -26.4127,-3.3932 44.0212,-30.5387 -58.3283,-2.5449 70.4342,-55.1393 -81.4393,11.8763 6.6031,-39.8701 -45.1218,28.8422 21.685,-79.4273 c -37.2459,34.1796 -46.4885,32.7376 -90.5422,69.6071 l 13.6742,-35.7438 -47.1666,30.8974 4.4021,-28.5966 -64.9313,34.7801 6.6032,-16.1177 -19.8096,15.2693 4.4019,-21.2074 -34.1163,25.449 3.1411,-22.1736 -16.3476,14.5388 -5.0339,-13.9321 -19.1778,8.8423 c -5.7704,-36.7595 -8.55,-47.6791 -1.6896,-84.43866 -22.516,42.08096 -38.4154,54.30616 -76.4483,86.13526 l -12.1058,-16.1119 -15.0941,14.8985 -15.2469,-19.2577 -22.9558,23.0123 c -18.1531,-17.5315 -28.726,-28.2729 -35.8463,-45.8042 3.5114,16.4305 6.0647,27.4682 0.9425,45.5625 -67.013,-27.703 -90.0856,-45.5625 -90.0856,-45.5625 0,0 10.7289,28.9053 15.5798,45.6472 z"
       id="path4024"
       inkscape:connector-curvature="0"
       sodipodi:nodetypes="cccccccccccccccccsccccccccccccccccccccccccccccccccccccccccccccccccccccccccccccccccccc" />
    <path
       style="color:#000000;display:inline;overflow:visible;visibility:visible;fill:#ffffff;fill-opacity:1;fill-rule:nonzero;stroke:none;stroke-width:1px;marker:none;enable-background:accumulate"
       d="m 1495.2162,1145.0088 c 45.2667,-1.3399 91.122,-12.2107 135.7051,-2.4766 l -30.5598,-34.6986 c 17.4874,-8.2093 36.1977,-1.4791 54.4929,0.1778 l -16.1244,-25.907 c 41.4303,-18.6844 80.9068,-12.0098 121.3275,-17.5923 l -30.8631,-41.9161 c -40.548,12.2593 -79.3563,33.3843 -121.8615,35.6716 l 13.7717,27.627 c -14.6613,3.6275 -29.4343,6.4581 -44.7057,5.7293 l 19.6323,32.4356 z"
       id="path4032"
       inkscape:connector-curvature="0"
       sodipodi:nodetypes="cccccccccccc" />
    <path
       style="color:#000000;display:inline;overflow:visible;visibility:visible;fill:#ffffff;fill-opacity:1;fill-rule:nonzero;stroke:none;stroke-width:0.95073891px;marker:none;enable-background:accumulate"
       d="m 1708.1139,935.25405 c -7.6721,19.09734 -50.9437,20.69873 -66.8731,16.81686 32.1101,21.36388 30.9907,34.63761 -12.6058,36.6986 73.112,38.50329 13.3658,32.67689 1.5813,42.44019 57.4065,13.2691 31.7222,29.7828 21.5019,46.2219 65.9832,0.5647 44.3899,26.916 47.1709,47.9032 5.5938,-9.8481 32.1683,-39.8301 33.7673,-6.4472 43.6439,-31.8491 96.212,-52.4221 100.3861,3.3141 17.5849,-28.0394 35.1171,-39.8899 33.7672,-6.4472 43.5699,-43.4965 82.7235,-27.8398 122.109,-15.546 10.3445,-13.1283 11.5498,-33.2971 45.0165,-28.5707 -4.6925,-13.0124 6.6072,-21.9571 32.1258,-27.2689 -33.9101,-7.8604 -40.1596,-15.9683 22.8039,-24.6936 -47.9115,-0.844 -92.5894,-2.5731 -36.3787,-32.32905 -17.6348,-0.72001 -59.4753,24.10915 -39.9677,-48.55388 -30.3241,23.26196 -62.6771,36.10093 -103.2508,-12.62696 -19.2016,24.34349 -52.5062,36.38962 -66.9953,5.98266 -5.2078,12.96303 -26.8017,17.83821 -45.1333,18.42943 -7.0888,-5.14917 -14.4002,-12.14303 -22.0299,-21.30612 -12.4701,19.24006 -31.1241,32.23394 -66.9953,5.98267 z"
       id="path3549-3-7"
       inkscape:connector-curvature="0"
       sodipodi:nodetypes="cccccccccccccccccccc" />
    <flowRoot
       xml:space="preserve"
       id="flowRoot2987-4-9-3-0"
       style="font-style:normal;font-variant:normal;font-weight:normal;font-stretch:normal;line-height:0.01%;font-family:Lavi;-inkscape-font-specification:Lavi;text-align:center;letter-spacing:0px;word-spacing:0px;text-anchor:middle;fill:#000000;fill-opacity:1;stroke:none"
       transform="matrix(1.0770452,0,0,1.2835583,1385.7088,652.66334)"><flowRegion
         id="flowRegion2989-5-4-5-1"><rect
           id="rect2991-7-9-6-4"
           width="602.40173"
           height="310.73996"
           x="120.55251"
           y="265.53046"
           style="font-style:normal;font-variant:normal;font-weight:normal;font-stretch:normal;font-family:Lavi;-inkscape-font-specification:Lavi;text-align:center;text-anchor:middle" /></flowRegion><flowPara
         style="font-size:45px;line-height:1.25;text-align:center;letter-spacing:1.5px;text-anchor:middle;stroke:#000000;stroke-width:1.10000002;stroke-miterlimit:4;stroke-dasharray:none;stroke-opacity:1"
         id="flowPara3030-8-7">A CHURRAIN!</flowPara></flowRoot>    <flowRoot
       xml:space="preserve"
       id="flowRoot2987-4-9-3-7-8-6-6-6-0-7-2"
       style="font-style:normal;font-variant:normal;font-weight:normal;font-stretch:normal;line-height:0.01%;font-family:Lavi;-inkscape-font-specification:Lavi;text-align:center;letter-spacing:0px;word-spacing:0px;text-anchor:middle;display:inline;fill:#000000;fill-opacity:1;stroke:none"
       transform="translate(1411.5706,848.02983)"><flowRegion
         id="flowRegion2989-5-4-5-5-1-2-4-2-0-8-9"><rect
           id="rect2991-7-9-6-9-5-7-2-1-3-2-1"
           width="926.47241"
           height="235.76709"
           x="120.55251"
           y="265.53046"
           style="font-style:normal;font-variant:normal;font-weight:normal;font-stretch:normal;font-family:Lavi;-inkscape-font-specification:Lavi;text-align:center;text-anchor:middle" /></flowRegion><flowPara
         style="font-size:45px;line-height:1.25;text-align:center;text-anchor:middle"
         id="flowPara85">Faigh lorg leabhar a seachd </flowPara><flowPara
         style="font-size:45px;line-height:1.25;text-align:center;text-anchor:middle"
         id="flowPara89">na Dubh-choimeasgachd:</flowPara><flowPara
         style="font-size:45px;line-height:1.25;text-align:center;text-anchor:middle"
         id="flowPara75">“Raointean cumhachd-talmhainn”</flowPara><flowPara
         style="font-size:45px;line-height:1.25;text-align:center;text-anchor:middle"
         id="flowPara77">... gun dàil!</flowPara></flowRoot>    <path
       style="fill:#ffffff;fill-opacity:1;stroke:none;stroke-width:1.12636447"
       d="m 1312.427,2088.7653 c 41.1093,9.0751 56.9204,17.5015 49.5416,22.6875 16.8654,2.5928 23.1901,70.0076 7.3788,82.3236 -1.054,1.2968 -8.4327,5.1858 -5.2704,5.8341 3.1621,0.6482 22.1356,-1.2962 25.2978,1.2965 3.1623,2.5929 -28.4601,39.5412 -24.244,40.8377 4.2166,1.2963 101.1922,-23.336 114.8951,-17.502 13.7031,5.834 6.3246,20.7429 10.5411,21.3914 4.216,0.6482 43.2173,-3.241 48.4877,-2.5931 5.2702,0.6484 14.7567,20.0947 20.0272,20.7428 5.2705,0.6483 29.5144,-8.4265 33.7308,-7.7784 4.2165,0.6483 2.1081,16.8538 7.3785,17.5015 5.2705,0.6487 28.4602,-13.6124 31.6224,-12.9643 3.1622,0.6485 14.7574,33.0597 20.0276,35.004 5.2704,1.9448 39.001,-35.6521 42.1633,-36.3002 3.162,-0.6482 23.1897,44.0791 27.406,44.7271 4.2166,0.6484 25.2981,-30.4666 28.4604,-29.8179 3.1621,0.648 23.1897,18.7982 27.406,20.0946 4.2162,1.2964 31.6224,-40.1894 35.8387,-40.1894 4.2166,0 40.0552,17.5016 43.2177,20.7428 3.162,3.2413 6.324,-16.8538 10.5406,-16.8538 4.2164,0 52.7042,11.6681 53.7582,11.02 1.0538,-0.6484 -7.3787,-12.9644 -4.2163,-12.9644 3.1623,0 52.7039,16.2055 54.8124,12.9644 2.1078,-3.2411 107.5161,16.2054 114.8946,13.6124 7.3788,-2.5926 -47.4336,-53.1538 -42.1636,-57.0428 5.2706,-3.8895 24.2444,0.6478 25.2984,-1.2967 1.054,-1.9447 -11.5949,-10.3714 -8.433,-12.9644 3.1625,-2.5928 39.0012,-12.964 42.1634,-16.2051 3.1623,-3.2414 -15.8111,-11.6683 -11.5948,-13.6128 4.2163,-1.9448 66.4073,-14.2608 67.4614,-17.502 1.0539,-3.2411 -31.6224,-18.798 -27.4065,-23.3357 4.2164,-4.5375 15.8115,-6.4821 14.7573,-9.7233 -1.0541,-3.2412 -21.0817,-7.1305 -20.0274,-10.3715 1.0542,-3.2412 11.5947,-19.4465 14.757,-22.0394 3.1622,-2.5928 -22.1357,-1.2964 -22.1357,-3.8894 0,-2.5926 92.7592,-71.9523 90.6509,-91.3988 -32.6765,12.3162 -144.4091,34.3558 -179.1935,29.17 -34.7851,-5.1857 -21.0818,-37.5967 -26.3522,-39.5412 -5.2702,-1.9447 -44.2715,11.0199 -49.542,6.482 -5.2704,-4.5375 -7.3783,-12.964 -11.5949,-12.964 -4.2162,0 -28.4602,18.1494 -33.7304,17.5019 -5.2706,-0.6487 -54.8123,-29.17 -62.1909,-29.8184 -7.3786,-0.648 -35.8388,11.0199 -42.1633,11.6679 -6.3245,0.6486 -11.5948,-15.5572 -16.8653,-14.2605 -5.2706,1.2964 -39.0011,12.9643 -44.2711,11.6678 -5.2706,-1.2964 -9.4869,-6.4819 -13.7036,-5.1858 -4.2159,1.2963 -23.1895,6.4823 -23.1895,6.4823 -11.6363,3.2889 -21.7873,-6.5372 -20.0276,-3.8895 3.8333,5.7677 -49.3104,22.1755 -54.8123,22.6875 -5.2703,1.2962 -50.5959,-49.2644 -47.4337,-53.1535 3.1626,-3.8894 -47.4336,53.8022 -54.8123,55.7466 -7.3784,1.9444 -29.5142,-3.8892 -31.6222,-1.9444 -2.1084,1.9444 -8.4329,12.3159 -14.7573,12.9641 -6.3245,0.648 -21.0816,3.2409 -21.0816,3.2409 l 2.1081,3.8897 c 0,0 -44.2714,-10.3717 -49.5417,-14.2611 -5.2703,-3.8892 3.1622,16.8536 6.3244,22.0395 -18.9732,-5.1859 -74.8397,-16.2056 -79.0557,-19.4467 -4.2168,-3.2409 7.3783,11.6683 13.7028,16.2055 -8.4327,-1.9447 -15.8114,-2.5929 -15.8114,-2.5929 l 24.244,15.5573 -7.3787,1.2966 c 0,0 15.8112,7.1304 15.8112,10.3715 0,3.2408 -41.1091,7.1302 -41.1091,7.1302 0,0 16.8654,5.8339 12.649,9.075 -4.2164,3.241 -14.7571,5.1856 -14.7571,5.1856 l -2.1082,8.427 z"
       id="path5888"
       inkscape:connector-curvature="0"
       sodipodi:nodetypes="cccsccscccccccccccscscsccsscsccccccscsssscccccscsccsccccsccccccsccccc" />
    <flowRoot
       xml:space="preserve"
       id="flowRoot2987-4-9-3-7-8-6-6-6-0-7-2-6"
       style="font-style:normal;font-variant:normal;font-weight:normal;font-stretch:normal;line-height:0.01%;font-family:Lavi;-inkscape-font-specification:Lavi;text-align:center;letter-spacing:0px;word-spacing:0px;text-anchor:middle;display:inline;fill:#000000;fill-opacity:1;stroke:none"
       transform="translate(1251.9919,1757.0962)"><flowRegion
         id="flowRegion2989-5-4-5-5-1-2-4-2-0-8-9-7"><rect
           id="rect2991-7-9-6-9-5-7-2-1-3-2-1-0"
           width="729.505"
           height="254.93558"
           x="120.55251"
           y="265.53046"
           style="font-style:normal;font-variant:normal;font-weight:normal;font-stretch:normal;font-family:Lavi;-inkscape-font-specification:Lavi;text-align:center;text-anchor:middle" /></flowRegion><flowPara
         style="font-size:45px;line-height:1.25;text-align:center;text-anchor:middle"
         id="flowPara3597">Seallaidh mi dhan fheannag theagmhail a tha seo dè th’ ann am bana-bhuidseach cheart na Dubh-choimeasgachd!</flowPara></flowRoot>    <flowRoot
       xml:space="preserve"
       id="flowRoot2987-7-9-9-7-0-3-5-2-6"
       style="font-style:normal;font-variant:normal;font-weight:normal;font-stretch:normal;line-height:0.01%;font-family:Lavi;-inkscape-font-specification:Lavi;letter-spacing:0px;word-spacing:0px;fill:#000000;fill-opacity:1;stroke:#000000;stroke-width:0.99236238;stroke-miterlimit:4;stroke-dasharray:none;stroke-opacity:1;filter:url(#filter4375-4-1-7-3-7)"
       transform="matrix(0.69413547,-0.3960575,-0.18345695,1.6511803,1948.8802,2819.5754)"
       inkscape:transform-center-x="192.72092"
       inkscape:transform-center-y="-136.44814"><flowRegion
         id="flowRegion2989-4-5-8-7-41-7-68-63-1"
         style="stroke-width:5.40286207"><rect
           id="rect2991-45-1-3-3-8-0-3-6-32"
           width="319.66232"
           height="56.089447"
           x="120.55251"
           y="265.53046"
           style="font-style:normal;font-variant:normal;font-weight:normal;font-stretch:normal;font-family:Lavi;-inkscape-font-specification:Lavi;fill:#000000;fill-opacity:1;stroke:#000000;stroke-width:0.99236238;stroke-miterlimit:4;stroke-dasharray:none;stroke-opacity:1" /></flowRegion><flowPara
         id="flowPara2995-4-1-5-0-7-2-5-3-0"
         style="font-weight:normal;font-size:48px;line-height:1.25;-inkscape-font-specification:Lavi;letter-spacing:7.06853437px;fill:#ffffff;fill-opacity:1;stroke:#ffffff;stroke-width:0.99236238;stroke-linejoin:miter;stroke-miterlimit:4;stroke-dasharray:none;stroke-opacity:1">Tom</flowPara></flowRoot>    <flowRoot
       xml:space="preserve"
       id="flowRoot2987-7-9-9-7-0-3-5-2-6-5"
       style="font-style:normal;font-variant:normal;font-weight:normal;font-stretch:normal;line-height:0.01%;font-family:Lavi;-inkscape-font-specification:Lavi;letter-spacing:0px;word-spacing:0px;fill:#000000;fill-opacity:1;stroke:#000000;stroke-width:0.99236238;stroke-miterlimit:4;stroke-dasharray:none;stroke-opacity:1;filter:url(#filter4375-4-1-7-3-7-6)"
       transform="matrix(0.74738538,-0.36226504,-0.23031168,1.5278671,2214.8064,2821.3226)"
       inkscape:transform-center-x="202.28223"
       inkscape:transform-center-y="-127.60543"><flowRegion
         id="flowRegion2989-4-5-8-7-41-7-68-63-1-5"
         style="stroke-width:5.40286207"><rect
           id="rect2991-45-1-3-3-8-0-3-6-32-1"
           width="319.66232"
           height="56.089447"
           x="120.55251"
           y="265.53046"
           style="font-style:normal;font-variant:normal;font-weight:normal;font-stretch:normal;font-family:Lavi;-inkscape-font-specification:Lavi;fill:#000000;fill-opacity:1;stroke:#000000;stroke-width:0.99236238;stroke-miterlimit:4;stroke-dasharray:none;stroke-opacity:1" /></flowRegion><flowPara
         id="flowPara2995-4-1-5-0-7-2-5-3-0-4"
         style="font-weight:normal;font-size:48px;line-height:1.25;-inkscape-font-specification:Lavi;letter-spacing:7.06853437px;fill:#ffffff;fill-opacity:1;stroke:#ffffff;stroke-width:0.99236238;stroke-linejoin:miter;stroke-miterlimit:4;stroke-dasharray:none;stroke-opacity:1">Tom</flowPara></flowRoot>    <flowRoot
       xml:space="preserve"
       id="flowRoot2987-4-9-3-7-8-6-6-6-0-7"
       style="font-style:normal;font-variant:normal;font-weight:normal;font-stretch:normal;line-height:0.01%;font-family:Lavi;-inkscape-font-specification:Lavi;text-align:center;letter-spacing:0px;word-spacing:0px;text-anchor:middle;display:inline;fill:#000000;fill-opacity:1;stroke:none"
       transform="translate(1312.4889,-113.30138)"><flowRegion
         id="flowRegion2989-5-4-5-5-1-2-4-2-0-8"><rect
           id="rect2991-7-9-6-9-5-7-2-1-3-2"
           width="908.97241"
           height="290.76709"
           x="120.55251"
           y="265.53046"
           style="font-style:normal;font-variant:normal;font-weight:normal;font-stretch:normal;font-family:Lavi;-inkscape-font-specification:Lavi;text-align:center;text-anchor:middle" /></flowRegion><flowPara
         style="font-size:42.66666794px;line-height:1.25;text-align:center;text-anchor:middle"
         id="flowPara63">“Agus na cleachd draoidheachd air dòigh </flowPara><flowPara
         style="font-size:42.66666794px;line-height:1.25;text-align:center;text-anchor:middle"
         id="flowPara69">sam bith. Cha chleachd bana-bhuidseach cheart na Dubh-choimeasgachd draoidheachd airson dreuchd an latha.”</flowPara></flowRoot>    <text
       xml:space="preserve"
       style="font-style:normal;font-weight:normal;font-size:42.66666794px;line-height:1.25;font-family:sans-serif;letter-spacing:0px;word-spacing:0px;fill:#000000;fill-opacity:1;stroke:none"
       x="2142.5"
       y="1120.5"
       id="text81"><tspan
         sodipodi:role="line"
         id="tspan79"
         x="2142.5"
         y="1158.25" /></text>
  </g>
</svg>
