<?xml version="1.0" encoding="UTF-8" standalone="no"?>
<!-- Created with Inkscape (http://www.inkscape.org/) -->

<svg
   xmlns:dc="http://purl.org/dc/elements/1.1/"
   xmlns:cc="http://creativecommons.org/ns#"
   xmlns:rdf="http://www.w3.org/1999/02/22-rdf-syntax-ns#"
   xmlns:svg="http://www.w3.org/2000/svg"
   xmlns="http://www.w3.org/2000/svg"
   xmlns:xlink="http://www.w3.org/1999/xlink"
   xmlns:sodipodi="http://sodipodi.sourceforge.net/DTD/sodipodi-0.dtd"
   xmlns:inkscape="http://www.inkscape.org/namespaces/inkscape"
   id="svg2"
   version="1.1"
   inkscape:version="0.92.2 5c3e80d, 2017-08-06"
   width="2481"
   height="3503"
   sodipodi:docname="E28P04.svg">
  <metadata
     id="metadata8">
    <rdf:RDF>
      <cc:Work
         rdf:about="">
        <dc:format>image/svg+xml</dc:format>
        <dc:type
           rdf:resource="http://purl.org/dc/dcmitype/StillImage" />
        <dc:title />
      </cc:Work>
    </rdf:RDF>
  </metadata>
  <defs
     id="defs6">
    <filter
       style="color-interpolation-filters:sRGB"
       id="filter4375-4-1-1-1-9"
       inkscape:label="deevad outline effect">
      <feFlood
         id="feFlood4377-7-9-0-8-1"
         flood-opacity="1"
         flood-color="rgb(222,191,116)"
         result="flood" />
      <feComposite
         id="feComposite4379-3-8-8-2-77"
         in2="SourceGraphic"
         in="flood"
         operator="in"
         result="composite1" />
      <feMorphology
         id="feMorphology4393-1-0-49-8-9"
         operator="dilate"
         radius="4"
         result="result3" />
      <feComposite
         id="feComposite4385-9-5-7-0-8"
         in2="result3"
         in="SourceGraphic"
         operator="over"
         result="composite2" />
    </filter>
    <filter
       style="color-interpolation-filters:sRGB"
       id="filter4375-4-1-1-1-9-6"
       inkscape:label="deevad outline effect">
      <feFlood
         id="feFlood4377-7-9-0-8-1-5"
         flood-opacity="1"
         flood-color="rgb(222,191,116)"
         result="flood" />
      <feComposite
         id="feComposite4379-3-8-8-2-77-6"
         in2="SourceGraphic"
         in="flood"
         operator="in"
         result="composite1" />
      <feMorphology
         id="feMorphology4393-1-0-49-8-9-8"
         operator="dilate"
         radius="4"
         result="result3" />
      <feComposite
         id="feComposite4385-9-5-7-0-8-0"
         in2="result3"
         in="SourceGraphic"
         operator="over"
         result="composite2" />
    </filter>
    <filter
       style="color-interpolation-filters:sRGB"
       id="filter987"
       inkscape:label="deevad outline effect">
      <feFlood
         id="feFlood979"
         flood-opacity="1"
         flood-color="rgb(222,191,116)"
         result="flood" />
      <feComposite
         id="feComposite981"
         in2="SourceGraphic"
         in="flood"
         operator="in"
         result="composite1" />
      <feMorphology
         id="feMorphology983"
         operator="dilate"
         radius="4"
         result="result3" />
      <feComposite
         id="feComposite985"
         in2="result3"
         in="SourceGraphic"
         operator="over"
         result="composite2" />
    </filter>
    <filter
       style="color-interpolation-filters:sRGB"
       id="filter4375-4-1-1-1-9-4"
       inkscape:label="deevad outline effect">
      <feFlood
         id="feFlood4377-7-9-0-8-1-8"
         flood-opacity="1"
         flood-color="rgb(222,191,116)"
         result="flood" />
      <feComposite
         id="feComposite4379-3-8-8-2-77-2"
         in2="SourceGraphic"
         in="flood"
         operator="in"
         result="composite1" />
      <feMorphology
         id="feMorphology4393-1-0-49-8-9-3"
         operator="dilate"
         radius="4"
         result="result3" />
      <feComposite
         id="feComposite4385-9-5-7-0-8-8"
         in2="result3"
         in="SourceGraphic"
         operator="over"
         result="composite2" />
    </filter>
    <filter
       style="color-interpolation-filters:sRGB"
       id="filter1046"
       inkscape:label="deevad outline effect">
      <feFlood
         id="feFlood1038"
         flood-opacity="1"
         flood-color="rgb(222,191,116)"
         result="flood" />
      <feComposite
         id="feComposite1040"
         in2="SourceGraphic"
         in="flood"
         operator="in"
         result="composite1" />
      <feMorphology
         id="feMorphology1042"
         operator="dilate"
         radius="4"
         result="result3" />
      <feComposite
         id="feComposite1044"
         in2="result3"
         in="SourceGraphic"
         operator="over"
         result="composite2" />
    </filter>
    <filter
       style="color-interpolation-filters:sRGB"
       id="filter4375-4-1-1-1-9-4-8"
       inkscape:label="deevad outline effect">
      <feFlood
         id="feFlood4377-7-9-0-8-1-8-7"
         flood-opacity="1"
         flood-color="rgb(222,191,116)"
         result="flood" />
      <feComposite
         id="feComposite4379-3-8-8-2-77-2-7"
         in2="SourceGraphic"
         in="flood"
         operator="in"
         result="composite1" />
      <feMorphology
         id="feMorphology4393-1-0-49-8-9-3-3"
         operator="dilate"
         radius="4"
         result="result3" />
      <feComposite
         id="feComposite4385-9-5-7-0-8-8-5"
         in2="result3"
         in="SourceGraphic"
         operator="over"
         result="composite2" />
    </filter>
    <filter
       style="color-interpolation-filters:sRGB"
       id="filter1105"
       inkscape:label="deevad outline effect">
      <feFlood
         id="feFlood1097"
         flood-opacity="1"
         flood-color="rgb(222,191,116)"
         result="flood" />
      <feComposite
         id="feComposite1099"
         in2="SourceGraphic"
         in="flood"
         operator="in"
         result="composite1" />
      <feMorphology
         id="feMorphology1101"
         operator="dilate"
         radius="4"
         result="result3" />
      <feComposite
         id="feComposite1103"
         in2="result3"
         in="SourceGraphic"
         operator="over"
         result="composite2" />
    </filter>
  </defs>
  <sodipodi:namedview
     pagecolor="#ffffff"
     bordercolor="#666666"
     borderopacity="1"
     objecttolerance="10"
     gridtolerance="10"
     guidetolerance="10"
     inkscape:pageopacity="0"
     inkscape:pageshadow="2"
     inkscape:window-width="1440"
     inkscape:window-height="855"
     id="namedview4"
     showgrid="false"
     inkscape:zoom="0.33861241"
     inkscape:cx="1504.4758"
     inkscape:cy="1386.4727"
     inkscape:window-x="0"
     inkscape:window-y="1"
     inkscape:window-maximized="1"
     inkscape:current-layer="layer1"
     inkscape:snap-global="false" />
  <g
     inkscape:groupmode="layer"
     id="layer2"
     inkscape:label="artwork"
     sodipodi:insensitive="true">
    <image
       sodipodi:absref="/Users/almeida/Documents/Git/webcomics/new-ep28_The-Festivities/lang/pt/../gfx_Pepper-and-Carrot_by-David-Revoy_E28P04.png"
       xlink:href="../gfx_Pepper-and-Carrot_by-David-Revoy_E28P04.png"
       y="0"
       x="0"
       id="image10"
       height="3503"
       width="2481" />
  </g>
  <g
     inkscape:groupmode="layer"
     id="layer3"
     inkscape:label="speechbubbles">
    <path
       style="color:#000000;display:inline;overflow:visible;visibility:visible;fill:#ffffff;fill-opacity:1;fill-rule:nonzero;stroke:none;stroke-width:0.94770974px;marker:none;enable-background:accumulate"
       d="m 210.12388,231.36938 c 4.19735,-43.93429 56.2403,-76.55736 191.7032,-69.62631 72.56123,3.71258 154.95256,5.80685 149.64555,70.15926 -5.30709,64.35234 -123.7278,63.85925 -148.17296,65.60234 -24.44518,1.74317 -151.77826,-3.75267 -174.06791,-25.40709 -13.95281,-13.5551 -19.49283,-27.13047 -19.10788,-40.7282 z"
       id="path4546-6"
       inkscape:connector-curvature="0"
       sodipodi:nodetypes="cssssc" />
    <path
       style="color:#000000;display:inline;overflow:visible;visibility:visible;fill:#ffffff;fill-opacity:1;fill-rule:nonzero;stroke:none;stroke-width:1px;marker:none;enable-background:accumulate"
       d="m 522.95156,341.83676 c -42.01307,-12.55848 -55.95663,-19.27588 -57.24338,-67.82246 -1.28666,-48.54662 -20.9759,-45.84166 -20.9759,-45.84166 l -18.70982,30.00689 c 0,0 10.61745,102.6107 96.9291,83.65723 z"
       id="path3072"
       inkscape:connector-curvature="0" />
    <path
       style="fill:#ffffff;fill-opacity:1;stroke:none;stroke-width:0.81936747"
       d="m 1162.823,880.00463 c -4.5124,-75.82433 43.3188,-100.81179 168.763,-97.36523 125.4442,3.4465 154.9934,56.6009 154.6869,84.63658 -0.5392,49.28727 -21.0125,87.48278 -78.8789,104.29173 -58.809,17.08275 -185.2538,-0.0223 -214.2501,-24.57339 -20.8508,-17.65428 -29.4185,-47.17201 -30.3209,-66.98969 z"
       id="path3238"
       inkscape:connector-curvature="0"
       sodipodi:nodetypes="cssssc" />
    <path
       style="color:#000000;display:inline;overflow:visible;visibility:visible;fill:#ffffff;fill-opacity:1;fill-rule:nonzero;stroke:none;stroke-width:0.99999994px;marker:none;enable-background:accumulate"
       d="m 1202.5039,677.28412 c 72.8787,37.68069 84.927,85.98909 79.0153,111.91483 -6.7279,29.50523 -34.8614,35.12104 -34.8614,35.12104 l 55.2996,19.88637 c 34.023,-65.93077 21.1022,-125.89631 -99.4535,-166.92224 z"
       id="path3072-1"
       inkscape:connector-curvature="0"
       sodipodi:nodetypes="csccc" />
    <path
       style="color:#000000;display:inline;overflow:visible;visibility:visible;fill:#ffffff;fill-opacity:1;fill-rule:nonzero;stroke:none;stroke-width:1.01165235px;marker:none;enable-background:accumulate"
       d="m 2282.9528,401.40412 c -97.3394,55.03902 -203.119,16.15071 -234.4518,-18.34047 -31.3326,-34.49112 -47.7239,-146.18455 -13.1619,-189.94195 34.5619,-43.75748 71.4039,-64.78774 163.0332,-64.01166 192.2056,8.96401 163.2119,222.21206 84.5805,272.29408 z"
       id="path4040"
       inkscape:connector-curvature="0"
       sodipodi:nodetypes="csscc" />
    <path
       style="fill:#ffffff;fill-rule:evenodd;stroke:none;stroke-width:1px;stroke-linecap:butt;stroke-linejoin:miter;stroke-opacity:1"
       d="m 2236.3776,401.61616 c -14.8967,27.78135 -16.9465,32.37624 -16.1948,38.97929 0.7516,6.60305 14.7438,14.22693 10.5567,29.15096 -4.1871,14.92405 -44.8499,20.68957 -49.7351,27.13164 -4.8851,6.44207 -11.8101,18.46724 -11.8101,18.46724 0,0 2.4424,-19.675 10.1459,-26.03657 7.7035,-6.36158 35.547,-9.20723 35.9762,-24.23858 0.4293,-15.03135 -15.9529,-17.03818 -15.6309,-28.31169 0.3219,-11.27351 11.4609,-40.56398 11.4609,-40.56398 z"
       id="path922"
       inkscape:connector-curvature="0"
       sodipodi:nodetypes="ccsccscccc" />
    <path
       style="color:#000000;display:inline;overflow:visible;visibility:visible;fill:#ffffff;fill-opacity:1;fill-rule:nonzero;stroke:none;stroke-width:1.00851429px;marker:none;enable-background:accumulate"
       d="m 760.99428,1247.4924 c -0.82136,-33.3711 47.79992,-62.2339 103.65292,-64.5354 55.85291,-2.3014 96.51776,25.9688 101.44593,60.4907 4.92824,34.522 -49.28195,67.8932 -97.74263,69.0439 -48.46066,1.1507 -108.40617,-1.7432 -107.35622,-64.9992 z"
       id="path3565"
       inkscape:connector-curvature="0"
       sodipodi:nodetypes="cscsc" />
    <path
       style="fill:#ffffff;fill-opacity:1;stroke:none;stroke-width:1.09199572"
       d="m 1073.6175,1250.6814 c -2.8577,-33.1575 16.0966,-49.6518 33.3545,-57.4653 21.8719,-9.9025 146.0321,-30.3375 198.6936,6.8159 26.9086,18.9845 29.9934,72.5563 -22.3661,95.7706 -52.3597,23.2142 -139.7444,10.4987 -154.619,6.278 -14.875,-4.2208 -52.088,-15.5227 -55.063,-51.3992 z"
       id="path3659-8"
       inkscape:connector-curvature="0"
       sodipodi:nodetypes="cssssc" />
    <path
       style="color:#000000;display:inline;overflow:visible;visibility:visible;fill:#ffffff;fill-opacity:1;fill-rule:nonzero;stroke:none;stroke-width:1px;marker:none;enable-background:accumulate"
       d="m 762.46876,1339.2067 c 34.84642,4.7576 60.09382,-4.9504 76.31206,-38.0347 16.21824,-33.0844 2.98136,-36.978 2.98136,-36.978 0,0 -22.92398,70.2821 -79.29342,75.0127 z"
       id="path5002"
       inkscape:connector-curvature="0"
       sodipodi:nodetypes="cscc" />
    <path
       style="color:#000000;display:inline;overflow:visible;visibility:visible;fill:#ffffff;fill-opacity:1;fill-rule:nonzero;stroke:none;stroke-width:1px;marker:none;enable-background:accumulate"
       d="m 1200.668,1350.7499 c -22.0187,-23.7251 -28.5842,-33.5373 -15.2378,-70.8777 13.3464,-37.3404 0.5267,-41.9284 0.5267,-41.9284 l -20.1693,16.498 c 0,0 -23.3832,81.59 34.8804,96.3081 z"
       id="path3072-9"
       inkscape:connector-curvature="0" />
    <path
       style="fill:#ffffff;fill-rule:evenodd;stroke:none;stroke-width:1.07825744px;stroke-linecap:butt;stroke-linejoin:miter;stroke-opacity:1"
       d="m 161.1709,2103.148 -25.11333,3.7767 20.6519,-27.6038 -0.0578,-88.3105 -0.51718,-28.3685 -22.53917,-42.4138 26.87746,10.0954 -31.82722,-49.3056 52.43149,19.1084 -6.89662,-22.5271 36.68214,13.2578 333.88418,-3.7704 22.98013,-12.8719 -3.8788,17.1845 45.26582,-16.6932 -17.90482,20.6316 68.15702,-24.1071 -27.67935,39.352 25.06351,-6.6294 -17.33446,27.8235 -2.15034,82.9162 -0.84835,93.3618 26.40354,35.5672 -36.36617,-13.0192 27.5303,48.6029 -71.73574,-26.3755 18.91336,24.8643 -54.79224,-18.0661 13.10082,20.6046 -35.066,-15.6784 -298.77539,2.4502 -64.24769,19.4353 19.86569,-27.8437 -75.38272,38.1397 59.46019,-65.599 -30.47854,7.7714 z"
       id="path1035"
       inkscape:connector-curvature="0"
       sodipodi:nodetypes="ccccccccccccccccccccccccccccccccccccc" />
    <path
       style="color:#000000;display:inline;overflow:visible;visibility:visible;fill:#ffffff;fill-opacity:1;fill-rule:nonzero;stroke:none;stroke-width:0.99999994px;marker:none;enable-background:accumulate"
       d="m 338.82946,2155.5995 c -3.16206,31.9356 -4.43517,74.4334 -68.81805,64.0726 3.51709,-0.3132 80.93631,37.3214 104.22702,-54.8867 23.29069,-92.2081 14.70299,-105.929 14.70299,-105.929 z"
       id="path4064"
       inkscape:connector-curvature="0"
       sodipodi:nodetypes="ccscc" />
    <path
       style="color:#000000;display:inline;overflow:visible;visibility:visible;fill:#ffffff;fill-opacity:1;fill-rule:nonzero;stroke:none;stroke-width:1.04189551px;marker:none;enable-background:accumulate"
       d="m 981.73772,2640.7004 c -0.67382,-28.7981 11.45437,-48.3809 18.19238,-57.5962 6.7379,-9.2155 49.1865,-29.9502 64.6838,-29.9502 43.8505,2.6149 128.3999,7.7914 113.472,110.2701 -7.4117,34.5578 -57.5475,38.3285 -67.6544,41.7843 -10.1069,3.4559 -47.5835,0.694 -57.0164,-0.4578 -9.4332,-1.1519 -73.69873,-16.8211 -71.67738,-64.0502 z"
       id="path3357"
       inkscape:connector-curvature="0"
       sodipodi:nodetypes="ccccccc" />
    <path
       style="color:#000000;display:inline;overflow:visible;visibility:visible;fill:#ffffff;fill-opacity:1;fill-rule:nonzero;stroke:none;stroke-width:1px;marker:none;enable-background:accumulate"
       d="m 1053.2112,2471.8445 c 42.562,38.1309 30.9091,101.3953 6.44,96.5527 -29.6347,37.5034 -18.094,38.1309 -18.094,38.1309 l 33.2898,-11.0238 c 0,15.4037 79.1436,-58.1295 -21.6358,-123.6598 z"
       id="path3072-92"
       inkscape:connector-curvature="0"
       sodipodi:nodetypes="ccccc" />
    <path
       style="fill:#ffffff;fill-opacity:1;stroke:none;stroke-width:1"
       d="m 2198.3032,1950.6682 c -1.7012,-22.1072 9.5818,-33.1046 19.855,-38.3141 13.0198,-6.6023 87.2062,-21.4795 113.5776,12.0631 12.352,15.711 22.5534,40.8571 -8.6148,56.3349 -31.1683,15.4776 -83.1858,6.9998 -92.0404,4.1857 -8.8546,-2.8142 -31.0066,-10.3495 -32.7774,-34.2696 z"
       id="path3659-8-0"
       inkscape:connector-curvature="0"
       sodipodi:nodetypes="cssssc" />
    <path
       style="fill:#ffffff;fill-rule:evenodd;stroke:none;stroke-width:1px;stroke-linecap:butt;stroke-linejoin:miter;stroke-opacity:1"
       d="m 2173.406,2020.0379 c 29.9739,-13.444 31.8142,4.3615 43.8953,-5.5877 12.0812,-9.9492 4.271,-14.7221 5.9747,-23.2109 2.171,-8.4889 19.5625,-14.6593 25.9584,-21.0552 6.3959,-6.3959 -13.4149,-18.9446 -23.364,-11.838 -9.9492,7.1066 -13.1544,15.8205 -17.4379,23.8227 -2.8816,7.0675 8.1387,18.2141 1.0325,24.61 -7.1066,6.3959 -7.6324,-2.3754 -19.7136,1.1779 -12.0811,3.5533 -16.345,12.0812 -16.345,12.0812 z"
       id="path1097"
       inkscape:connector-curvature="0"
       sodipodi:nodetypes="cccsccsccc" />
    <path
       style="color:#000000;display:inline;overflow:visible;visibility:visible;fill:#ffffff;fill-opacity:1;fill-rule:nonzero;stroke:none;stroke-width:0.91044128px;marker:none;enable-background:accumulate"
       d="m 1973.9821,2442.5266 c 20.6876,-33.0435 38.1747,-65.637 163.5522,-65.0952 126.3148,0.5458 142.3492,0.036 181.2028,29.0958 35.898,26.8487 33.8311,154.6678 20.88,215.2839 -12.9513,60.6162 -56.4957,88.424 -180.3419,83.5748 -123.8462,-4.8494 -116.6797,-4.1302 -151.5335,-36.4693 -47.5627,-44.131 -54.4472,-193.3466 -33.7596,-226.39 z"
       id="path4530"
       inkscape:connector-curvature="0"
       sodipodi:nodetypes="zsssssz" />
    <path
       style="fill:#ffffff;fill-rule:evenodd;stroke:none;stroke-width:1px;stroke-linecap:butt;stroke-linejoin:miter;stroke-opacity:1"
       d="m 2012.3054,2768.4538 c 73.9706,-26.3006 87.1209,-92.0523 87.1209,-133.147 0,-41.0948 -31.232,-85.4771 -31.232,-85.4771 l -19.7255,27.9444 c 0,0 1.6438,4.9314 6.5751,44.3824 4.9314,39.4509 31.2321,82.1895 -42.7385,146.2973 z"
       id="path1167"
       inkscape:connector-curvature="0" />
    <path
       style="color:#000000;display:inline;overflow:visible;visibility:visible;fill:#ffffff;fill-opacity:1;fill-rule:nonzero;stroke:none;stroke-width:0.99999994px;marker:none;enable-background:accumulate"
       d="m 1061.7088,3240.5858 c -9.8478,32.2167 51.8659,121.3348 137.5704,110.5133 -2.9664,-0.2632 -108.5106,25.5291 -160.8486,-69.3197 -45.94784,-83.2682 -16.9236,-118.1415 -16.9236,-118.1415 z"
       id="path4064-6"
       inkscape:connector-curvature="0"
       sodipodi:nodetypes="ccscc" />
    <path
       style="fill:#ffffff;fill-opacity:1;fill-rule:evenodd;stroke:none;stroke-width:1.09161198px;stroke-linecap:butt;stroke-linejoin:miter;stroke-opacity:1"
       d="m 711.29828,2867.5488 19.77057,6.2302 -34.73544,-36.0651 54.73413,28.1263 -7.8756,-23.0198 42.35093,18.0306 -7.69315,-17.3913 27.53129,14.58 16.48299,4.2224 191.2953,-2.2041 54.5429,-18.0544 -10.0769,18.0377 99.4303,-33.6129 -41.6376,51.7701 43.6525,-12.1041 -27.6102,39.1424 27.237,-3.1975 -26.8147,31.0933 20.5347,3.2305 -28.9416,42.4998 32.7377,39.8272 -33.1107,-6.3908 27.1394,23.7164 -46.2179,-1.8377 31.7767,37.2029 -46.7614,-10.864 50.5546,65.7637 -70.4803,-37.7233 -2.2015,23.2516 -44.997,-30.7349 -165.47621,13.1618 -57.63138,10.8228 16.64856,-19.8124 -63.46681,12.7072 17.47983,-25.59 -77.90528,35.7243 43.13147,-57.5007 -34.12987,14.6743 26.26868,-37.1201 -23.55479,12.6246 20.57855,-29.9644 -1.8461,-108.9141 z"
       id="path1184"
       inkscape:connector-curvature="0"
       sodipodi:nodetypes="ccccccccccccccccccccccccccccccccccccccccccc" />
    <path
       style="fill:#ffffff;fill-opacity:1;fill-rule:evenodd;stroke:none;stroke-width:0.95076096px;stroke-linecap:butt;stroke-linejoin:miter;stroke-opacity:1"
       d="m 912.09188,3113.9934 -20.71056,-46.9404 36.04266,23.1901 -5.59244,-20.8313 20.29618,14.8938 3.83303,-16.5856 102.61205,11.9747 118.1324,-2.9674 24.5161,-10.8621 -6.6318,15.4856 32.8106,-16.4042 -11.3591,20.9179 50.7719,-25.9395 -32.7378,53.6703 29.3689,-13.1126 -23.0659,38.5675 19.4648,-6.6369 -16.5793,26.8352 14.7088,-4.3197 -13.1475,19.1138 -3.0978,102.1386 12.466,17.0242 -17.3528,-3.7381 23.5638,33.5026 -47.0017,-27.4987 14.3895,26.8022 -38.3931,-25.608 4.0216,17.0499 -25.4489,-17.5143 -190.3011,5.2081 -19.54105,11.3076 6.06345,-12.7674 -27.52111,14.491 6.34521,-22.2197 -50.58337,32.9718 35.50261,-60.2383 -26.95465,19.567 22.30586,-34.7586 -19.44725,4.3101 9.10981,-17.7434 0.71696,-91.0597 -14.63363,-43.1113 z"
       id="path1186"
       inkscape:connector-curvature="0"
       sodipodi:nodetypes="ccccccccccccccccccccccccccccccccccccccccccc" />
  </g>
  <g
     inkscape:groupmode="layer"
     id="layer1"
     inkscape:label="txt">
    <text
       xml:space="preserve"
       style="font-style:normal;font-variant:normal;font-weight:normal;font-stretch:normal;line-height:0%;font-family:Lavi;-inkscape-font-specification:Lavi;text-align:center;letter-spacing:0px;word-spacing:0px;text-anchor:middle;fill:#000000;fill-opacity:1;stroke:none"
       x="383.53223"
       y="241.93236"
       id="text4246"><tspan
         sodipodi:role="line"
         style="font-size:45px;line-height:1.20000005"
         x="383.53223"
         y="241.93236"
         id="tspan976">Ah! É você!</tspan></text>
    <text
       xml:space="preserve"
       style="font-style:normal;font-variant:normal;font-weight:normal;font-stretch:normal;line-height:0%;font-family:Lavi;-inkscape-font-specification:Lavi;text-align:center;letter-spacing:0px;word-spacing:0px;text-anchor:middle;fill:#000000;fill-opacity:1;stroke:none"
       x="1326.7289"
       y="864.74561"
       id="text4246-3"><tspan
         sodipodi:role="line"
         style="font-size:45px;line-height:1.20000005"
         x="1326.7289"
         y="864.74561"
         id="tspan4252-6">Eu estava</tspan><tspan
         sodipodi:role="line"
         style="font-size:45px;line-height:1.20000005"
         x="1326.7289"
         y="918.74561"
         id="tspan843">divagando.</tspan></text>
    <text
       xml:space="preserve"
       style="font-style:normal;font-variant:normal;font-weight:normal;font-stretch:normal;font-size:16.56267548px;line-height:0%;font-family:Lavi;-inkscape-font-specification:Lavi;text-align:center;letter-spacing:0px;word-spacing:0px;text-anchor:middle;opacity:0.6;fill:#ffffff;fill-opacity:1;stroke:#ffffff;stroke-width:0.4101558;stroke-miterlimit:4;stroke-dasharray:none;stroke-opacity:1"
       x="732.62769"
       y="780.9256"
       id="text4246-8"
       transform="matrix(0.97558614,-0.48724083,-0.02659511,1.0383073,0,0)"><tspan
         sodipodi:role="line"
         style="font-size:42.45798111px;line-height:1.25;fill:#ffffff;stroke:#ffffff;stroke-width:0.4101558;stroke-miterlimit:4;stroke-dasharray:none;stroke-opacity:1"
         x="732.62769"
         y="780.9256"
         id="tspan877">esfrega</tspan><tspan
         sodipodi:role="line"
         style="font-size:42.45798111px;line-height:1.25;fill:#ffffff;stroke:#ffffff;stroke-width:0.4101558;stroke-miterlimit:4;stroke-dasharray:none;stroke-opacity:1"
         x="732.62769"
         y="833.99805"
         id="tspan982">esfrega</tspan></text>
    <text
       xml:space="preserve"
       style="font-style:normal;font-variant:normal;font-weight:normal;font-stretch:normal;line-height:0%;font-family:Lavi;-inkscape-font-specification:Lavi;text-align:center;letter-spacing:0px;word-spacing:0px;text-anchor:middle;fill:#000000;fill-opacity:1;stroke:none"
       x="2177.9553"
       y="209.84564"
       id="text4246-3-7"><tspan
         sodipodi:role="line"
         style="font-size:45px;line-height:1.20000005"
         x="2177.9553"
         y="209.84564"
         id="tspan914">Eu vou</tspan><tspan
         sodipodi:role="line"
         style="font-size:45px;line-height:1.20000005"
         x="2177.9553"
         y="263.84564"
         id="tspan1001">entrar. Está</tspan><tspan
         sodipodi:role="line"
         style="font-size:45px;line-height:1.20000005"
         x="2177.9553"
         y="317.84564"
         id="tspan1003">ficando frio</tspan><tspan
         sodipodi:role="line"
         style="font-size:45px;line-height:1.20000005"
         x="2177.9553"
         y="371.84564"
         id="tspan891">aqui fora.</tspan></text>
    <text
       xml:space="preserve"
       style="font-style:normal;font-variant:normal;font-weight:normal;font-stretch:normal;font-size:10.0168314px;line-height:0%;font-family:Lavi;-inkscape-font-specification:Lavi;text-align:center;letter-spacing:0px;word-spacing:0px;text-anchor:middle;fill:#000000;fill-opacity:1;stroke:none;stroke-width:1"
       x="1197.906"
       y="1230.2842"
       id="text4246-3-6"><tspan
         sodipodi:role="line"
         style="font-style:italic;font-variant:normal;font-weight:normal;font-stretch:normal;font-size:37.56311798px;line-height:1.20000005;font-family:Lavi;-inkscape-font-specification:'Lavi Italic';stroke-width:1.19798362"
         x="1197.906"
         y="1230.2842"
         id="tspan843-1">Depressa!</tspan><tspan
         sodipodi:role="line"
         style="font-style:italic;font-variant:normal;font-weight:normal;font-stretch:normal;font-size:37.56311798px;line-height:1.20000005;font-family:Lavi;-inkscape-font-specification:'Lavi Italic';stroke-width:1.19798362"
         x="1197.906"
         y="1275.3599"
         id="tspan953">Ela chegou!</tspan></text>
    <text
       xml:space="preserve"
       style="font-style:normal;font-variant:normal;font-weight:normal;font-stretch:normal;font-size:10.0168314px;line-height:0%;font-family:Lavi;-inkscape-font-specification:Lavi;text-align:center;letter-spacing:0px;word-spacing:0px;text-anchor:middle;fill:#000000;fill-opacity:1;stroke:none;stroke-width:1"
       x="865.71344"
       y="1240.084"
       id="text4246-3-6-2"><tspan
         sodipodi:role="line"
         style="font-style:italic;font-variant:normal;font-weight:normal;font-stretch:normal;font-size:37.56311798px;line-height:1.20000005;font-family:Lavi;-inkscape-font-specification:'Lavi Italic';stroke-width:1.19798362"
         x="865.71344"
         y="1240.084"
         id="tspan843-1-7">Rápido!</tspan><tspan
         sodipodi:role="line"
         style="font-style:italic;font-variant:normal;font-weight:normal;font-stretch:normal;font-size:37.56311798px;line-height:1.20000005;font-family:Lavi;-inkscape-font-specification:'Lavi Italic';stroke-width:1.19798362"
         x="865.71344"
         y="1285.1597"
         id="tspan953-0">É ela!</tspan></text>
    <text
       xml:space="preserve"
       style="font-style:normal;font-variant:normal;font-weight:normal;font-stretch:normal;line-height:0%;font-family:Lavi;-inkscape-font-specification:Lavi;text-align:center;letter-spacing:0px;word-spacing:0px;text-anchor:middle;fill:#000000;fill-opacity:1;stroke:none"
       x="395.72003"
       y="1962.1278"
       id="text4246-3-3"><tspan
         sodipodi:role="line"
         style="font-size:45px;line-height:1.20000005"
         x="395.72003"
         y="1962.1278"
         id="tspan843-6">Senhorita Saffron!</tspan><tspan
         sodipodi:role="line"
         style="font-size:45px;line-height:1.20000005"
         x="395.72003"
         y="2016.1278"
         id="tspan1041">Poderia dizer algumas</tspan><tspan
         sodipodi:role="line"
         style="font-size:45px;line-height:1.20000005"
         x="395.72003"
         y="2070.1279"
         id="tspan1043">palavras para o</tspan><tspan
         sodipodi:role="line"
         style="font-size:45px;line-height:1.20000005"
         x="395.72003"
         y="2124.1279"
         id="tspan1033">Diário de Qualicity?</tspan></text>
    <text
       xml:space="preserve"
       style="font-style:normal;font-variant:normal;font-weight:normal;font-stretch:normal;line-height:0%;font-family:Lavi;-inkscape-font-specification:Lavi;text-align:center;letter-spacing:0px;word-spacing:0px;text-anchor:middle;fill:#000000;fill-opacity:1;stroke:none"
       x="1077.2172"
       y="2620.5867"
       id="text4246-3-3-2"><tspan
         sodipodi:role="line"
         style="font-size:45px;line-height:1.10000002"
         x="1077.2172"
         y="2620.5867"
         id="tspan1033-7">Mas é</tspan><tspan
         sodipodi:role="line"
         style="font-size:45px;line-height:1.10000002"
         x="1077.2172"
         y="2670.0867"
         id="tspan6907">claro!</tspan></text>
    <text
       xml:space="preserve"
       style="font-style:normal;font-variant:normal;font-weight:normal;font-stretch:normal;line-height:0%;font-family:Lavi;-inkscape-font-specification:Lavi;text-align:center;letter-spacing:0px;word-spacing:0px;text-anchor:middle;fill:#000000;fill-opacity:1;stroke:none"
       x="2273.3049"
       y="1953.7657"
       id="text4246-3-3-2-2"><tspan
         sodipodi:role="line"
         style="font-size:45px;line-height:1.20000005"
         x="2273.3049"
         y="1953.7657"
         id="tspan1033-7-3">...</tspan></text>
    <text
       xml:space="preserve"
       style="font-style:normal;font-variant:normal;font-weight:normal;font-stretch:normal;line-height:0%;font-family:Lavi;-inkscape-font-specification:Lavi;text-align:center;letter-spacing:0px;word-spacing:0px;text-anchor:middle;fill:#000000;fill-opacity:1;stroke:none"
       x="2156.2603"
       y="2446.8921"
       id="text4246-3-3-7"><tspan
         sodipodi:role="line"
         style="font-size:45px;line-height:1.20000005"
         x="2156.2603"
         y="2446.8921"
         id="tspan1112">Viu, Carrot?</tspan><tspan
         sodipodi:role="line"
         style="font-size:45px;line-height:1.20000005"
         x="2156.2603"
         y="2500.8921"
         id="tspan1114">Eu acho que</tspan><tspan
         sodipodi:role="line"
         style="font-size:45px;line-height:1.20000005"
         x="2156.2603"
         y="2554.8921"
         id="tspan1146">eu sei o porquê</tspan><tspan
         sodipodi:role="line"
         style="font-size:45px;line-height:1.20000005"
         x="2156.2603"
         y="2608.8921"
         id="tspan1116">não estou no</tspan><tspan
         sodipodi:role="line"
         style="font-size:45px;line-height:1.20000005"
         x="2156.2603"
         y="2662.8921"
         id="tspan1159">clima...</tspan></text>
    <text
       xml:space="preserve"
       style="font-style:normal;font-variant:normal;font-weight:normal;font-stretch:normal;font-size:79.97832489px;line-height:1.25;font-family:Lavi;-inkscape-font-specification:Lavi;font-variant-ligatures:normal;font-variant-position:normal;font-variant-caps:normal;font-variant-numeric:normal;font-variant-alternates:normal;font-feature-settings:normal;text-indent:0;text-align:start;text-decoration:none;text-decoration-line:none;text-decoration-style:solid;text-decoration-color:#000000;letter-spacing:0px;word-spacing:0px;text-transform:none;writing-mode:lr-tb;direction:ltr;text-orientation:mixed;dominant-baseline:auto;baseline-shift:baseline;text-anchor:start;white-space:normal;shape-padding:0;opacity:1;vector-effect:none;fill:#ffffff;fill-opacity:1;stroke:none;stroke-width:1.78316224;stroke-linecap:butt;stroke-linejoin:miter;stroke-miterlimit:4;stroke-dasharray:none;stroke-dashoffset:0;stroke-opacity:1;filter:url(#filter4375-4-1-1-1-9)"
       x="1191.4009"
       y="2475.9683"
       id="text4246-8-1-3"
       transform="matrix(0.54943791,-0.30590239,-0.01497803,0.74418809,422.11729,526.52481)"><tspan
         sodipodi:role="line"
         style="font-style:normal;font-variant:normal;font-weight:normal;font-stretch:normal;font-size:79.97832489px;line-height:1.25;font-family:Lavi;-inkscape-font-specification:Lavi;font-variant-ligatures:normal;font-variant-position:normal;font-variant-caps:normal;font-variant-numeric:normal;font-variant-alternates:normal;font-feature-settings:normal;text-indent:0;text-align:start;text-decoration:none;text-decoration-line:none;text-decoration-style:solid;text-decoration-color:#000000;letter-spacing:0px;word-spacing:0px;text-transform:none;writing-mode:lr-tb;direction:ltr;text-orientation:mixed;dominant-baseline:auto;baseline-shift:baseline;text-anchor:start;white-space:normal;shape-padding:0;vector-effect:none;fill:#ffffff;fill-opacity:1;stroke:none;stroke-width:1.78316224;stroke-linecap:butt;stroke-linejoin:miter;stroke-miterlimit:4;stroke-dasharray:none;stroke-dashoffset:0;stroke-opacity:1;filter:url(#filter4375-4-1-1-1-9)"
         x="1191.4009"
         y="2475.9683"
         id="tspan877-7-6"
         dx="6"><tspan
           style="font-size:70.07293701px;stroke-width:1.78316224"
           id="tspan964">F</tspan><tspan
           style="font-size:65.1342926px;stroke-width:1.78316224"
           id="tspan962">LASH</tspan></tspan></text>
    <text
       xml:space="preserve"
       style="font-style:normal;font-variant:normal;font-weight:normal;font-stretch:normal;line-height:0%;font-family:Lavi;-inkscape-font-specification:Lavi;text-align:center;letter-spacing:0px;word-spacing:0px;text-anchor:middle;fill:#000000;fill-opacity:1;stroke:none"
       x="926.21729"
       y="2935.7336"
       id="text4246-3-3-75"><tspan
         sodipodi:role="line"
         style="font-size:45px;line-height:1.20000005"
         x="926.21729"
         y="2935.7336"
         id="tspan1033-29">Senhorita Saffron!</tspan><tspan
         sodipodi:role="line"
         style="font-size:45px;line-height:1.20000005"
         x="926.21729"
         y="2989.7336"
         id="tspan1072">Gazeta “Estilo</tspan><tspan
         sodipodi:role="line"
         style="font-size:45px;line-height:1.20000005"
         x="926.21729"
         y="3043.7336"
         id="tspan1182">Hereva” aqui.</tspan></text>
    <text
       xml:space="preserve"
       style="font-style:normal;font-variant:normal;font-weight:normal;font-stretch:normal;font-size:79.97832489px;line-height:1.25;font-family:Lavi;-inkscape-font-specification:Lavi;font-variant-ligatures:normal;font-variant-position:normal;font-variant-caps:normal;font-variant-numeric:normal;font-variant-alternates:normal;font-feature-settings:normal;text-indent:0;text-align:start;text-decoration:none;text-decoration-line:none;text-decoration-style:solid;text-decoration-color:#000000;letter-spacing:0px;word-spacing:0px;text-transform:none;writing-mode:lr-tb;direction:ltr;text-orientation:mixed;dominant-baseline:auto;baseline-shift:baseline;text-anchor:start;white-space:normal;shape-padding:0;opacity:1;vector-effect:none;fill:#ffffff;fill-opacity:1;stroke:none;stroke-width:1.78316224;stroke-linecap:butt;stroke-linejoin:miter;stroke-miterlimit:4;stroke-dasharray:none;stroke-dashoffset:0;stroke-opacity:1;filter:url(#filter4375-4-1-1-1-9-6)"
       x="1191.4009"
       y="2475.9683"
       id="text4246-8-1-3-2"
       transform="matrix(0.54943791,-0.30590239,-0.01497803,0.74418809,458.46468,856.46021)"><tspan
         sodipodi:role="line"
         style="font-style:normal;font-variant:normal;font-weight:normal;font-stretch:normal;font-size:79.97832489px;line-height:1.25;font-family:Lavi;-inkscape-font-specification:Lavi;font-variant-ligatures:normal;font-variant-position:normal;font-variant-caps:normal;font-variant-numeric:normal;font-variant-alternates:normal;font-feature-settings:normal;text-indent:0;text-align:start;text-decoration:none;text-decoration-line:none;text-decoration-style:solid;text-decoration-color:#000000;letter-spacing:0px;word-spacing:0px;text-transform:none;writing-mode:lr-tb;direction:ltr;text-orientation:mixed;dominant-baseline:auto;baseline-shift:baseline;text-anchor:start;white-space:normal;shape-padding:0;vector-effect:none;fill:#ffffff;fill-opacity:1;stroke:none;stroke-width:1.78316224;stroke-linecap:butt;stroke-linejoin:miter;stroke-miterlimit:4;stroke-dasharray:none;stroke-dashoffset:0;stroke-opacity:1;filter:url(#filter4375-4-1-1-1-9-6)"
         x="1191.4009"
         y="2475.9683"
         id="tspan877-7-6-2"
         dx="6"><tspan
           style="font-size:70.07293701px;stroke-width:1.78316224"
           id="tspan964-3">F</tspan><tspan
           style="font-size:65.1342926px;stroke-width:1.78316224"
           id="tspan962-2">LASH</tspan></tspan></text>
    <text
       xml:space="preserve"
       style="font-style:normal;font-variant:normal;font-weight:normal;font-stretch:normal;font-size:79.97832489px;line-height:1.25;font-family:Lavi;-inkscape-font-specification:Lavi;font-variant-ligatures:normal;font-variant-position:normal;font-variant-caps:normal;font-variant-numeric:normal;font-variant-alternates:normal;font-feature-settings:normal;text-indent:0;text-align:start;text-decoration:none;text-decoration-line:none;text-decoration-style:solid;text-decoration-color:#000000;letter-spacing:0px;word-spacing:0px;text-transform:none;writing-mode:lr-tb;direction:ltr;text-orientation:mixed;dominant-baseline:auto;baseline-shift:baseline;text-anchor:start;white-space:normal;shape-padding:0;opacity:1;vector-effect:none;fill:#ffffff;fill-opacity:1;stroke:none;stroke-width:1.78316224;stroke-linecap:butt;stroke-linejoin:miter;stroke-miterlimit:4;stroke-dasharray:none;stroke-dashoffset:0;stroke-opacity:1;filter:url(#filter4375-4-1-1-1-9-4)"
       x="1191.4009"
       y="2475.9683"
       id="text4246-8-1-3-5"
       transform="matrix(0.54943791,-0.30590239,-0.01497803,0.74418809,36.745484,519.61759)"><tspan
         sodipodi:role="line"
         style="font-style:normal;font-variant:normal;font-weight:normal;font-stretch:normal;font-size:79.97832489px;line-height:1.25;font-family:Lavi;-inkscape-font-specification:Lavi;font-variant-ligatures:normal;font-variant-position:normal;font-variant-caps:normal;font-variant-numeric:normal;font-variant-alternates:normal;font-feature-settings:normal;text-indent:0;text-align:start;text-decoration:none;text-decoration-line:none;text-decoration-style:solid;text-decoration-color:#000000;letter-spacing:0px;word-spacing:0px;text-transform:none;writing-mode:lr-tb;direction:ltr;text-orientation:mixed;dominant-baseline:auto;baseline-shift:baseline;text-anchor:start;white-space:normal;shape-padding:0;vector-effect:none;fill:#ffffff;fill-opacity:1;stroke:none;stroke-width:1.78316224;stroke-linecap:butt;stroke-linejoin:miter;stroke-miterlimit:4;stroke-dasharray:none;stroke-dashoffset:0;stroke-opacity:1;filter:url(#filter4375-4-1-1-1-9-4)"
         x="1191.4009"
         y="2475.9683"
         id="tspan877-7-6-7"
         dx="6"><tspan
           style="font-size:70.07293701px;stroke-width:1.78316224"
           id="tspan964-2">F</tspan><tspan
           style="font-size:65.1342926px;stroke-width:1.78316224"
           id="tspan962-8">LASH</tspan></tspan></text>
    <text
       xml:space="preserve"
       style="font-style:normal;font-variant:normal;font-weight:normal;font-stretch:normal;font-size:79.97832489px;line-height:1.25;font-family:Lavi;-inkscape-font-specification:Lavi;font-variant-ligatures:normal;font-variant-position:normal;font-variant-caps:normal;font-variant-numeric:normal;font-variant-alternates:normal;font-feature-settings:normal;text-indent:0;text-align:start;text-decoration:none;text-decoration-line:none;text-decoration-style:solid;text-decoration-color:#000000;letter-spacing:0px;word-spacing:0px;text-transform:none;writing-mode:lr-tb;direction:ltr;text-orientation:mixed;dominant-baseline:auto;baseline-shift:baseline;text-anchor:start;white-space:normal;shape-padding:0;opacity:1;vector-effect:none;fill:#ffffff;fill-opacity:1;stroke:none;stroke-width:1.78316224;stroke-linecap:butt;stroke-linejoin:miter;stroke-miterlimit:4;stroke-dasharray:none;stroke-dashoffset:0;stroke-opacity:1;filter:url(#filter4375-4-1-1-1-9-4-8)"
       x="1191.4009"
       y="2475.9683"
       id="text4246-8-1-3-5-3"
       transform="matrix(0.54943791,-0.30590239,-0.01497803,0.74418809,-266.75729,810.46654)"><tspan
         sodipodi:role="line"
         style="font-style:normal;font-variant:normal;font-weight:normal;font-stretch:normal;font-size:79.97832489px;line-height:1.25;font-family:Lavi;-inkscape-font-specification:Lavi;font-variant-ligatures:normal;font-variant-position:normal;font-variant-caps:normal;font-variant-numeric:normal;font-variant-alternates:normal;font-feature-settings:normal;text-indent:0;text-align:start;text-decoration:none;text-decoration-line:none;text-decoration-style:solid;text-decoration-color:#000000;letter-spacing:0px;word-spacing:0px;text-transform:none;writing-mode:lr-tb;direction:ltr;text-orientation:mixed;dominant-baseline:auto;baseline-shift:baseline;text-anchor:start;white-space:normal;shape-padding:0;vector-effect:none;fill:#ffffff;fill-opacity:1;stroke:none;stroke-width:1.78316224;stroke-linecap:butt;stroke-linejoin:miter;stroke-miterlimit:4;stroke-dasharray:none;stroke-dashoffset:0;stroke-opacity:1;filter:url(#filter4375-4-1-1-1-9-4-8)"
         x="1191.4009"
         y="2475.9683"
         id="tspan877-7-6-7-9"
         dx="6"><tspan
           style="font-size:70.07293701px;stroke-width:1.78316224"
           id="tspan964-2-0">F</tspan><tspan
           style="font-size:65.1342926px;stroke-width:1.78316224"
           id="tspan962-8-8">LASH</tspan></tspan></text>
    <text
       xml:space="preserve"
       style="font-style:normal;font-variant:normal;font-weight:normal;font-stretch:normal;line-height:0%;font-family:Lavi;-inkscape-font-specification:Lavi;text-align:center;letter-spacing:0px;word-spacing:0px;text-anchor:middle;fill:#000000;fill-opacity:1;stroke:none"
       x="1071.2733"
       y="3112.7102"
       id="text4246-3-3-75-1"><tspan
         sodipodi:role="line"
         style="font-size:45px;line-height:1.20000005"
         x="1071.2733"
         y="3116.2078"
         id="tspan6909-5" /><tspan
         sodipodi:role="line"
         style="font-size:45px;line-height:1.20000005"
         x="1071.2733"
         y="3116.2078"
         id="tspan1085" /><tspan
         sodipodi:role="line"
         style="font-size:45px;line-height:1.20000005"
         x="1071.2733"
         y="3152.8257"
         id="tspan6844-5">Qual designer</tspan><tspan
         sodipodi:role="line"
         style="font-size:45px;line-height:1.20000005"
         x="1071.2733"
         y="3206.8257"
         id="tspan1089">você está</tspan><tspan
         sodipodi:role="line"
         style="font-size:45px;line-height:1.20000005"
         x="1071.2733"
         y="3260.8257"
         id="tspan6848-2">vestindo hoje?</tspan></text>
  </g>
</svg>
