<?xml version="1.0" encoding="UTF-8" standalone="no"?>
<!-- Created with Inkscape (http://www.inkscape.org/) -->

<svg
   xmlns:dc="http://purl.org/dc/elements/1.1/"
   xmlns:cc="http://creativecommons.org/ns#"
   xmlns:rdf="http://www.w3.org/1999/02/22-rdf-syntax-ns#"
   xmlns:svg="http://www.w3.org/2000/svg"
   xmlns="http://www.w3.org/2000/svg"
   xmlns:xlink="http://www.w3.org/1999/xlink"
   xmlns:sodipodi="http://sodipodi.sourceforge.net/DTD/sodipodi-0.dtd"
   xmlns:inkscape="http://www.inkscape.org/namespaces/inkscape"
   id="svg2"
   version="1.1"
   inkscape:version="0.92.4 (5da689c313, 2019-01-14)"
   width="2481"
   height="3503"
   sodipodi:docname="E16P02.svg">
  <sodipodi:namedview
     pagecolor="#ffffff"
     bordercolor="#666666"
     inkscape:pageopacity="0"
     inkscape:pageshadow="2"
     inkscape:window-width="1600"
     inkscape:window-height="900"
     id="namedview70"
     showgrid="false"
     inkscape:zoom="0.4"
     inkscape:cx="1284.4231"
     inkscape:cy="918.6204"
     inkscape:current-layer="layer1"
     inkscape:window-x="0"
     inkscape:window-y="0"
     inkscape:window-maximized="0" />
  <metadata
     id="metadata8">
    <rdf:RDF>
      <cc:Work
         rdf:about="">
        <dc:format>image/svg+xml</dc:format>
        <dc:type
           rdf:resource="http://purl.org/dc/dcmitype/StillImage" />
        <dc:title />
      </cc:Work>
    </rdf:RDF>
  </metadata>
  <defs
     id="defs6" />
  <sodipodi:namedview
     pagecolor="#ffffff"
     bordercolor="#666666"
     borderopacity="1"
     objecttolerance="10"
     gridtolerance="10"
     guidetolerance="10"
     inkscape:pageopacity="0"
     inkscape:pageshadow="2"
     inkscape:window-width="1920"
     inkscape:window-height="1025"
     id="namedview4"
     showgrid="false"
     inkscape:zoom="0.46"
     inkscape:cx="1607.0828"
     inkscape:cy="1840.0765"
     inkscape:window-x="0"
     inkscape:window-y="26"
     inkscape:window-maximized="1"
     inkscape:current-layer="layer1" />
  <g
     inkscape:groupmode="layer"
     id="layer2"
     inkscape:label="artwork"
     sodipodi:insensitive="true">
    <image
       sodipodi:absref="D:\Pepper&amp;Carrot\ep16_The-Sage-of-the-Mountain_lang-pack\lang\ro\../gfx_Pepper-and-Carrot_by-David-Revoy_E16P02.png"
       xlink:href="../gfx_Pepper-and-Carrot_by-David-Revoy_E16P02.png"
       width="2481"
       height="3503"
       id="image10"
       x="0"
       y="0" />
  </g>
  <g
     inkscape:groupmode="layer"
     id="layer3"
     inkscape:label="speechbubbles">
    <path
       style="fill:#ffffff;fill-rule:evenodd;stroke:none;stroke-width:1px;stroke-linecap:butt;stroke-linejoin:miter;stroke-opacity:1"
       d="m 159.47183,1204.4941 c 8.4673,-30.5523 31.2689,-53.7332 56.0849,-69.2079 11.8098,-7.471 25.3086,-12.9459 39.1219,-11.5058 13.7227,0.8605 27.1264,5.9979 41.0009,4.2135 16.871,-0.5894 34.0382,-3.1608 50.7155,0.5135 14.8255,4.0092 30.1,6.0856 45.3989,6.206 10.7929,-2.5448 20.6691,4.2379 30.3078,8.2947 8.6531,4.3821 17.4915,8.9796 24.7596,15.758 6.6961,9.5154 14.7138,17.7936 21.4881,27.2243 4.4326,5.1557 4.0067,12.2771 3.8025,18.8678 -0.5757,13.4964 -1.5506,27.2058 -5.1691,40.2084 -2.1654,8.2549 -10.1691,10.9868 -16.319,14.7801 -14.5516,8.0076 -30.0035,14.08 -43.8912,23.5033 -13.7587,4.8251 -28.3804,2.5682 -42.4906,1.839 -11.8234,-1.4363 -23.7171,-3.4392 -35.6421,-1.7689 -15.1777,1.2223 -30.3093,4.3872 -45.5413,3.9818 -19.0815,-2.7818 -37.3564,-9.6313 -55.848,-15.1258 -16.5903,-4.8429 -31.711,-13.9495 -46.2197,-23.6913 -7.75,-5.532 -15.9543,-11.9621 -18.6894,-22.1569 -2.2421,-7.02 -2.7704,-14.5367 -2.8697,-21.9338 z"
       id="path4365"
       inkscape:connector-curvature="0" />
    <path
       style="fill:#ffffff;stroke:none"
       d="m 526.05317,1332.6787 c -30.94804,-5.9742 -33.65755,-15.3739 -35.85896,-26.3529 -2.20164,-10.979 -2.97755,-21.2157 -9.14413,-25.0411 -6.16635,-3.8252 -15.85979,-4.8779 -23.17719,-4.6934 -7.31743,0.1844 -5.29357,-9.0401 -8.28411,-16.1281 -2.99067,-7.0881 -31.76642,-37.2963 -31.76642,-37.2963 0,0 -1.64154,31.4089 0.94371,41.0513 2.58502,9.6423 3.48097,13.1815 5.57556,16.7304 2.09482,3.5489 8.54676,11.5174 16.06913,13.2832 7.52237,1.7658 15.47204,-0.2404 21.46624,-0.192 5.99426,0.048 8.9236,8.3554 12.37845,16.2997 3.45476,7.9444 7.26292,13.1493 20.83234,18.6149 11.63149,4.6851 30.96538,3.7243 30.96538,3.7243 z"
       id="path3023-2"
       inkscape:connector-curvature="0"
       sodipodi:nodetypes="csssscssssssc" />
    <path
       style="color:#000000;fill:#ffffff;fill-opacity:1;fill-rule:nonzero;stroke:none;stroke-width:1px;marker:none;visibility:visible;display:inline;overflow:visible;enable-background:accumulate"
       d="m 1376.0536,1390.7278 c -57.0687,-47.6477 -102.9543,-164.5605 -86.6488,-186.0019 16.3053,-21.4414 46.725,-29.6035 124.1755,-29.6035 77.4503,0 779.5265,-26.6326 859.015,23.3974 79.4884,50.03 47.4504,140.9867 -21.8473,199.355 -69.2977,58.3683 -530.2442,46.4565 -530.2442,46.4565 0,0 -256.809,7.1471 -344.4502,-53.6035 z"
       id="path3992"
       inkscape:connector-curvature="0"
       sodipodi:nodetypes="csssscc" />
    <path
       style="fill:#ffffff;stroke:none"
       d="m 1730.4354,1511.1983 c -2.4933,-38.2437 42.2088,-133.9831 260.2629,-126.7818 218.0543,7.2012 286.3018,49.2679 292.6918,117.2462 10.1085,107.5396 -104.6097,136.2779 -269.3345,144.2432 -169.8135,8.2116 -286.2557,-65.6073 -283.6202,-134.7076 z"
       id="path3280-8"
       inkscape:connector-curvature="0"
       sodipodi:nodetypes="csssc" />
    <path
       style="color:#000000;display:inline;overflow:visible;visibility:visible;fill:#ffffff;fill-opacity:1;fill-rule:nonzero;stroke:none;stroke-width:1px;marker:none;enable-background:accumulate"
       d="m 1219.1793,1379.025 c 11.1145,-52.0341 49.4885,-48.0105 61.0024,-50.7043 11.5139,-2.6938 53.2465,-12.1003 59.6337,-55.0276 6.3873,-42.9274 50.5704,-62.6224 50.5704,-62.6224 l -8.1471,64.4127 c 0,0 -26.1867,43.4877 -51.8954,55.4317 -25.7088,11.9439 -66.72,11.6091 -78.3208,20.0382 -11.601,8.429 -26.2997,13.0823 -32.8432,28.4717 z"
       id="path4018"
       inkscape:connector-curvature="0" />
    <path
       style="color:#000000;display:inline;overflow:visible;visibility:visible;fill:#ffffff;fill-opacity:1;fill-rule:nonzero;stroke:none;stroke-width:1px;marker:none;enable-background:accumulate"
       d="M 177.96119,197.48784 C 182.94267,122.88885 230.74676,78.680011 462.09939,81.754231 653.33686,84.295391 746.84402,103.73769 737.9927,199.64957 725.70604,332.78635 563.95115,310.59438 450.63745,318.43093 376.20594,316.65876 180.36075,333.49284 177.96119,197.48784 Z"
       id="path4546"
       inkscape:connector-curvature="0"
       sodipodi:nodetypes="csscc" />
    <path
       style="color:#000000;display:inline;overflow:visible;visibility:visible;fill:#ffffff;fill-opacity:1;fill-rule:nonzero;stroke:none;stroke-width:1px;marker:none;enable-background:accumulate"
       d="m 1141.3843,403.22097 c -4.0501,99.82061 -64.1908,178.66345 -330.03707,173.51778 -219.75005,-4.25341 -329.97728,-47.52294 -330.7754,-176.42124 -0.9958,-160.8241 231.19778,-139.84438 350.01009,-139.88419 85.54647,2.70361 309.96808,-9.4207 310.80238,142.78765 z"
       id="path4546-3"
       inkscape:connector-curvature="0"
       sodipodi:nodetypes="csscc" />
    <path
       style="color:#000000;display:inline;overflow:visible;visibility:visible;fill:#ffffff;fill-opacity:1;fill-rule:nonzero;stroke:none;stroke-width:1px;marker:none;enable-background:accumulate"
       d="m 1212.2695,581.74978 c -67.2618,20.68446 -152.2854,0.78987 -192.165,-42.94991 -39.87945,-43.73978 14.3178,-40.84093 14.3178,-40.84093 0,0 77.3502,101.9849 177.8472,83.79084 z"
       id="path5002"
       inkscape:connector-curvature="0"
       sodipodi:nodetypes="cscc" />
    <path
       style="fill:#ffffff;fill-rule:evenodd;stroke:none;stroke-width:1.01748848px;stroke-linecap:butt;stroke-linejoin:miter;stroke-opacity:1"
       d="m 52.50807,2096.7736 25.193091,16.0296 6.180552,-20.777 14.939831,6.2771 -8.963899,-72.615 32.867645,66.8807 2.98796,-17.3911 13.44585,23.5789 38.97348,-12.0001 7.34,-58.1876 16.43381,49.2182 11.95187,-20.7966 8.44426,26.7024 c 0,0 2.01362,5.6614 16.95345,3.3325 14.93984,-2.3289 151.70876,7.8482 179.27799,26.5582 l 24.5889,10.4794 24.14521,-15.1914 -6.90257,25.1568 50.67179,-43.2036 -29.1887,56.0222 19.1803,-10.2315 -9.32904,21.8279 c 0,0 4.52124,12.1654 9.00319,17.6345 43.32552,47.6078 64.35425,155.8691 72.03747,178.8428 l 32.86764,-3.9147 -22.40976,13.9949 c 9.77948,6.6588 44.93134,17.3585 119.10855,-10.7058 0,0 -68.6393,45.358 -116.20261,40.96 -10.2352,5.1894 42.09713,15.6039 42.09713,15.6039 l -57.00555,6.7951 -6.25159,48.6188 41.83153,17.5761 -47.80747,-8.6121 40.33756,42.0494 -50.07797,-10.1465 -5.16567,26.5407 -8.22112,9.7272 c -17.24842,11.6673 -42.08705,37.415 -65.18197,43.1047 0,4.303 25.02031,47.5267 25.02031,47.5267 l -55.65088,-28.5359 25.77121,34.6281 -60.20625,-29.2795 -15.37757,-0.3939 -8.9639,3.4054 c -46.3135,25.7228 -153.46621,10.9807 -171.39401,7.7511 -1.49399,0.09 -19.42177,41.3249 -19.42177,41.3249 l -8.22957,-36.2899 -12.68621,14.5927 -7.4446,-9.831 -54.64748,67.0084 19.07953,-79.3489 -38.51346,32.9012 5.744564,-44.9562 -29.91638,32.421 5.283766,-41.4021 -17.235634,4.8246 z"
       id="path4603"
       inkscape:connector-curvature="0"
       sodipodi:nodetypes="cccccccccccccsscccccccccccccccccccccccccccccccccccccccccc" />
    <path
       style="color:#000000;display:inline;overflow:visible;visibility:visible;fill:#ffffff;fill-opacity:1;fill-rule:nonzero;stroke:none;stroke-width:1px;marker:none;enable-background:accumulate"
       d="m 911.57297,2900.1862 c 26.15941,-35.2543 82.16095,-65.5675 156.19513,-78.8643 74.0341,-13.2967 211.5557,-12.838 235.7905,-9.3658 24.2346,3.4721 157.3586,15.071 186.5886,34.2365 29.2299,19.1652 68.7814,42.8654 77.7025,67.9563 8.9214,25.0909 2.8452,86.0066 -23.7889,99.9521 -26.6342,13.9453 -148.5752,45.553 -220.0518,48.5351 -71.4766,2.9823 -237.9994,-6.3821 -285.5577,-14.1337 -47.55828,-7.7516 -97.95553,-17.8163 -113.43039,-45.1473 -15.47501,-27.331 -44.14549,-63.0881 -13.44794,-103.1689 z"
       id="path3533"
       inkscape:connector-curvature="0" />
    <path
       style="fill:#ffffff;stroke:none"
       d="m 1665.3162,3027.9651 c -45.7195,6.3375 -53.9298,-5.1776 -62.1848,-19.0773 -8.2551,-13.8997 -14.1828,-27.4561 -24.5416,-29.7762 -10.3587,-2.3201 -24.2907,0.778 -34.3436,4.4479 -10.0531,3.6701 -16.0502,-4.3086 -23.5544,-12.549 -7.5042,-8.2404 -57.2715,-41.3793 -57.2715,-41.3793 0,0 12.6136,43.4743 20.7667,55.3773 8.1531,11.903 11.0722,16.2967 15.6572,20.1434 4.5852,3.8466 17.3035,11.6669 28.565,10.553 11.2614,-1.1138 21.3268,-7.5562 29.6567,-10.2912 8.3298,-2.7351 21.007,2.5425 29.5605,11.7303 8.5534,9.1878 31.1188,27.0998 49.1012,23.41 17.9825,-3.6897 28.5886,-12.5889 28.5886,-12.5889 z"
       id="path3023"
       inkscape:connector-curvature="0"
       sodipodi:nodetypes="csssscssssssc" />
  </g>
  <g
     inkscape:groupmode="layer"
     id="layer1"
     inkscape:label="txt"
     style="display:inline">
    <text
       xml:space="preserve"
       style="font-style:normal;font-variant:normal;font-weight:normal;font-stretch:normal;line-height:0%;font-family:Lavi;-inkscape-font-specification:Lavi;text-align:center;letter-spacing:0px;word-spacing:0px;text-anchor:middle;fill:#000000;fill-opacity:1;stroke:none"
       x="812.651"
       y="286.03253"
       id="text4246-4"><tspan
         sodipodi:role="line"
         style="font-size:45px;line-height:1.25"
         x="819.68225"
         y="286.03253"
         id="tspan4253"> </tspan><tspan
         sodipodi:role="line"
         style="font-size:45px;line-height:1.25"
         x="819.68225"
         y="342.28253"
         id="tspan3455">Eu, personal, nu mă ocup </tspan><tspan
         sodipodi:role="line"
         style="font-size:45px;line-height:1.25"
         x="812.651"
         y="398.53253"
         id="tspan3461">de medieri, nici măcar pentru</tspan><tspan
         sodipodi:role="line"
         style="font-size:45px;line-height:1.25"
         x="819.68225"
         y="454.78253"
         id="tspan3465">un prieten. Așa ceva nu se </tspan><tspan
         sodipodi:role="line"
         style="font-size:45px;line-height:1.25"
         x="812.651"
         y="511.21814"
         id="tspan79">termină bine niciodată.</tspan></text>
    <text
       xml:space="preserve"
       style="font-style:normal;font-variant:normal;font-weight:normal;font-stretch:normal;line-height:0%;font-family:Lavi;-inkscape-font-specification:Lavi;text-align:center;letter-spacing:0px;word-spacing:0px;text-anchor:middle;fill:#000000;fill-opacity:1;stroke:none"
       x="459.47992"
       y="176.86148"
       id="text4246-42"><tspan
         sodipodi:role="line"
         style="font-size:45px;line-height:1.25"
         x="466.51117"
         y="176.86148"
         id="tspan3442">Pentru așa ceva trebuie </tspan><tspan
         sodipodi:role="line"
         style="font-size:45px;line-height:1.25"
         x="466.51117"
         y="233.29707"
         id="tspan65">să te descurci singură. </tspan></text>
    <text
       xml:space="preserve"
       style="font-style:normal;font-variant:normal;font-weight:normal;font-stretch:normal;line-height:0%;font-family:Lavi;-inkscape-font-specification:Lavi;text-align:center;letter-spacing:0px;word-spacing:0px;text-anchor:middle;fill:#000000;fill-opacity:1;stroke:none"
       x="322.12131"
       y="1139.8259"
       id="text4246-4-3"><tspan
         sodipodi:role="line"
         style="font-size:45px;line-height:1.25"
         x="329.15256"
         y="1139.8259"
         id="tspan4253-3"> </tspan><tspan
         sodipodi:role="line"
         style="font-size:45px;line-height:1.25"
         x="322.12131"
         y="1196.0759"
         id="tspan4261-5">T-te r-rog</tspan><tspan
         sodipodi:role="line"
         style="font-size:45px;line-height:1.25"
         x="322.12131"
         y="1252.3259"
         id="tspan4324">Saffron...</tspan></text>
    <text
       xml:space="preserve"
       style="font-style:normal;font-variant:normal;font-weight:normal;font-stretch:normal;line-height:0%;font-family:Lavi;-inkscape-font-specification:Lavi;text-align:center;letter-spacing:0px;word-spacing:0px;text-anchor:middle;fill:#000000;fill-opacity:1;stroke:none"
       x="1789.4443"
       y="1238.8634"
       id="text4246-4-3-5"><tspan
         sodipodi:role="line"
         style="font-size:45px;line-height:1.25"
         x="1789.4443"
         y="1238.8634"
         id="tspan4322">Nu reușesc să învăț nimic de la nașele mele;</tspan><tspan
         sodipodi:role="line"
         style="font-size:45px;line-height:1.25"
         x="1789.4443"
         y="1295.299"
         id="tspan3484">tot ce fac este să îmi cotropească locuința,</tspan><tspan
         sodipodi:role="line"
         style="font-size:45px;line-height:1.25"
         x="1796.4756"
         y="1351.7346"
         id="tspan3486">să se plângă de bătrânețe și să strige la </tspan><tspan
         sodipodi:role="line"
         style="font-size:45px;line-height:1.25"
         x="1789.4443"
         y="1408.1702"
         id="tspan83">mine indiferent ce fac...</tspan></text>
    <text
       xml:space="preserve"
       style="font-style:normal;font-variant:normal;font-weight:normal;font-stretch:normal;line-height:0%;font-family:Lavi;-inkscape-font-specification:Lavi;text-align:center;letter-spacing:0px;word-spacing:0px;text-anchor:middle;fill:#000000;fill-opacity:1;stroke:none"
       x="312.95486"
       y="2130.9766"
       id="text4246-4-3-4"><tspan
         sodipodi:role="line"
         style="font-size:45px;line-height:1.25"
         x="319.98611"
         y="2130.9766"
         id="tspan4253-3-4"> </tspan><tspan
         sodipodi:role="line"
         style="font-size:45px;line-height:1.25"
         x="312.95486"
         y="2187.2266"
         id="tspan4356">Ascultă,</tspan><tspan
         sodipodi:role="line"
         style="font-size:45px;line-height:1.25"
         x="312.95486"
         y="2243.4766"
         id="tspan3516">ești o <tspan
   style="font-style:italic;font-weight:bold"
   id="tspan3503">vrăjitoare</tspan>,</tspan><tspan
         sodipodi:role="line"
         style="font-size:45px;line-height:1.25"
         x="319.98611"
         y="2299.9121"
         id="tspan3514">deci comportă-te </tspan><tspan
         sodipodi:role="line"
         style="font-size:45px;line-height:1.25"
         x="312.95486"
         y="2356.1621"
         id="tspan106">ca atare!</tspan></text>
    <text
       xml:space="preserve"
       style="font-style:normal;font-variant:normal;font-weight:normal;font-stretch:normal;line-height:0%;font-family:Lavi;-inkscape-font-specification:Lavi;text-align:center;letter-spacing:0px;word-spacing:0px;text-anchor:middle;fill:#000000;fill-opacity:1;stroke:none"
       x="301.6976"
       y="2553.5493"
       id="text4246-4-3-4-7"><tspan
         sodipodi:role="line"
         style="font-size:45px;line-height:1.25"
         x="301.6976"
         y="2553.5493"
         id="tspan4438">Ca o fată mare!</tspan></text>
    <text
       xml:space="preserve"
       style="font-style:normal;font-variant:normal;font-weight:normal;font-stretch:normal;line-height:0%;font-family:Lavi;-inkscape-font-specification:Lavi;text-align:center;letter-spacing:0px;word-spacing:0px;text-anchor:middle;fill:#000000;fill-opacity:1;stroke:none"
       x="303.71371"
       y="2438.1238"
       id="text4246-4-3-4-7-0"><tspan
         sodipodi:role="line"
         style="font-size:45px;line-height:1.25"
         x="303.71371"
         y="2438.1238"
         id="tspan4434">Spune-le-o verde-n față!</tspan></text>
    <text
       xml:space="preserve"
       style="font-style:normal;font-variant:normal;font-weight:normal;font-stretch:normal;line-height:0%;font-family:Lavi;-inkscape-font-specification:Lavi;text-align:center;letter-spacing:0px;word-spacing:0px;text-anchor:middle;fill:#000000;fill-opacity:1;stroke:none"
       x="2014.6814"
       y="1485.0845"
       id="text4246-4-3-5-1"><tspan
         sodipodi:role="line"
         style="font-size:45px;line-height:1.25"
         x="2021.7126"
         y="1485.0845"
         id="tspan3499">Chiar nu mă poți ajuta </tspan><tspan
         sodipodi:role="line"
         style="font-size:45px;line-height:1.25"
         x="2021.7126"
         y="1541.52"
         id="tspan94">venind la mine să discut cu </tspan><tspan
         sodipodi:role="line"
         style="font-size:45px;line-height:1.25"
         x="2014.6814"
         y="1597.77"
         id="tspan96">ele despre asta... ?</tspan></text>
    <text
       xml:space="preserve"
       style="font-style:normal;font-variant:normal;font-weight:normal;font-stretch:normal;line-height:0%;font-family:Lavi;-inkscape-font-specification:Lavi;text-align:center;letter-spacing:0px;word-spacing:0px;text-anchor:middle;fill:#000000;fill-opacity:1;stroke:none"
       x="1234.2258"
       y="2870.5386"
       id="text4246-4-3-5-1-7"><tspan
         sodipodi:role="line"
         style="font-size:45px;line-height:1.25"
         x="1234.2258"
         y="2870.5386"
         id="tspan4482-9">Bine, bine!</tspan><tspan
         sodipodi:role="line"
         style="font-size:45px;line-height:1.25"
         x="1241.2571"
         y="2926.7886"
         id="tspan3533">Bănuiesc că pot veni cu tine </tspan><tspan
         sodipodi:role="line"
         style="font-size:45px;line-height:1.25"
         x="1241.2571"
         y="2983.0386"
         id="tspan110">să te ajut să vorbești cu ele </tspan><tspan
         sodipodi:role="line"
         style="font-size:45px;line-height:1.25"
         x="1234.2258"
         y="3039.4741"
         id="tspan112">despre asta..</tspan></text>
  </g>
</svg>
