<?xml version="1.0" encoding="UTF-8" standalone="no"?>
<svg
   xmlns:dc="http://purl.org/dc/elements/1.1/"
   xmlns:cc="http://creativecommons.org/ns#"
   xmlns:rdf="http://www.w3.org/1999/02/22-rdf-syntax-ns#"
   xmlns:svg="http://www.w3.org/2000/svg"
   xmlns="http://www.w3.org/2000/svg"
   xmlns:xlink="http://www.w3.org/1999/xlink"
   xmlns:sodipodi="http://sodipodi.sourceforge.net/DTD/sodipodi-0.dtd"
   xmlns:inkscape="http://www.inkscape.org/namespaces/inkscape"
   id="svg2"
   version="1.1"
   inkscape:version="1.0.2-2 (e86c870879, 2021-01-15)"
   width="2481"
   height="3503"
   sodipodi:docname="E27P03.svg">
  <metadata
     id="metadata8">
    <rdf:RDF>
      <cc:Work
         rdf:about="">
        <dc:format>image/svg+xml</dc:format>
        <dc:type
           rdf:resource="http://purl.org/dc/dcmitype/StillImage" />
        <dc:title />
      </cc:Work>
    </rdf:RDF>
  </metadata>
  <defs
     id="defs6">
    <filter
       style="color-interpolation-filters:sRGB"
       id="filter4375-4-1-1-1-9"
       inkscape:label="deevad outline effect">
      <feFlood
         id="feFlood4377-7-9-0-8-1"
         flood-opacity="1"
         flood-color="rgb(0,0,0)"
         result="flood" />
      <feComposite
         id="feComposite4379-3-8-8-2-77"
         in2="SourceGraphic"
         in="flood"
         operator="in"
         result="composite1" />
      <feMorphology
         id="feMorphology4393-1-0-49-8-9"
         operator="dilate"
         radius="4"
         result="result3" />
      <feComposite
         id="feComposite4385-9-5-7-0-8"
         in2="result3"
         in="SourceGraphic"
         operator="over"
         result="composite2" />
    </filter>
    <filter
       style="color-interpolation-filters:sRGB"
       id="filter4375-4-1-1-1-9-5"
       inkscape:label="deevad outline effect">
      <feFlood
         id="feFlood4377-7-9-0-8-1-8"
         flood-opacity="1"
         flood-color="rgb(0,0,0)"
         result="flood" />
      <feComposite
         id="feComposite4379-3-8-8-2-77-0"
         in2="SourceGraphic"
         in="flood"
         operator="in"
         result="composite1" />
      <feMorphology
         id="feMorphology4393-1-0-49-8-9-0"
         operator="dilate"
         radius="4"
         result="result3" />
      <feComposite
         id="feComposite4385-9-5-7-0-8-0"
         in2="result3"
         in="SourceGraphic"
         operator="over"
         result="composite2" />
    </filter>
  </defs>
  <sodipodi:namedview
     pagecolor="#ffffff"
     bordercolor="#666666"
     borderopacity="1"
     objecttolerance="10"
     gridtolerance="10"
     guidetolerance="10"
     inkscape:pageopacity="0"
     inkscape:pageshadow="2"
     inkscape:window-width="1366"
     inkscape:window-height="745"
     id="namedview4"
     showgrid="false"
     inkscape:zoom="0.42773946"
     inkscape:cx="2302.1112"
     inkscape:cy="3019.5739"
     inkscape:window-x="-8"
     inkscape:window-y="-8"
     inkscape:window-maximized="1"
     inkscape:current-layer="layer3"
     inkscape:snap-global="false"
     inkscape:document-rotation="0" />
  <g
     inkscape:groupmode="layer"
     id="layer2"
     inkscape:label="artwork"
     sodipodi:insensitive="true">
    <image
       sodipodi:absref="C:\Users\quentinlipeck\Downloads\webcomics-master-ec7d62e6553c2c63bb1cf2e799ee31f9cb9ce5e2\webcomics-master-ec7d62e6553c2c63bb1cf2e799ee31f9cb9ce5e2\ep27_Coriander-s-Invention\lang\gfx_Pepper-and-Carrot_by-David-Revoy_E27P03.png"
       xlink:href="../gfx_Pepper-and-Carrot_by-David-Revoy_E27P03.png"
       width="2481"
       height="3503"
       id="image10"
       x="0"
       y="0" />
  </g>
  <g
     inkscape:groupmode="layer"
     id="layer3"
     inkscape:label="speechbubbles">
    <path
       style="fill:#ffffff;fill-rule:evenodd;stroke:none;stroke-width:1.01313px;stroke-linecap:butt;stroke-linejoin:miter;stroke-opacity:1"
       d="m 1153.198,1569.1086 c 2.9209,-52.9577 1.0946,-89.1561 24.4733,-101.9837 23.3787,-12.8274 201.004,-13.2085 215.3332,-12.2354 14.329,0.9732 44.7157,6.9409 57.3165,3.8924 12.6006,-3.0484 49.099,-4.0233 68.2831,-0.4681 19.1842,3.5552 102.0452,4.0292 111.9439,14.6118 9.8987,10.5828 34.628,39.7027 34.1735,72.2563 -0.4548,32.5534 -11.8166,49.6252 -23.8984,67.5746 -12.0818,17.9493 -55.495,43.7573 -80.9323,43.0809 -25.4373,-0.6764 -110.3209,2.2561 -124.6029,2.6376 -14.282,0.3816 -103.0058,6.8193 -133.1567,7.6247 -30.1507,0.8054 -76.1222,-11.8996 -106.9336,-30.0589 -30.8113,-18.1594 -41.9996,-66.9322 -41.9996,-66.9322 z"
       id="path263"
       inkscape:connector-curvature="0"
       sodipodi:nodetypes="ccccccccssccc" />
    <path
       style="fill:#ffffff;fill-rule:evenodd;stroke:none;stroke-width:1px;stroke-linecap:butt;stroke-linejoin:miter;stroke-opacity:1"
       d="m 1252.6692,1467.8179 c 0,0 -14.7372,-14.1832 -28.1318,-24.3459 -13.1591,-9.9839 -23.1743,-37.0399 -19.4243,-57.7963 -18.1089,29.447 -5.815,53.6299 11.889,81.0614 15.1315,24.8588 35.6671,1.0808 35.6671,1.0808 z"
       id="path265"
       inkscape:connector-curvature="0"
       sodipodi:nodetypes="csccc" />
    <path
       style="fill:#ffffff;fill-rule:evenodd;stroke:none;stroke-width:0.928113px;stroke-linecap:butt;stroke-linejoin:miter;stroke-opacity:1"
       d="m 1945.4741,1849.4773 c 23.778,-33.5165 76.1784,-51.0494 117.2496,-51.9804 41.0711,-0.931 149.153,9.3101 184.82,25.1374 35.667,15.8271 68.6513,34.2911 65.4089,79.9105 -3.2425,45.6197 -12.9699,93.1011 -19.4548,109.8595 -6.4849,16.7581 -27.0204,42.8265 -47.556,57.7226 -20.5356,14.8962 -90.7888,18.6203 -115.6476,18.6203 -24.8589,0 -111.3244,-11.1722 -129.6983,-25.1374 -18.3739,-13.9651 -56.2026,-37.2404 -62.6875,-79.1359 -6.4849,-41.8955 -3.2425,-109.8593 7.5657,-134.9966 z"
       id="path267"
       inkscape:connector-curvature="0"
       sodipodi:nodetypes="csccccscsc" />
    <path
       style="fill:#ffffff;fill-rule:evenodd;stroke:none;stroke-width:1px;stroke-linecap:butt;stroke-linejoin:miter;stroke-opacity:1"
       d="m 1825.1743,1897.7489 c 53.571,-19.7367 111.3904,-9.3727 131.1271,16.0031 19.7367,25.3757 16.4282,45.0866 16.4282,45.0866 l -21.6164,9.3985 c 0,14.3171 5.8835,-17.1392 -7.2743,-30.7446 -12.9359,-13.376 -35.6882,-34.1046 -57.3046,-37.8639 -21.6164,-3.7594 -50.0819,-2.8196 -61.36,-1.8797 z"
       id="path269"
       inkscape:connector-curvature="0"
       sodipodi:nodetypes="ccccscc" />
    <path
       style="fill:#ffffff;fill-rule:evenodd;stroke:none;stroke-width:0.849652px;stroke-linecap:butt;stroke-linejoin:miter;stroke-opacity:1"
       d="m 295.48829,2466.0233 c 19.98337,-14.3483 65.94511,-18.5683 85.92848,-23.6324 19.98336,-5.0641 46.96091,-0.844 59.95009,-1.688 12.98919,-0.8441 48.95924,-5.0641 58.95093,-4.2201 9.99168,0.844 73.93846,5.0641 86.92763,5.9081 12.9892,0.844 68.94262,5.0641 74.93764,21.1004 5.995,16.0362 23.98003,47.2648 14.98751,62.4571 -8.99251,15.1923 -19.98336,41.3568 -45.96173,50.6409 -25.97838,9.2842 -65.9451,24.4765 -112.90601,26.1645 -46.96092,1.688 -111.90686,-5.0641 -121.89854,-5.0641 -9.99169,0 -62.9476,0.844 -83.93014,-20.2564 -20.98253,-21.1003 -35.97005,-44.7328 -32.97256,-65.8331 2.99752,-21.1004 15.9867,-45.5769 15.9867,-45.5769 z"
       id="path271"
       inkscape:connector-curvature="0" />
    <path
       style="fill:#ffffff;fill-rule:evenodd;stroke:none;stroke-width:1px;stroke-linecap:butt;stroke-linejoin:miter;stroke-opacity:1"
       d="m 549.40558,2567.868 c 0,0 -6.17962,40.1675 -4.9437,48.819 1.23593,8.6515 12.35924,48.201 19.77478,58.0884 -19.15682,-22.2466 -31.51605,-51.2908 -33.9879,-61.1782 -2.47184,-9.8874 -1.23592,-50.0549 -1.23592,-50.0549 z"
       id="path273"
       inkscape:connector-curvature="0" />
    <path
       style="fill:#ffffff;fill-rule:evenodd;stroke:none;stroke-width:0.883943px;stroke-linecap:butt;stroke-linejoin:miter;stroke-opacity:1"
       d="m 970.10689,2395.41 c 36.95411,-4.4422 28.42621,6.108 60.40571,5.5527 31.9796,-0.5552 97.3599,-6.108 112.9944,-11.1054 8.5278,-2.7764 9.2385,1.6658 9.2385,1.6658 0,0 26.2943,1.1105 31.2689,2.2211 4.9745,1.1105 24.1623,8.3291 31.2688,6.6633 7.1066,-1.6659 19.1877,-4.4422 19.1877,-4.4422 0,0 -0.7106,37.2034 -1.4213,39.9797 -0.7106,2.7764 -5.6852,23.8768 -5.6852,31.0954 0,7.2185 4.2639,18.324 3.5532,21.6557 -0.7106,3.3316 9.2386,11.6607 9.2386,11.6607 l -27.005,0.5553 -18.477,1.6659 -7.8172,-1.6659 -33.4009,2.2211 -19.1877,0.5553 1.4213,-3.3317 -82.4361,3.3317 3.5533,-4.9974 -28.4262,1.1105 -10.6599,4.9975 -3.5532,-4.4423 -24.16234,0.5553 -12.79181,4.9975 7.10656,-10.5502 -10.65984,-6.1081 -2.13196,-81.6253 6.3959,-3.3317 z"
       id="path275"
       inkscape:connector-curvature="0" />
    <path
       style="fill:#ffffff;fill-rule:evenodd;stroke:none;stroke-width:0.888496px;stroke-linecap:butt;stroke-linejoin:miter;stroke-opacity:1"
       d="m 1188.7104,2437.016 c 25.8779,-4.9746 43.1297,9.2385 49.4555,7.8172 6.3257,-1.4213 27.028,-10.6598 33.9287,-9.9492 6.9007,0.7107 50.6056,8.5279 63.8321,5.6853 13.2263,-2.8427 42.5546,0 47.155,-0.7107 4.6004,-0.7106 23.0025,-14.2131 28.1781,-14.2131 5.1756,0 13.8015,6.3959 32.7787,-9.2385 -8.051,18.477 -12.6515,31.2688 -12.6515,31.2688 0,0 20.1273,-7.1065 28.178,-7.1065 8.051,0 14.3767,3.5532 18.4021,1.4213 4.0255,-2.132 25.8779,-2.8426 29.3283,-2.8426 3.4504,0 12.0763,-3.5533 16.1018,-3.5533 4.0254,0 40.8294,4.2639 46.005,4.2639 5.1756,0 53.4808,-7.1066 58.6564,-7.1066 5.1755,0 28.7531,2.132 38.5293,-2.8426 1.1501,14.2131 -2.3003,48.3246 -2.3003,56.1418 0,7.8173 0.575,17.7664 0.575,24.1624 -8.6259,7.1065 -14.9518,21.3196 -14.9518,21.3196 0,0 14.3768,3.5533 18.4021,0.7107 4.0255,-2.8426 1.7253,52.5885 2.3003,63.2484 0.5752,10.6598 -6.9007,0.7106 -6.9007,0.7106 0,0 -1.1501,7.8172 -5.7507,9.2386 -4.6004,1.4213 -85.6843,-0.7107 -94.8853,-0.7107 -9.201,0 -12.0763,3.5533 -12.0763,3.5533 h -39.6794 l -1.1501,-6.3959 -17.827,4.2639 -24.1526,4.9746 -14.3766,3.5533 -8.0509,-2.8426 -39.6794,0.7106 -34.5038,1.4213 8.626,-10.6598 -89.7098,7.8172 -41.4045,1.4213 -37.9543,6.3959 -7.4757,-22.741 -4.0256,-49.0352 c 0,0 -2.3002,-13.5026 4.0256,-15.6345 6.3257,-2.1319 -4.6004,-4.2639 -5.7506,-17.0557 -1.1502,-12.7918 -4.6005,-45.482 -4.6005,-45.482 l 7.4758,-2.8426 -9.201,-7.1066 z"
       id="path277"
       inkscape:connector-curvature="0" />
    <path
       style="fill:#ffffff;fill-rule:evenodd;stroke:none;stroke-width:1px;stroke-linecap:butt;stroke-linejoin:miter;stroke-opacity:1"
       d="m 1327.3521,2751.2587 c 32.6788,-36.3054 55.3539,-80.3905 55.3539,-94.0051 8.6697,12.9662 8.0028,10.373 8.0028,10.373 0,0 14.6721,-38.8987 14.0051,-62.8862 -0.6667,-23.9875 26.6766,-24.6358 30.0111,-19.4493 3.3345,5.1864 9.47,23.9875 9.47,23.9875 l -4.1347,13.6145 -4.0015,-3.2415 c 0,0 -15.3389,40.1952 -17.3397,44.7334 -2.0008,4.5382 -10.6705,23.9876 -10.6705,23.9876 l -2.6677,-11.6696 -14.6721,10.373 0.6669,16.2077 -8.003,-7.1314 c 0,0 -0.6667,9.7247 -4.0014,14.9112 -3.3346,5.1864 -24.0089,27.8774 -26.6765,31.1189 -2.6676,3.2415 -25.3427,9.0763 -25.3427,9.0763 z"
       id="path279"
       inkscape:connector-curvature="0" />
    <path
       style="fill:#ffffff;fill-rule:evenodd;stroke:none;stroke-width:0.970136px;stroke-linecap:butt;stroke-linejoin:miter;stroke-opacity:1"
       d="m 1862.0808,2427.8532 7.2398,6.925 36.7802,-4.0672 7.3553,-7.8742 c 0,0 16.3451,7.8742 21.2486,5.2495 4.9035,-2.6248 24.5176,-4.3746 24.5176,-4.3746 l 7.3553,6.9993 17.9796,-2.6247 c 0,0 41.68,6.9993 51.487,6.1243 9.8071,-0.8748 26.9694,-9.6239 26.9694,-9.6239 0,0 33.5075,9.6239 38.411,7.8741 4.9035,-1.7498 13.8933,-2.6246 13.8933,-2.6246 l 10.6243,19.2482 c 0,0 21.2486,-18.3734 21.2486,-27.1225 13.8934,-0.875 32.6902,0 35.9592,-1.7499 3.2691,-1.7499 4.9036,10.499 4.9036,10.499 l 9.807,6.1244 c 0,0 24.5176,-19.2482 26.9694,-22.7478 2.4518,-3.4997 18.7969,-2.6249 18.7969,-2.6249 0,0 22.8831,0.875 26.1521,0 3.269,-0.8748 17.1623,0.875 29.4212,1.7498 12.2588,0.8751 24.5176,0.8751 33.5074,-2.6246 2.4518,14.8736 0,68.2438 -0.8173,74.3682 -8.9898,14.8736 -17.9796,42.8711 -25.3348,48.1206 19.6141,-10.4991 19.6141,-13.9987 26.9693,-20.9981 -0.8172,21.8731 -7.3552,68.2438 -8.1725,73.4934 13.0761,-11.374 11.4416,-8.7492 9.8071,-4.3746 -1.6346,4.3746 -6.5381,17.4984 -8.1726,27.9973 -1.6345,10.4991 0,23.623 -1.6345,30.6223 -1.6345,6.9994 -3.269,16.6236 -3.269,16.6236 0,0 -32.6902,10.4989 -38.411,12.2488 -5.7208,1.7499 -56.3905,1.7499 -69.4666,1.7499 -13.0761,0 -32.6902,2.6247 -41.68,1.7498 4.9036,-9.6241 8.1726,-16.6235 8.1726,-16.6235 0,0 -40.8627,4.3746 -50.6698,6.1245 -9.8071,1.7498 -50.6698,-7.8743 -59.6596,-6.9993 -8.9898,0.8748 -58.8423,2.6246 -71.9184,3.4996 -13.076,0.8748 -45.7662,2.6247 -58.025,5.2495 -12.2588,2.6247 -49.0353,4.3745 -57.2078,4.3745 -8.1726,0 -23.7004,0.875 -23.7004,0.875 0,0 -1.6345,-31.497 -1.6345,-42.8711 0,-11.3739 -4.0863,-67.3688 -0.8173,-73.4933 3.269,-6.1245 5.7208,-48.9956 5.7208,-53.3701 0,-4.3747 -7.7109,-38.0304 -7.7109,-38.0304 z"
       id="path283"
       inkscape:connector-curvature="0"
       sodipodi:nodetypes="ccccscccccsccccccccccccccccccccscccccsscssscc" />
    <path
       style="fill:#ffffff;fill-rule:evenodd;stroke:none;stroke-width:1px;stroke-linecap:butt;stroke-linejoin:miter;stroke-opacity:1"
       d="m 1928.0456,2832.7023 c -13.1433,-30.6118 9.2927,-109.1953 20.1114,-126.6745 0,-10.6243 -4.641,-22.8831 -4.641,-22.8831 0,0 -11.6028,4.9035 -14.6968,10.6243 -3.0941,5.7208 13.1497,-34.3247 22.4319,-40.8627 9.2823,-6.538 -6.9616,-37.5937 -6.9616,-37.5937 0,0 -31.7143,26.1521 -33.2613,37.5937 -1.547,11.4416 -10.0557,70.2839 -6.1881,80.9082 3.8676,10.6243 6.1881,4.9035 9.2821,0.8172 3.0942,-4.0862 11.6029,-12.2588 16.244,-15.5278 -7.7353,19.6141 -20.1115,84.1772 -2.3206,113.5984 z"
       id="path285"
       inkscape:connector-curvature="0"
       sodipodi:nodetypes="ccccccssccc" />
  </g>
  <g
     inkscape:groupmode="layer"
     id="layer1"
     inkscape:label="txt">
    <text
       xml:space="preserve"
       style="font-style:normal;font-variant:normal;font-weight:normal;font-stretch:normal;line-height:0%;font-family:Lavi;-inkscape-font-specification:Lavi;text-align:center;letter-spacing:0px;word-spacing:0px;text-anchor:middle;fill:#000000;fill-opacity:1;stroke:none"
       x="1407.3555"
       y="1520.687"
       id="text4246"><tspan
         sodipodi:role="line"
         style="font-size:45px;line-height:1.2"
         x="1407.3555"
         y="1520.687"
         id="tspan67">sina kama sona e ni: </tspan><tspan
         sodipodi:role="line"
         style="font-size:45px;line-height:1.2"
         x="1407.3555"
         y="1574.687"
         id="tspan71">mi wile pali e ona sin </tspan><tspan
         sodipodi:role="line"
         style="font-size:45px;line-height:1.2"
         x="1407.3555"
         y="1628.687"
         id="tspan73">tan seme?</tspan></text>
    <text
       xml:space="preserve"
       style="font-style:normal;font-variant:normal;font-weight:normal;font-stretch:normal;line-height:0%;font-family:Lavi;-inkscape-font-specification:Lavi;text-align:center;letter-spacing:0px;word-spacing:0px;text-anchor:middle;fill:#000000;fill-opacity:1;stroke:none"
       x="2123.2803"
       y="1874.3798"
       id="text4246-3"><tspan
         sodipodi:role="line"
         style="font-size:45px;line-height:1.2"
         x="2123.2803"
         y="1874.3798"
         id="tspan66">mi pali e ona </tspan><tspan
         sodipodi:role="line"
         style="font-size:45px;line-height:1.2"
         x="2123.2803"
         y="1928.3798"
         id="tspan86">tan pilin ike </tspan><tspan
         sodipodi:role="line"
         style="font-size:45px;line-height:1.2"
         x="2123.2803"
         y="1982.3798"
         id="tspan90">tawa tenpo mi pi </tspan><tspan
         sodipodi:role="line"
         style="font-size:45px;line-height:1.2"
         x="2123.2803"
         y="2036.3798"
         id="tspan92">kama lawa.</tspan></text>
    <text
       xml:space="preserve"
       style="font-style:normal;font-variant:normal;font-weight:normal;font-stretch:normal;line-height:0%;font-family:Lavi;-inkscape-font-specification:Lavi;text-align:center;letter-spacing:0px;word-spacing:0px;text-anchor:middle;fill:#000000;fill-opacity:1;stroke:none"
       x="474.53574"
       y="2501.4622"
       id="text4246-3-3"><tspan
         sodipodi:role="line"
         style="font-size:45px;line-height:1.2"
         x="474.53574"
         y="2501.4622"
         id="tspan99">o lukin e </tspan><tspan
         sodipodi:role="line"
         style="font-size:45px;line-height:1.2"
         x="474.53574"
         y="2555.4622"
         id="tspan103">ilo pali sin mi...</tspan></text>
    <text
       xml:space="preserve"
       style="font-style:normal;font-variant:normal;font-weight:normal;font-stretch:normal;line-height:0%;font-family:Lavi;-inkscape-font-specification:Lavi;text-align:center;letter-spacing:0px;word-spacing:0px;text-anchor:middle;fill:#000000;fill-opacity:1;stroke:none"
       x="1109.3394"
       y="2462.7529"
       id="text4246-3-3-2"><tspan
         sodipodi:role="line"
         style="font-style:normal;font-variant:normal;font-weight:normal;font-stretch:normal;font-size:32px;line-height:1.4;font-family:'Press Start 2P';-inkscape-font-specification:'Press Start 2P'"
         x="1109.3394"
         y="2462.7529"
         id="tspan144">ale o.</tspan></text>
    <text
       xml:space="preserve"
       style="font-style:normal;font-variant:normal;font-weight:normal;font-stretch:normal;line-height:0%;font-family:Lavi;-inkscape-font-specification:Lavi;text-align:center;letter-spacing:0px;word-spacing:0px;text-anchor:middle;fill:#000000;fill-opacity:1;stroke:none"
       x="1425.948"
       y="2493.7439"
       id="text4246-3-3-2-2"><tspan
         sodipodi:role="line"
         style="font-style:normal;font-variant:normal;font-weight:normal;font-stretch:normal;font-size:32px;line-height:1.4;font-family:'Press Start 2P';-inkscape-font-specification:'Press Start 2P'"
         x="1425.948"
         y="2493.7439"
         id="tspan107">mi ILO PI </tspan><tspan
         sodipodi:role="line"
         style="font-style:normal;font-variant:normal;font-weight:normal;font-stretch:normal;font-size:32px;line-height:1.4;font-family:'Press Start 2P';-inkscape-font-specification:'Press Start 2P'"
         x="1425.948"
         y="2538.5439"
         id="tspan111">SONA PILIN</tspan><tspan
         sodipodi:role="line"
         style="font-style:normal;font-variant:normal;font-weight:normal;font-stretch:normal;font-size:32px;line-height:1.4;font-family:'Press Start 2P';-inkscape-font-specification:'Press Start 2P'"
         x="1425.948"
         y="2583.344"
         id="tspan171"> mu, mu!</tspan></text>
    <text
       xml:space="preserve"
       style="font-style:normal;font-variant:normal;font-weight:normal;font-stretch:normal;line-height:0%;font-family:Lavi;-inkscape-font-specification:Lavi;text-align:center;letter-spacing:0px;word-spacing:0px;text-anchor:middle;fill:#000000;fill-opacity:1;stroke:none"
       x="2101.0667"
       y="2495.8889"
       id="text4246-3-3-2-2-7"><tspan
         sodipodi:role="line"
         style="font-style:normal;font-variant:normal;font-weight:normal;font-stretch:normal;font-size:32px;line-height:1.3;font-family:'Press Start 2P';-inkscape-font-specification:'Press Start 2P'"
         x="2101.0667"
         y="2495.8889"
         id="tspan127">o kama supa </tspan><tspan
         sodipodi:role="line"
         style="font-style:normal;font-variant:normal;font-weight:normal;font-stretch:normal;font-size:32px;line-height:1.3;font-family:'Press Start 2P';-inkscape-font-specification:'Press Start 2P'"
         x="2101.0667"
         y="2537.489"
         id="tspan131">lon supa mi. </tspan><tspan
         sodipodi:role="line"
         style="font-style:normal;font-variant:normal;font-weight:normal;font-stretch:normal;font-size:32px;line-height:1.3;font-family:'Press Start 2P';-inkscape-font-specification:'Press Start 2P'"
         x="2101.0667"
         y="2579.0889"
         id="tspan135">mi kama sona </tspan><tspan
         sodipodi:role="line"
         style="font-style:normal;font-variant:normal;font-weight:normal;font-stretch:normal;font-size:32px;line-height:1.3;font-family:'Press Start 2P';-inkscape-font-specification:'Press Start 2P'"
         x="2101.0667"
         y="2620.689"
         id="tspan139">e pilin sina.</tspan></text>
    <text
       xml:space="preserve"
       style="font-style:normal;font-variant:normal;font-weight:normal;font-stretch:normal;line-height:0%;font-family:Lavi;-inkscape-font-specification:Lavi;letter-spacing:0px;word-spacing:0px;fill:#000000;fill-opacity:1;stroke:#000000;stroke-width:2.15796;stroke-miterlimit:4;stroke-dasharray:none;stroke-opacity:1;filter:url(#filter4375-4-1-1-1-9)"
       x="787.65729"
       y="1584.5073"
       id="text4580"
       transform="matrix(0.46879428,-0.12606586,-0.08654633,0.61214652,623.13411,2085.4411)"><tspan
         sodipodi:role="line"
         id="tspan4582"
         x="787.65729"
         y="1584.5073"
         style="font-style:normal;font-variant:normal;font-weight:bold;font-stretch:normal;font-size:80.4001px;line-height:1.25;font-family:Lavi;-inkscape-font-specification:'Lavi Bold';fill:#ffffff;stroke-width:2.15796">Nena!</tspan></text>
    <text
       xml:space="preserve"
       style="font-style:normal;font-variant:normal;font-weight:normal;font-stretch:normal;line-height:0%;font-family:Lavi;-inkscape-font-specification:Lavi;letter-spacing:0px;word-spacing:0px;fill:#000000;fill-opacity:1;stroke:#000000;stroke-width:2.15796;stroke-miterlimit:4;stroke-dasharray:none;stroke-opacity:1;filter:url(#filter4375-4-1-1-1-9-5)"
       x="787.65729"
       y="1584.5073"
       id="text4580-4"
       transform="matrix(0.46879428,-0.12606586,-0.08654633,0.61214652,2027.5227,1975.6976)"><tspan
         sodipodi:role="line"
         id="tspan4582-7"
         x="787.65729"
         y="1584.5073"
         style="font-style:normal;font-variant:normal;font-weight:bold;font-stretch:normal;font-size:80.4001px;line-height:1.25;font-family:Lavi;-inkscape-font-specification:'Lavi Bold';fill:#ffffff;stroke-width:2.15796">Luka!</tspan></text>
  </g>
</svg>
