<?xml version="1.0" encoding="UTF-8" standalone="no"?>
<!-- Created with Inkscape (http://www.inkscape.org/) -->

<svg
   xmlns:dc="http://purl.org/dc/elements/1.1/"
   xmlns:cc="http://creativecommons.org/ns#"
   xmlns:rdf="http://www.w3.org/1999/02/22-rdf-syntax-ns#"
   xmlns:svg="http://www.w3.org/2000/svg"
   xmlns="http://www.w3.org/2000/svg"
   xmlns:xlink="http://www.w3.org/1999/xlink"
   xmlns:sodipodi="http://sodipodi.sourceforge.net/DTD/sodipodi-0.dtd"
   xmlns:inkscape="http://www.inkscape.org/namespaces/inkscape"
   id="svg2"
   version="1.1"
   inkscape:version="0.92.3 (2405546, 2018-03-11)"
   width="2481"
   height="3503"
   sodipodi:docname="E01P02.svg"
   enable-background="new">
  <metadata
     id="metadata8">
    <rdf:RDF>
      <cc:Work
         rdf:about="">
        <dc:format>image/svg+xml</dc:format>
        <dc:type
           rdf:resource="http://purl.org/dc/dcmitype/StillImage" />
        <dc:title />
      </cc:Work>
    </rdf:RDF>
  </metadata>
  <defs
     id="defs6" />
  <sodipodi:namedview
     pagecolor="#ffffff"
     bordercolor="#666666"
     borderopacity="1"
     objecttolerance="10"
     gridtolerance="10"
     guidetolerance="10"
     inkscape:pageopacity="0"
     inkscape:pageshadow="2"
     inkscape:window-width="1856"
     inkscape:window-height="1151"
     id="namedview4"
     showgrid="false"
     inkscape:zoom="0.45053876"
     inkscape:cx="1800.6855"
     inkscape:cy="2278.3376"
     inkscape:window-x="64"
     inkscape:window-y="0"
     inkscape:window-maximized="1"
     inkscape:current-layer="layer3"
     inkscape:snap-global="false">
    <inkscape:grid
       type="xygrid"
       id="grid4282" />
  </sodipodi:namedview>
  <flowRoot
     xml:space="preserve"
     id="flowRoot2987"
     style="font-style:normal;font-variant:normal;font-weight:normal;font-stretch:normal;font-size:12px;line-height:125%;font-family:Lavi;-inkscape-font-specification:Lavi;letter-spacing:0px;word-spacing:0px;fill:#000000;fill-opacity:1;stroke:none;stroke-width:1px;stroke-linecap:butt;stroke-linejoin:miter;stroke-opacity:1"
     transform="matrix(0.71,0,0,0.71,271.00792,-3666.602)"><flowRegion
       id="flowRegion2989"><rect
         id="rect2991"
         width="1016.5607"
         height="77.684769"
         x="838.99548"
         y="443.73529"
         style="font-style:normal;font-variant:normal;font-weight:normal;font-stretch:normal;font-family:Lavi;-inkscape-font-specification:Lavi" /></flowRegion><flowPara
       id="flowPara2993" /></flowRoot>  <g
     inkscape:groupmode="layer"
     id="layer1"
     inkscape:label="artwork"
     style="display:inline"
     sodipodi:insensitive="true">
    <image
       sodipodi:absref="/home/fici/Desktop/P&amp;C/all/sl/../gfx_Pepper-and-Carrot_by-David-Revoy_E01P02.png"
       xlink:href="../gfx_Pepper-and-Carrot_by-David-Revoy_E01P02.png"
       width="2481"
       height="3503"
       id="image3084"
       x="0"
       y="0" />
  </g>
  <g
     inkscape:groupmode="layer"
     id="layer2"
     inkscape:label="speechbubble"
     style="display:inline;opacity:0.70232556">
    <path
       style="color:#000000;display:inline;overflow:visible;visibility:visible;fill:#dfffd4;fill-opacity:1;fill-rule:nonzero;stroke:none;stroke-width:0.98469329px;marker:none;enable-background:accumulate"
       d="m 1741.9565,363.28535 c 5.3149,-45.2213 66.4355,-87.7018 110.283,-83.5908 43.8475,4.111 114.269,39.7399 104.9681,106.8865 -9.301,67.1467 -94.3384,54.8136 -126.2275,50.7026 -31.8891,-4.1111 -87.6949,-23.2958 -89.0236,-73.9983 z"
       id="path3113"
       inkscape:connector-curvature="0"
       sodipodi:nodetypes="csssc" />
    <path
       style="color:#000000;display:inline;overflow:visible;visibility:visible;fill:#dfffd4;fill-opacity:1;fill-rule:nonzero;stroke:none;stroke-width:1px;marker:none;enable-background:accumulate"
       d="m 1820.8625,410.95024 c -5.4814,30.1475 0.6683,46.6253 0.6683,56.2177 0,9.5924 -11.6194,43.0645 -54.5857,49.8532 -27.4067,5.4813 -48.8582,25.1813 -51.5989,34.7737 24.6662,-23.2958 41.4444,-25.3008 63.3699,-25.3008 21.9254,0 57.2201,-15.8094 58.5904,-67.8823 1.3704,-52.073 1.3704,-80.8501 1.3704,-80.8501 z"
       id="path3121"
       inkscape:connector-curvature="0"
       sodipodi:nodetypes="csccsscc" />
    <path
       style="color:#000000;display:inline;overflow:visible;visibility:visible;fill:#dfffd4;fill-opacity:1;fill-rule:nonzero;stroke:none;stroke-width:1px;marker:none;enable-background:accumulate"
       d="m 1213.3907,1372.9711 c 7.8795,-52.0044 111.8883,-110.3124 204.8658,-92.9776 92.9776,17.3348 171.7722,52.0045 178.0757,91.4017 6.3036,39.3973 -33.0937,130.799 -193.8345,115.04 -160.7409,-15.7588 -196.9864,-92.9775 -189.107,-113.4641 z"
       id="path3129"
       inkscape:connector-curvature="0"
       sodipodi:nodetypes="csssc" />
    <path
       style="color:#000000;display:inline;overflow:visible;visibility:visible;fill:#dfffd4;fill-opacity:1;fill-rule:nonzero;stroke:none;stroke-width:1px;marker:none;enable-background:accumulate"
       d="m 1358.3727,1437.5826 c 4.7277,66.1874 -96.1293,94.5535 -96.1293,124.4954 0,29.9419 9.4554,28.3661 9.4554,28.3661 0,0 -9.4554,-11.0313 1.5758,-29.942 11.0313,-18.9106 54.8249,-30.2397 86.674,-61.4597 39.82,-39.0336 53.5803,-72.491 53.5803,-72.491 z"
       id="path3137"
       inkscape:connector-curvature="0"
       sodipodi:nodetypes="cscsscc" />
  </g>
  <g
     inkscape:groupmode="layer"
     id="layer3"
     inkscape:label="txt"
     style="display:inline">
    <flowRoot
       xml:space="preserve"
       id="flowRoot3063-8-6-1"
       style="color:#000000;font-style:normal;font-variant:normal;font-weight:normal;font-stretch:normal;font-size:72px;line-height:125%;font-family:Arial;-inkscape-font-specification:Arial;letter-spacing:0px;word-spacing:0px;display:inline;overflow:visible;visibility:visible;fill:#3c4036;fill-opacity:1;fill-rule:nonzero;stroke:none;marker:none;enable-background:accumulate"
       transform="matrix(0.62578859,0,0,0.65468471,1632.0963,21.655877)"><flowRegion
         id="flowRegion3065-8-1-1"><rect
           id="rect3067-6-3-8"
           width="526.9325"
           height="288.6394"
           x="92.642677"
           y="425.30325"
           style="color:#000000;font-size:72px;display:inline;overflow:visible;visibility:visible;fill:#3c4036;fill-opacity:1;fill-rule:nonzero;stroke:none;marker:none;enable-background:accumulate" /></flowRegion><flowPara
         style="color:#000000;font-style:normal;font-variant:normal;font-weight:normal;font-stretch:normal;font-size:64px;font-family:Lavi;-inkscape-font-specification:Lavi;text-align:center;text-anchor:middle;display:inline;overflow:visible;visibility:visible;fill:#3c4036;fill-opacity:1;fill-rule:nonzero;stroke:none;marker:none;enable-background:accumulate"
         id="flowPara3224-1">hah...</flowPara><flowPara
         style="color:#000000;font-style:normal;font-variant:normal;font-weight:normal;font-stretch:normal;font-size:64px;font-family:Lavi;-inkscape-font-specification:Lavi;text-align:center;text-anchor:middle;display:inline;overflow:visible;visibility:visible;fill:#3c4036;fill-opacity:1;fill-rule:nonzero;stroke:none;marker:none;enable-background:accumulate"
         id="flowPara3264">odlično.</flowPara></flowRoot>    <flowRoot
       xml:space="preserve"
       id="flowRoot3063-8-6-1-9"
       style="color:#000000;font-style:normal;font-variant:normal;font-weight:normal;font-stretch:normal;font-size:72px;line-height:125%;font-family:Arial;-inkscape-font-specification:Arial;letter-spacing:0px;word-spacing:0px;display:inline;overflow:visible;visibility:visible;fill:#3c4036;fill-opacity:1;fill-rule:nonzero;stroke:none;marker:none;enable-background:accumulate"
       transform="matrix(0.62578859,0,0,0.65468471,1154.9073,1010.0749)"><flowRegion
         id="flowRegion3065-8-1-1-1"><rect
           id="rect3067-6-3-8-9"
           width="615.07123"
           height="310.30325"
           x="92.642677"
           y="425.30325"
           style="color:#000000;font-size:72px;display:inline;overflow:visible;visibility:visible;fill:#3c4036;fill-opacity:1;fill-rule:nonzero;stroke:none;marker:none;enable-background:accumulate" /></flowRegion><flowPara
         style="color:#000000;font-style:normal;font-variant:normal;font-weight:normal;font-stretch:normal;font-size:64px;font-family:Lavi;-inkscape-font-specification:Lavi;text-align:center;text-anchor:middle;display:inline;overflow:visible;visibility:visible;fill:#3c4036;fill-opacity:1;fill-rule:nonzero;stroke:none;marker:none;enable-background:accumulate"
         id="flowPara3264-9">Ne!</flowPara><flowPara
         style="color:#000000;font-style:normal;font-variant:normal;font-weight:normal;font-stretch:normal;font-size:64px;font-family:Lavi;-inkscape-font-specification:Lavi;text-align:center;text-anchor:middle;display:inline;overflow:visible;visibility:visible;fill:#3c4036;fill-opacity:1;fill-rule:nonzero;stroke:none;marker:none;enable-background:accumulate"
         id="flowPara3300">Da ti ne pade</flowPara><flowPara
         style="color:#000000;font-style:normal;font-variant:normal;font-weight:normal;font-stretch:normal;font-size:64px;font-family:Lavi;-inkscape-font-specification:Lavi;text-align:center;text-anchor:middle;display:inline;overflow:visible;visibility:visible;fill:#3c4036;fill-opacity:1;fill-rule:nonzero;stroke:none;marker:none;enable-background:accumulate"
         id="flowPara42">na pamet!</flowPara></flowRoot>    <flowRoot
       xml:space="preserve"
       id="flowRoot4133-6-9-4-8"
       style="font-style:normal;font-variant:normal;font-weight:normal;font-stretch:normal;font-size:12px;line-height:125%;font-family:Arial;-inkscape-font-specification:Arial;letter-spacing:0.00204969px;word-spacing:0px;display:inline;fill:#d9a73d;fill-opacity:1;stroke:#d9a83d;stroke-width:0.86646658;stroke-opacity:1"
       transform="matrix(3.0123478,-0.56955109,0.58962563,6.0084875,-2583.13,-2903.5933)"><flowRegion
         id="flowRegion4135-2-9-3-5"
         style="stroke-width:0.86646658"><rect
           id="rect4137-1-7-1-2"
           width="51.856533"
           height="24.039366"
           x="1125.3193"
           y="1078.5308"
           style="letter-spacing:0.00204969px;fill:#d9a73d;fill-opacity:1;stroke:#d9a83d;stroke-width:0.86646658;stroke-opacity:1" /></flowRegion><flowPara
         id="flowPara4139-2-8-6-8"
         style="font-style:normal;font-variant:normal;font-weight:normal;font-stretch:normal;line-height:125%;font-family:Lavi;-inkscape-font-specification:Lavi;letter-spacing:0.00204969px;word-spacing:0.00204969px;fill:#d9a73d;fill-opacity:1;stroke:#d9a83d;stroke-width:0.92601746;stroke-miterlimit:4;stroke-dasharray:none;stroke-opacity:1"><flowSpan
   style="font-size:7.81850576px;fill:#d9a73d;fill-opacity:1;stroke:#d9a83d;stroke-width:0.92601746;stroke-opacity:1"
   id="flowSpan4267">B</flowSpan><flowSpan
   style="font-size:9.90925312px;fill:#d9a73d;fill-opacity:1;stroke:#d9a83d;stroke-width:0.92601746;stroke-opacity:1"
   id="flowSpan4271">L</flowSpan>O<flowSpan
   style="font-size:13.67259789px;fill:#d9a73d;fill-opacity:1;stroke:#d9a83d;stroke-width:0.92601746;stroke-opacity:1"
   id="flowSpan4273">P</flowSpan><flowSpan
   id="flowSpan4277"
   style="font-size:17.85409164px;fill:#d9a73d;fill-opacity:1;stroke:#d9a83d;stroke-width:0.92601746;stroke-opacity:1" /></flowPara></flowRoot>  </g>
</svg>
