<?xml version="1.0" encoding="UTF-8" standalone="no"?>
<!-- Created with Inkscape (http://www.inkscape.org/) -->

<svg
   xmlns:dc="http://purl.org/dc/elements/1.1/"
   xmlns:cc="http://creativecommons.org/ns#"
   xmlns:rdf="http://www.w3.org/1999/02/22-rdf-syntax-ns#"
   xmlns:svg="http://www.w3.org/2000/svg"
   xmlns="http://www.w3.org/2000/svg"
   xmlns:xlink="http://www.w3.org/1999/xlink"
   xmlns:sodipodi="http://sodipodi.sourceforge.net/DTD/sodipodi-0.dtd"
   xmlns:inkscape="http://www.inkscape.org/namespaces/inkscape"
   id="svg2"
   version="1.1"
   inkscape:version="0.92.2 2405546, 2018-03-11"
   width="2481"
   height="3503"
   sodipodi:docname="E26P06.svg">
  <metadata
     id="metadata8">
    <rdf:RDF>
      <cc:Work
         rdf:about="">
        <dc:format>image/svg+xml</dc:format>
        <dc:type
           rdf:resource="http://purl.org/dc/dcmitype/StillImage" />
        <dc:title />
      </cc:Work>
    </rdf:RDF>
  </metadata>
  <defs
     id="defs6" />
  <sodipodi:namedview
     pagecolor="#ffffff"
     bordercolor="#666666"
     borderopacity="1"
     objecttolerance="10"
     gridtolerance="10"
     guidetolerance="10"
     inkscape:pageopacity="0"
     inkscape:pageshadow="2"
     inkscape:window-width="1920"
     inkscape:window-height="1033"
     id="namedview4"
     showgrid="false"
     inkscape:zoom="0.56249128"
     inkscape:cx="1358.1226"
     inkscape:cy="2726.7226"
     inkscape:window-x="0"
     inkscape:window-y="47"
     inkscape:window-maximized="0"
     inkscape:current-layer="layer1"
     inkscape:snap-global="false" />
  <g
     inkscape:groupmode="layer"
     id="layer2"
     inkscape:label="artwork"
     sodipodi:insensitive="true">
    <image
       sodipodi:absref="/home/midgard/git/peppercarrot/comics/ep26_Books-Are-Great/lang/ja/../gfx_Pepper-and-Carrot_by-David-Revoy_E26P06.png"
       xlink:href="../gfx_Pepper-and-Carrot_by-David-Revoy_E26P06.png"
       width="2481"
       height="3503"
       id="image10"
       x="0"
       y="0" />
  </g>
  <g
     inkscape:groupmode="layer"
     id="layer3"
     inkscape:label="speechbubbles">
    <path
       style="color:#000000;display:inline;overflow:visible;visibility:visible;fill:#ffffff;fill-opacity:1;fill-rule:nonzero;stroke:none;stroke-width:1.13598561px;marker:none;enable-background:accumulate"
       d="m 1612.9025,2329.2461 c -20.2593,-6.2866 -78.676,-56.0835 -7.0306,-53.4826 -52.7291,-20.9531 -45.7196,-62.6535 -2.3881,-87.008 -56.8359,4.9777 -99.0132,-5.4154 -69.7272,-48.4545 -84.0699,27.5624 -111.6943,18.3947 -94.223,-42.0578 -38.7276,49.8835 -80.9029,58.1726 -90.4722,-0.1815 -8.7272,43.4949 -28.9105,51.7384 -84.4454,-3.0262 -4.0879,15.9595 -18.7898,79.1812 -138.5402,64.6887 45.3822,30.42 74.2108,49.8925 -3.0162,62.7611 39.3577,13.6848 64.4567,32.2234 3.1164,61.675 39.7456,9.3017 102.6247,6.5753 26.2676,62.9047 50.3415,-26.6232 134.3167,-7.3868 98.1222,35.5565 98.6483,-48.2523 124.7839,-34.8113 123.1237,-0.6823 36.6793,-50.6251 99.0809,-45.021 129.9129,-15.5926 -14.9885,-44.8637 64.0016,-37.1198 109.3001,-37.1005 z"
       id="path3549-3-78"
       inkscape:connector-curvature="0"
       sodipodi:nodetypes="ccccccccccccccc" />
    <path
       style="color:#000000;display:inline;overflow:visible;visibility:visible;fill:#ffffff;fill-opacity:1;fill-rule:nonzero;stroke:none;stroke-width:1.01871407px;marker:none;enable-background:accumulate"
       d="m 1399.7143,2333.645 c 8.6108,49.7588 2.9002,118.1574 -78.6529,106.2078 -25.201,28.7471 -47.7946,47.6765 -113.2114,34.184 49.8699,1.0663 77.1319,-3.8454 110.8215,-49.0964 42.563,0.7758 70.1242,-36.0119 48.4083,-95.037 -21.7161,-59.0252 -20.5388,-41.7552 -20.5388,-41.7552 l 47.376,28.0049 z"
       id="path5074"
       inkscape:connector-curvature="0"
       sodipodi:nodetypes="ccccsccc" />
    <path
       style="color:#000000;display:inline;overflow:visible;visibility:visible;fill:#ffffff;fill-opacity:1;fill-rule:nonzero;stroke:none;stroke-width:1.0566107px;marker:none;enable-background:accumulate"
       d="m 1037.8018,1946.6543 c 18.3879,-38.6565 187.2398,-66.4501 241.7924,13.213 54.5525,79.663 26.5771,163.1169 -4.7236,193.5335 -31.3006,30.4168 -164.2584,38.9832 -207.2086,23.4933 -38.6232,-13.9296 -56.0223,-48.8541 -58.1597,-128.6526 -0.8724,-32.5689 9.9115,-62.9305 28.2995,-101.5872 z"
       id="path4040"
       inkscape:connector-curvature="0"
       sodipodi:nodetypes="zssssz" />
  </g>
  <g
     inkscape:groupmode="layer"
     id="layer1"
     inkscape:label="txt">
    <path
       style="color:#000000;display:inline;overflow:visible;visibility:visible;fill:#ffffff;fill-opacity:1;fill-rule:nonzero;stroke:none;stroke-width:1px;marker:none;enable-background:accumulate"
       d="m 1740.3605,637.95688 c 17.4053,17.1181 35.3748,35.0294 57.0685,48.7241 6.1988,3.8199 12.7078,7.5251 19.009,9.9498 6.3746,1.4498 9.8735,-1.4122 10.2479,-5.6132 1.1947,-5.7353 -1.4145,-13.9047 3.6212,-17.285 3.8153,-2.3306 11.4822,0.8814 17.8675,3.1704 16.3272,6.0748 33.0627,13.8279 48.9378,17.9363 18.2324,5.5799 37.1007,10.4081 51.0148,8.0016 5.4182,-1.0555 10.3442,-3.0194 11.8487,-7.4624 -11.8529,-30.14705 -41.315,-28.57407 -60.2412,-23.1796 -6.8911,1.9398 -18.3474,-1.96756 -28.217,-4.71516 -12.4299,-0.8743 -25.0467,-6.21694 -38.7607,-12.19864 -6.261,-2.6676 -12.8949,-5.2059 -18.2978,-5.4716 -6.5707,1.3916 -9.2612,7.0734 -7.7874,13.4873 1.2952,6.5363 4.2551,10.27689 -1.1401,13.11709 -3.0033,2.6585 -7.7221,-0.63503 -13.1082,-3.00783 -17.4337,-9.2145 -34.1552,-18.02906 -48.3937,-31.46116 -1.2852,-1.3148 -2.4776,-2.6514 -3.6693,-3.992 z"
       id="path4496"
       inkscape:connector-curvature="0"
       sodipodi:nodetypes="cccccccccccccccccc"
       inkscape:transform-center-x="22.684309"
       inkscape:transform-center-y="9.4517954" />
    <path
       style="color:#000000;display:inline;overflow:visible;visibility:visible;fill:#ffffff;fill-opacity:1;fill-rule:nonzero;stroke:none;stroke-width:0.84162462px;marker:none;enable-background:accumulate"
       d="m 1866.1452,682.21912 c -3.3532,-36.09273 31.4019,-53.47964 101.915,-53.15731 70.513,0.32233 121.2217,-1.06812 135.1273,54.54926 5.2591,45.89008 -64.0431,55.95106 -125.2001,54.94894 -61.1569,-1.00211 -114.5955,-9.66529 -111.8422,-56.34089 z"
       id="path3565"
       inkscape:connector-curvature="0"
       sodipodi:nodetypes="cscsc" />
    <text
       xml:space="preserve"
       style="font-style:normal;font-variant:normal;font-weight:normal;font-stretch:normal;line-height:0%;font-family:'Rounded M+ 1c';-inkscape-font-specification:'Rounded M+ 1c, Medium';text-align:center;letter-spacing:0px;word-spacing:0px;text-anchor:middle;fill:#000000;fill-opacity:1;stroke:none"
       x="1983.5024"
       y="655.12402"
       id="text4246-5-3"><tspan
         sodipodi:role="line"
         style="font-size:45px;line-height:1.25"
         x="1983.5024"
         y="659.44403"
         id="tspan890" /><tspan
         sodipodi:role="line"
         style="font-size:45px;line-height:1.25"
         x="1983.5024"
         y="699.44904"
         id="tspan919">...でもね</tspan><tspan
         sodipodi:role="line"
         style="font-size:45px;line-height:1.25"
         x="1983.5024"
         y="715.69403"
         id="tspan917" /></text>
    <path
       style="color:#000000;display:inline;overflow:visible;visibility:visible;fill:#ffffff;fill-opacity:1;fill-rule:nonzero;stroke:none;stroke-width:1.50382614px;marker:none;enable-background:accumulate"
       d="m 917.47421,1029.7762 c 0,0 60.6469,11.021 70.27329,16.9555 9.6264,5.9344 -64.64891,103.7675 -206.82049,193.0191 146.4033,-81.1884 278.69889,-156.842 298.91449,-154.2986 -8.6637,16.9553 -39.9065,47.6441 -39.9065,47.6441 0,0 92.2094,-44.8238 101.8359,-43.9759 -2.8879,7.6298 3.8507,22.8898 3.8507,22.8898 l 43.8483,-9.9699 -47.7495,43.8426 c 0,0 147.1986,-50.6441 154.0738,-48.2849 7.8153,2.3592 -5.7757,49.171 -5.7757,49.171 l 43.8941,-34.7205 -2.5003,17.765 32.73,-28.8244 10.589,16.1077 22.8327,-17.8234 0.2708,18.6713 36.5806,-24.5856 12.5143,2.5434 31.7674,38.9976 11.9236,-19.9649 14.0678,-29.2451 56.7963,32.2546 3.8504,-4.2389 -5.4109,-34.226 28.5145,24.0527 -2.6371,-25.4135 26.7033,5.9146 20.512,12.4611 27.6204,17.2111 -6.3054,-35.4032 34.9339,18.2252 -8.4129,-32.8407 37.5432,13.5645 11.5517,8.4776 2.8878,-15.2598 12.5145,-0.8479 23.1034,5.9346 30.6681,5.7692 29.0437,6.1983 -53.9359,-43.3352 -13.4768,-11.8688 49.0949,-11.8689 11.5,-108.50431 -22.1281,-47.79742 -818.33992,3.29452 -112.85677,10.49659 99.85033,89.40223 -40.77238,9.02411 42.35651,12.7167 -41.39381,19.49878 25.99137,13.5643 z"
       id="path3931"
       inkscape:connector-curvature="0"
       sodipodi:nodetypes="ccccccccccccccccccccccccccccccccccccccccccccccccccccc" />
    <text
       xml:space="preserve"
       style="font-style:normal;font-variant:normal;font-weight:bold;font-stretch:normal;font-size:23.13890648px;line-height:0%;font-family:'Rounded M+ 1c';-inkscape-font-specification:'Rounded M+ 1c Bold';text-align:center;letter-spacing:0px;word-spacing:0px;text-anchor:middle;fill:#000000;fill-opacity:1;stroke:none;stroke-width:1.92824221;"
       x="1625.3549"
       y="1017.8533"
       id="text4246-1"
       transform="matrix(0.97391078,0,-0.20538452,1.0267881,0,0)"><tspan
         sodipodi:role="line"
         style="font-style:normal;font-variant:normal;font-weight:bold;font-stretch:normal;font-size:86.77090454px;line-height:1.25;font-family:'Rounded M+ 1c';-inkscape-font-specification:'Rounded M+ 1c Bold';stroke-width:1.92824221;"
         x="1625.3549"
         y="1017.8533"
         id="tspan1013">やあ<tspan
   style="font-size:103.88381195px;stroke-width:1.92824221;-inkscape-font-specification:'Rounded M+ 1c Bold';font-family:'Rounded M+ 1c';font-weight:bold;font-style:normal;font-stretch:normal;font-variant:normal;"
   id="tspan867"><tspan
   style="font-size:94.55047607px;-inkscape-font-specification:'Rounded M+ 1c Bold';font-family:'Rounded M+ 1c';font-weight:bold;font-style:normal;font-stretch:normal;font-variant:normal;"
   id="tspan42">あ</tspan>あ</tspan><tspan
   id="tspan875"
   style="font-size:129.85476685px;stroke-width:1.92824221;-inkscape-font-specification:'Rounded M+ 1c Bold';font-family:'Rounded M+ 1c';font-weight:bold;font-style:normal;font-stretch:normal;font-variant:normal;">あ</tspan><tspan
   id="tspan885"
   style="font-size:168.811203px;stroke-width:1.92824221;-inkscape-font-specification:'Rounded M+ 1c Bold';font-family:'Rounded M+ 1c';font-weight:bold;font-style:normal;font-stretch:normal;font-variant:normal;"><tspan
   style="font-size:160.811203px;-inkscape-font-specification:'Rounded M+ 1c Bold';font-family:'Rounded M+ 1c';font-weight:bold;font-style:normal;font-stretch:normal;font-variant:normal;"
   id="tspan48">!</tspan>!<tspan
   style="font-size:178.14454651px;-inkscape-font-specification:'Rounded M+ 1c Bold';font-family:'Rounded M+ 1c';font-weight:bold;font-style:normal;font-stretch:normal;font-variant:normal;"
   id="tspan52">!</tspan></tspan></tspan></text>
    <text
       xml:space="preserve"
       style="font-style:normal;font-variant:normal;font-weight:bold;font-stretch:normal;font-size:18.67560768px;line-height:0%;font-family:'Rounded M+ 1c';-inkscape-font-specification:'Rounded M+ 1c Bold';text-align:center;letter-spacing:0px;word-spacing:0px;text-anchor:middle;fill:#000000;fill-opacity:1;stroke:none;stroke-width:1.92493451;stroke-miterlimit:4;stroke-dasharray:none;stroke-dashoffset:0;"
       x="2273.8328"
       y="1599.2814"
       id="text4246-1-3"
       transform="matrix(0.72588626,-0.17326363,0.24142568,1.3199998,0,0)"><tspan
         sodipodi:role="line"
         style="font-style:normal;font-variant:normal;font-weight:bold;font-stretch:normal;font-size:70.03353882px;line-height:1.25;font-family:'Rounded M+ 1c';-inkscape-font-specification:'Rounded M+ 1c Bold';stroke:#000000;stroke-width:1.92493451;stroke-linecap:square;stroke-miterlimit:4;stroke-dasharray:none;stroke-dashoffset:0;stroke-opacity:1;paint-order:normal;"
         x="2273.8328"
         y="1599.2814"
         id="tspan1013-6"><tspan
           id="tspan932"
           style="font-size:120.62905121px;stroke:#000000;stroke-width:1.92493451;stroke-linecap:square;stroke-miterlimit:4;stroke-dasharray:none;stroke-dashoffset:0;stroke-opacity:1;paint-order:normal;-inkscape-font-specification:'Rounded M+ 1c Bold';font-family:'Rounded M+ 1c';font-weight:bold;font-style:normal;font-stretch:normal;font-variant:normal;">ポンッ</tspan><tspan
           id="tspan885-6"
           style="font-style:normal;font-variant:normal;font-weight:bold;font-stretch:normal;font-size:172.18313599px;font-family:'Rounded M+ 1c';-inkscape-font-specification:'Rounded M+ 1c Bold';stroke:#000000;stroke-width:1.92493451;stroke-linecap:square;stroke-miterlimit:4;stroke-dasharray:none;stroke-dashoffset:0;stroke-opacity:1;paint-order:normal;">!</tspan></tspan></text>
    <text
       xml:space="preserve"
       style="font-style:normal;font-variant:normal;font-weight:bold;font-stretch:normal;font-size:15.89058971px;line-height:0%;font-family:'Rounded M+ 1c';-inkscape-font-specification:'Rounded M+ 1c Bold';text-align:center;letter-spacing:0px;word-spacing:0px;text-anchor:middle;fill:#000000;fill-opacity:1;stroke:none;stroke-width:1.17751098"
       x="1371.0023"
       y="2231.957"
       id="text4246-1-3-2"
       transform="scale(0.99789912,1.0021053)"><tspan
         sodipodi:role="line"
         style="font-style:normal;font-variant:normal;font-weight:bold;font-stretch:normal;font-size:59.58971024px;line-height:1.25;font-family:'Rounded M+ 1c';-inkscape-font-specification:'Rounded M+ 1c Bold';stroke-width:1.17751098"
         x="1371.0023"
         y="2231.957"
         id="tspan914">...本は最高</tspan><tspan
         sodipodi:role="line"
         style="font-style:normal;font-variant:normal;font-weight:bold;font-stretch:normal;font-size:59.58971024px;line-height:1.25;font-family:'Rounded M+ 1c';-inkscape-font-specification:'Rounded M+ 1c Bold';stroke-width:1.17751098"
         x="1371.0023"
         y="2306.4441"
         id="tspan65">なんだから!</tspan></text>
    <text
       xml:space="preserve"
       style="font-style:normal;font-variant:normal;font-weight:normal;font-stretch:normal;line-height:0%;font-family:'Rounded M+ 1c';-inkscape-font-specification:'Rounded M+ 1c, Medium';text-align:center;letter-spacing:0px;word-spacing:0px;text-anchor:middle;fill:#000000;fill-opacity:1;stroke:none"
       x="1159.5453"
       y="1926.3055"
       id="text4246-5"><tspan
         sodipodi:role="line"
         style="font-size:45px;line-height:1.25"
         x="1159.5453"
         y="1930.6255"
         id="tspan859" /><tspan
         sodipodi:role="line"
         style="font-size:45px;line-height:1.25"
         x="1159.5453"
         y="1930.6255"
         id="tspan46" /><tspan
         sodipodi:role="line"
         style="font-size:45px;line-height:1.25"
         x="1159.5453"
         y="1970.6305"
         id="tspan59">そう</tspan><tspan
         sodipodi:role="line"
         style="font-size:45px;line-height:1.25"
         x="1159.5453"
         y="2026.8805"
         id="tspan61">本当に</tspan><tspan
         sodipodi:role="line"
         style="font-size:45px;line-height:1.25"
         x="1159.5453"
         y="2083.1306"
         id="tspan57">どんな</tspan><tspan
         sodipodi:role="line"
         style="font-size:45px;line-height:1.25"
         x="1159.5453"
         y="2139.3806"
         id="tspan980">時だって...</tspan></text>
    <text
       xml:space="preserve"
       style="font-style:normal;font-variant:normal;font-weight:bold;font-stretch:normal;line-height:0%;font-family:'Rounded M+ 1c';-inkscape-font-specification:'Rounded M+ 1c Bold';text-align:center;letter-spacing:0px;word-spacing:0px;text-anchor:middle;display:inline;opacity:1;fill:#241c1c;fill-opacity:1;stroke:#000000;stroke-width:0;stroke-miterlimit:4;stroke-dasharray:none;stroke-opacity:1;"
       x="2414.1099"
       y="3323.9915"
       id="text4213"
       transform="matrix(0.95719015,0,-0.32603671,1.0447245,0,0)"><tspan
         sodipodi:role="line"
         id="tspan3562"
         x="2414.1099"
         y="3323.9915"
         style="font-style:normal;font-variant:normal;font-weight:bold;font-stretch:normal;font-size:72.18077087px;line-height:1.25;font-family:'Rounded M+ 1c';-inkscape-font-specification:'Rounded M+ 1c Bold';fill:#000000;fill-opacity:1;stroke:none;stroke-width:0;stroke-miterlimit:4;stroke-dasharray:none;">- おしまい -</tspan></text>
  </g>
</svg>
