<?xml version="1.0" encoding="UTF-8" standalone="no"?>
<!-- Created with Inkscape (http://www.inkscape.org/) -->

<svg
   xmlns:dc="http://purl.org/dc/elements/1.1/"
   xmlns:cc="http://creativecommons.org/ns#"
   xmlns:rdf="http://www.w3.org/1999/02/22-rdf-syntax-ns#"
   xmlns:svg="http://www.w3.org/2000/svg"
   xmlns="http://www.w3.org/2000/svg"
   xmlns:xlink="http://www.w3.org/1999/xlink"
   xmlns:sodipodi="http://sodipodi.sourceforge.net/DTD/sodipodi-0.dtd"
   xmlns:inkscape="http://www.inkscape.org/namespaces/inkscape"
   id="svg2"
   version="1.1"
   inkscape:version="0.92.3 (2405546, 2018-03-11)"
   width="2481"
   height="3503"
   sodipodi:docname="E27P02.svg">
  <metadata
     id="metadata8">
    <rdf:RDF>
      <cc:Work
         rdf:about="">
        <dc:format>image/svg+xml</dc:format>
        <dc:type
           rdf:resource="http://purl.org/dc/dcmitype/StillImage" />
        <dc:title />
      </cc:Work>
    </rdf:RDF>
  </metadata>
  <defs
     id="defs6" />
  <sodipodi:namedview
     pagecolor="#ffffff"
     bordercolor="#666666"
     borderopacity="1"
     objecttolerance="10"
     gridtolerance="10"
     guidetolerance="10"
     inkscape:pageopacity="0"
     inkscape:pageshadow="2"
     inkscape:window-width="1920"
     inkscape:window-height="1022"
     id="namedview4"
     showgrid="false"
     inkscape:zoom="0.4574026"
     inkscape:cx="1300.945"
     inkscape:cy="644.31726"
     inkscape:window-x="0"
     inkscape:window-y="0"
     inkscape:window-maximized="1"
     inkscape:current-layer="layer3"
     inkscape:snap-global="false" />
  <g
     inkscape:groupmode="layer"
     id="layer2"
     inkscape:label="artwork"
     sodipodi:insensitive="true">
    <image
       xlink:href="../gfx_Pepper-and-Carrot_by-David-Revoy_E27P02.png"
       width="2481"
       height="3503"
       id="image10"
       x="0"
       y="0" />
  </g>
  <g
     inkscape:groupmode="layer"
     id="layer3"
     inkscape:label="speechbubbles">
    <path
       style="fill:#ffffff;fill-rule:evenodd;stroke:none;stroke-width:1.17122638px;stroke-linecap:butt;stroke-linejoin:miter;stroke-opacity:1"
       d="m 444.10723,185.07437 c 7.40753,1.73891 77.24999,0 83.59931,-0.86944 6.34933,-0.86946 53.96919,-7.82508 65.60961,-6.08617 11.64042,1.7389 92.06507,11.30288 106.88013,12.17234 14.81507,0.86944 85.71577,2.60835 98.41438,7.82507 12.69865,5.21672 29.63016,10.43344 39.15415,19.12797 9.52397,8.69453 23.28081,35.64758 22.22258,41.73375 -1.05822,6.08617 -15.87328,47.81991 -24.33903,53.90608 -8.46575,6.08618 -38.09588,26.08359 -46.56166,28.69196 -8.46576,2.60836 -27.51368,9.56397 -37.03767,12.17234 -9.52396,2.60836 -225.40071,5.21671 -251.85619,6.08617 -26.45549,0.86945 -129.10276,-5.21672 -147.09249,-6.08617 -17.98972,-0.86946 -60.3185,1.73891 -87.83218,-6.95563 -27.51371,-8.69452 -46.56165,-40.86428 -55.02742,-46.95047 -8.46576,-6.08617 -23.28082,-32.16975 -22.22259,-41.73374 1.05821,-9.56399 22.22259,-32.16976 32.80478,-34.77812 10.58219,-2.60836 53.96919,-24.34469 79.36645,-28.69195 25.39727,-4.34726 86.77399,-14.7807 98.4144,-13.91125 15.93345,1.74702 14.25951,0.17345 45.50344,4.34726 z"
       id="path1323"
       inkscape:connector-curvature="0"
       sodipodi:nodetypes="ccsscscsscsssccsscc" />
    <path
       style="fill:#ffffff;fill-rule:evenodd;stroke:none;stroke-width:1.09510624px;stroke-linecap:butt;stroke-linejoin:miter;stroke-opacity:1"
       d="m 149.44677,163.77351 c 12.63201,-19.15682 35.52751,-29.0442 47.36998,-31.51605 11.8425,-2.47185 31.57999,3.08981 42.633,1.85389 11.05298,-1.23593 52.89647,-12.35924 68.68648,-11.74128 15.78997,0.61796 62.37047,4.32573 77.37096,4.9437 15.00048,0.61796 52.10698,3.0898 65.52848,9.88738 13.4215,6.79758 28.42198,14.21312 30.79049,21.0107 2.36849,6.79758 7.89499,19.77478 2.36849,30.89809 -5.52648,11.12331 -18.94798,30.28013 -36.31698,32.13401 -17.36899,1.85389 -103.42446,8.65147 -122.37246,8.0335 -18.94799,-0.61796 -71.05497,0 -83.68697,0 -12.632,0 -58.42298,-4.32573 -71.84448,-12.35923 -13.42149,-8.0335 -23.68498,-24.10051 -25.26398,-33.9879 -1.57901,-9.88738 4.73699,-19.15681 4.73699,-19.15681 z"
       id="path1325"
       inkscape:connector-curvature="0" />
    <path
       style="fill:#ffffff;fill-rule:evenodd;stroke:none;stroke-width:1px;stroke-linecap:butt;stroke-linejoin:miter;stroke-opacity:1"
       d="m 544.4243,343.97954 c 6.17962,25.33643 -4.94369,76.0093 4.32573,89.60445 9.26943,13.59516 11.12331,11.74128 19.15682,18.53886 -12.35924,15.44904 -17.92089,33.36993 -16.68497,42.63936 1.23592,9.26942 4.32573,33.36993 35.84178,44.49324 -27.19032,-19.15681 -24.71847,-38.31363 -23.48255,-43.87528 1.23593,-5.56166 6.17962,-34.60586 21.62867,-42.0214 -15.44905,-11.74127 -23.48255,-24.71847 -23.48255,-32.13401 0,-7.41554 8.65146,-82.80688 8.65146,-82.80688 z"
       id="path1327"
       inkscape:connector-curvature="0" />
    <path
       style="fill:#ffffff;fill-rule:evenodd;stroke:none;stroke-width:0.95070493px;stroke-linecap:butt;stroke-linejoin:miter;stroke-opacity:1"
       d="m 1028.778,97.326576 c -32.42456,15.393434 -62.38624,27.992324 -66.70952,50.569354 -4.32327,22.57702 -16.21228,41.04914 -17.2931,56.44256 -1.08082,15.39343 7.26449,71.55183 14.83022,92.07639 7.56573,20.52458 48.6369,67.73109 54.0409,71.836 5.4041,4.1049 41.0712,17.44588 58.3643,23.60325 17.2931,6.15738 155.6379,10.26229 180.4967,13.34097 24.8589,3.07869 91.8696,-14.3672 109.1628,-21.5508 17.2931,-7.1836 41.0711,-10.26228 51.8793,-22.57702 10.8082,-12.31474 35.667,-45.15405 39.9903,-59.52125 4.3232,-14.3672 4.3232,-63.62616 4.3232,-73.88845 0,-10.26229 -1.0808,-55.41633 -21.6163,-74.91467 -20.5356,-19.49834 -55.1218,-46.18028 -82.1423,-54.390104 -27.0205,-8.209828 -190.2241,-20.52457 -208.598,-21.550798 -18.374,-1.026228 -116.7285,20.524568 -116.7285,20.524568 z"
       id="path1329"
       inkscape:connector-curvature="0"
       sodipodi:nodetypes="cssscsscscscssc" />
    <path
       style="fill:#ffffff;fill-rule:evenodd;stroke:none;stroke-width:0.83407217px;stroke-linecap:butt;stroke-linejoin:miter;stroke-opacity:1"
       d="m 1055.2353,339.10744 c -23.5293,14.36798 -49.7736,27.83798 -55.2035,37.71597 -5.42982,9.87799 -12.66963,36.81796 -9.04979,49.38996 3.61997,12.57199 15.38469,64.65595 28.95929,74.53394 13.5746,9.87799 57.0136,40.40997 78.733,40.40997 21.7194,0 91.4025,11.67399 103.1673,10.77599 11.7646,-0.898 87.7826,9.87799 107.6922,0.898 19.9094,-8.98 45.2487,-25.14398 60.6334,-30.53198 15.3844,-5.38799 52.4885,-8.08199 63.3482,-27.83798 10.8598,-19.75598 15.7192,-55.03303 7.2399,-80.81994 -8.2009,-24.93996 -25.3393,-46.69595 -52.4887,-60.16595 -27.1492,-13.46998 -114.027,-43.10396 -114.027,-43.10396 l -130.3165,-11.67399 c 0,0 -20.8145,8.08199 -42.534,19.75598 -21.7194,11.67399 -46.1538,20.65399 -46.1538,20.65399 z"
       id="path1331"
       inkscape:connector-curvature="0"
       sodipodi:nodetypes="csccsccccasccsc" />
    <path
       style="fill:#ffffff;fill-rule:evenodd;stroke:none;stroke-width:1px;stroke-linecap:butt;stroke-linejoin:miter;stroke-opacity:1"
       d="m 1351.9814,526.45483 c 0,0 27.0205,22.6972 35.667,37.82867 8.6466,15.13146 27.0205,36.74784 22.6972,76.73814 10.8082,-51.87931 10.8082,-67.01077 -20.5355,-116.72844 -31.3438,-49.71768 -37.8287,2.16163 -37.8287,2.16163 z"
       id="path1333"
       inkscape:connector-curvature="0" />
    <path
       style="fill:#ffffff;fill-rule:evenodd;stroke:none;stroke-width:1.04007399px;stroke-linecap:butt;stroke-linejoin:miter;stroke-opacity:1"
       d="m 1604.7755,231.8935 c 12.1011,-46.74643 16.1347,-74.01519 44.3704,-90.89585 28.2357,-16.88066 143.8676,-31.16429 160.0023,-32.4628 16.1347,-1.29851 64.5387,3.89554 87.3962,3.89554 22.8575,0 141.1785,-2.59703 160.0023,-2.59703 18.8238,0 95.4636,0 115.632,2.59703 20.1683,2.59702 91.4298,18.17916 103.5309,29.86578 12.101,11.6866 47.0594,61.03006 48.404,93.49287 1.3446,32.4628 -1.3446,85.7018 -25.5466,106.47799 -24.202,20.77619 -80.6735,46.74643 -118.3211,54.53751 -37.6475,7.79107 -221.8519,16.88065 -243.3647,16.88065 -21.513,0 -112.9428,3.89554 -157.3132,-2.59702 -44.3704,-6.49256 -92.7745,-25.97024 -115.6319,-44.14941 -22.8575,-18.17918 -51.0933,-31.16429 -59.1606,-66.22412 -8.0673,-35.05983 0,-68.82114 0,-68.82114 z"
       id="path1335"
       inkscape:connector-curvature="0" />
    <path
       style="fill:#ffffff;fill-rule:evenodd;stroke:none;stroke-width:1px;stroke-linecap:butt;stroke-linejoin:miter;stroke-opacity:1"
       d="m 1746.5526,423.03907 c 27.5116,26.61792 42.8588,47.56076 -11.4058,80.71719 49.1355,-0.72812 43.5728,20.05383 34.2174,45.56614 66.8976,-20.5973 113.7421,-7.40942 120.3948,32.54725 43.9171,-32.2476 50.5645,-26.46532 83.6426,-1.30189 39.6321,-49.89404 62.6056,-15.54139 91.2465,-10.41512 -5.8821,-23.03081 13.5288,-43.92498 62.4748,-10.21797 -17.5693,-18.88765 -10.6126,-65.99877 56.6527,-69.19731 -30.151,-10.89059 -73.1985,-22.51429 -22.8117,-69.00017 -77.6206,-8.98442 -39.9485,-27.33589 -51.9598,-41.66048 l -112.7909,-13.0189 -114.0581,7.81134 -58.2964,5.20756 c -1.4105,20.45876 4.4806,42.79545 -77.3061,42.96236 z"
       id="path1337"
       inkscape:connector-curvature="0"
       sodipodi:nodetypes="cccccccccccccc" />
    <path
       style="fill:#ffffff;fill-rule:evenodd;stroke:none;stroke-width:1px;stroke-linecap:butt;stroke-linejoin:miter;stroke-opacity:1"
       d="m 2083.819,528.58622 c 24.8588,19.45474 57.2834,63.76832 55.1217,92.95043 10.8082,-38.90948 -17.2931,-97.27371 -31.3437,-112.40517 -14.0507,-15.13147 -23.778,19.45474 -23.778,19.45474 z"
       id="path1339"
       inkscape:connector-curvature="0" />
    <path
       style="fill:#ffffff;fill-rule:evenodd;stroke:none;stroke-width:1.03201115px;stroke-linecap:butt;stroke-linejoin:miter;stroke-opacity:1"
       d="m 868.35699,1438.6648 c 11.70992,-34.2595 35.12981,-50.6446 66.91394,-59.5818 31.78412,-8.9372 115.42657,1.4895 137.17357,1.4895 21.747,0 108.7352,7.4477 120.4451,19.3641 11.71,11.9164 40.1484,37.2387 31.7841,64.0505 -8.3642,26.8118 -18.4013,53.6236 -63.5682,68.519 -45.1669,14.8954 -86.9881,0 -103.7167,1.4896 -16.7285,1.4895 -38.4755,8.9372 -85.3152,1.4895 -46.83976,-7.4477 -107.06233,-46.1759 -103.71661,-96.8204 z"
       id="path1341"
       inkscape:connector-curvature="0" />
    <path
       style="fill:#ffffff;fill-rule:evenodd;stroke:none;stroke-width:1px;stroke-linecap:butt;stroke-linejoin:miter;stroke-opacity:1"
       d="m 1321.8416,1549.9601 c -25.1103,-26.3097 -29.3743,-46.7563 -36.94,-53.2412 -7.5658,-6.4849 -52.768,-40.79 -87.3542,-44.0325 -34.5862,-3.2424 -28.1013,24.8589 -28.1013,24.8589 0,0 36.7479,1.0808 51.8793,5.4041 15.1315,4.3232 48.6369,20.5355 54.041,24.8588 5.4041,4.3233 19.4547,27.0205 46.4752,42.1519 z"
       id="path1343"
       inkscape:connector-curvature="0"
       sodipodi:nodetypes="cccccsc" />
    <path
       style="fill:#ffffff;fill-rule:evenodd;stroke:none;stroke-width:1px;stroke-linecap:butt;stroke-linejoin:miter;stroke-opacity:1"
       d="m 1847.0115,1634.8585 c 65.8759,-41.0171 79.5483,-53.4465 129.266,-55.9324 49.7176,-2.4859 59.6612,-29.8306 59.6612,-29.8306 0,0 -34.8024,-1.243 -72.0906,6.2147 -37.2883,7.4576 -95.7066,37.2882 -116.8366,79.5483 z"
       id="path1345"
       inkscape:connector-curvature="0" />
    <path
       style="fill:#ffffff;fill-rule:evenodd;stroke:none;stroke-width:0.94632322px;stroke-linecap:butt;stroke-linejoin:miter;stroke-opacity:1"
       d="m 1979.3372,1519.225 c 15.9402,-20.9727 56.929,-43.2562 81.9777,-47.1886 25.0487,-3.9323 104.7492,5.2432 121.8279,17.0403 17.0786,11.7972 52.3746,20.9728 51.236,58.9858 -1.1386,38.013 4.5543,55.0534 -21.633,76.026 -26.1873,20.9728 -118.4121,15.7296 -138.9065,14.4188 -20.4945,-1.3107 -59.2061,-6.5539 -79.7005,-30.1483 -20.4944,-23.5942 -29.603,-48.4993 -14.8016,-89.134 z"
       id="path1347"
       inkscape:connector-curvature="0" />
    <path
       style="fill:#ffffff;fill-rule:evenodd;stroke:none;stroke-width:1.02648854px;stroke-linecap:butt;stroke-linejoin:miter;stroke-opacity:1"
       d="m 1994.5786,1655.9885 c 20.9546,-34.8024 72.0314,-47.2318 83.8183,-47.2318 11.787,0 103.4633,7.4576 120.4888,7.4576 17.0257,0 52.3865,-7.4576 72.0314,-4.9717 19.645,2.4859 56.3154,0 72.0314,24.8588 15.7159,24.8588 27.5029,79.5483 23.5739,103.1642 -3.929,23.6159 5.2387,54.6894 -11.787,90.7347 -17.0255,36.0453 -23.5738,49.7177 -48.4574,60.9042 -24.8836,11.1865 -142.7531,6.2147 -168.9463,2.4859 -26.1933,-3.7289 -77.27,0 -99.5343,-6.2147 -22.2642,-6.2148 -57.625,-27.3448 -52.3864,-53.4465 5.2386,-26.1018 -9.1677,-49.7177 -2.6194,-94.4636 6.5484,-44.7459 11.787,-83.2771 11.787,-83.2771 z"
       id="path1349"
       inkscape:connector-curvature="0" />
    <path
       style="fill:#ffffff;fill-rule:evenodd;stroke:none;stroke-width:1.0800612px;stroke-linecap:butt;stroke-linejoin:miter;stroke-opacity:1"
       d="m 110.80486,2399.1151 c 0,-35.8207 30.18127,-41.7908 49.8647,-41.7908 19.68344,0 83.98264,-4.7762 93.16825,-4.7762 9.1856,0 77.4215,7.1642 89.23156,13.1343 11.81006,5.9701 30.18125,10.7462 27.55681,32.2386 -2.62446,21.4925 0,33.4327 -26.24457,39.4028 -26.24459,5.9702 -128.59844,8.3582 -146.96965,7.1642 -18.37119,-1.194 -45.928,-10.7463 -59.05029,-17.9104 -13.12229,-7.1641 -30.18127,-9.5522 -27.55681,-27.4625 z"
       id="path1351"
       inkscape:connector-curvature="0" />
    <path
       style="fill:#ffffff;fill-rule:evenodd;stroke:none;stroke-width:0.87633336px;stroke-linecap:butt;stroke-linejoin:miter;stroke-opacity:1"
       d="m 292.56807,2416.9778 c 43.97154,-11.2481 75.05807,-8.5798 88.06064,-6.9111 13.68394,1.7561 48.35641,12.1289 59.21193,21.2194 10.85551,9.0905 24.69872,27.5079 23.71185,38.4164 -0.98687,10.9087 6.31336,40.8823 5.3265,55.4271 -0.98687,14.5447 -11.50441,64.5672 -18.41246,85.4754 -6.90807,20.908 -23.68478,45.4523 -97.69967,49.9976 -74.0149,4.5452 -119.41071,2.7272 -148.0298,-4.5453 -28.6191,-7.2723 -65.13313,-11.8176 -75.00178,-46.3614 -9.86865,-34.5438 -12.82924,-73.6329 -9.86865,-89.9957 2.9606,-16.3629 5.92119,-52.7248 9.86865,-59.0882 3.94747,-6.3633 15.87112,-31.144 24.75291,-36.5982 8.88179,-5.4543 138.07988,-7.036 138.07988,-7.036 z"
       id="path1353"
       inkscape:connector-curvature="0"
       sodipodi:nodetypes="csssscscsscsc" />
    <path
       style="fill:#ffffff;fill-rule:evenodd;stroke:none;stroke-width:1.19746232px;stroke-linecap:butt;stroke-linejoin:miter;stroke-opacity:1"
       d="m 489.29006,2527.8474 c 1.42148,-21.2109 12.29562,-59.3247 37.88236,-66.395 25.58673,-7.0703 96.66097,-7.0703 110.87582,-3.5351 14.21485,3.5351 36.95862,29.4595 42.64455,40.065 5.68594,10.6055 21.32228,48.3139 -4.26445,63.6328 -25.58672,15.3191 -51.17347,27.1029 -78.18168,25.9245 -27.00821,-1.1784 -81.02464,-9.4271 -93.81801,-23.5676 -20.52295,-11.049 -15.13859,-36.1246 -15.13859,-36.1246 z"
       id="path1355"
       inkscape:connector-curvature="0"
       sodipodi:nodetypes="cscscscc" />
    <path
       style="fill:#ffffff;fill-rule:evenodd;stroke:none;stroke-width:1px;stroke-linecap:butt;stroke-linejoin:miter;stroke-opacity:1"
       d="m 371.0335,2654.1612 c 0,0 10.62431,7.3553 12.25882,23.7003 1.63451,16.3451 -0.81725,35.142 -13.89333,54.7561 28.60391,-32.6902 43.31449,-55.5733 34.32469,-83.36 -8.9898,-27.7866 -32.69018,4.9036 -32.69018,4.9036 z"
       id="path1357"
       inkscape:connector-curvature="0" />
    <path
       style="fill:#ffffff;fill-rule:evenodd;stroke:none;stroke-width:1px;stroke-linecap:butt;stroke-linejoin:miter;stroke-opacity:1"
       d="m 609.41023,2578.6689 c 0,0 17.16235,24.5177 9.80706,38.411 -7.35529,13.8933 -8.9898,18.7968 -25.33489,35.1419 26.9694,-17.9796 37.5937,-31.0556 40.86272,-43.3145 3.26902,-12.2588 5.72078,-35.9592 5.72078,-42.4972 0,-6.538 -31.05567,12.2588 -31.05567,12.2588 z"
       id="path1359"
       inkscape:connector-curvature="0" />
    <path
       style="fill:#ffffff;fill-rule:evenodd;stroke:none;stroke-width:1.13303292px;stroke-linecap:butt;stroke-linejoin:miter;stroke-opacity:1"
       d="m 717.16135,2537.3419 c -9.39843,-50.6746 -8.2917,-124.0693 3.92625,-137.341 4.75927,-31.0322 65.47811,-63.9417 87.17701,-57.3819 16.91717,-4.8261 108.0819,-30.1634 125.93891,-27.7502 17.85701,2.4129 118.32618,5.4896 137.12298,27.2073 18.7969,21.7176 45.0787,19.2399 56.3569,42.1641 11.2781,22.9242 6.8946,82.833 12.5337,90.0721 5.639,7.2394 3.5713,43.2543 -1.1279,63.7654 -4.6992,20.5112 -21.6164,37.4028 -46.0523,44.6419 -24.4359,7.2394 -57.3304,16.8915 -78.9468,18.0982 -21.61634,1.2065 -71.428,1.2065 -109.0217,-2.4131 -44.76237,-11.3136 -72.61993,-11.6024 -117.26947,-16.7687 -8.45859,-1.2065 -68.7579,-11.7177 -70.63758,-44.2941 z"
       id="path1361"
       inkscape:connector-curvature="0"
       sodipodi:nodetypes="ccccccccccccc" />
    <path
       style="fill:#ffffff;fill-rule:evenodd;stroke:none;stroke-width:1px;stroke-linecap:butt;stroke-linejoin:miter;stroke-opacity:1"
       d="m 1048.8643,2549.6614 c 40.4132,37.5937 65.789,69.5483 47.932,102.4428 29.1351,-35.714 14.0976,-69.5483 -24.4359,-117.4803 -38.5336,-47.932 -23.4961,15.0375 -23.4961,15.0375 z"
       id="path1363"
       inkscape:connector-curvature="0" />
    <path
       style="fill:#ffffff;fill-rule:evenodd;stroke:none;stroke-width:1px;stroke-linecap:butt;stroke-linejoin:miter;stroke-opacity:1"
       d="m 1362.7766,2499.8218 c -0.8172,-27.7867 20.4314,-32.6902 31.8729,-34.3247 11.4416,-1.6345 58.8423,-9.807 76.8219,3.269 17.9796,13.0761 22.8832,35.142 14.7106,43.3145 -8.1725,8.1726 -34.3247,20.4314 -50.6698,21.2486 -16.345,0.8173 -51.487,-4.0862 -62.9285,-15.5278 -11.4416,-11.4416 -9.8071,-17.9796 -9.8071,-17.9796 z"
       id="path1365"
       inkscape:connector-curvature="0" />
    <path
       style="fill:#ffffff;fill-rule:evenodd;stroke:none;stroke-width:1px;stroke-linecap:butt;stroke-linejoin:miter;stroke-opacity:1"
       d="m 1445.7231,2523.112 c 0,0 19.6141,10.6243 24.5176,19.6141 4.9035,8.9898 13.0761,31.0556 8.9898,45.7662 13.0761,-26.1521 8.1725,-42.4972 4.9035,-49.8525 -3.269,-7.3553 -23.7004,-34.3247 -23.7004,-34.3247 z"
       id="path1367"
       inkscape:connector-curvature="0" />
    <path
       style="fill:#ffffff;fill-rule:evenodd;stroke:none;stroke-width:1.1638422px;stroke-linecap:butt;stroke-linejoin:miter;stroke-opacity:1"
       d="m 1753.2481,2449.7112 c 6.124,-52.9602 21.063,-66.4396 47.0895,-74.0054 26.0265,-7.5657 152.6403,-18.3739 189.3835,-17.2931 36.7431,1.0808 172.9996,11.889 195.9641,12.9698 22.9646,1.0809 81.1413,25.9397 85.7343,32.4246 4.593,6.4849 24.4955,23.778 18.3716,43.2328 -6.1238,19.4547 -41.3362,45.3944 -75.0175,55.1217 -33.6814,9.7274 -168.4065,17.2931 -194.4331,15.1315 -26.0265,-2.1616 -70.4245,-5.4041 -96.4511,-5.4041 -26.0264,0 -108.6987,-1.0808 -130.1324,-12.9698 -45.8798,-18.4478 -40.5089,-49.208 -40.5089,-49.208 z"
       id="path1369"
       inkscape:connector-curvature="0"
       sodipodi:nodetypes="ccscsccsscc" />
    <path
       style="fill:#ffffff;fill-rule:evenodd;stroke:none;stroke-width:1.24684393px;stroke-linecap:butt;stroke-linejoin:miter;stroke-opacity:1"
       d="m 1949.517,2487.8552 c 20.1481,29.2137 7.9211,41.7964 -26.1773,43.1435 26.3725,12.0461 59.2918,18.8607 52.3545,57.5245 29.2796,-0.4536 47.8021,-24.1161 94.5291,13.0738 27.6315,-30.6711 55.263,-16.0649 82.8946,-2.6148 13.253,-13.6824 37.6545,-14.553 88.712,-7.8443 -3.9428,-30.2535 28.0979,-43.7354 58.1717,-53.6024 -25.4638,-15.9383 -48.3999,-33.3224 -31.9945,-73.213 -37.0035,8.8028 -68.1209,8.0806 -85.8033,-14.3811 -36.7117,5.0284 -64.2876,26.4818 -114.8891,6.5369 -27.2491,24.1051 -57.6211,25.7509 -88.7119,22.2253 7.0852,21.488 -1.2785,26.0017 -29.0858,9.1516 z"
       id="path1371"
       inkscape:connector-curvature="0"
       sodipodi:nodetypes="cccccccccccc" />
    <path
       style="fill:#ffffff;fill-rule:evenodd;stroke:none;stroke-width:1px;stroke-linecap:butt;stroke-linejoin:miter;stroke-opacity:1"
       d="m 2142.1832,2571.3341 c -3.2425,28.1012 8.6465,79.9806 34.5862,113.4859 -3.2425,16.2123 1.0808,33.5054 15.1315,47.5561 -12.9699,-29.1821 -7.5658,-36.7479 -1.0809,-50.7985 -12.9698,-20.5356 -31.3437,-69.1724 -34.5862,-109.1627 -3.2424,-39.9903 -14.0506,-1.0808 -14.0506,-1.0808 z"
       id="path1373"
       inkscape:connector-curvature="0" />
  </g>
  <g
     inkscape:groupmode="layer"
     id="layer1"
     inkscape:label="txt">
    <text
       xml:space="preserve"
       style="font-style:normal;font-variant:normal;font-weight:normal;font-stretch:normal;line-height:0%;font-family:Lavi;-inkscape-font-specification:Lavi;text-align:center;letter-spacing:0px;word-spacing:0px;text-anchor:middle;fill:#000000;fill-opacity:1;stroke:none"
       x="320.61392"
       y="193.67375"
       id="text4246"><tspan
         sodipodi:role="line"
         style="font-size:45px;line-height:1.20000005"
         x="320.61392"
         y="193.67375"
         id="tspan4252">Fhios agaibh...</tspan></text>
    <text
       xml:space="preserve"
       style="font-style:normal;font-variant:normal;font-weight:normal;font-stretch:normal;line-height:0%;font-family:Lavi;-inkscape-font-specification:Lavi;text-align:center;letter-spacing:0px;word-spacing:0px;text-anchor:middle;fill:#000000;fill-opacity:1;stroke:none"
       x="528.04688"
       y="265.45801"
       id="text4246-3"><tspan
         sodipodi:role="line"
         style="font-size:45px;line-height:1.20000005"
         x="535.07812"
         y="265.45801"
         id="tspan94">Bha mi a’ smaoineachadh air </tspan><tspan
         sodipodi:role="line"
         style="font-size:45px;line-height:1.20000005"
         x="528.04688"
         y="319.45801"
         id="tspan98">an tèarainteachd a-rithist...</tspan></text>
    <text
       xml:space="preserve"
       style="font-style:normal;font-variant:normal;font-weight:normal;font-stretch:normal;line-height:0%;font-family:Lavi;-inkscape-font-specification:Lavi;text-align:center;letter-spacing:0px;word-spacing:0px;text-anchor:middle;fill:#000000;fill-opacity:1;stroke:none"
       x="1203.0967"
       y="169.41882"
       id="text4246-3-7"><tspan
         sodipodi:role="line"
         style="font-size:45px;line-height:1.20000005"
         x="1210.1279"
         y="169.41882"
         id="tspan872">Chaidh grunn </tspan><tspan
         sodipodi:role="line"
         style="font-size:45px;line-height:1.20000005"
         x="1210.1279"
         y="223.41882"
         id="tspan114">rìghrean ’s banrighrean </tspan><tspan
         sodipodi:role="line"
         style="font-size:45px;line-height:1.20000005"
         x="1203.0967"
         y="277.41882"
         id="tspan118">a mharbhadh rè deas-</tspan><tspan
         sodipodi:role="line"
         style="font-size:45px;line-height:1.20000005"
         x="1203.0967"
         y="331.41882"
         id="tspan120">ghnàth a’ chrùnaidh.</tspan></text>
    <text
       xml:space="preserve"
       style="font-style:normal;font-variant:normal;font-weight:normal;font-stretch:normal;line-height:0%;font-family:Lavi;-inkscape-font-specification:Lavi;text-align:center;letter-spacing:0px;word-spacing:0px;text-anchor:middle;fill:#000000;fill-opacity:1;stroke:none"
       x="1222.4489"
       y="411.01553"
       id="text4246-3-7-7"><tspan
         sodipodi:role="line"
         style="font-size:45px;line-height:1.20000005"
         x="1229.4801"
         y="411.01553"
         id="tspan746">Seo pàirt de </tspan><tspan
         sodipodi:role="line"
         style="font-size:45px;line-height:1.20000005"
         x="1229.4801"
         y="465.01553"
         id="tspan133">dh’eachdraidh mo </tspan><tspan
         sodipodi:role="line"
         style="font-size:45px;line-height:1.20000005"
         x="1222.4489"
         y="519.01556"
         id="tspan135">theaghlaich.</tspan></text>
    <text
       xml:space="preserve"
       style="font-style:normal;font-variant:normal;font-weight:normal;font-stretch:normal;line-height:0%;font-family:Lavi;-inkscape-font-specification:Lavi;text-align:center;letter-spacing:0px;word-spacing:0px;text-anchor:middle;fill:#000000;fill-opacity:1;stroke:none"
       x="1961.5282"
       y="176.76515"
       id="text4246-3-7-7-6"><tspan
         sodipodi:role="line"
         style="font-size:45px;line-height:1.20000005"
         x="1961.5282"
         y="176.76515"
         id="tspan996">Agus a-nis, an ceann beagan</tspan><tspan
         sodipodi:role="line"
         style="font-size:45px;line-height:1.20000005"
         x="1961.5282"
         y="230.76515"
         id="tspan151">uairean a thìde, thig mìltean</tspan><tspan
         sodipodi:role="line"
         style="font-size:45px;line-height:1.20000005"
         x="1961.5282"
         y="284.76517"
         id="tspan153">de dh’aoighean o fheadh an</tspan><tspan
         sodipodi:role="line"
         style="font-size:45px;line-height:1.20000005"
         x="1961.5282"
         y="338.76517"
         id="tspan155">t-saoghail ’s bi mise aig cridhe</tspan><tspan
         sodipodi:role="line"
         style="font-size:45px;line-height:1.20000005"
         x="1961.5282"
         y="392.76517"
         id="tspan157">an aire.</tspan></text>
    <text
       xml:space="preserve"
       style="font-style:normal;font-variant:normal;font-weight:normal;font-stretch:normal;line-height:0%;font-family:Lavi;-inkscape-font-specification:Lavi;text-align:center;letter-spacing:0px;word-spacing:0px;text-anchor:middle;fill:#000000;fill-opacity:1;stroke:none"
       x="1051.3418"
       y="1445.7167"
       id="text4246-3-7-7-6-7"><tspan
         sodipodi:role="line"
         style="font-size:45px;line-height:1.20000005"
         x="1051.3418"
         y="1445.7167"
         id="tspan1067">Na gabh dragh,</tspan><tspan
         sodipodi:role="line"
         style="font-size:45px;line-height:1.20000005"
         x="1051.3418"
         y="1499.7167"
         id="tspan165">a Chostag.</tspan></text>
    <text
       xml:space="preserve"
       style="font-style:normal;font-variant:normal;font-weight:normal;font-stretch:normal;line-height:0%;font-family:Lavi;-inkscape-font-specification:Lavi;text-align:center;letter-spacing:0px;word-spacing:0px;text-anchor:middle;fill:#000000;fill-opacity:1;stroke:none"
       x="1957.3252"
       y="459.72366"
       id="text4246-3-7-7-6-7-7"><tspan
         sodipodi:role="line"
         style="font-size:45px;line-height:1.20000005"
         x="1964.3564"
         y="459.72366"
         id="tspan1042-9">Tha an t-eagal </tspan><tspan
         sodipodi:role="line"
         style="font-size:45px;line-height:1.20000005"
         x="1957.3252"
         y="513.72369"
         id="tspan161">mòr mòr orm!</tspan></text>
    <text
       xml:space="preserve"
       style="font-style:normal;font-variant:normal;font-weight:normal;font-stretch:normal;line-height:0%;font-family:Lavi;-inkscape-font-specification:Lavi;text-align:center;letter-spacing:0px;word-spacing:0px;text-anchor:middle;fill:#000000;fill-opacity:1;stroke:none"
       x="2105.4336"
       y="1547.2563"
       id="text4246-3-7-7-6-7-2"><tspan
         sodipodi:role="line"
         style="font-size:45px;line-height:1.20000005"
         x="2112.4648"
         y="1547.2563"
         id="tspan1092">Tha plana </tspan><tspan
         sodipodi:role="line"
         style="font-size:45px;line-height:1.20000005"
         x="2105.4336"
         y="1601.2563"
         id="tspan169">againn.</tspan></text>
    <text
       xml:space="preserve"
       style="font-style:normal;font-variant:normal;font-weight:normal;font-stretch:normal;line-height:0%;font-family:Lavi;-inkscape-font-specification:Lavi;text-align:center;letter-spacing:0px;word-spacing:0px;text-anchor:middle;fill:#000000;fill-opacity:1;stroke:none"
       x="2174.6404"
       y="1691.4915"
       id="text4246-3-7-7-6-7-2-9"><tspan
         sodipodi:role="line"
         style="font-size:45px;line-height:1.20000005"
         x="2181.6716"
         y="1691.4915"
         id="tspan1121">Bidh Sidimi ’s mi </tspan><tspan
         sodipodi:role="line"
         style="font-size:45px;line-height:1.20000005"
         x="2174.6404"
         y="1745.4915"
         id="tspan180">fhìn ’nar lèintean-</tspan><tspan
         sodipodi:role="line"
         style="font-size:45px;line-height:1.20000005"
         x="2181.6716"
         y="1799.4915"
         id="tspan182">crios dhut mar a </tspan><tspan
         sodipodi:role="line"
         style="font-size:45px;line-height:1.20000005"
         x="2174.6404"
         y="1853.4915"
         id="tspan194">gheall sinn!</tspan></text>
    <text
       xml:space="preserve"
       style="font-style:normal;font-variant:normal;font-weight:normal;font-stretch:normal;line-height:0%;font-family:Lavi;-inkscape-font-specification:Lavi;text-align:center;letter-spacing:0px;word-spacing:0px;text-anchor:middle;fill:#000000;fill-opacity:1;stroke:none"
       x="240.1396"
       y="2409.7466"
       id="text4246-3-7-7-6-7-2-9-6"><tspan
         sodipodi:role="line"
         style="font-size:45px;line-height:1.20000005"
         x="240.1396"
         y="2409.7466"
         id="tspan1121-3">Sin dìreach</tspan></text>
    <text
       xml:space="preserve"
       style="font-style:normal;font-variant:normal;font-weight:normal;font-stretch:normal;line-height:0%;font-family:Lavi;-inkscape-font-specification:Lavi;text-align:center;letter-spacing:0px;word-spacing:0px;text-anchor:middle;fill:#000000;fill-opacity:1;stroke:none"
       x="294.79276"
       y="2471.5852"
       id="text4246-3-7-7-6-7-2-9-6-1"><tspan
         sodipodi:role="line"
         style="font-size:45px;line-height:1.20000005"
         x="301.82401"
         y="2471.5852"
         id="tspan1183">Air do shocair </tspan><tspan
         sodipodi:role="line"
         style="font-size:45px;line-height:1.20000005"
         x="301.82401"
         y="2525.5852"
         id="tspan212">is smaoinich air </tspan><tspan
         sodipodi:role="line"
         style="font-size:45px;line-height:1.20000005"
         x="301.82401"
         y="2579.5852"
         id="tspan224">rudeigin eile </tspan><tspan
         sodipodi:role="line"
         style="font-size:45px;line-height:1.20000005"
         x="294.79276"
         y="2633.5852"
         id="tspan218">an-dràsta.</tspan></text>
    <text
       xml:space="preserve"
       style="font-style:normal;font-variant:normal;font-weight:normal;font-stretch:normal;line-height:0%;font-family:Lavi;-inkscape-font-specification:Lavi;text-align:center;letter-spacing:0px;word-spacing:0px;text-anchor:middle;fill:#000000;fill-opacity:1;stroke:none"
       x="588.41107"
       y="2504.4858"
       id="text4246-3-7-7-6-7-2-9-6-1-4"><tspan
         sodipodi:role="line"
         style="font-size:45px;line-height:1.20000005"
         x="588.41107"
         y="2504.4858"
         id="tspan1183-0">Ceart</tspan><tspan
         sodipodi:role="line"
         style="font-size:45px;line-height:1.20000005"
         x="588.41107"
         y="2558.4858"
         id="tspan220">ma-thà.</tspan></text>
    <text
       xml:space="preserve"
       style="font-style:normal;font-variant:normal;font-weight:normal;font-stretch:normal;line-height:0%;font-family:Lavi;-inkscape-font-specification:Lavi;text-align:center;letter-spacing:0px;word-spacing:0px;text-anchor:middle;fill:#000000;fill-opacity:1;stroke:none"
       x="924.10059"
       y="2417.3877"
       id="text4246-3-7-7-6-7-2-9-6-1-4-3"><tspan
         sodipodi:role="line"
         style="font-size:45px;line-height:1.20000005"
         x="931.13184"
         y="2417.3877"
         id="tspan231">Nise! Nach seall mi </tspan><tspan
         sodipodi:role="line"
         style="font-size:45px;line-height:1.20000005"
         x="924.10059"
         y="2471.3877"
         id="tspan237">an innleadaireachd</tspan><tspan
         sodipodi:role="line"
         style="font-size:45px;line-height:1.20000005"
         x="931.13184"
         y="2525.3877"
         id="tspan233">as ùire agam </tspan><tspan
         sodipodi:role="line"
         style="font-size:45px;line-height:1.20000005"
         x="924.10059"
         y="2579.3877"
         id="tspan1075">dhuibh?</tspan></text>
    <text
       xml:space="preserve"
       style="font-style:normal;font-variant:normal;font-weight:normal;font-stretch:normal;line-height:0%;font-family:Lavi;-inkscape-font-specification:Lavi;text-align:center;letter-spacing:0px;word-spacing:0px;text-anchor:middle;fill:#000000;fill-opacity:1;stroke:none"
       x="1429.6105"
       y="2501.0703"
       id="text4246-3-7-7-6-7-2-9-6-1-4-3-1"><tspan
         sodipodi:role="line"
         style="font-size:45px;line-height:1.20000005"
         x="1429.6105"
         y="2501.0703"
         id="tspan1249-3">...</tspan></text>
    <text
       xml:space="preserve"
       style="font-style:normal;font-variant:normal;font-weight:normal;font-stretch:normal;line-height:0%;font-family:Lavi;-inkscape-font-specification:Lavi;text-align:center;letter-spacing:0px;word-spacing:0px;text-anchor:middle;fill:#000000;fill-opacity:1;stroke:none"
       x="2014.7648"
       y="2425.7151"
       id="text4246-3-7-7-6-7-2-9-6-1-4-3-1-2"><tspan
         sodipodi:role="line"
         style="font-size:45px;line-height:1.20000005"
         x="2014.7648"
         y="2425.7151"
         id="tspan1298">Tha e shìos an staidhre</tspan><tspan
         sodipodi:role="line"
         style="font-size:45px;line-height:1.20000005"
         x="2014.7648"
         y="2479.7151"
         id="tspan241">sa cheàrdach agam.</tspan></text>
    <text
       xml:space="preserve"
       style="font-style:normal;font-variant:normal;font-weight:normal;font-stretch:normal;line-height:0%;font-family:Lavi;-inkscape-font-specification:Lavi;text-align:center;letter-spacing:0px;word-spacing:0px;text-anchor:middle;fill:#000000;fill-opacity:1;stroke:none"
       x="2118.0996"
       y="2545.5225"
       id="text4246-3-7-7-6-7-2-9-6-1-4-3-1-2-6"><tspan
         sodipodi:role="line"
         style="font-size:45px;line-height:1.20000005"
         x="2118.0996"
         y="2545.5225"
         id="tspan1298-5">Leanaibh orm.</tspan></text>
  </g>
</svg>
