<?xml version="1.0" encoding="UTF-8" standalone="no"?>
<!-- Created with Inkscape (http://www.inkscape.org/) -->

<svg
   xmlns:dc="http://purl.org/dc/elements/1.1/"
   xmlns:cc="http://creativecommons.org/ns#"
   xmlns:rdf="http://www.w3.org/1999/02/22-rdf-syntax-ns#"
   xmlns:svg="http://www.w3.org/2000/svg"
   xmlns="http://www.w3.org/2000/svg"
   xmlns:xlink="http://www.w3.org/1999/xlink"
   xmlns:sodipodi="http://sodipodi.sourceforge.net/DTD/sodipodi-0.dtd"
   xmlns:inkscape="http://www.inkscape.org/namespaces/inkscape"
   id="svg2"
   version="1.1"
   inkscape:version="0.92.4 5da689c313, 2019-01-14"
   width="2481"
   height="3503"
   sodipodi:docname="E28P07.svg">
  <metadata
     id="metadata8">
    <rdf:RDF>
      <cc:Work
         rdf:about="">
        <dc:format>image/svg+xml</dc:format>
        <dc:type
           rdf:resource="http://purl.org/dc/dcmitype/StillImage" />
        <dc:title />
      </cc:Work>
    </rdf:RDF>
  </metadata>
  <defs
     id="defs6" />
  <sodipodi:namedview
     pagecolor="#ffffff"
     bordercolor="#666666"
     borderopacity="1"
     objecttolerance="10"
     gridtolerance="10"
     guidetolerance="10"
     inkscape:pageopacity="0"
     inkscape:pageshadow="2"
     inkscape:window-width="1920"
     inkscape:window-height="1001"
     id="namedview4"
     showgrid="false"
     inkscape:zoom="0.51498715"
     inkscape:cx="1236.8459"
     inkscape:cy="2768.6548"
     inkscape:window-x="0"
     inkscape:window-y="45"
     inkscape:window-maximized="1"
     inkscape:current-layer="layer3" />
  <g
     inkscape:groupmode="layer"
     id="layer2"
     inkscape:label="artwork"
     sodipodi:insensitive="true">
    <image
       sodipodi:absref="/home/ambernite/peppercarrot/webcomics/ep28_The-Festivities/lang/kr/../gfx_Pepper-and-Carrot_by-David-Revoy_E28P07.png"
       xlink:href="../gfx_Pepper-and-Carrot_by-David-Revoy_E28P07.png"
       width="2481"
       height="3503"
       id="image10"
       x="0"
       y="0" />
  </g>
  <g
     inkscape:groupmode="layer"
     id="layer3"
     inkscape:label="speechbubbles">
    <path
       style="fill:#ffffff;fill-rule:evenodd;stroke:none;stroke-width:1px;stroke-linecap:butt;stroke-linejoin:miter;stroke-opacity:1"
       d="m 139.4599,119.38529 c 58.20387,-38.453819 160.13208,-38.34134 216.01266,-37.378358 55.88058,0.962982 192.35159,0.0267 224.826,23.602808 32.4744,23.57612 53.81219,25.58786 52.90585,78.18134 -0.90633,52.59349 -14.50788,78.66366 -52.76262,104.30897 -38.25473,25.64532 -189.60263,31.25733 -232.36316,32.16448 -42.76053,0.90715 -149.5344,-4.22094 -182.03715,-26.15351 -32.50273,-21.93255 -61.40681,-61.88749 -59.19681,-94.7301 2.21002,-32.8426 14.2813,-65.51527 32.61523,-79.99563 z"
       id="path1035"
       inkscape:connector-curvature="0" />
    <path
       style="fill:#ffffff;fill-rule:evenodd;stroke:none;stroke-width:1px;stroke-linecap:butt;stroke-linejoin:miter;stroke-opacity:1"
       d="m 196.4271,253.96422 c -32.89449,39.47339 -40.41323,56.39055 -51.69134,74.24756 -11.27811,17.85701 -8.45859,59.21009 6.57889,70.4882 15.03749,11.27811 23.49607,17.857 15.97733,33.83433 -7.51874,15.97732 -7.37083,33.58627 -0.79194,42.9847 6.5789,9.39842 29.92706,24.68396 29.92706,24.68396 0,0 -21.13136,-17.00501 -23.34412,-22.26143 -3.75295,-8.91514 -2.08603,-20.48379 2.61318,-28.94238 4.69922,-8.45858 19.28439,-35.64147 -2.76513,-53.11871 -14.61974,-11.58813 -21.61638,-35.71402 -1.87968,-65.78898 19.73669,-30.07496 90.22489,-81.76631 90.22489,-81.76631 z"
       id="path1037"
       inkscape:connector-curvature="0"
       sodipodi:nodetypes="csssccscsscc" />
    <path
       style="fill:#ffffff;fill-rule:evenodd;stroke:none;stroke-width:0.90484411px;stroke-linecap:butt;stroke-linejoin:miter;stroke-opacity:1"
       d="m 173.46997,964.16004 c 17.66487,-58.77799 46.8652,-64.43345 91.27798,-68.49367 44.41278,-4.06022 204.69637,-11.09272 243.72579,4.54269 39.02941,15.63538 49.91654,35.48167 61.20395,74.88863 9.837,34.34331 12.68893,106.82091 3.26803,131.38631 -9.42089,24.5657 -25.64488,56.117 -66.02014,58.6079 -40.37525,2.4909 -238.60103,3.8921 -262.82619,3.4063 -24.22515,-0.4858 -71.40343,-16.391 -80.82439,-61.1381 -9.42089,-44.7468 -7.4699,-84.4221 10.19497,-143.20006 z"
       id="path1039"
       inkscape:connector-curvature="0"
       sodipodi:nodetypes="zsssccssz" />
    <path
       style="fill:#ffffff;fill-rule:evenodd;stroke:none;stroke-width:1px;stroke-linecap:butt;stroke-linejoin:miter;stroke-opacity:1"
       d="m 197.23517,923.5374 c -17.7664,-36.95411 -18.47706,-61.82707 -3.55328,-69.64429 14.92378,-7.81721 21.31968,-12.7918 12.79181,-21.31968 -8.52787,-8.52787 -16.34509,-27.71558 -9.94919,-39.08608 6.39591,-11.37049 16.34509,-17.05574 26.29428,-18.47705 -15.63444,9.23852 -19.89837,17.05574 -19.18772,25.58361 0.71066,8.52787 2.84263,19.18771 12.79181,25.58362 9.94919,6.3959 23.45165,22.74099 2.13197,39.08608 -21.31968,16.34509 43.35002,66.09101 43.35002,66.09101 z"
       id="path1041"
       inkscape:connector-curvature="0" />
    <path
       style="fill:#ffffff;fill-rule:evenodd;stroke:none;stroke-width:0.88587987px;stroke-linecap:butt;stroke-linejoin:miter;stroke-opacity:1"
       d="m 1809.8086,188.73057 c 8.4944,-30.89516 27.371,-41.58964 39.6406,-43.96619 12.2697,-2.37655 43.416,1.18827 61.3486,2.37655 17.9327,1.18827 72.6745,1.18827 77.3936,0 4.7192,-1.18828 83.0566,7.12965 94.3825,4.7531 11.3259,-2.37655 39.741,-4.4733 52.9546,-2.09675 13.2135,2.37655 34.9215,20.20068 36.8091,29.70689 1.8876,9.5062 6.5064,25.86225 2.7311,41.30983 -3.7752,15.44758 -26.4271,32.08343 -49.0789,40.40137 -22.6518,8.31792 -87.7756,1.18827 -97.2139,-1.18829 -9.4383,-2.37654 -43.4159,-10.69447 -62.2924,-5.94136 -18.8766,4.75309 -72.6745,11.88274 -101.9331,7.12965 -29.2585,-4.75311 -53.7979,-19.01241 -54.7418,-33.27171 -0.9438,-14.25931 -2.8315,-10.69448 0,-39.21309 z"
       id="path1043"
       inkscape:connector-curvature="0"
       sodipodi:nodetypes="csscssccsccscc" />
    <path
       style="fill:#ffffff;fill-rule:evenodd;stroke:none;stroke-width:1px;stroke-linecap:butt;stroke-linejoin:miter;stroke-opacity:1"
       d="m 1944.3016,233.0595 c -22.8961,17.75617 -71.9593,58.40848 -78.0338,64.01569 -6.0744,5.60722 -9.8126,23.83066 4.2055,19.15798 14.018,-4.67267 32.2414,-13.0835 37.8487,-14.01803 5.6072,-0.93454 9.8126,-1.86907 13.5507,-1.4018 -18.2234,4.20541 -68.2211,21.49432 -96.7244,92.51903 35.5123,-65.4175 80.37,-77.0992 89.2481,-80.37007 8.8781,-3.27088 23.8307,-7.47629 24.298,-14.95257 0.4672,-7.47629 -9.8127,-14.95257 -27.5688,-10.27989 22.4288,-13.08351 59.343,-45.32499 73.8283,-45.32499 14.4853,0 -40.6523,-9.34535 -40.6523,-9.34535 z"
       id="path1045"
       inkscape:connector-curvature="0" />
    <path
       style="fill:#ffffff;fill-rule:evenodd;stroke:none;stroke-width:0.93639237px;stroke-linecap:butt;stroke-linejoin:miter;stroke-opacity:1"
       d="m 245.8432,1362.7906 c 29.90384,-28.0194 40.18331,-26.1515 52.33176,-28.9534 12.14843,-2.8018 104.66347,-6.5378 122.41889,-4.6699 17.75542,1.8681 97.18753,9.3398 122.41892,35.4912 25.23135,26.1515 49.52825,48.5669 46.72477,87.794 -2.8035,39.2271 -10.27946,110.2096 -27.10038,133.5589 -16.82092,23.3495 -53.26623,39.2272 -94.38403,47.633 -41.11781,8.4058 -159.79875,-3.7359 -177.55416,-5.6039 -17.75541,-1.8679 -60.7422,-19.6136 -74.75962,-42.963 -14.01744,-23.3495 -34.57635,-75.6523 -28.03487,-110.2095 6.54146,-34.5571 22.42789,-81.2562 57.93872,-112.0774 z"
       id="path1047"
       inkscape:connector-curvature="0" />
    <path
       style="fill:#ffffff;fill-rule:evenodd;stroke:none;stroke-width:1.10058582px;stroke-linecap:butt;stroke-linejoin:miter;stroke-opacity:1"
       d="m 246.41453,1608.4597 c 54.40282,-22.9051 87.97052,-25.7681 119.2232,-27.6769 31.25269,-1.9088 101.86061,0.9543 135.4283,13.3612 33.56771,12.4069 56.71784,36.2663 64.82039,48.6732 8.10254,12.4068 15.04759,52.4905 2.31501,70.6237 -12.73257,18.133 -55.56033,44.8555 -81.02548,53.4449 -25.46514,8.5894 -137.74331,11.4525 -184.04358,0 -46.30028,-11.4525 -79.86797,-29.5856 -91.44305,-55.3537 -11.57507,-25.7681 -11.57507,-82.0762 34.72521,-103.0724 z"
       id="path1049"
       inkscape:connector-curvature="0" />
    <path
       style="fill:#ffffff;fill-rule:evenodd;stroke:none;stroke-width:1px;stroke-linecap:butt;stroke-linejoin:miter;stroke-opacity:1"
       d="m 571.51827,1489.8102 c 22.69719,-37.8287 85.61623,-110.0078 124.52571,-129.4625 38.90949,-19.4548 94.88053,-25.0946 113.25446,-22.933 15.70987,1.7353 35.90084,19.0754 55.12176,42.152 -15.13146,-30.263 -47.25978,-48.6478 -52.66387,-49.7286 -18.40862,-4.2887 -108.87383,-25.5751 -222.35983,69.5369 -113.48599,95.1121 -51.38362,121.779 -51.38362,121.779 z"
       id="path1051"
       inkscape:connector-curvature="0"
       sodipodi:nodetypes="cccccscc" />
    <path
       style="fill:#ffffff;fill-rule:evenodd;stroke:none;stroke-width:0.7292074px;stroke-linecap:butt;stroke-linejoin:miter;stroke-opacity:1"
       d="m 248.82802,2222.383 c -0.89803,-31.4542 17.06264,-42.3423 32.32921,-45.9716 15.26657,-3.6294 68.25055,-3.6294 77.23089,-1.2098 8.98033,2.4195 61.96431,0 72.74071,1.2098 10.77641,1.2097 45.79971,9.6782 52.08595,31.4543 6.28624,21.776 15.26657,27.8249 6.28624,48.3912 -8.98034,20.5663 -19.75674,38.713 -56.57612,43.5521 -36.81937,4.8392 -115.84633,1.2098 -149.07357,-10.888 -33.22724,-12.0978 -35.02331,-36.2934 -35.02331,-66.538 z"
       id="path1053"
       inkscape:connector-curvature="0" />
    <path
       style="fill:#ffffff;fill-rule:evenodd;stroke:none;stroke-width:1px;stroke-linecap:butt;stroke-linejoin:miter;stroke-opacity:1"
       d="m 348.19942,2246.5661 c -29.42116,45.7663 -39.16091,33.6645 -43.24718,61.4512 -4.08627,27.7866 9.73975,53.7817 22.81582,64.406 13.07607,10.6243 34.32468,25.3349 15.52783,41.68 -18.79685,16.3451 -40.04547,26.1521 -35.95919,72.7356 4.08627,46.5835 21.24861,49.0353 27.78665,53.1215 -25.33489,-10.1025 -30.23842,-73.5529 -15.52784,-93.167 14.71058,-19.6141 16.91712,-15.0754 32.69018,-26.1521 13.88076,-9.7478 27.00207,-30.3114 -3.85728,-57.4442 -30.85936,-27.1329 -14.46952,-78.6996 28.77766,-101.4055 85.22691,-44.7462 -29.00665,-15.2255 -29.00665,-15.2255 z"
       id="path1055"
       inkscape:connector-curvature="0"
       sodipodi:nodetypes="csssscsszsc" />
    <path
       style="fill:#ffffff;fill-rule:evenodd;stroke:none;stroke-width:0.74556559px;stroke-linecap:butt;stroke-linejoin:miter;stroke-opacity:1"
       d="m 940.24372,2296.085 c 18.5922,-40.1411 38.97663,-44.6507 66.79558,-50.9964 60.2859,-7.3709 111.479,2.4017 169.3186,0.2298 29.9462,-1.1806 70.8435,15.3481 84.2447,36.5992 13.4014,21.2511 34.1075,85.0044 29.3609,105.0749 -4.7465,20.0706 -13.4883,73.1984 -33.5838,87.3658 -20.0956,14.1674 -34.9421,27.1543 -68.8874,30.6961 -33.9454,3.5418 -162.7293,5.9031 -178.2776,4.7225 -15.54823,-1.1807 -60.2952,-18.89 -73.04868,-55.4891 -12.75349,-36.5991 -14.31518,-122.7842 4.0777,-158.2028 z"
       id="path1057"
       inkscape:connector-curvature="0"
       sodipodi:nodetypes="cccscssssc" />
    <path
       style="fill:#ffffff;fill-rule:evenodd;stroke:none;stroke-width:1px;stroke-linecap:butt;stroke-linejoin:miter;stroke-opacity:1"
       d="m 1078.5698,2470.4285 c 7.4155,31.516 12.9772,52.5267 19.7748,59.9423 6.7976,7.4155 22.8646,14.2131 33.3699,15.449 10.5054,1.236 21.0107,6.1796 6.1796,23.4826 -14.831,17.3029 -1.8538,54.9986 45.1112,57.4704 -46.965,-11.7413 -43.8752,-47.583 -27.8082,-54.3806 16.067,-6.7976 20.3927,-39.5496 -16.685,-50.6729 -32.752,-8.6514 -11.1233,-129.7719 -11.1233,-129.7719 z"
       id="path1059"
       inkscape:connector-curvature="0" />
  </g>
  <g
     inkscape:groupmode="layer"
     id="layer1"
     inkscape:label="txt"
     style="opacity:1">
    <text
       id="text865"
       y="165.99864"
       x="374.47531"
       style="font-style:normal;font-variant:normal;font-weight:normal;font-stretch:normal;font-size:15.86192703px;line-height:100%;font-family:'Nanum Pen Script OTF';-inkscape-font-specification:'Nanum Pen Script OTF';text-align:center;letter-spacing:0px;word-spacing:0px;text-anchor:middle;fill:#000000;fill-opacity:1;stroke:none;stroke-width:1.32182729"
       xml:space="preserve"><tspan
         y="165.99864"
         x="374.47531"
         style="font-style:normal;font-variant:normal;font-weight:normal;font-stretch:normal;font-size:59.48222733px;line-height:100%;font-family:'Nanum Pen Script OTF';-inkscape-font-specification:'Nanum Pen Script OTF';stroke-width:1.32182729"
         sodipodi:role="line"
         id="tspan925">음식을 먹으려고</tspan><tspan
         y="225.48087"
         x="374.47531"
         style="font-style:normal;font-variant:normal;font-weight:normal;font-stretch:normal;font-size:59.48222733px;line-height:100%;font-family:'Nanum Pen Script OTF';-inkscape-font-specification:'Nanum Pen Script OTF';stroke-width:1.32182729"
         sodipodi:role="line"
         id="tspan929">숨어다녀야 한다는 게</tspan><tspan
         y="284.9631"
         x="374.47531"
         style="font-style:normal;font-variant:normal;font-weight:normal;font-stretch:normal;font-size:59.48222733px;line-height:100%;font-family:'Nanum Pen Script OTF';-inkscape-font-specification:'Nanum Pen Script OTF';stroke-width:1.32182729"
         sodipodi:role="line"
         id="tspan931">좀 이상한데</tspan></text>
    <text
       id="text875"
       y="966.30255"
       x="373.96088"
       style="font-style:normal;font-variant:normal;font-weight:normal;font-stretch:normal;font-size:14.96664906px;line-height:100%;font-family:'Nanum Pen Script OTF';-inkscape-font-specification:'Nanum Pen Script OTF';text-align:center;letter-spacing:0px;word-spacing:0px;text-anchor:middle;fill:#000000;fill-opacity:1;stroke:none;stroke-width:1.24722075"
       xml:space="preserve"><tspan
         id="tspan873"
         y="966.30255"
         x="373.96088"
         style="font-style:normal;font-variant:normal;font-weight:normal;font-stretch:normal;font-size:56.12493515px;line-height:100%;font-family:'Nanum Pen Script OTF';-inkscape-font-specification:'Nanum Pen Script OTF';stroke-width:1.24722075"
         sodipodi:role="line">스승님들은</tspan><tspan
         y="1022.4275"
         x="373.96088"
         style="font-style:normal;font-variant:normal;font-weight:normal;font-stretch:normal;font-size:56.12493515px;line-height:100%;font-family:'Nanum Pen Script OTF';-inkscape-font-specification:'Nanum Pen Script OTF';stroke-width:1.24722075"
         sodipodi:role="line"
         id="tspan942">우리보고 기본적인</tspan><tspan
         y="1078.5524"
         x="373.96088"
         style="font-style:normal;font-variant:normal;font-weight:normal;font-stretch:normal;font-size:56.12493515px;line-height:100%;font-family:'Nanum Pen Script OTF';-inkscape-font-specification:'Nanum Pen Script OTF';stroke-width:1.24722075"
         sodipodi:role="line"
         id="tspan944">욕구도 없는 순수한 영혼이</tspan><tspan
         y="1134.6774"
         x="373.96088"
         style="font-style:normal;font-variant:normal;font-weight:normal;font-stretch:normal;font-size:56.12493515px;line-height:100%;font-family:'Nanum Pen Script OTF';-inkscape-font-specification:'Nanum Pen Script OTF';stroke-width:1.24722075"
         sodipodi:role="line"
         id="tspan946">되라고 하셔.</tspan></text>
    <text
       id="text879"
       y="221.51382"
       x="1988.1388"
       style="font-style:normal;font-variant:normal;font-weight:normal;font-stretch:normal;font-size:15.96121502px;line-height:100%;font-family:'Nanum Pen Script OTF';-inkscape-font-specification:'Nanum Pen Script OTF';text-align:center;letter-spacing:0px;word-spacing:0px;text-anchor:middle;fill:#000000;fill-opacity:1;stroke:none;stroke-width:1.33010125"
       xml:space="preserve"><tspan
         id="tspan877"
         y="221.51382"
         x="1988.1388"
         style="font-style:normal;font-variant:normal;font-weight:normal;font-stretch:normal;font-size:59.85455704px;line-height:100%;font-family:'Nanum Pen Script OTF';-inkscape-font-specification:'Nanum Pen Script OTF';stroke-width:1.33010125"
         sodipodi:role="line">하! 여깄었구나!</tspan></text>
    <text
       id="text889"
       y="1402.9053"
       x="393.73865"
       style="font-style:normal;font-variant:normal;font-weight:normal;font-stretch:normal;font-size:16.23718643px;line-height:100%;font-family:'Nanum Pen Script OTF';-inkscape-font-specification:'Nanum Pen Script OTF';text-align:center;letter-spacing:0px;word-spacing:0px;text-anchor:middle;fill:#000000;fill-opacity:1;stroke:none;stroke-width:1.35309887"
       xml:space="preserve"><tspan
         y="1402.9053"
         x="393.73865"
         style="font-style:normal;font-variant:normal;font-weight:normal;font-stretch:normal;font-size:60.88945389px;line-height:100%;font-family:'Nanum Pen Script OTF';-inkscape-font-specification:'Nanum Pen Script OTF';stroke-width:1.35309887"
         sodipodi:role="line"
         id="tspan957">아! 드디어</tspan><tspan
         y="1463.7947"
         x="393.73865"
         style="font-style:normal;font-variant:normal;font-weight:normal;font-stretch:normal;font-size:60.88945389px;line-height:100%;font-family:'Nanum Pen Script OTF';-inkscape-font-specification:'Nanum Pen Script OTF';stroke-width:1.35309887"
         sodipodi:role="line"
         id="tspan862">사진가들한테서</tspan><tspan
         y="1524.6842"
         x="393.73865"
         style="font-style:normal;font-variant:normal;font-weight:normal;font-stretch:normal;font-size:60.88945389px;line-height:100%;font-family:'Nanum Pen Script OTF';-inkscape-font-specification:'Nanum Pen Script OTF';stroke-width:1.35309887"
         sodipodi:role="line"
         id="tspan961">벗어날 수</tspan><tspan
         y="1585.5736"
         x="393.73865"
         style="font-style:normal;font-variant:normal;font-weight:normal;font-stretch:normal;font-size:60.88945389px;line-height:100%;font-family:'Nanum Pen Script OTF';-inkscape-font-specification:'Nanum Pen Script OTF';stroke-width:1.35309887"
         sodipodi:role="line"
         id="tspan959">있는 곳을 찾았네.</tspan></text>
    <text
       id="text895"
       y="1674.6353"
       x="393.08472"
       style="font-style:normal;font-variant:normal;font-weight:normal;font-stretch:normal;font-size:15.39912605px;line-height:100%;font-family:'Nanum Pen Script OTF';-inkscape-font-specification:'Nanum Pen Script OTF';text-align:center;letter-spacing:0px;word-spacing:0px;text-anchor:middle;fill:#000000;fill-opacity:1;stroke:none;stroke-width:1.28326058"
       xml:space="preserve"><tspan
         id="tspan893"
         y="1674.6353"
         x="393.08472"
         style="font-style:normal;font-variant:normal;font-weight:normal;font-stretch:normal;font-size:57.74672318px;line-height:100%;font-family:'Nanum Pen Script OTF';-inkscape-font-specification:'Nanum Pen Script OTF';stroke-width:1.28326058"
         sodipodi:role="line">그 사람들 때문에</tspan><tspan
         y="1732.382"
         x="393.08472"
         style="font-style:normal;font-variant:normal;font-weight:normal;font-stretch:normal;font-size:57.74672318px;line-height:100%;font-family:'Nanum Pen Script OTF';-inkscape-font-specification:'Nanum Pen Script OTF';stroke-width:1.28326058"
         sodipodi:role="line"
         id="tspan965">미치겠어.</tspan></text>
    <text
       id="text899"
       y="2255.3721"
       x="370.8194"
       style="font-style:normal;font-variant:normal;font-weight:normal;font-stretch:normal;font-size:16.54455757px;line-height:100%;font-family:'Nanum Pen Script OTF';-inkscape-font-specification:'Nanum Pen Script OTF';text-align:center;letter-spacing:0px;word-spacing:0px;text-anchor:middle;fill:#000000;fill-opacity:1;stroke:none;stroke-width:1.37871313"
       xml:space="preserve"><tspan
         id="tspan897"
         y="2255.3721"
         x="370.8194"
         style="font-style:normal;font-variant:normal;font-weight:normal;font-stretch:normal;font-size:62.04209137px;line-height:100%;font-family:'Nanum Pen Script OTF';-inkscape-font-specification:'Nanum Pen Script OTF';stroke-width:1.37871313"
         sodipodi:role="line">사진가?</tspan></text>
    <text
       id="text911"
       y="2309.7031"
       x="1107.8876"
       style="font-style:normal;font-variant:normal;font-weight:normal;font-stretch:normal;font-size:14.52107525px;line-height:100%;font-family:'Nanum Pen Script OTF';-inkscape-font-specification:'Nanum Pen Script OTF';text-align:center;letter-spacing:0px;word-spacing:0px;text-anchor:middle;fill:#000000;fill-opacity:1;stroke:none;stroke-width:1.21008956"
       xml:space="preserve"><tspan
         id="tspan909"
         y="2309.7031"
         x="1107.8876"
         style="font-style:normal;font-variant:normal;font-weight:normal;font-stretch:normal;font-size:54.45402908px;line-height:100%;font-family:'Nanum Pen Script OTF';-inkscape-font-specification:'Nanum Pen Script OTF';stroke-width:1.21008956"
         sodipodi:role="line">이거 쓰고</tspan><tspan
         y="2364.1572"
         x="1107.8876"
         style="font-style:normal;font-variant:normal;font-weight:normal;font-stretch:normal;font-size:54.45402908px;line-height:100%;font-family:'Nanum Pen Script OTF';-inkscape-font-specification:'Nanum Pen Script OTF';stroke-width:1.21008956"
         sodipodi:role="line"
         id="tspan985">정치인들이랑 하는</tspan><tspan
         y="2418.6111"
         x="1107.8876"
         style="font-style:normal;font-variant:normal;font-weight:normal;font-stretch:normal;font-size:54.45402908px;line-height:100%;font-family:'Nanum Pen Script OTF';-inkscape-font-specification:'Nanum Pen Script OTF';stroke-width:1.21008956"
         sodipodi:role="line"
         id="tspan989">따분한 논의</tspan><tspan
         y="2473.0652"
         x="1107.8876"
         style="font-style:normal;font-variant:normal;font-weight:normal;font-stretch:normal;font-size:54.45402908px;line-height:100%;font-family:'Nanum Pen Script OTF';-inkscape-font-specification:'Nanum Pen Script OTF';stroke-width:1.21008956"
         sodipodi:role="line"
         id="tspan993">피하려고 해 봐.</tspan></text>
    <text
       transform="matrix(0.89761483,-0.24846861,0.02683826,1.1066345,0,0)"
       id="text917"
       y="2534.012"
       x="1675.0194"
       style="font-style:normal;font-variant:normal;font-weight:normal;font-stretch:normal;font-size:16.71288681px;line-height:100%;font-family:'Nanum Pen Script OTF';-inkscape-font-specification:'Nanum Pen Script OTF';text-align:center;letter-spacing:0px;word-spacing:0px;text-anchor:middle;fill:#ffffff;fill-opacity:0.43137255;stroke:#ffffff;stroke-width:0.5013938;stroke-miterlimit:4;stroke-dasharray:none;stroke-opacity:1"
       xml:space="preserve"><tspan
         id="tspan915"
         y="2534.012"
         x="1675.0194"
         style="font-style:normal;font-variant:normal;font-weight:normal;font-stretch:normal;font-size:42.84304047px;line-height:100%;font-family:'Nanum Pen Script OTF';-inkscape-font-specification:'Nanum Pen Script OTF';fill:#ffffff;fill-opacity:0.43137255;stroke:#ffffff;stroke-width:0.5013938;stroke-miterlimit:4;stroke-dasharray:none;stroke-opacity:1"
         sodipodi:role="line">긁적</tspan><tspan
         y="2576.855"
         x="1675.0194"
         style="font-style:normal;font-variant:normal;font-weight:normal;font-stretch:normal;font-size:42.84304047px;line-height:100%;font-family:'Nanum Pen Script OTF';-inkscape-font-specification:'Nanum Pen Script OTF';fill:#ffffff;fill-opacity:0.43137255;stroke:#ffffff;stroke-width:0.5013938;stroke-miterlimit:4;stroke-dasharray:none;stroke-opacity:1"
         sodipodi:role="line"
         id="tspan969">긁적</tspan></text>
  </g>
</svg>
