<?xml version="1.0" encoding="UTF-8" standalone="no"?>
<svg
   xmlns:dc="http://purl.org/dc/elements/1.1/"
   xmlns:cc="http://creativecommons.org/ns#"
   xmlns:rdf="http://www.w3.org/1999/02/22-rdf-syntax-ns#"
   xmlns:svg="http://www.w3.org/2000/svg"
   xmlns="http://www.w3.org/2000/svg"
   xmlns:xlink="http://www.w3.org/1999/xlink"
   xmlns:sodipodi="http://sodipodi.sourceforge.net/DTD/sodipodi-0.dtd"
   xmlns:inkscape="http://www.inkscape.org/namespaces/inkscape"
   id="svg2"
   version="1.1"
   inkscape:version="1.0.2-2 (e86c870879, 2021-01-15)"
   width="2481"
   height="3503"
   sodipodi:docname="E35P06.svg">
  <metadata
     id="metadata8">
    <rdf:RDF>
      <cc:Work
         rdf:about="">
        <dc:format>image/svg+xml</dc:format>
        <dc:type
           rdf:resource="http://purl.org/dc/dcmitype/StillImage" />
        <dc:title />
      </cc:Work>
    </rdf:RDF>
  </metadata>
  <defs
     id="defs6" />
  <sodipodi:namedview
     pagecolor="#ffffff"
     bordercolor="#666666"
     borderopacity="1"
     objecttolerance="10"
     gridtolerance="10"
     guidetolerance="10"
     inkscape:pageopacity="0"
     inkscape:pageshadow="2"
     inkscape:window-width="2560"
     inkscape:window-height="1390"
     id="namedview4"
     showgrid="false"
     inkscape:zoom="0.37194737"
     inkscape:cx="1475.8677"
     inkscape:cy="2593.3575"
     inkscape:window-x="0"
     inkscape:window-y="24"
     inkscape:window-maximized="1"
     inkscape:current-layer="layer1"
     inkscape:document-rotation="0"
     inkscape:snap-global="false"
     inkscape:pagecheckerboard="0" />
  <g
     inkscape:groupmode="layer"
     id="layer2"
     inkscape:label="artwork"
     sodipodi:insensitive="true">
    <image
       sodipodi:absref="C:\Users\stero\Documents\Kernewek\Pepper and Carrot\webcomics\ep35_The-Reflection\lang\gfx_Pepper-and-Carrot_by-David-Revoy_E35P06.png"
       xlink:href="../gfx_Pepper-and-Carrot_by-David-Revoy_E35P06.png"
       width="2481"
       height="3503"
       id="image10"
       x="0"
       y="0" />
  </g>
  <g
     inkscape:groupmode="layer"
     id="layer3"
     inkscape:label="speechbubbles"
     style="display:inline">
    <path
       style="fill:#ffffff;stroke:none;stroke-width:0.848306"
       d="m 599.00921,150.09323 c -16.31997,0.28194 -32.60831,1.2432 -48.8326,2.50456 -25.05411,2.1052 -50.10306,5.58875 -73.60065,12.36281 -27.89893,8.76344 -48.71638,27.81935 -55.34376,49.24523 -10.55187,25.57992 -11.41871,53.65624 0.67054,79.08373 7.94366,15.68132 25.6983,28.00217 46.16857,35.21474 33.14617,12.04208 70.19372,18.48904 107.2628,18.16709 22.5091,0.0577 45.03191,-0.55724 67.45012,-1.99282 27.47213,-1.97485 55.11566,-6.93844 78.69349,-17.64876 15.67336,-7.17532 28.37196,-17.9413 34.64698,-30.66232 5.5581,-10.73704 6.59238,-22.37418 5.95454,-33.74924 -0.42844,-19.29785 -1.45986,-38.95473 -9.87603,-57.45073 -5.6571,-11.94986 -17.90086,-21.79241 -32.19149,-28.77811 -9.82269,-4.80133 -20.79035,-8.16261 -31.63283,-11.53319 -25.82484,-7.67408 -53.18733,-12.81391 -81.01435,-14.48135 -2.78074,-0.15294 -5.56756,-0.24427 -8.35533,-0.28164 z"
       id="path3286-6"
       inkscape:connector-curvature="0"
       sodipodi:nodetypes="csssssssc" />
    <path
       style="display:inline;fill:#ffffff;fill-rule:evenodd;stroke:none;stroke-width:1.41517px;stroke-linecap:butt;stroke-linejoin:miter;stroke-opacity:1"
       d="m -11.698607,1502.9614 c 51.013634,0.9709 44.254798,18.9206 25.883564,40.2832 14.132769,-1.4369 47.186301,-21.2257 27.586984,10.0555 42.795135,-11.3646 60.869519,15.5887 57.39205,27.1509 21.020709,-3.9803 42.577179,-0.6376 20.645489,40.2724 21.18652,-9.167 39.74645,-36.8642 37.33367,7.2244 17.15177,-5.4725 39.68704,-26.5581 42.54706,9.4172 22.67279,-17.7601 45.1982,-32.9121 65.45587,-7.9194 21.07006,-36.1747 42.33953,-23.3546 56.74984,12.4772 6.77048,-43.4296 46.95837,-25.9104 72.1826,19.5777 -8.00908,-37.6335 -42.01769,-89.6447 58.98169,-13.5228 -42.86106,-55.9177 -48.12272,-77.4348 78.20372,-15.7856 -16.12038,-22.6503 -42.28976,-77.1061 60.76292,-18.4508 -69.94265,-67.3048 -28.67606,-74.4012 21.61835,-86.5626 -61.07481,-1.7957 -79.0787,-19.4105 -13.89641,-26.8793 -99.87769,-8.7403 -75.69621,-30.4201 -43.90478,-66.7128 -51.10977,27.6916 -43.77799,11.5769 -31.52487,-3.1512 -90.83969,29.1003 -52.95331,-16.958 -44.56536,-34.9119 -44.61809,19.0141 -58.44586,16.8415 -54.25397,-11.8494 -24.76818,24.5753 -50.96795,23.9494 -48.60953,14.2836 l -62.42257,-8.2257 -297.010778,5.4155 -13.0151915,88.2476 c 78.3501905,-4.1891 30.7097545,14.6958 -16.1403475,19.5663 z"
       id="path961"
       sodipodi:nodetypes="cccccccccccccccccccccccc" />
    <path
       style="color:#000000;display:inline;overflow:visible;visibility:visible;fill:#ffffff;fill-opacity:1;fill-rule:nonzero;stroke:none;stroke-width:0.99705px;marker:none;enable-background:accumulate"
       d="m 580.66399,2287.1642 c -7.33113,-36.4766 12.2189,-133.3695 162.50981,-125.3896 150.2909,7.9788 174.7285,53.5757 178.39408,67.2538 3.66556,13.6793 35.43441,91.1936 -81.86574,111.7115 -117.30038,20.5187 -222.38173,-1.1403 -259.03815,-53.5757 z"
       id="path3525-0"
       inkscape:connector-curvature="0" />
    <path
       style="color:#000000;display:inline;overflow:visible;visibility:visible;fill:#ffffff;fill-opacity:1;fill-rule:nonzero;stroke:none;stroke-width:1px;marker:none;enable-background:accumulate"
       d="m 777.45911,2075.5812 c 24.221,32.672 31.0089,45.658 8.1243,87.146 -22.8847,41.487 -7.3195,49.577 -7.3195,49.577 l 28.2503,-15.376 c 0,0 42.659,-91.848 -29.0551,-121.347 z"
       id="path3072-56"
       inkscape:connector-curvature="0" />
    <path
       style="color:#000000;display:inline;overflow:visible;visibility:visible;fill:#ffffff;fill-opacity:1;fill-rule:nonzero;stroke:none;stroke-width:1px;marker:none;enable-background:accumulate"
       d="m 787.3973,441.92617 c -47.0829,-20.24287 -67.22496,-54.55991 -84.15983,-115.70701 -17.59681,-45.717 -36.07245,-33.52653 -36.07245,-33.52653 l 6.37734,17.91035 c 0,0 -3.04742,117.01808 113.85494,131.32319 z"
       id="path3072-5-5"
       inkscape:connector-curvature="0"
       sodipodi:nodetypes="ccccc" />
    <path
       style="display:inline;fill:#ffffff;fill-opacity:1;stroke:none;stroke-width:1.10947"
       d="m 393.56677,1606.3671 c 21.51156,33.7205 38.79051,39.1501 50.26035,53.0664 11.46981,13.9172 -2.88402,43.4737 0.19353,53.5399 3.70439,9.4958 0.69509,16.2497 29.83986,39.4536 -46.26,-20.9908 -40.86354,-33.0957 -44.26871,-41.9175 -4.68096,-12.128 3.84885,-26.4644 -8.51834,-37.4754 -11.9791,-10.667 -55.59571,-40.8524 -64.07404,-63.4543 -8.47865,-22.6019 -12.84256,-23.9886 -12.84256,-23.9886 z"
       id="path3282-7"
       inkscape:connector-curvature="0"
       sodipodi:nodetypes="csccssscc" />
  </g>
  <g
     inkscape:groupmode="layer"
     id="layer1"
     inkscape:label="txt">
    <text
       xml:space="preserve"
       style="font-style:normal;font-variant:normal;font-weight:normal;font-stretch:normal;font-size:45px;line-height:1.25;font-family:Lavi;-inkscape-font-specification:Lavi;text-align:center;letter-spacing:0px;word-spacing:0px;text-anchor:middle;fill:#000000;fill-opacity:1;stroke:none"
       x="587.06763"
       y="238.04738"
       id="text4246-3-2-2"><tspan
         style="font-size:45px"
         sodipodi:role="line"
         x="587.06763"
         y="238.04738"
         id="tspan905">Gogow Logh</tspan><tspan
         style="font-size:45px"
         sodipodi:role="line"
         x="587.06763"
         y="294.29736"
         id="tspan50">an Kern!</tspan></text>
    <text
       xml:space="preserve"
       style="font-style:normal;font-variant:normal;font-weight:normal;font-stretch:normal;font-size:45px;line-height:1.25;font-family:Lavi;-inkscape-font-specification:Lavi;text-align:center;letter-spacing:0px;word-spacing:0px;text-anchor:middle;fill:#000000;fill-opacity:1;stroke:none"
       x="312.00537"
       y="1511.3002"
       id="text4246-3-2-2-3"><tspan
         style="font-size:45px"
         sodipodi:role="line"
         x="312.00537"
         y="1511.3002"
         id="tspan916">Carrot, hemm yw</tspan><tspan
         style="font-size:45px"
         sodipodi:role="line"
         x="312.00537"
         y="1567.5502"
         id="tspan54">agan chons!</tspan></text>
    <text
       xml:space="preserve"
       style="font-style:normal;font-variant:normal;font-weight:normal;font-stretch:normal;font-size:45px;line-height:1.25;font-family:Lavi;-inkscape-font-specification:Lavi;text-align:center;letter-spacing:0px;word-spacing:0px;text-anchor:middle;fill:#000000;fill-opacity:1;stroke:none"
       x="759.31891"
       y="2244.5994"
       id="text4246-3-2-2-3-5"><tspan
         style="font-size:45px"
         sodipodi:role="line"
         x="759.31891"
         y="2244.5994"
         id="tspan958">My a aswon</tspan><tspan
         style="font-size:45px"
         sodipodi:role="line"
         x="759.31891"
         y="2300.8494"
         id="tspan58">an wogow ma.</tspan></text>
    <text
       xml:space="preserve"
       style="font-style:normal;font-variant:normal;font-weight:normal;font-stretch:normal;font-size:45px;line-height:1.25;font-family:Lavi;-inkscape-font-specification:Lavi;text-align:center;letter-spacing:0px;word-spacing:0px;text-anchor:middle;fill:#ffffff;fill-opacity:1;stroke:none"
       x="201.94211"
       y="2549.3845"
       id="text4246-3-2-2-3-5-9"><tspan
         style="font-size:45px;text-align:start;text-anchor:start;fill:#ffffff"
         sodipodi:role="line"
         x="201.94211"
         y="2549.3845"
         id="tspan924">Kowfordh hir ha stummys yw</tspan><tspan
         style="font-size:45px;text-align:start;text-anchor:start;fill:#ffffff"
         sodipodi:role="line"
         x="201.94211"
         y="2605.6345"
         id="tspan62">hag a worfen yn stevel dhiskerys.</tspan></text>
    <text
       xml:space="preserve"
       style="font-style:normal;font-variant:normal;font-weight:normal;font-stretch:normal;font-size:45px;line-height:1.25;font-family:Lavi;-inkscape-font-specification:Lavi;text-align:center;letter-spacing:0px;word-spacing:0px;text-anchor:middle;fill:#ffffff;fill-opacity:1;stroke:none"
       x="1335.3069"
       y="3059.7258"
       id="text4246-3-2-2-3-5-9-7"><tspan
         style="font-size:45px;text-align:end;text-anchor:end;fill:#ffffff"
         sodipodi:role="line"
         x="1335.3069"
         y="3059.7258"
         id="tspan879">An besies kalgh y'n rann godhys ma a wrug bernyow</tspan><tspan
         style="font-size:45px;text-align:end;text-anchor:end;fill:#ffffff"
         sodipodi:role="line"
         x="1335.3069"
         y="3115.9758"
         id="tspan66">avel fos a golghow. Maglen vernans yw!</tspan></text>
    <text
       xml:space="preserve"
       style="font-style:normal;font-variant:normal;font-weight:normal;font-stretch:normal;font-size:45px;line-height:1.25;font-family:Lavi;-inkscape-font-specification:Lavi;text-align:center;letter-spacing:0px;word-spacing:0px;text-anchor:middle;fill:#000000;fill-opacity:1;stroke:none"
       x="1482.9749"
       y="2753.425"
       id="text4246-3-2-2-3-5-9-7-3"><tspan
         style="font-size:45px;text-align:start;text-anchor:start;fill:#ffffff"
         sodipodi:role="line"
         x="1482.9749"
         y="2753.425"
         id="tspan888">Yma porth byghan nag</tspan><tspan
         style="font-size:45px;text-align:start;text-anchor:start;fill:#ffffff"
         sodipodi:role="line"
         x="1482.9749"
         y="2809.675"
         id="tspan73">yw skant bras lowr ragon</tspan><tspan
         style="font-size:45px;text-align:start;text-anchor:start;fill:#ffffff"
         sodipodi:role="line"
         x="1482.9749"
         y="2865.925"
         id="tspan75">dhe omherdhi dresto,</tspan></text>
    <text
       xml:space="preserve"
       style="font-style:normal;font-variant:normal;font-weight:normal;font-stretch:normal;font-size:45px;line-height:1.25;font-family:Lavi;-inkscape-font-specification:Lavi;text-align:center;letter-spacing:0px;word-spacing:0px;text-anchor:middle;fill:#000000;fill-opacity:1;stroke:none;stroke-width:1.25015"
       x="2301.0408"
       y="3223.4587"
       id="text4246-3-2-2-3-5-9-7-3-3"><tspan
         style="font-size:45px;text-align:end;text-anchor:end;fill:#ffffff;stroke-width:1.25015"
         sodipodi:role="line"
         x="2301.0408"
         y="3223.4587"
         id="tspan82">mes ny yll an dhragon na hedhi a-boynt</tspan><tspan
         style="font-size:45px;text-align:end;text-anchor:end;fill:#ffffff;stroke-width:1.25015"
         sodipodi:role="line"
         x="2301.0408"
         y="3279.7087"
         id="tspan88">ha frappya erbynn an fos a wra</tspan><tspan
         style="font-size:45px;text-align:end;text-anchor:end;fill:#ffffff;stroke-width:1.25015"
         sodipodi:role="line"
         x="2301.0408"
         y="3335.9587"
         id="tspan92">a dooth leun! Mwhahaha!</tspan></text>
  </g>
</svg>
