<?xml version="1.0" encoding="UTF-8" standalone="no"?>
<!-- Created with Inkscape (http://www.inkscape.org/) -->

<svg
   xmlns:dc="http://purl.org/dc/elements/1.1/"
   xmlns:cc="http://creativecommons.org/ns#"
   xmlns:rdf="http://www.w3.org/1999/02/22-rdf-syntax-ns#"
   xmlns:svg="http://www.w3.org/2000/svg"
   xmlns="http://www.w3.org/2000/svg"
   xmlns:xlink="http://www.w3.org/1999/xlink"
   xmlns:sodipodi="http://sodipodi.sourceforge.net/DTD/sodipodi-0.dtd"
   xmlns:inkscape="http://www.inkscape.org/namespaces/inkscape"
   id="svg2"
   version="1.1"
   inkscape:version="0.92.4 5da689c313, 2019-01-14"
   width="1927.4698"
   height="1084.131"
   sodipodi:docname="E01P04.svg"
   style="enable-background:new">
  <metadata
     id="metadata8">
    <rdf:RDF>
      <cc:Work
         rdf:about="">
        <dc:format>image/svg+xml</dc:format>
        <dc:type
           rdf:resource="http://purl.org/dc/dcmitype/StillImage" />
        <dc:title />
      </cc:Work>
    </rdf:RDF>
  </metadata>
  <defs
     id="defs6">
    <filter
       inkscape:collect="always"
       style="color-interpolation-filters:sRGB"
       id="filter4155">
      <feBlend
         inkscape:collect="always"
         mode="multiply"
         in2="BackgroundImage"
         id="feBlend4157" />
    </filter>
  </defs>
  <sodipodi:namedview
     pagecolor="#ffffff"
     bordercolor="#666666"
     borderopacity="1"
     objecttolerance="10"
     gridtolerance="10"
     guidetolerance="10"
     inkscape:pageopacity="0"
     inkscape:pageshadow="2"
     inkscape:window-width="1678"
     inkscape:window-height="1002"
     id="namedview4"
     showgrid="false"
     inkscape:zoom="0.50576778"
     inkscape:cx="894.96783"
     inkscape:cy="429.8707"
     inkscape:window-x="2"
     inkscape:window-y="26"
     inkscape:window-maximized="1"
     inkscape:current-layer="layer2"
     inkscape:object-nodes="true"
     showguides="false"
     inkscape:guide-bbox="true"
     fit-margin-top="0"
     fit-margin-left="0"
     fit-margin-right="0"
     fit-margin-bottom="0">
    <sodipodi:guide
       position="3355.6731,951.99061"
       orientation="0,1"
       id="guide4214"
       inkscape:locked="false" />
  </sodipodi:namedview>
  <g
     inkscape:groupmode="layer"
     id="layer1"
     inkscape:label="artwork"
     style="display:inline"
     transform="translate(-297.86337,1068.4783)">
    <image
       sodipodi:absref="/home/tirifto/Développement/Pepper &amp; Carrot/webcomics/ep01_Potion-of-Flight/lang/eo/../gfx_Pepper-and-Carrot_by-David-Revoy_E01P04.png"
       xlink:href="../gfx_Pepper-and-Carrot_by-David-Revoy_E01P04.png"
       y="-1068.4783"
       x="297.86337"
       id="image4223"
       style="image-rendering:optimizeQuality"
       preserveAspectRatio="none"
       height="1084.131"
       width="1927.4698" />
  </g>
  <g
     inkscape:groupmode="layer"
     id="layer2"
     inkscape:label="text"
     style="display:inline;opacity:0.70099996;filter:url(#filter4155)"
     transform="translate(-297.86337,1068.4783)">
    <text
       xml:space="preserve"
       style="font-style:normal;font-variant:normal;font-weight:normal;font-stretch:normal;line-height:0%;font-family:Lavi;-inkscape-font-specification:'Lavi, Normal';text-align:center;letter-spacing:0px;word-spacing:0px;writing-mode:lr-tb;text-anchor:middle;display:inline;opacity:0.85500004;fill:#483e37;fill-opacity:1;stroke:none"
       x="1224.4604"
       y="-492.37573"
       id="text4162"><tspan
         sodipodi:role="line"
         id="tspan3384"
         x="1230.7104"
         y="-492.37573"
         style="font-size:40px;line-height:1.25"><tspan
   style="fill:#803300"
   id="tspan3394">Pepper&amp;Carrot</tspan> de David Revoy estas libera, senpaga, </tspan><tspan
         sodipodi:role="line"
         id="tspan3386"
         x="1224.4604"
         y="-442.37573"
         style="font-size:40px;line-height:1.25">kaj subtenita de siaj mecenataj legantoj.</tspan><tspan
         sodipodi:role="line"
         id="tspan3388"
         x="1230.7104"
         y="-392.37573"
         style="font-size:40px;line-height:1.25"> </tspan></text>
    <text
       id="text3484"
       y="-392.49857"
       x="1224.1565"
       style="font-style:normal;font-variant:normal;font-weight:normal;font-stretch:normal;line-height:0%;font-family:Lavi;-inkscape-font-specification:'Lavi, Normal';text-align:center;letter-spacing:0px;word-spacing:0px;writing-mode:lr-tb;text-anchor:middle;display:inline;opacity:0.85500004;fill:#483e37;fill-opacity:1;stroke:none"
       xml:space="preserve"><tspan
         sodipodi:role="line"
         id="tspan3372"
         x="1224.1565"
         y="-392.49857"
         style="font-size:35px;line-height:1.25">Vi fariĝu mecenato de Pepper&amp;Carrot sur www.patreon.com/davidrevoy</tspan><tspan
         sodipodi:role="line"
         id="tspan3374"
         x="1229.6252"
         y="-348.74857"
         style="font-size:35px;line-height:1.25"> </tspan></text>
    <text
       xml:space="preserve"
       style="font-style:normal;font-variant:normal;font-weight:normal;font-stretch:normal;line-height:0%;font-family:Lavi;-inkscape-font-specification:'Lavi, Normal';text-align:center;letter-spacing:0px;word-spacing:0px;writing-mode:lr-tb;text-anchor:middle;display:inline;opacity:0.85500004;fill:#483e37;fill-opacity:1;stroke:none"
       x="1224.6558"
       y="-296.74411"
       id="text4304"><tspan
         sodipodi:role="line"
         id="tspan3376"
         x="1224.6558"
         y="-296.74411"
         style="font-size:40px;line-height:1.25">Surbaze de la universo Herevo, imagita de David Revoy</tspan><tspan
         sodipodi:role="line"
         id="tspan3378"
         x="1230.9058"
         y="-246.74411"
         style="font-size:40px;line-height:1.25"> </tspan></text>
    <text
       id="text4314"
       y="-614.7395"
       x="1225.1123"
       style="font-style:normal;font-variant:normal;font-weight:normal;font-stretch:normal;line-height:0%;font-family:Lavi;-inkscape-font-specification:'Lavi, Normal';text-align:center;letter-spacing:0px;word-spacing:0px;writing-mode:lr-tb;text-anchor:middle;display:inline;opacity:0.85500004;fill:#800000;fill-opacity:1;stroke:none"
       xml:space="preserve"><tspan
         sodipodi:role="line"
         id="tspan4548"
         style="font-size:50px;line-height:1.25;fill:#800000"
         x="1225.1123"
         y="-614.7395">Desegnado kaj Scenaro : David Revoy</tspan><tspan
         sodipodi:role="line"
         id="tspan4550"
         x="1232.9248"
         y="-552.2395"
         style="font-size:50px;line-height:1.25"> </tspan><tspan
         sodipodi:role="line"
         id="tspan4552"
         x="1232.9248"
         y="-489.7395"
         style="font-size:50px;line-height:1.25"> </tspan></text>
    <text
       xml:space="preserve"
       style="font-style:normal;font-variant:normal;font-weight:normal;font-stretch:normal;line-height:0%;font-family:Lavi;-inkscape-font-specification:'Lavi, Normal';text-align:center;letter-spacing:0px;word-spacing:0px;writing-mode:lr-tb;text-anchor:middle;display:inline;opacity:0.85500004;fill:#483e37;fill-opacity:1;stroke:none"
       x="1225.4077"
       y="-783.2821"
       id="text4384"><tspan
         sodipodi:role="line"
         id="tspan4570"
         x="1225.4077"
         y="-783.2821"
         style="font-size:40px;line-height:1.25">Traduko : libre fan (librefan.eu.org), kaoseto. Korekto : Tirifto</tspan><tspan
         sodipodi:role="line"
         id="tspan4572"
         x="1225.4077"
         y="-733.2821"
         style="font-size:40px;line-height:1.25">Libera Permesilo : Krea Komunaĵo Atribuite Samkondiĉe 4.0 (CC-By-SA)</tspan></text>
    <text
       id="text4434"
       y="-896.49323"
       x="1224.4702"
       style="font-style:normal;font-variant:normal;font-weight:normal;font-stretch:normal;line-height:0%;font-family:Lavi;-inkscape-font-specification:'Lavi, Normal';text-align:center;letter-spacing:0px;word-spacing:0px;writing-mode:lr-tb;text-anchor:middle;display:inline;opacity:0.85500004;fill:#483e37;fill-opacity:1;stroke:none"
       xml:space="preserve"><tspan
         sodipodi:role="line"
         id="tspan4460"
         x="1224.4702"
         y="-896.49323"
         style="font-size:40px;line-height:1.25">« La Sorĉotrinkaĵo flugiga »</tspan><tspan
         sodipodi:role="line"
         id="tspan4462"
         x="1224.4702"
         y="-846.49323"
         style="font-size:40px;line-height:1.25"><tspan
   style="fill:#803300;fill-opacity:1"
   id="tspan4468">Pipro kaj Karoĉjo</tspan>, Ĉapitro 1a</tspan><tspan
         sodipodi:role="line"
         id="tspan4464"
         x="1230.7202"
         y="-796.49323"
         style="font-size:40px;line-height:1.25"> </tspan><tspan
         sodipodi:role="line"
         id="tspan4466"
         x="1230.7202"
         y="-746.49323"
         style="font-size:40px;line-height:1.25"> </tspan></text>
    <text
       id="text4564"
       y="-185.04907"
       x="1224.4702"
       style="font-style:normal;font-variant:normal;font-weight:normal;font-stretch:normal;line-height:0%;font-family:Lavi;-inkscape-font-specification:'Lavi, Normal';text-align:center;letter-spacing:0px;word-spacing:0px;writing-mode:lr-tb;text-anchor:middle;display:inline;opacity:0.85500004;fill:#483e37;fill-opacity:1;stroke:none"
       xml:space="preserve"><tspan
         sodipodi:role="line"
         id="tspan3390"
         x="1224.4702"
         y="-185.04907"
         style="font-size:40px;line-height:1.25">Libera Permesilo : Krea Komunaĵo Atribute 4.0 (CC-By)</tspan><tspan
         sodipodi:role="line"
         id="tspan3392"
         x="1224.4702"
         y="-135.04907"
         style="font-size:40px;line-height:1.25">Liberaj programoj : Krita, Inkscape, GIMP sur GNU/Linukso</tspan></text>
  </g>
</svg>
