<?xml version="1.0" encoding="UTF-8" standalone="no"?>
<!-- Created with Inkscape (http://www.inkscape.org/) -->

<svg
   xmlns:dc="http://purl.org/dc/elements/1.1/"
   xmlns:cc="http://creativecommons.org/ns#"
   xmlns:rdf="http://www.w3.org/1999/02/22-rdf-syntax-ns#"
   xmlns:svg="http://www.w3.org/2000/svg"
   xmlns="http://www.w3.org/2000/svg"
   xmlns:xlink="http://www.w3.org/1999/xlink"
   xmlns:sodipodi="http://sodipodi.sourceforge.net/DTD/sodipodi-0.dtd"
   xmlns:inkscape="http://www.inkscape.org/namespaces/inkscape"
   id="svg2"
   version="1.1"
   inkscape:version="0.92.4 (5da689c313, 2019-01-14)"
   width="2481"
   height="3503"
   sodipodi:docname="E22P02.svg">
  <sodipodi:namedview
     pagecolor="#ffffff"
     bordercolor="#666666"
     inkscape:pageopacity="0"
     inkscape:pageshadow="2"
     inkscape:window-width="1920"
     inkscape:window-height="965"
     id="namedview70"
     showgrid="false"
     inkscape:zoom="1.5999999"
     inkscape:cx="1220.2026"
     inkscape:cy="1321.865"
     inkscape:current-layer="layer1"
     inkscape:window-x="0"
     inkscape:window-y="74"
     inkscape:window-maximized="1" />
  <metadata
     id="metadata8">
    <rdf:RDF>
      <cc:Work
         rdf:about="">
        <dc:format>image/svg+xml</dc:format>
        <dc:type
           rdf:resource="http://purl.org/dc/dcmitype/StillImage" />
        <dc:title />
      </cc:Work>
    </rdf:RDF>
  </metadata>
  <defs
     id="defs6">
    <filter
       style="color-interpolation-filters:sRGB"
       id="filter4375-4-1-1-1-9-6-9-2-1"
       inkscape:label="deevad outline effect">
      <feFlood
         id="feFlood4377-7-9-0-8-1-0-2-2-06"
         flood-opacity="1"
         flood-color="rgb(0,0,0)"
         result="flood" />
      <feComposite
         id="feComposite4379-3-8-8-2-77-6-0-8-3"
         in2="SourceGraphic"
         in="flood"
         operator="in"
         result="composite1" />
      <feMorphology
         id="feMorphology4393-1-0-49-8-9-2-2-9-2"
         operator="dilate"
         radius="4"
         result="result3" />
      <feComposite
         id="feComposite4385-9-5-7-0-8-6-3-7-0"
         in2="result3"
         in="SourceGraphic"
         operator="over"
         result="composite2" />
    </filter>
    <filter
       style="color-interpolation-filters:sRGB"
       id="filter4375-4-1-1-1-9-6-9-2-1-9"
       inkscape:label="deevad outline effect">
      <feFlood
         id="feFlood4377-7-9-0-8-1-0-2-2-06-9"
         flood-opacity="1"
         flood-color="rgb(0,0,0)"
         result="flood" />
      <feComposite
         id="feComposite4379-3-8-8-2-77-6-0-8-3-7"
         in2="SourceGraphic"
         in="flood"
         operator="in"
         result="composite1" />
      <feMorphology
         id="feMorphology4393-1-0-49-8-9-2-2-9-2-8"
         operator="dilate"
         radius="4"
         result="result3" />
      <feComposite
         id="feComposite4385-9-5-7-0-8-6-3-7-0-2"
         in2="result3"
         in="SourceGraphic"
         operator="over"
         result="composite2" />
    </filter>
  </defs>
  <sodipodi:namedview
     pagecolor="#ffffff"
     bordercolor="#666666"
     borderopacity="1"
     objecttolerance="10"
     gridtolerance="10"
     guidetolerance="10"
     inkscape:pageopacity="0"
     inkscape:pageshadow="2"
     inkscape:window-width="1920"
     inkscape:window-height="1025"
     id="namedview4"
     showgrid="false"
     inkscape:zoom="0.41468262"
     inkscape:cx="1087.6272"
     inkscape:cy="763.52991"
     inkscape:window-x="0"
     inkscape:window-y="26"
     inkscape:window-maximized="1"
     inkscape:current-layer="layer3"
     inkscape:snap-text-baseline="true" />
  <g
     inkscape:groupmode="layer"
     id="layer2"
     inkscape:label="artwork"
     sodipodi:insensitive="true">
    <image
       sodipodi:absref="/felles/omsetting/pepper-carrot/webcomics/ep22_The-Voting-System/lang/nn/../gfx_Pepper-and-Carrot_by-David-Revoy_E22P02.png"
       xlink:href="../gfx_Pepper-and-Carrot_by-David-Revoy_E22P02.png"
       y="0"
       x="0"
       id="image10"
       height="3503"
       width="2481" />
  </g>
  <g
     inkscape:groupmode="layer"
     id="layer3"
     inkscape:label="speechbubbles"
     style="display:inline">
    <rect
       style="color:#000000;clip-rule:nonzero;display:inline;overflow:visible;visibility:visible;opacity:1;isolation:auto;mix-blend-mode:normal;color-interpolation:sRGB;color-interpolation-filters:linearRGB;solid-color:#000000;solid-opacity:1;fill:#fff6d5;fill-opacity:1;fill-rule:nonzero;stroke:none;stroke-width:2.5999999;stroke-linecap:butt;stroke-linejoin:miter;stroke-miterlimit:4;stroke-dasharray:none;stroke-dashoffset:0;stroke-opacity:1;marker:none;color-rendering:auto;image-rendering:auto;shape-rendering:auto;text-rendering:auto;enable-background:accumulate"
       id="rect4632-8-6-1-3-6-7"
       width="484.08948"
       height="204.80905"
       x="1366.5333"
       y="435.66666"
       ry="40"
       rx="40.000004" />
    <path
       style="color:#000000;display:inline;overflow:visible;visibility:visible;fill:#fff6d5;fill-opacity:1;fill-rule:nonzero;stroke:none;stroke-width:1px;marker:none;enable-background:accumulate"
       d="m 1287.9562,804.69125 c -2.3726,-48.11045 10.1998,-102.00947 18.1937,-112.95934 3.1988,0.86242 18.9006,18.62975 18.9006,18.62975 0,0 73.4226,-141.05933 116.098,-161.78266 9.5804,-4.65225 36.6834,-14.11398 2.5863,22.28059 -34.0971,36.39457 -113.8187,149.01883 -113.6551,167.47568 -8.8102,-3.73425 -16.9173,-15.12982 -19.3721,-17.88533 -10.1199,5.38582 -24.1474,69.23793 -22.7514,84.24131 z"
       id="path4456"
       inkscape:connector-curvature="0"
       sodipodi:nodetypes="cccszccc" />
    <rect
       style="color:#000000;clip-rule:nonzero;display:inline;overflow:visible;visibility:visible;opacity:1;isolation:auto;mix-blend-mode:normal;color-interpolation:sRGB;color-interpolation-filters:linearRGB;solid-color:#000000;solid-opacity:1;fill:#fff6d5;fill-opacity:1;fill-rule:nonzero;stroke:none;stroke-width:2.64763379;stroke-linecap:butt;stroke-linejoin:miter;stroke-miterlimit:4;stroke-dasharray:none;stroke-dashoffset:0;stroke-opacity:1;marker:none;color-rendering:auto;image-rendering:auto;shape-rendering:auto;text-rendering:auto;enable-background:accumulate"
       id="rect4632-8-6-1-3-6-7-3-0"
       width="453.39471"
       height="155.10812"
       x="1842.9048"
       y="1341.4989"
       ry="40"
       rx="40.000004" />
    <path
       style="color:#000000;display:inline;overflow:visible;visibility:visible;fill:#fff6d5;fill-opacity:1;fill-rule:nonzero;stroke:none;stroke-width:1px;marker:none;enable-background:accumulate"
       d="m 2192.6047,1464.2863 c -25.0108,27.1285 -2.0561,271.3313 83.4201,284.9495 -1.6379,7.2112 -29.3802,33.6228 -38.2077,38.9428 23.1156,-12.3173 55.6405,-32.3554 56.5803,-44.6937 -71.8085,5.3997 -108.6969,-229.5705 -79.3282,-275.7342 z"
       id="path5066"
       inkscape:connector-curvature="0"
       sodipodi:nodetypes="cccccc" />
    <rect
       style="color:#000000;clip-rule:nonzero;display:inline;overflow:visible;visibility:visible;opacity:1;isolation:auto;mix-blend-mode:normal;color-interpolation:sRGB;color-interpolation-filters:linearRGB;solid-color:#000000;solid-opacity:1;fill:#fff6d5;fill-opacity:1;fill-rule:nonzero;stroke:none;stroke-width:2.64763379;stroke-linecap:butt;stroke-linejoin:miter;stroke-miterlimit:4;stroke-dasharray:none;stroke-dashoffset:0;stroke-opacity:1;marker:none;color-rendering:auto;image-rendering:auto;shape-rendering:auto;text-rendering:auto;enable-background:accumulate"
       id="rect4632-8-6-1-3-6-7-3-0-6"
       width="381.07178"
       height="147.26482"
       x="1958.4304"
       y="1517.6171"
       ry="40"
       rx="40" />
    <rect
       style="color:#000000;clip-rule:nonzero;display:inline;overflow:visible;visibility:visible;opacity:1;isolation:auto;mix-blend-mode:normal;color-interpolation:sRGB;color-interpolation-filters:linearRGB;solid-color:#000000;solid-opacity:1;fill:#fff6d5;fill-opacity:1;fill-rule:nonzero;stroke:none;stroke-width:2.59999943;stroke-linecap:butt;stroke-linejoin:miter;stroke-miterlimit:4;stroke-dasharray:none;stroke-dashoffset:0;stroke-opacity:1;marker:none;color-rendering:auto;image-rendering:auto;shape-rendering:auto;text-rendering:auto;enable-background:accumulate"
       id="rect4632-8-6-1-3-6-7-3-7"
       width="688.17932"
       height="305.11411"
       x="894.85797"
       y="2011.6127"
       ry="40"
       rx="39.999992" />
    <path
       style="color:#000000;display:inline;overflow:visible;visibility:visible;fill:#fff6d5;fill-opacity:1;fill-rule:nonzero;stroke:none;stroke-width:0.99999994px;marker:none;enable-background:accumulate"
       d="m 1587.4521,1965.849 c -41.9647,24.6457 -42.2542,32.9304 -44.1721,39.4236 4.8424,-0.8495 12.8024,-1.5784 12.8024,-1.5784 0,0 -6.7177,13.5664 -5.3035,17.7691 1.4139,4.2026 17.0769,-1.0674 17.0769,-1.0674 0,0 14.5922,-26.7422 21.5882,-33.3846 -13.488,2.5889 -19.4875,3.048 -25.0155,4.9079 -1.9819,-2.842 8.5389,-17.2982 23.0236,-26.0702 z"
       id="path4456-6"
       inkscape:connector-curvature="0"
       inkscape:transform-center-x="-40.772944"
       inkscape:transform-center-y="-3.2825163" />
    <rect
       style="color:#000000;clip-rule:nonzero;display:inline;overflow:visible;visibility:visible;opacity:1;isolation:auto;mix-blend-mode:normal;color-interpolation:sRGB;color-interpolation-filters:linearRGB;solid-color:#000000;solid-opacity:1;fill:#fff6d5;fill-opacity:1;fill-rule:nonzero;stroke:none;stroke-width:2.5999999;stroke-linecap:butt;stroke-linejoin:miter;stroke-miterlimit:4;stroke-dasharray:none;stroke-dashoffset:0;stroke-opacity:1;marker:none;color-rendering:auto;image-rendering:auto;shape-rendering:auto;text-rendering:auto;enable-background:accumulate"
       id="rect4632-8-6-1-3-6-7-3"
       width="479.69708"
       height="351.73227"
       x="350.46887"
       y="1964.9945"
       ry="40"
       rx="40" />
    <path
       style="color:#000000;display:inline;overflow:visible;visibility:visible;fill:#fff6d5;fill-opacity:1;fill-rule:nonzero;stroke:none;stroke-width:1px;marker:none;enable-background:accumulate"
       d="m 613.19842,2000.0869 c 2.64799,-3.1047 -30.76851,-40.0426 -30.76851,-40.0426 0,0 7.3568,-25.419 6.83945,-29.9059 -7.10705,-9.4953 -31.75268,-23.7882 -31.75268,-23.7882 l 20.47161,-49.6306 -1.60453,42.2469 38.75844,22.0522 -5.21058,32.4539 33.85028,23.5924 z"
       id="path4448"
       inkscape:connector-curvature="0"
       sodipodi:nodetypes="cccccccccc" />
    <path
       style="color:#000000;fill:#fff6d5;fill-opacity:1;fill-rule:nonzero;stroke:none;stroke-width:1px;marker:none;visibility:visible;display:inline;overflow:visible;enable-background:accumulate"
       d="m 705.38428,2424.3932 c -54.09593,5.607 -64.7378,23.2704 -74.00168,35.1834 3.71843,3.6849 8.98597,11.192 8.98597,11.192 0,0 -25.65759,15.1626 -30.20395,25.9054 -4.54642,10.743 7.95972,35.8726 7.95972,35.8726 0,0 49.34266,-53.4767 61.56725,-59.9145 -10.63895,-9.7802 -14.49488,-15.6343 -19.86627,-17.9076 2.51456,-8.4359 26.55128,-27.8196 45.55896,-30.3313 z"
       id="path4456-6-0"
       inkscape:connector-curvature="0"
       inkscape:transform-center-x="-28.519271"
       inkscape:transform-center-y="49.4025"
       sodipodi:nodetypes="cccscccc" />
    <rect
       style="color:#000000;display:inline;overflow:visible;visibility:visible;fill:#fff6d5;fill-opacity:1;fill-rule:nonzero;stroke:none;stroke-width:2.60000014;marker:none;enable-background:accumulate"
       id="rect4632-8-6-1-3-6-7-3-0-1"
       width="447.83786"
       height="311.2926"
       x="171.96715"
       y="2428.8579"
       ry="33.72908"
       rx="42.086132" />
    <path
       style="color:#000000;display:inline;overflow:visible;visibility:visible;fill:#ffffff;fill-opacity:1;fill-rule:nonzero;stroke:none;stroke-width:1px;marker:none;enable-background:accumulate"
       d="m 1243.4813,2754.3032 c -13.7096,-24.0351 -2.6957,-68.2648 87.536,-72.275 76.4546,-3.3978 101.6936,30.7348 103.9489,38.0344 2.2552,7.2994 22.6313,50.2723 -49.5385,61.2216 -72.1701,10.9492 -128.2369,-2.9459 -141.9464,-26.981 z"
       id="path3525-0-2"
       inkscape:connector-curvature="0"
       sodipodi:nodetypes="zscsz" />
    <path
       style="color:#000000;display:inline;overflow:visible;visibility:visible;fill:#ffffff;fill-opacity:1;fill-rule:nonzero;stroke:none;stroke-width:1px;marker:none;enable-background:accumulate"
       d="m 1198.6768,2805.1502 c 40.634,-7.198 63.5285,-19.6293 73.2215,-66.9749 9.693,-47.3455 18.2676,-34.7655 18.2676,-34.7655 l 11.8509,31.6276 c -3.8962,-1.8542 -5.4671,79.997 -103.34,70.1128 z"
       id="path3072"
       inkscape:connector-curvature="0"
       sodipodi:nodetypes="csccc" />
  </g>
  <g
     inkscape:groupmode="layer"
     id="layer1"
     inkscape:label="txt"
     style="display:inline">
    <text
       xml:space="preserve"
       style="font-style:normal;font-variant:normal;font-weight:normal;font-stretch:normal;line-height:0%;font-family:Lavi;-inkscape-font-specification:Lavi;text-align:center;letter-spacing:0px;word-spacing:0px;text-anchor:middle;display:inline;fill:#000000;fill-opacity:1;stroke:none"
       x="1608.4463"
       y="495.66394"
       id="text4246-2-3-1-3-9-9-6-2"><tspan
         sodipodi:role="line"
         style="font-size:45px;line-height:1.25"
         x="1608.4463"
         y="495.66394"
         id="tspan5012">Og takka vere dei</tspan><tspan
         sodipodi:role="line"
         style="font-size:45px;line-height:1.25"
         x="1608.4463"
         y="551.91394"
         id="tspan894">geniale ingeniørane</tspan><tspan
         sodipodi:role="line"
         style="font-size:45px;line-height:1.25"
         x="1608.4463"
         y="608.16394"
         id="tspan896">våre kan de òg delta!</tspan></text>
    <text
       xml:space="preserve"
       style="font-style:normal;font-variant:normal;font-weight:normal;font-stretch:normal;line-height:0%;font-family:Lavi;-inkscape-font-specification:Lavi;text-align:center;letter-spacing:0px;word-spacing:0px;text-anchor:middle;display:inline;fill:#000000;fill-opacity:1;stroke:none"
       x="590.26245"
       y="2017.1765"
       id="text4246-2-3-1-3-9-9-6"><tspan
         sodipodi:role="line"
         style="font-size:45px;line-height:1.25"
         x="590.26245"
         y="2017.1765"
         id="tspan874">Ja, det stemmer, mine</tspan><tspan
         sodipodi:role="line"
         style="font-size:45px;line-height:1.25"
         x="590.26245"
         y="2073.4265"
         id="tspan903">vener. Sjå nærare på</tspan><tspan
         sodipodi:role="line"
         style="font-size:45px;line-height:1.25"
         x="590.26245"
         y="2129.6765"
         id="tspan924">desse teknologiske</tspan><tspan
         sodipodi:role="line"
         style="font-size:45px;line-height:1.25"
         x="590.26245"
         y="2185.9265"
         id="tspan926">underverka som</tspan><tspan
         sodipodi:role="line"
         style="font-size:45px;line-height:1.25"
         x="590.26245"
         y="2242.1765"
         id="tspan880">publikumsvertane</tspan><tspan
         sodipodi:role="line"
         style="font-size:45px;line-height:1.25"
         x="590.26245"
         y="2298.4265"
         id="tspan928">no deler ut!</tspan></text>
    <text
       xml:space="preserve"
       style="font-style:normal;font-variant:normal;font-weight:normal;font-stretch:normal;line-height:0%;font-family:Lavi;-inkscape-font-specification:'Lavi, Normal';text-align:center;letter-spacing:0px;word-spacing:0px;writing-mode:lr-tb;text-anchor:middle;display:inline;fill:#000000;fill-opacity:1;stroke:none"
       x="1239.486"
       y="2064.7832"
       id="text4246-2-3-1-3-9-9-6-5"><tspan
         sodipodi:role="line"
         x="1239.486"
         y="2064.7832"
         style="font-size:45px;line-height:1.25"
         id="tspan5065">Det er no <tspan
   style="font-style:normal;font-variant:normal;font-weight:bold;font-stretch:normal;font-family:Lavi;-inkscape-font-specification:'Lavi Bold'"
   id="tspan890">de</tspan> som vel vinnaren!</tspan><tspan
         sodipodi:role="line"
         x="1239.486"
         y="2121.0332"
         style="font-size:45px;line-height:1.25"
         id="tspan939">Trykk på den grøne knappen</tspan><tspan
         sodipodi:role="line"
         x="1239.486"
         y="2177.2832"
         style="font-size:45px;line-height:1.25"
         id="tspan941">for å gje ein deltakar eit poeng</tspan><tspan
         sodipodi:role="line"
         x="1239.486"
         y="2233.5332"
         style="font-size:45px;line-height:1.25"
         id="tspan923">eller på den raude for å gje</tspan><tspan
         sodipodi:role="line"
         x="1239.486"
         y="2289.7832"
         style="font-size:45px;line-height:1.25"
         id="tspan931">deltakaren eit minuspoeng.</tspan></text>
    <text
       xml:space="preserve"
       style="font-style:normal;font-variant:normal;font-weight:normal;font-stretch:normal;line-height:0%;font-family:Lavi;-inkscape-font-specification:Lavi;text-align:center;letter-spacing:0px;word-spacing:0px;text-anchor:middle;display:inline;fill:#000000;fill-opacity:1;stroke:none"
       x="2068.4814"
       y="1406.4694"
       id="text4246-2-3-1-3-9-9-6-9-3"><tspan
         sodipodi:role="line"
         style="font-size:45px;line-height:1.25"
         x="2068.4814"
         y="1406.4694"
         id="tspan3559-5">Kva så med juryen,</tspan><tspan
         sodipodi:role="line"
         style="font-size:45px;line-height:1.25"
         x="2068.4814"
         y="1462.7194"
         id="tspan949">lurer de kanskje på?</tspan></text>
    <text
       xml:space="preserve"
       style="font-style:normal;font-variant:normal;font-weight:normal;font-stretch:normal;line-height:0%;font-family:Lavi;-inkscape-font-specification:Lavi;text-align:center;letter-spacing:0px;word-spacing:0px;text-anchor:middle;display:inline;fill:#000000;fill-opacity:1;stroke:none"
       x="2149.1201"
       y="1576.2379"
       id="text4246-2-3-1-3-9-9-6-9"><tspan
         sodipodi:role="line"
         style="font-size:45px;line-height:1.25"
         x="2149.1201"
         y="1576.2379"
         id="tspan5083">Slapp av – me</tspan><tspan
         sodipodi:role="line"
         style="font-size:45px;line-height:1.25"
         x="2149.1201"
         y="1632.4879"
         id="tspan956">har tenkt på alt!</tspan></text>
    <text
       xml:space="preserve"
       style="font-style:normal;font-variant:normal;font-weight:normal;font-stretch:normal;line-height:0%;font-family:Lavi;-inkscape-font-specification:Lavi;text-align:center;letter-spacing:0px;word-spacing:0px;text-anchor:middle;display:inline;fill:#000000;fill-opacity:1;stroke:none"
       x="395.25986"
       y="2485.1177"
       id="text4246-2-3-1-3-9-9-6-9-8"><tspan
         sodipodi:role="line"
         style="font-size:45px;line-height:1.25"
         x="395.25986"
         y="2485.1177"
         id="tspan5105">Jurymedlemmane</tspan><tspan
         sodipodi:role="line"
         style="font-size:45px;line-height:1.25"
         x="395.25986"
         y="2541.3677"
         id="tspan976">har fått ein spesial-</tspan><tspan
         sodipodi:role="line"
         style="font-size:45px;line-height:1.25"
         x="395.25986"
         y="2597.6177"
         id="tspan978">trykkjar som gjev</tspan><tspan
         sodipodi:role="line"
         style="font-size:45px;line-height:1.25"
         x="395.25986"
         y="2653.8677"
         id="tspan971">heile hundre pluss-</tspan><tspan
         sodipodi:role="line"
         style="font-size:45px;line-height:1.25"
         x="395.25986"
         y="2710.1177"
         id="tspan980">eller minuspoeng!</tspan></text>
    <text
       id="text4250"
       y="2751.4998"
       x="1339.1047"
       style="font-style:normal;font-variant:normal;font-weight:normal;font-stretch:normal;line-height:0%;font-family:Lavi;-inkscape-font-specification:'Lavi, Normal';text-align:center;letter-spacing:0px;word-spacing:0px;writing-mode:lr-tb;text-anchor:middle;display:inline;fill:#000000;fill-opacity:1;stroke:none"
       xml:space="preserve"><tspan
         y="2751.4998"
         x="1339.1047"
         id="tspan4260"
         sodipodi:role="line"
         style="font-size:45px;line-height:1.25">Jøss!</tspan></text>
  </g>
</svg>
