<?xml version="1.0" encoding="UTF-8" standalone="no"?>
<svg
   xmlns:dc="http://purl.org/dc/elements/1.1/"
   xmlns:cc="http://creativecommons.org/ns#"
   xmlns:rdf="http://www.w3.org/1999/02/22-rdf-syntax-ns#"
   xmlns:svg="http://www.w3.org/2000/svg"
   xmlns="http://www.w3.org/2000/svg"
   xmlns:xlink="http://www.w3.org/1999/xlink"
   xmlns:sodipodi="http://sodipodi.sourceforge.net/DTD/sodipodi-0.dtd"
   xmlns:inkscape="http://www.inkscape.org/namespaces/inkscape"
   id="svg2"
   version="1.1"
   inkscape:version="1.0.1 (3bc2e813f5, 2020-09-07)"
   width="2481"
   height="663"
   sodipodi:docname="E01P00.svg"
   enable-background="new">
  <sodipodi:namedview
     pagecolor="#ffffff"
     bordercolor="#666666"
     inkscape:pageopacity="0"
     inkscape:pageshadow="2"
     inkscape:window-width="1920"
     inkscape:window-height="1017"
     id="namedview70"
     showgrid="false"
     inkscape:zoom="0.23069198"
     inkscape:cx="805.58871"
     inkscape:cy="368.92402"
     inkscape:current-layer="layer3"
     inkscape:document-rotation="0"
     inkscape:window-x="-8"
     inkscape:window-y="-8"
     inkscape:window-maximized="1"
     showguides="false"
     inkscape:snap-grids="false"
     inkscape:snap-to-guides="false"
     inkscape:snap-others="true"
     inkscape:object-nodes="false" />
  <metadata
     id="metadata8">
    <rdf:RDF>
      <cc:Work
         rdf:about="">
        <dc:format>image/svg+xml</dc:format>
        <dc:type
           rdf:resource="http://purl.org/dc/dcmitype/StillImage" />
        <dc:title />
      </cc:Work>
    </rdf:RDF>
  </metadata>
  <defs
     id="defs6">
    <rect
       x="1287.3653"
       y="-82.759198"
       width="275.86399"
       height="165.5184"
       id="rect849" />
    <rect
       x="1451.7533"
       y="39.183624"
       width="472.16267"
       height="117.55087"
       id="rect126" />
    <rect
       x="792.42038"
       y="-26.321656"
       width="436.38535"
       height="254.90446"
       id="rect113" />
    <rect
       x="547.21338"
       y="-123.29618"
       width="876.92675"
       height="286.76752"
       id="rect25" />
    <rect
       x="1287.3654"
       y="-82.759201"
       width="275.86398"
       height="165.5184"
       id="rect849-2" />
    <rect
       x="1287.3654"
       y="-82.759201"
       width="275.86398"
       height="165.5184"
       id="rect862" />
  </defs>
  <sodipodi:namedview
     pagecolor="#ffffff"
     bordercolor="#666666"
     borderopacity="1"
     objecttolerance="10"
     gridtolerance="10"
     guidetolerance="10"
     inkscape:pageopacity="0"
     inkscape:pageshadow="2"
     inkscape:window-width="1920"
     inkscape:window-height="1025"
     id="namedview4"
     showgrid="false"
     inkscape:zoom="0.68521316"
     inkscape:cx="1250.3716"
     inkscape:cy="193.44802"
     inkscape:window-x="0"
     inkscape:window-y="26"
     inkscape:window-maximized="1"
     inkscape:current-layer="layer3"
     inkscape:snap-global="false">
    <inkscape:grid
       type="xygrid"
       id="grid4282" />
  </sodipodi:namedview>
  <g
     inkscape:groupmode="layer"
     id="layer1"
     inkscape:label="artwork"
     style="display:inline"
     sodipodi:insensitive="true">
    <image
       xlink:href="../gfx_Pepper-and-Carrot_by-David-Revoy_E01P00.png"
       width="2481"
       height="2481"
       id="image3084"
       x="0"
       y="0" />
  </g>
  <g
     inkscape:groupmode="layer"
     id="layer2"
     inkscape:label="speechbubble"
     style="opacity:0.70232556;display:inline" />
  <g
     inkscape:groupmode="layer"
     id="layer3"
     inkscape:label="txt"
     style="display:inline">
    <flowRoot
       xml:space="preserve"
       id="episode-title"
       style="font-style:normal;font-variant:normal;font-weight:normal;font-stretch:normal;line-height:0.01%;font-family:Arial;-inkscape-font-specification:Arial;letter-spacing:0px;word-spacing:0px;display:inline;fill:#2a5953;fill-opacity:1;stroke:none"
       transform="matrix(0.78765954,0,0,0.78765954,123.9083,189.28796)"><flowRegion
         id="flowRegion3065"><rect
           id="rect3067"
           width="2715.5891"
           height="110.01318"
           x="92.642677"
           y="425.30325"
           style="font-size:72px;fill:#2a5953;fill-opacity:1" /></flowRegion><flowPara
         id="flowPara3069"
         style="font-style:normal;font-variant:normal;font-weight:normal;font-stretch:normal;font-size:88px;line-height:1.25;font-family:Lavi;-inkscape-font-specification:Lavi;text-align:center;text-anchor:middle;fill:#2a5953;fill-opacity:1">Mono 1: Iksir fe Fley</flowPara></flowRoot>
    <path
       id="path910"
       style="fill:#2a5953;fill-opacity:1;stroke:none"
       d="M 610.34961 184.86328 L 594.70508 187.7832 L 579.06055 190.70117 L 570.35938 193.88281 L 561.66016 197.0625 L 559.29492 199.58008 L 556.93164 202.0957 L 557.09766 208.06055 L 557.26172 214.02734 L 559.41211 219.02344 L 561.56055 224.01953 L 563.75 226.06445 L 565.93945 228.10938 L 571.57812 230.21094 L 577.21484 232.31445 L 579.65234 234.90625 L 582.08984 237.49805 L 582.03125 247.25977 C 581.99915 252.62859 581.60501 264.28786 581.15625 273.16992 L 580.33984 289.32031 L 583.73828 293.75781 C 585.60697 296.19865 587.7142 298.97053 588.42188 299.91797 L 589.70898 301.64062 L 589.06836 303.31055 L 588.42773 304.98242 L 585.76367 305.5625 C 584.29829 305.88163 582.5318 306.31747 581.83789 306.53125 L 580.57617 306.91992 L 580.58984 335.96875 L 580.60547 365.01953 L 581.34766 366.05273 C 581.75551 366.62068 583.36566 367.89722 584.92578 368.89062 L 587.76172 370.69727 L 587.44922 373.4043 L 587.13672 376.11328 L 584.10742 376.62891 L 581.08008 377.14453 L 580.5625 386.45117 L 580.04492 395.75781 L 578.32617 397.47656 L 576.60938 399.19336 L 570.2832 399.93945 L 563.95898 400.68555 L 561.55078 403.48438 L 559.14453 406.2832 L 559.71094 411.06836 L 560.27734 415.85156 L 562.25977 419.70703 L 564.24219 423.56055 L 567.24805 426.41602 L 570.25391 429.27148 L 574.15234 430.73633 L 574.1543 430.73633 L 578.05273 432.20117 L 590.16406 431.69727 L 602.27539 431.19336 L 611.86523 429.20312 C 622.55959 426.98361 629.01056 424.89344 632.31055 422.58203 L 634.51953 421.03711 L 638.29688 421.03711 L 642.07617 421.03711 L 645.39062 419.63086 C 647.21362 418.85741 651.42899 417.45581 654.75977 416.51562 C 658.09054 415.57545 663.54228 413.53827 666.87305 411.99023 C 670.20383 410.44218 675.00256 408.2106 677.53711 407.03125 C 680.07168 405.85189 682.85367 404.88672 683.7207 404.88672 L 685.29883 404.88672 L 686.54492 403.38477 L 687.79102 401.88281 L 686.41602 401.39062 C 685.65959 401.11953 683.45076 400.89081 681.50781 400.88281 C 679.56486 400.87481 676.61265 400.83808 674.94727 400.80078 C 668.36835 400.65332 647.1206 401.78404 646.24023 402.32812 L 645.30664 402.9043 L 640.94922 401.38867 L 636.59375 399.87109 L 631.41797 399.85547 L 626.24219 399.8418 L 624.97852 398.31836 L 623.71484 396.79492 L 619.59961 396.13672 L 615.48438 395.47852 L 613.16992 393.16406 L 610.85547 390.84961 L 610.85547 377.75391 L 610.85547 364.6582 L 612.41406 363.09961 L 613.97461 361.54102 L 617.71289 360.58008 C 619.76964 360.05217 624.40533 358.8866 628.01367 357.99023 C 636.52004 355.87712 654.5876 348.64528 670.07031 341.1543 L 682.35156 335.21094 L 690.25586 329.54102 C 694.60386 326.4224 700.43333 321.85532 703.20898 319.39062 C 705.98462 316.92593 710.86509 311.87599 714.05469 308.16992 L 719.85352 301.43164 L 723.79883 293.35742 L 727.74609 285.2832 L 729.05273 279.73047 L 730.35938 274.17969 L 730.26953 266.60938 L 730.17969 259.04102 L 728.48438 252.48047 L 726.78906 245.91797 L 721.95117 235.82617 L 717.11328 225.73242 L 710.71094 216.80469 L 704.30859 207.87695 L 699.73828 203.85352 C 697.22444 201.64074 692.35811 198.25932 688.92578 196.33984 C 685.49344 194.42038 678.9524 191.48711 674.39062 189.82227 L 666.09766 186.79492 L 656.39258 185.85156 L 646.68555 184.90625 L 628.51758 184.88477 L 610.34961 184.86328 z M 1455.5371 191.42578 L 1453.498 191.87305 L 1450.0898 202.32031 L 1445.3477 215.67578 L 1439.9219 232.09766 L 1442.2832 235.21484 L 1441.5195 237.44727 L 1437.0781 237.90234 L 1427.9609 256.50781 L 1432.0918 267.76172 L 1428.9043 273.71875 L 1417.0156 272.83789 L 1406.7656 289.1875 L 1396.2891 303.42969 L 1383.4961 317.32617 L 1378.2773 323.27148 L 1375.1055 323.32031 L 1376.2422 231.95703 L 1376.1758 225.94531 L 1375.8555 219.86133 L 1375.0547 215.64258 L 1372.9941 212.22656 L 1368.2246 209.24023 L 1358.168 207.98828 L 1335.4453 208.87695 L 1327.709 211.05273 L 1320.5547 214.64648 L 1317.7949 217.57031 L 1315.0098 221.44531 L 1313.8613 225.63477 L 1314.3379 229.2832 L 1320.1133 227.89844 L 1326.3613 226.82031 L 1332.8457 227.69531 L 1341.334 229.12891 L 1344.9688 231.91211 L 1346.0293 236.06055 L 1345.5156 278.72656 L 1355.0176 275.02148 L 1356.4883 278.89648 L 1345.5156 296.84766 L 1345.5156 384.73633 L 1346.043 409.38281 L 1346.623 419.12891 L 1347.2969 423.48828 L 1333.4902 425.32617 L 1327.6992 428.38867 L 1327.0977 432.75781 L 1326.9922 443.44727 L 1328.5898 447.0957 L 1335.1914 451.91211 L 1336.6074 452.88672 L 1343.7344 453.33203 L 1357.5449 453.76172 L 1377.1875 452.6875 L 1387.8223 451.99609 L 1393.6289 450.08203 L 1403.7441 439.07617 L 1412.4355 428.13867 L 1417.1992 421.24805 L 1415.8848 419.0332 L 1410.0098 419 L 1398.127 422.65039 L 1390.8711 424.4707 L 1385.1504 424.37891 L 1381.0273 419.60156 L 1377.2598 407.75391 L 1376.2422 389.19141 L 1370.1484 383.0918 L 1371.2793 380.0332 L 1375.873 380.31055 L 1374.9434 365.93164 L 1386.4688 355.52344 L 1393.4434 349.3457 L 1395.7695 349.03711 L 1403.0781 359.24219 L 1409.4883 373.73633 L 1426.8496 420.30078 L 1436.6719 424.57422 L 1438.2227 428.5918 L 1431.3066 432.25391 L 1437.7793 448.44922 L 1445.1855 461.96094 L 1456.8789 469.77148 L 1471.498 471.61523 L 1483.6465 470.79688 L 1494.4961 464.96484 L 1503.7363 456.05469 L 1511.125 446.31641 L 1514.2148 438.04688 L 1515.2988 431.37695 L 1513.5293 430.75781 L 1510.4395 437.44727 L 1504.916 443.88867 L 1494.9082 448.76953 L 1484.8926 452.21094 L 1475.7207 450.31445 L 1468.3477 443.75391 L 1457.3613 420.69336 L 1435.5684 362.86719 L 1423.8008 332.25391 L 1416.9902 320.26367 L 1426.2754 308.08398 L 1436.6953 289.11719 L 1447.1504 266.08203 L 1454.5723 240.23633 L 1457.668 220.82031 L 1457.9121 202.1875 L 1455.5371 191.42578 z M 627.07617 214.125 L 629.17773 214.125 L 631.2793 214.125 L 634.77539 217.19531 L 638.27148 220.26562 L 639.95508 219.7793 C 640.88108 219.5119 646.06402 218.75593 651.47266 218.09961 L 661.30664 216.90625 L 669.05273 218.05859 L 676.79688 219.20898 L 682.68359 221.85156 L 688.56836 224.49219 L 692.69922 228.97266 L 696.82812 233.45312 L 699.51367 239.18164 L 702.19922 244.91016 L 702.19922 253.99414 L 702.19727 263.07812 L 699.48242 268.87109 C 695.96852 276.37071 690.89015 283.98025 684.5918 291.17773 L 679.54883 296.93945 L 680.11133 299.74609 L 680.67188 302.55469 L 679.13672 303.83008 L 677.59961 305.10547 L 675.43164 303.94531 L 673.26562 302.78516 L 671.27344 304.58789 L 669.28125 306.39062 L 669.88867 308.8125 L 670.49805 311.23438 L 668.87891 313.70312 L 667.26172 316.17383 L 662.89258 315.51758 L 658.52539 314.86328 L 649.57812 318.39844 L 640.63086 321.93555 L 629.02344 324.38672 L 617.41602 326.83594 L 615.90234 326.38281 C 615.06964 326.13292 613.82086 325.21283 613.12695 324.33789 L 611.86523 322.74609 L 611.91016 293.92188 L 611.95703 265.0957 L 612.78711 249.11328 L 613.61914 233.12891 L 615.5957 230.43945 C 616.68343 228.96059 619.24108 226.6526 621.2793 225.31055 L 624.98633 222.87109 L 624.98633 220.45117 C 624.98633 219.11986 625.45659 217.15189 626.03125 216.07812 L 627.07617 214.125 z M 825.16211 226.67578 L 823.14258 226.68359 C 822.12136 227.11954 810.89453 227.22656 810.89453 227.22656 L 808.44336 227.95312 L 806.76367 229.26172 L 808.50195 230.14844 L 810.77734 231.85742 L 812.71289 235.20703 L 813.24414 244.73047 L 813.61523 252.00977 L 813.59766 261.99805 L 814.6582 308.70508 L 814.875 363.50391 L 814.88086 399.74805 L 814.28516 402.03711 L 813.68945 404.32422 L 808.08594 405.90039 L 802.48242 407.47656 L 800.48633 409.4375 L 798.49023 411.39844 L 798.46484 414.20312 L 798.44141 417.00586 L 800.08789 419.51562 C 800.99366 420.89614 802.90248 423.3339 804.33008 424.93359 L 804.33203 424.93359 L 809.49414 425.4043 L 812.02734 427.08984 L 819.46289 426.76367 L 824.85352 421.61523 L 829.18164 421.88086 L 831.53125 426.18555 C 831.53125 426.18555 835.01177 426.00522 835.85742 425.94922 L 845.59766 425.30273 L 848.25195 423.5957 L 850.90625 421.89062 L 853.11719 418.58008 L 855.32812 415.27148 L 858.61719 413.15625 C 860.42602 411.99296 863.41982 409.59298 864.70508 407.4375 L 869.6875 399.08203 L 864.41016 399.10352 L 854.13086 402.86719 L 845.93359 403.09375 C 845.93359 403.09375 842.4846 403.04285 842.16406 402.91992 C 841.45201 402.64687 840.21637 401.13228 839.41797 399.55469 L 837.96484 396.68555 L 838.01953 390.51758 L 838.07227 384.34766 L 837.80273 367.72266 L 836.1543 289.00195 L 826.94922 277.13867 L 827.29102 272.34766 L 836.28516 270.85547 L 835.17969 243.41016 L 835.32031 239.91797 C 835.6821 239.3274 835.61914 235.67969 835.61914 235.67969 L 834.28711 231.06836 L 830.33789 227.43359 L 825.16211 226.67578 z M 1071.166 226.67578 L 1069.1465 226.68359 C 1068.1253 227.11954 1056.8984 227.22656 1056.8984 227.22656 L 1054.4473 227.95312 L 1052.7676 229.26172 L 1054.5078 230.14844 L 1056.7812 231.85742 L 1058.7168 235.20703 L 1059.248 244.73047 L 1059.6211 252.00977 L 1059.6016 261.99805 L 1060.1641 286.71875 L 1060.3535 295.05859 L 1060.6621 308.70508 L 1060.8066 344.86914 L 1070.8457 355.14062 L 1069.8789 360.5918 L 1060.8789 363.50391 L 1060.8789 399.74805 L 1060.2832 402.03711 L 1059.6895 404.32422 L 1054.0859 405.90039 L 1048.4805 407.47656 L 1046.4844 409.4375 L 1044.4902 411.39844 L 1044.4648 414.20312 L 1044.4414 417.00586 L 1046.0879 419.51562 C 1046.9937 420.89614 1048.9025 423.3339 1050.3301 424.93359 L 1050.3398 424.93359 L 1055.502 425.4043 L 1058.0352 427.08984 L 1065.4707 426.76367 L 1077.5391 426.18555 C 1077.5391 426.18555 1081.0177 426.00522 1081.8633 425.94922 L 1091.6055 425.30273 L 1094.2598 423.5957 L 1096.9141 421.89062 L 1099.125 418.58008 L 1101.3359 415.27148 L 1104.625 413.15625 C 1106.4339 411.99296 1109.4276 409.59298 1110.7129 407.4375 L 1115.6953 399.08203 L 1110.418 399.10352 L 1100.1387 402.86719 L 1091.9414 403.09375 C 1091.9414 403.09375 1088.4924 403.04285 1088.1719 402.91992 C 1087.4598 402.64687 1086.2242 401.13228 1085.4258 399.55469 L 1083.9727 396.68555 L 1084.0273 390.51758 L 1084.084 384.34766 L 1083.8125 367.72266 L 1082.1641 289.00195 L 1082.2949 270.85547 L 1081.1895 243.41016 L 1081.3301 239.91797 C 1081.692 239.3274 1081.6289 235.67969 1081.6289 235.67969 L 1080.2969 231.06836 L 1076.3496 227.43359 L 1071.166 226.67578 z M 1799.2012 256.51758 L 1798 257.9668 L 1796.7969 259.41602 L 1797.8691 261.41992 L 1798.9414 263.42578 L 1799.2012 283.94141 L 1799.459 304.45898 L 1798.2559 306.55664 L 1797.0508 308.6543 L 1791.2266 309.95898 L 1785.4023 311.26172 L 1779.4492 314.38281 L 1773.4941 317.50391 L 1772.9434 318.9375 L 1772.3945 320.37109 L 1773.5625 322.24219 L 1774.7305 324.11523 L 1774.7305 326.68945 L 1774.7305 329.26562 L 1778.6992 333.51758 L 1782.666 337.76758 L 1789.9512 337.76758 L 1797.2344 337.76758 L 1798.0234 339.78711 L 1798.8125 341.80469 L 1798.8848 368.61914 L 1798.9551 395.43359 L 1800.0566 401.39062 L 1801.1582 407.34766 L 1803.0352 411.0293 C 1804.0684 413.05451 1806.0824 416.09857 1807.5098 417.79492 L 1810.1055 420.88086 L 1815.3262 423.48242 L 1820.5469 426.08398 L 1826.207 426.08398 L 1831.8672 426.08398 L 1836.3555 423.18164 C 1838.8235 421.58527 1842.7509 418.2916 1845.084 415.86328 L 1849.3262 411.44922 L 1850.9102 407.64062 L 1852.4961 403.83203 L 1851.3281 401.65039 L 1850.1602 399.4668 L 1853.291 396.66797 L 1856.4238 393.86914 L 1858.0352 390.04297 C 1858.9216 387.93813 1860.014 384.27588 1860.4629 381.90625 L 1861.2793 377.59766 L 1860.418 377.06641 L 1859.5566 376.5332 L 1857.3672 377.70508 C 1856.1635 378.34921 1850.0101 383.93335 1843.6914 390.11523 L 1832.2031 401.35547 L 1829.0996 402.84961 L 1825.998 404.34375 L 1823.6562 401.62109 L 1821.3145 398.89844 L 1820.6602 393.56641 L 1820.0059 388.23438 L 1820.3301 360.25977 L 1820.6562 332.28516 L 1822.1699 330.9043 C 1823.0026 330.14445 1827.6935 328.0055 1832.5938 326.15234 L 1841.502 322.7832 L 1850.0645 315.13477 C 1854.7733 310.92853 1860.7557 305.75531 1863.3594 303.63867 C 1865.9633 301.52202 1868.8798 299.15161 1869.8398 298.36914 L 1871.584 296.94531 L 1871.0898 295.65625 L 1870.5957 294.36719 L 1865.3066 294.46875 L 1860.0195 294.57227 L 1856.3418 296.14062 L 1852.6621 297.70703 L 1844.7344 298.43555 L 1836.8047 299.16211 L 1833.2715 300.91016 C 1831.3286 301.87175 1828.4967 302.95748 1826.9785 303.32227 L 1824.2188 303.98633 L 1822.3438 302.11133 L 1820.4688 300.23633 L 1819.8828 284.94727 L 1819.2949 269.66016 L 1817.1699 266.67578 L 1815.0449 263.69336 L 1809.1387 260.10547 L 1803.2324 256.51758 L 1801.2168 256.51758 L 1799.2012 256.51758 z M 1003.4648 256.79883 L 996.55273 260.60938 L 992.92773 264.9082 L 991.02344 271.46875 L 992.07227 278.20312 L 997.32227 282.18359 L 1001.748 287.1543 L 1008.6934 287.36328 L 1016.6289 283.95898 L 1019.8789 278.80664 L 1020.3945 269.78711 L 1018.7598 263.26953 L 1013.8184 258.88477 L 1003.4648 256.79883 z M 760.72266 257.09375 L 752.33398 258.41797 L 745.08789 264.61914 L 743.15234 269.90039 L 743.60547 276.71484 L 746.89453 282.68359 L 752.16211 286.42578 L 759.04883 287.78711 L 765.64648 285.60742 L 771.93945 279.69531 L 774.00195 272.45898 L 771.14453 263.80469 L 764.45898 266.98047 L 760.14648 263.88086 L 760.72266 257.09375 z M 1237.7148 288.88672 L 1230.8789 291.49609 L 1232.6797 297.97852 L 1229.7617 302.38477 L 1223.7598 304.94922 L 1225.6191 310.75195 L 1232.1973 316.94336 L 1238.2402 319.88086 L 1244.7754 318.91406 L 1253.0273 312.32422 L 1254.5527 304.58008 L 1253.5898 299.03906 L 1249.7871 293.36328 L 1243.9551 289.83789 L 1237.7148 288.88672 z M 1193.791 289.30273 L 1185.957 291.44922 L 1181.8613 295.95898 L 1179.7871 304.75195 L 1180.2656 311.45508 L 1185.582 317.65625 L 1194.3906 319.73633 L 1201.6738 317.93164 L 1205.9902 314.32617 L 1209.0039 308.19727 L 1209.1406 301.38281 L 1206.8438 295.50391 L 1201.166 290.88672 L 1193.791 289.30273 z M 1928.3418 292.05078 L 1923.1953 292.66016 L 1918.0488 293.26953 L 1909.6836 297.2832 L 1901.3184 301.29688 L 1896.5059 306.13672 C 1889.9295 312.75028 1883.0239 321.92743 1878.6875 329.81641 C 1876.6962 333.43927 1873.9716 339.62028 1872.6348 343.55078 L 1870.2051 350.69727 L 1869.0059 358.12695 L 1867.8066 365.55859 L 1868.2285 379.14453 L 1868.6504 392.73242 L 1873.084 404.32227 L 1877.5176 415.91211 L 1881.7734 420.16797 L 1886.0293 424.42383 L 1891.4062 425.94141 C 1894.3631 426.77546 1898.1432 427.6385 1899.8086 427.85938 C 1905.6769 428.6377 1907.9508 428.51335 1914.9199 427.03711 L 1921.957 425.54688 L 1930.8164 421.33594 L 1939.6777 417.125 L 1939.7715 416.03125 C 1939.8235 415.4294 1939.7911 413.06956 1939.7031 410.78711 L 1939.541 406.63672 L 1941.1953 404.98242 L 1942.8496 403.33008 L 1945.3574 403.33008 L 1947.8652 403.33008 L 1949.9004 398.73047 C 1951.0195 396.20052 1952.1778 392.63362 1952.4746 390.80469 L 1953.0137 387.47852 L 1951.6387 386.95117 L 1950.2637 386.42383 L 1938.1582 393.66602 C 1931.4998 397.64948 1923.1405 402.19231 1919.582 403.76172 L 1913.1113 406.61523 L 1906.9648 407.05469 L 1900.8184 407.49609 L 1897.5742 405.44922 L 1894.3281 403.40234 L 1891.9746 399.58203 C 1890.6796 397.48018 1888.8495 393.74437 1887.9082 391.28125 L 1886.1973 386.80273 L 1887.957 383.20703 L 1889.7148 379.61133 L 1893.752 378.28711 C 1901.3268 375.80464 1936.1252 367.16217 1943.209 366.00391 L 1950.2754 364.84766 L 1952.4961 363.4082 L 1954.7168 361.9668 L 1955.7715 358.17188 L 1956.8242 354.37695 L 1956.8359 341.55859 L 1956.8477 328.73828 L 1955.7129 323.39062 L 1954.5781 318.04102 L 1952.0605 313.04492 L 1949.5449 308.04883 L 1944.1855 302.90039 L 1938.8262 297.75 L 1933.5898 294.90039 L 1928.3418 292.05078 z M 894.8457 296.86719 L 885.85547 300.91602 C 880.91059 303.14258 876.57435 304.96484 876.21875 304.96484 C 875.17047 304.96484 862.43245 313.10861 859.96094 315.35938 C 858.7119 316.49685 857.68945 317.78359 857.68945 318.2168 L 857.68945 319.00391 L 860.9707 319.50391 C 862.77487 319.77945 868.01667 320.53966 872.61914 321.19336 L 880.98633 322.38281 L 882.45898 325.23047 L 883.93164 328.07812 L 883.93164 368.94727 L 883.93164 409.81445 L 882.94922 410.42383 C 882.40819 410.7582 878.45337 411.70238 874.16211 412.52344 L 866.36133 414.01758 L 865.57422 415.25586 C 865.14182 415.93736 864.93207 416.94687 865.10742 417.5 L 865.42578 418.50586 L 869.38086 419.30469 C 871.55579 419.74376 875.71838 420.36971 878.63281 420.69531 L 883.93164 421.28711 L 883.93164 449.23047 L 883.93164 477.17383 L 882.58789 479.01172 L 881.24414 480.84766 L 876.78516 482.98828 L 872.32617 485.12891 L 870.9668 487.99023 L 869.60938 490.85156 L 870.23047 494.16211 L 870.85156 497.47266 L 873.60742 501.04297 C 875.12299 503.00675 877.49889 505.34686 878.88672 506.24414 L 881.41016 507.875 L 886.45508 507.5332 L 891.50195 507.18945 L 901.31055 504.52344 L 911.11914 501.85742 L 915.44141 499.6582 C 917.81871 498.44834 921.75791 495.70582 924.19531 493.56445 L 928.62695 489.67188 L 929.92188 489.67188 C 930.63378 489.67187 932.56153 488.53888 934.20703 487.1543 L 937.19922 484.63672 L 943.62109 481.84766 C 947.15309 480.31411 950.94713 478.52939 952.05273 477.88086 L 954.06445 476.70117 L 953.375 476.01172 L 952.68555 475.32227 L 946.82227 475.4375 C 943.59777 475.5011 936.45196 475.56613 930.94336 475.58203 L 920.92773 475.61133 L 915.6875 474.52344 L 910.44531 473.43555 L 908.03906 470.87305 L 905.63281 468.31055 L 905.63281 446.6543 L 905.63281 425 L 907.14648 424.04297 C 907.97918 423.51686 909.64561 423.07831 910.84961 423.07031 L 913.03906 423.05469 L 925.56641 418.46875 L 938.0918 413.88281 L 943.05859 410.63672 L 948.02539 407.39258 L 948.37305 404.87891 C 948.56505 403.49632 949.19659 401.78862 949.77539 401.08398 L 950.82812 399.80273 L 954.04688 400.40625 L 957.26562 401.00977 L 962.32422 395.47461 C 965.10692 392.42991 969.13243 387.30379 971.26953 384.08398 L 975.15625 378.23047 L 978.10938 369.6582 L 981.06445 361.08789 L 980.61328 353.46484 L 980.16016 345.8418 L 977.92188 340.79492 L 975.68164 335.74805 L 971.94727 331.89062 C 969.89287 329.76871 965.2049 325.79598 961.53125 323.0625 L 954.85352 318.09375 L 949.11133 315.55469 C 945.95403 314.15836 940.11181 312.11153 936.12891 311.00781 L 928.88867 309.00195 L 918.77539 308.98828 C 913.21289 308.98028 907.63972 308.69996 906.39062 308.36523 L 904.11914 307.75781 L 904.11914 305.00391 L 904.11914 302.25 L 902.35156 300.64844 C 901.37905 299.76835 899.29244 298.55879 897.71484 297.95898 L 894.8457 296.86719 z M 1533.8066 299.7207 L 1526.543 299.76172 L 1519.2793 299.80273 L 1514.7695 301.40625 C 1512.2896 302.28874 1508.3712 304.1177 1506.0625 305.4707 C 1503.7537 306.8237 1499.1982 310.1695 1495.9375 312.9043 L 1490.0078 317.875 L 1486.7949 323.2793 C 1485.027 326.25148 1482.3534 331.78021 1480.8555 335.56445 L 1478.1328 342.44531 L 1479.3457 343.63867 L 1480.5605 344.83203 L 1482.9863 341.80469 C 1484.3206 340.1393 1485.9923 338.17281 1486.7012 337.43555 C 1487.4101 336.6983 1491.3971 333.56765 1495.5605 330.47852 L 1503.1289 324.86328 L 1511.2051 320.9375 L 1519.2793 317.01172 L 1527.3535 317.29688 L 1535.4277 317.58008 L 1537.25 321.30859 L 1539.0723 325.03711 L 1540.1855 334.8457 L 1541.3008 344.6543 L 1539.1816 346.37109 L 1537.0625 348.08789 L 1528.1699 350.30469 L 1519.2793 352.52148 L 1507.168 358.42188 L 1495.0547 364.32227 L 1489.418 368.39258 L 1483.7812 372.46094 L 1480.0039 377.94531 L 1476.2266 383.43164 L 1473.7812 390.16797 L 1471.3359 396.9043 L 1471.3359 401.72266 L 1471.3359 406.53906 L 1472.8555 411.6582 L 1474.375 416.77539 L 1478.2695 420.29297 L 1482.1641 423.81055 L 1487.5195 425.58984 L 1492.875 427.36914 L 1502.0391 426.79492 L 1511.2051 426.22266 L 1519.0547 423.63086 C 1523.3722 422.20543 1529.6574 419.88084 1533.0215 418.46484 L 1539.1387 415.89062 L 1540.5625 417.07227 L 1541.9883 418.25586 L 1541.9883 420.01562 L 1541.9883 421.77344 L 1544.0273 424.36523 L 1546.0664 426.95703 L 1548.3164 427.39258 C 1549.5544 427.6317 1550.8269 427.88924 1551.1426 427.96484 C 1551.4582 428.04044 1554.1822 427.37871 1557.1973 426.49414 L 1562.6797 424.88477 L 1568.0195 421.85547 L 1573.3594 418.82422 L 1574.9941 416.32812 L 1576.6289 413.83203 L 1577.4082 408.91016 L 1578.1855 403.99023 L 1582.293 397.80664 C 1584.5517 394.40592 1586.3984 391.20142 1586.3984 390.68555 L 1586.3984 389.74805 L 1585.2031 389.74805 C 1583.8488 389.74805 1577.5167 392.54772 1569.0449 396.89258 C 1565.8835 398.5139 1562.8162 399.8418 1562.2305 399.8418 L 1561.166 399.8418 L 1561.166 397.93555 L 1561.166 396.03125 L 1564.1699 389.60938 C 1565.8221 386.07749 1567.4679 381.71042 1567.8281 379.90625 L 1568.4844 376.62695 L 1566.3984 376.62695 L 1564.3125 376.62695 L 1563.6895 377.63672 C 1563.3464 378.19185 1562.6375 378.64453 1562.1152 378.64453 L 1561.166 378.64453 L 1561.1484 369.81445 C 1561.1384 364.95707 1560.6986 354.57904 1560.1641 346.75391 L 1559.1934 332.52734 L 1558.0449 327.07227 L 1556.8945 321.61914 L 1554.4492 316.38867 L 1551.998 311.1582 L 1548.3027 307.91016 L 1544.6035 304.66406 L 1539.2031 302.19141 L 1533.8066 299.7207 z M 1733.7793 303.74609 L 1726.2969 304.35742 L 1718.8164 304.9668 L 1713.3008 307.49219 C 1710.2671 308.88101 1704.9349 312.04869 1701.4531 314.5332 L 1695.123 319.05078 L 1692.123 322.85742 C 1688.4009 327.58075 1683.7747 336.77293 1680.9219 345.11133 L 1678.7539 351.44727 L 1677.7734 358.23242 L 1676.791 365.01953 L 1676.7715 374.30664 L 1676.752 383.5918 L 1677.8633 388.94141 L 1678.9746 394.28906 L 1681.916 400.3457 L 1684.8574 406.40234 L 1688.8145 411.0293 L 1692.7715 415.65625 L 1698.1348 419.32812 L 1703.498 423 L 1709.0488 424.52344 L 1714.5996 426.04883 L 1727.2148 425.80469 L 1739.832 425.55859 L 1745.2207 422.58398 L 1750.6113 419.60938 L 1755.3145 414.45508 C 1757.9017 411.62033 1760.9204 407.62082 1762.0215 405.56836 L 1764.0234 401.83789 L 1762.7773 399.84375 C 1762.0926 398.7473 1761.5332 397.14802 1761.5332 396.28906 L 1761.5332 394.72656 L 1765.041 392.65625 L 1768.5508 390.58594 L 1769.5859 386.88672 C 1770.1551 384.8521 1771.3557 379.32602 1772.2539 374.60742 L 1773.8867 366.0293 L 1773.3223 356.43945 L 1772.7578 346.85156 L 1771.1504 340.79492 C 1770.2664 337.46415 1767.9679 331.39605 1766.041 327.31055 L 1762.5371 319.88281 L 1759.416 315.94336 L 1756.2949 312.00391 L 1752.0781 309.53125 L 1747.8613 307.06055 L 1740.8184 305.4043 L 1733.7793 303.74609 z M 1646.9023 303.87695 L 1642.6133 305.0293 L 1638.3223 306.17969 L 1630.9727 313.81445 L 1623.6211 321.45117 L 1622.7676 320.52539 C 1622.2979 320.0164 1621.3314 317.78302 1620.6211 315.5625 L 1619.3301 311.52539 L 1616.7148 308.24414 L 1614.0996 304.96484 L 1612.0801 304.99023 C 1610.9698 305.00433 1605.7464 306.47949 1600.4727 308.26953 L 1590.8848 311.52539 L 1590.8848 312.7168 L 1590.8848 313.91016 L 1594.3633 316.25391 L 1597.8398 318.59766 L 1599.9141 322.12695 L 1601.9863 325.65625 L 1602.3086 361.89844 L 1602.6309 398.14062 L 1602.0547 400.43359 L 1601.4805 402.72656 L 1595.8906 404.35156 L 1590.3008 405.97656 L 1588.3223 407.95508 L 1586.3418 409.93359 L 1586.3418 412.73828 L 1586.3418 415.54102 L 1588.0117 418.03711 C 1588.9295 419.40967 1590.8593 421.8308 1592.3008 423.41797 L 1594.9219 426.30469 L 1604.5098 425.5957 C 1609.7835 425.20618 1618.4798 424.55798 1623.834 424.15625 L 1633.5684 423.42578 L 1636.209 421.69727 L 1638.8477 419.9668 L 1641.0312 416.63867 L 1643.2129 413.31055 L 1646.4824 411.16602 C 1648.281 409.98699 1650.9975 407.38992 1652.5195 405.39453 L 1655.2871 401.76758 L 1654.375 400.94922 L 1653.4629 400.13281 L 1641.3516 400.85547 C 1634.69 401.25221 1628.654 401.35866 1627.9395 401.0918 C 1627.2251 400.82492 1625.9763 399.32055 1625.1641 397.75 L 1623.6875 394.89453 L 1623.6875 388.72461 L 1623.6875 382.55469 L 1626.2109 365.93359 L 1628.7324 349.3125 L 1630.127 346.0625 C 1630.8938 344.27545 1632.9194 340.9138 1634.6289 338.58984 L 1637.7383 334.36328 L 1643.3418 332.59766 L 1648.9473 330.83008 L 1649.9668 331.84961 L 1650.9844 332.86719 L 1651.5586 343.20703 L 1652.1328 353.54492 L 1650.4062 360.5918 L 1648.6797 367.63867 L 1649.2988 368.25781 L 1649.9199 368.87891 L 1655.8887 362.75781 L 1661.8594 356.63867 L 1664.4062 348.21289 C 1665.8072 343.57846 1667.4639 336.9073 1668.0898 333.38867 L 1669.2285 326.99219 L 1668.5645 323.80078 C 1668.1993 322.04568 1666.8153 318.72312 1665.4902 316.41797 L 1663.082 312.22656 L 1658.7988 309.07812 L 1654.5156 305.92773 L 1650.709 304.90234 L 1646.9023 303.87695 z M 758.90039 306.67578 L 756.88086 306.68359 C 755.85964 307.11954 744.63281 307.22656 744.63281 307.22656 L 742.17969 307.95312 L 740.5 309.26172 L 742.24023 310.14844 L 744.51367 311.85742 L 746.45117 315.20703 L 746.21094 325.62891 L 745.94141 332.00977 L 750.17188 335.42383 L 749.75391 339.87695 L 745.51953 341.99805 L 744.61328 363.50391 L 744.61719 399.74805 L 744.02344 402.03711 L 743.42773 404.32422 L 737.82422 405.90039 L 732.2207 407.47656 L 730.22461 409.4375 L 728.22852 411.39844 L 728.20312 414.20312 L 728.17969 417.00586 L 729.82617 419.51562 C 730.73194 420.89614 732.64076 423.3339 734.06836 424.93359 L 736.66406 427.84375 L 746.25781 427.21875 C 751.53473 426.87526 760.23625 426.30421 765.59375 425.94922 L 775.33594 425.30273 L 777.99023 423.5957 L 780.64453 421.89062 L 782.85547 418.58008 L 785.06641 415.27148 L 788.35547 413.15625 C 790.1643 411.99296 792.90401 409.41952 794.44336 407.4375 L 797.24219 403.83398 L 796.33594 403.00977 L 795.43164 402.18555 L 783.86914 402.86719 L 781.88477 407.06055 L 778.56836 406.94531 L 775.67188 403.09375 C 775.67187 403.09375 772.22093 403.04285 771.90039 402.91992 C 771.18834 402.64687 769.9527 401.13228 769.1543 399.55469 L 767.70312 396.68555 L 767.75781 390.51758 L 767.81055 384.34766 L 767.53906 367.72266 L 767.83984 350.72656 L 768.91797 323.41016 L 769.05664 319.91797 C 769.41843 319.3274 769.35547 315.67969 769.35547 315.67969 L 768.02539 311.06836 L 764.07617 307.43359 L 758.90039 306.67578 z M 1000.2324 307.11914 L 990.44922 307.42383 L 986.5 309.26172 L 990.26367 311.10938 L 993.25977 315.30859 L 993.11719 336.46484 L 992.81445 377.8418 L 992.69531 393.43164 L 992.18945 400.64844 L 990.52734 403.41406 L 978.20312 409.83398 L 976.23828 412.9043 L 975.9375 419.53516 L 977.55273 424.4043 L 979.23047 426.26953 L 982.05469 426.7832 L 1002.3398 425.24219 L 1016.207 425.49805 L 1020.7188 424.79297 L 1028.4453 420.4043 L 1034.1953 415.76758 L 1039.5742 410.0918 L 1041.373 404.18555 L 1043.9395 400.07617 L 1042.6562 399.88477 L 1037.5215 400.58984 L 1032.9297 402.20898 L 1024.627 403.41406 L 1016.4102 402.64453 L 1015.6387 396.73828 L 1013.5117 389.29688 L 1012.5586 380.30469 L 1006.1387 378.50586 L 1007.2188 375.98242 L 1013.0723 373.37109 L 1013.3281 358.99023 L 1012.8145 336.13672 L 1012.6133 312.91016 L 1011.2734 309.42969 L 1007.2539 307.63477 L 1000.2324 307.11914 z M 1928.6289 311.27539 L 1931.0117 311.87305 L 1933.3945 312.47266 L 1935.0234 316.53906 L 1936.6504 320.60547 L 1936.6504 331.25 L 1936.6504 341.89258 L 1935.5547 343.94141 L 1934.459 345.98828 L 1930.2559 347.81836 L 1926.0527 349.64844 L 1909.457 353.38086 C 1900.3298 355.43349 1892.3147 357.32289 1891.6445 357.58008 L 1890.4258 358.04688 L 1889.7109 356.89062 L 1888.9941 355.73242 L 1893.2715 347.48438 C 1895.6241 342.94801 1899.0973 337.10681 1900.9902 334.50391 C 1902.883 331.90102 1907.8268 326.6021 1911.9746 322.72852 L 1919.5156 315.6875 L 1924.0723 313.48047 L 1928.6289 311.27539 z M 1728.5938 321.11328 L 1731.9023 321.11328 L 1735.2129 321.11328 L 1740.584 325.48828 C 1743.5384 327.89465 1747.1821 330.66792 1748.6816 331.65039 L 1751.4082 333.4375 L 1751.3672 338.125 C 1751.3442 340.70381 1751.6288 349.19635 1751.998 356.99609 L 1752.668 371.17773 L 1751.5566 378.3457 L 1750.4434 385.51562 L 1748.4824 390.0918 L 1746.5195 394.66797 L 1742.6582 398.51758 L 1738.7969 402.36523 L 1733.2305 403.62695 C 1730.1689 404.32086 1726.0888 404.84696 1724.1621 404.79688 C 1719.2918 404.67032 1714.2005 403.07989 1710.709 400.59375 L 1707.75 398.48633 L 1703.3867 389.27539 L 1699.0234 380.06445 L 1698.3301 374.16406 L 1697.6367 368.26562 L 1695.7734 366.66992 L 1693.9121 365.07617 L 1693.9121 363.51562 L 1693.9121 361.95508 L 1697.8945 357.13477 C 1700.0854 354.48344 1702.0909 351.53864 1702.3496 350.5918 C 1702.6082 349.64496 1703.0968 347.22039 1703.4355 345.20508 L 1704.0508 341.54102 L 1707.8887 335.60156 L 1711.7285 329.66211 L 1714.9805 326.92773 L 1718.2305 324.19141 L 1723.4121 322.65234 L 1728.5938 321.11328 z M 935.91211 331.01758 L 943.48242 332.61914 L 951.05273 334.2207 L 955.08984 337.0293 L 959.12695 339.83789 L 960.95312 343.34375 L 962.7793 346.85156 L 962.26758 351.60156 L 961.75586 356.35156 L 958.92773 362.18555 L 956.09961 368.01953 L 949.0332 375.50977 L 941.96875 383 L 934.65234 388.43164 L 927.33594 393.86328 L 920.04492 397.35742 C 916.03522 399.27901 912.00308 400.84961 911.08398 400.84961 L 909.41211 400.84961 L 908.02734 399.18359 L 906.64258 397.51562 L 906.3457 369.00977 L 906.05078 340.50586 L 908.36523 337.89258 L 910.67969 335.2793 L 916.73633 333.73438 C 920.06713 332.88464 925.74316 331.92548 929.35156 331.60352 L 935.91211 331.01758 z M 1188.0059 340.56445 L 1180.2656 341.80664 L 1177.4395 343.05273 L 1180.1172 344.7207 L 1182.2246 347.86914 L 1183.2051 353.34766 L 1183.3438 366.51953 L 1181.5684 436.71094 L 1186.6445 445.43945 L 1184.7324 448.61719 L 1178.2637 448.84375 L 1176.5078 453.30859 L 1173.6445 456.57031 L 1169.1719 457.90234 L 1164.6035 457.44922 L 1160.0586 454.9707 L 1157.0039 450.46875 L 1154.7773 444.99219 L 1153.875 437.91992 L 1153.9004 432.32031 L 1154.248 427.28906 L 1153.2227 426.91602 L 1150.1992 430.0293 L 1148.0938 434.5625 L 1146.3984 442.63672 L 1145.668 452.28125 L 1147.4863 459.97852 L 1150.332 465.52344 L 1154.6641 470.93359 L 1160.9629 474.47656 L 1170.1973 475.49609 L 1177.9863 474.28906 L 1184.5898 471.84375 L 1191.2402 467.21484 L 1198.3926 459.25977 L 1203.0723 448.80859 L 1204.6543 438.08984 L 1205.0684 398.03906 L 1205.3516 370.7168 L 1204.9531 354.90625 L 1204.2324 346.00391 L 1201.5273 342.55273 L 1196.3047 340.6875 L 1188.0059 340.56445 z M 1237.2578 340.90234 L 1230.0977 340.99023 L 1223.1348 342.47266 L 1220.2305 344.07227 L 1222.8848 345.12891 L 1224.9316 348.60547 L 1225.9199 354.77734 L 1225.957 371.88086 L 1225.4453 391.23242 L 1224.8398 392.52734 L 1224.0703 407.16602 L 1220.123 407.75586 L 1215.1484 409.99805 L 1210.8535 413.27344 L 1209.9414 414.89258 L 1210.5098 417.22266 L 1212.5254 420.29492 L 1215.6152 423.60156 L 1222.6758 424.94531 L 1233.9688 424.75586 L 1249.7734 424.58398 L 1257.5566 422.57031 L 1262.0469 417.0332 L 1264.0234 410.75977 L 1265.3066 403.57031 L 1263.4297 402.75 L 1258.9316 404.1582 L 1253.5332 404.37891 L 1247.9512 404.85352 L 1247.1816 395.44727 L 1247.2734 378.13672 L 1247.5293 369.91992 L 1246.8633 348.61328 L 1245.5195 344.30078 L 1242.2949 341.72852 L 1237.2578 340.90234 z M 1531.127 368.04688 L 1532.6426 370.31836 L 1534.1602 372.58984 L 1536.1016 372.58984 L 1538.043 372.58984 L 1540.5215 375.06641 L 1542.998 377.54492 L 1542.998 381.75977 L 1542.998 385.97656 L 1540.9844 389.23633 L 1538.9688 392.49609 L 1535.1797 395.10938 C 1533.0955 396.54701 1528.8212 398.89425 1525.6816 400.32617 L 1519.9746 402.92969 L 1512.2207 404.41406 L 1504.4668 405.89648 L 1499.0273 405.89648 L 1493.5879 405.89648 L 1491.9668 403.42383 L 1490.3457 400.94922 L 1491.0352 398.62891 C 1491.4143 397.35269 1492.8309 394.6703 1494.1836 392.66797 L 1496.6426 389.02734 L 1501.4004 385.67188 C 1504.0168 383.8263 1507.8323 380.83637 1509.8789 379.02734 L 1513.5996 375.73828 L 1520.4316 373.62695 L 1527.2637 371.51758 L 1529.1953 369.7832 L 1531.127 368.04688 z " />
  </g>
</svg>
