<?xml version="1.0" encoding="UTF-8" standalone="no"?>
<svg
   xmlns:dc="http://purl.org/dc/elements/1.1/"
   xmlns:cc="http://creativecommons.org/ns#"
   xmlns:rdf="http://www.w3.org/1999/02/22-rdf-syntax-ns#"
   xmlns:svg="http://www.w3.org/2000/svg"
   xmlns="http://www.w3.org/2000/svg"
   xmlns:xlink="http://www.w3.org/1999/xlink"
   xmlns:sodipodi="http://sodipodi.sourceforge.net/DTD/sodipodi-0.dtd"
   xmlns:inkscape="http://www.inkscape.org/namespaces/inkscape"
   id="svg2"
   version="1.1"
   inkscape:version="1.0.1 (3bc2e813f5, 2020-09-07)"
   width="2481"
   height="3503"
   sodipodi:docname="E35P10.svg">
  <metadata
     id="metadata8">
    <rdf:RDF>
      <cc:Work
         rdf:about="">
        <dc:format>image/svg+xml</dc:format>
        <dc:type
           rdf:resource="http://purl.org/dc/dcmitype/StillImage" />
        <dc:title />
      </cc:Work>
    </rdf:RDF>
  </metadata>
  <defs
     id="defs6" />
  <sodipodi:namedview
     pagecolor="#ffffff"
     bordercolor="#666666"
     borderopacity="1"
     objecttolerance="10"
     gridtolerance="10"
     guidetolerance="10"
     inkscape:pageopacity="0"
     inkscape:pageshadow="2"
     inkscape:window-width="1366"
     inkscape:window-height="715"
     id="namedview4"
     showgrid="false"
     inkscape:zoom="0.43942712"
     inkscape:cx="1240.744"
     inkscape:cy="1945.1137"
     inkscape:window-x="-8"
     inkscape:window-y="-8"
     inkscape:window-maximized="1"
     inkscape:current-layer="layer1"
     inkscape:document-rotation="0"
     inkscape:snap-global="false"
     inkscape:pagecheckerboard="0"
     inkscape:lockguides="false" />
  <g
     inkscape:groupmode="layer"
     id="layer2"
     inkscape:label="artwork"
     sodipodi:insensitive="true">
    <image
       sodipodi:absref="D:\Projects\lang\gfx_Pepper-and-Carrot_by-David-Revoy_E35P10.png"
       xlink:href="../gfx_Pepper-and-Carrot_by-David-Revoy_E35P10.png"
       y="0"
       x="0"
       id="image10"
       height="3503"
       width="2481" />
  </g>
  <g
     inkscape:groupmode="layer"
     id="layer3"
     inkscape:label="speechbubbles">
    <path
       style="fill:#ffffff;stroke:none;stroke-width:0.953514"
       d="M 1261.291 157.25391 C 1207.7357 157.54489 1153.594 156.77924 1100.9434 168.07031 C 1079.0515 172.63737 1056.7703 178.05516 1037.541 189.92578 C 1014.7661 204.15435 995.86341 225.73768 987.83184 251.63897 C 981.27062 274.19125 985.39243 298.69085 995.30674 319.62389 C 1007.0019 345.58404 1028.2668 367.35364 1054.5756 378.52378 C 1081.5622 391.2018 1110.2419 399.83365 1139.1015 407.07235 C 1181.0204 416.67526 1224.2013 418.26528 1267.0361 419.0483 C 1318.7866 420.54802 1370.8139 423.45207 1422.3754 417.1585 C 1454.2487 413.43906 1486.0071 408.45644 1517.3258 401.42549 C 1548.668 394.18699 1579.903 383.56425 1606.2534 364.65158 C 1618.3453 356.29101 1627.4265 344.1997 1633.6247 330.98008 C 1637.8988 321.88336 1640.9749 312.28247 1643.9727 302.70807 C 1649.4597 283.9668 1651.0927 263.63441 1645.5571 244.70093 C 1638.5385 219.47018 1619.7506 197.97675 1595.9061 187.24726 C 1571.7096 175.34708 1544.9375 170.37134 1518.594 165.73016 C 1480.2608 159.64674 1441.3661 158.84703 1402.6436 157.82525 C 1356.0424 157.11629 1309.4336 157.28069 1262.8288 157.24308 C 1262.3162 157.24669 1261.8036 157.2503 1261.291 157.25391 z "
       id="path3100-98"
       inkscape:connector-curvature="0"
       sodipodi:nodetypes="zsssssz" />
    <path
       style="color:#000000;display:inline;overflow:visible;visibility:visible;fill:#ffffff;fill-opacity:1;fill-rule:nonzero;stroke:none;stroke-width:0.83737px;marker:none;enable-background:accumulate"
       d="m 1448.7795,517.63055 c 2.403,-24.32977 -9.2766,-33.6163 -20.6628,-38.28253 -11.3869,-4.66626 -19.0826,-5.58729 -28.1978,-26.0826 -9.1142,-20.49521 -0.7357,-41.29642 -4.8853,-52.46499 -11.4569,-16.24953 -34.9307,-26.06627 -44.5289,-30.51513 -21.6856,-10.05119 11.3091,-23.29909 11.3091,-23.29909 8.77,-0.30545 47.7455,23.68713 57.7575,33.72157 14.4084,14.44054 -4.0636,48.20741 4.0399,65.52593 7.5675,16.17219 18.2749,17.40774 23.9472,28.63593 5.6729,11.22843 4.8219,31.66667 1.2211,42.76091 z"
       id="path4538-8"
       inkscape:connector-curvature="0"
       sodipodi:nodetypes="csscscsssc" />
    <path
       style="color:#000000;display:inline;overflow:visible;visibility:visible;fill:#ffffff;fill-opacity:1;fill-rule:nonzero;stroke:none;stroke-width:1.23527px;marker:none;enable-background:accumulate"
       d="m 117.2337,1521.6618 c 4.20401,-52.835 4.80749,-103.8757 60.41413,-134.3848 55.6065,-30.5077 153.57025,-38.1731 276.61935,-29.2988 65.91165,4.7531 148.94331,11.1057 201.5027,33.0647 52.5594,21.9591 74.64665,59.5245 69.25305,136.9162 -5.39362,77.3916 -34.5,110.9507 -95.21528,130.2669 -60.71519,19.3177 -153.03952,24.3928 -175.27108,26.3926 -22.23154,1.9996 -91.18399,-0.5587 -159.59486,-10.1499 -68.41075,-9.5912 -115.20346,-16.2888 -135.26861,-42.4256 -31.4554,-33.1568 -44.35228,-71.9148 -42.4394,-110.3813 z"
       id="path4546-6-2-0"
       inkscape:connector-curvature="0"
       sodipodi:nodetypes="cssssssscc" />
    <path
       style="fill:#ffffff;fill-rule:evenodd;stroke:none;stroke-width:1.12465px;stroke-linecap:butt;stroke-linejoin:miter;stroke-opacity:1"
       d="m 566.83527,1651.6586 c 4.43847,-15.3188 61.8645,41.4938 43.56991,104.2767 2.42387,27.4208 22.18027,42.2423 21.12076,57.0045 -1.05963,24.2524 -9.53608,35.8508 -36.02508,55.8848 33.90594,-15.8168 54.23301,-33.7608 55.29264,-58.0121 1.05951,-24.2524 -17.71625,-25.1329 -17.14842,-60.0829 1.05952,-10.5449 25.79381,-65.3353 -26.69151,-120.7385 19.07205,-20.0341 -40.1183,21.6675 -40.1183,21.6675 z"
       id="path1303"
       inkscape:connector-curvature="0"
       sodipodi:nodetypes="cccccccc" />
    <path
       style="color:#000000;display:inline;overflow:visible;visibility:visible;fill:#ffffff;fill-opacity:1;fill-rule:nonzero;stroke:none;stroke-width:0.862307px;marker:none;enable-background:accumulate"
       d="m 1260.5676,1541.8038 c 2.7689,-39.089 3.1665,-76.8503 39.7931,-99.422 36.6262,-22.5704 101.1522,-28.2416 182.2009,-21.6761 43.4143,3.5164 98.1047,8.2164 132.7242,24.4623 34.6193,16.2459 49.1674,44.038 45.6148,101.2947 -3.5524,57.2567 -22.724,82.0847 -62.7153,96.3754 -39.9915,14.2919 -100.8028,18.0466 -115.446,19.5261 -14.6433,1.4794 -60.0605,-0.4134 -105.1207,-7.5093 -45.0603,-7.0957 -75.8812,-12.0508 -89.0974,-31.3876 -20.7187,-24.5304 -29.2137,-53.2048 -27.9536,-81.6635 z"
       id="path4546-6-2-0-3"
       inkscape:connector-curvature="0"
       sodipodi:nodetypes="cssssssscc" />
    <path
       style="color:#000000;display:inline;overflow:visible;visibility:visible;fill:#ffffff;fill-opacity:1;fill-rule:nonzero;stroke:none;stroke-width:0.925203px;marker:none;enable-background:accumulate"
       d="m 1290.1899,1759.375 c 3.0279,-41.1512 3.4625,-80.9047 43.514,-104.6672 40.0512,-23.7613 110.6109,-29.7316 199.2381,-22.8197 47.4738,3.702 107.2782,8.6498 145.1349,25.7529 37.8565,17.1029 53.7651,46.3614 49.8803,106.6388 -3.8848,60.2772 -24.8491,86.415 -68.5799,101.4599 -43.7307,15.0458 -110.2286,18.9986 -126.2412,20.556 -16.0124,1.5576 -65.6765,-0.4349 -114.95,-7.9053 -49.2736,-7.4703 -82.9765,-12.6866 -97.4288,-33.0436 -22.6561,-25.8245 -31.9452,-56.0116 -30.5674,-85.9718 z"
       id="path4546-6-2-0-3-6"
       inkscape:connector-curvature="0"
       sodipodi:nodetypes="cssssssscc" />
    <path
       style="color:#000000;display:inline;overflow:visible;visibility:visible;fill:#ffffff;fill-opacity:1;fill-rule:nonzero;stroke:none;stroke-width:1.47843px;marker:none;enable-background:accumulate"
       d="m 1474.8245,1844.8292 c 6.1533,73.3287 -47.1663,130.4434 -118.01,146.3855 114.7363,-9.2052 166.2605,-106.0374 160.9588,-137.1332 -5.191,-30.4467 -42.9488,-9.2523 -42.9488,-9.2523 z"
       id="path5010-4"
       inkscape:connector-curvature="0"
       sodipodi:nodetypes="ccsc" />
  </g>
  <g
     inkscape:groupmode="layer"
     id="layer1"
     inkscape:label="txt">
    <text
       xml:space="preserve"
       style="font-style:normal;font-variant:normal;font-weight:normal;font-stretch:normal;font-size:45px;line-height:1.25;font-family:Lavi;-inkscape-font-specification:Lavi;text-align:center;letter-spacing:0px;word-spacing:0px;text-anchor:middle;fill:#000000;fill-opacity:1;stroke:none"
       x="1325.0667"
       y="244.98175"
       id="text4246-3-2-2"><tspan
         style="font-size:45px"
         sodipodi:role="line"
         x="1325.0667"
         y="244.98175"
         id="tspan20039">Kau tahu menyerah</tspan><tspan
         style="font-size:45px"
         sodipodi:role="line"
         x="1325.0667"
         y="301.23175"
         id="tspan41">pada Master Wasabi takkan</tspan><tspan
         style="font-size:45px"
         sodipodi:role="line"
         x="1325.0667"
         y="357.48175"
         id="tspan43">berakhir baik buatmu?</tspan><tspan
         style="font-size:45px"
         sodipodi:role="line"
         x="1325.0667"
         y="413.73175"
         id="tspan39" /></text>
    <text
       xml:space="preserve"
       style="font-style:normal;font-variant:normal;font-weight:normal;font-stretch:normal;font-size:45px;line-height:1.25;font-family:Lavi;-inkscape-font-specification:Lavi;text-align:center;letter-spacing:0px;word-spacing:0px;text-anchor:middle;fill:#000000;fill-opacity:1;stroke:none"
       x="417.41315"
       y="1452.8612"
       id="text4246-3-2-2-3"><tspan
         style="font-size:45px"
         sodipodi:role="line"
         x="417.41315"
         y="1452.8612"
         id="tspan892">Aku tahu, tapi aku</tspan><tspan
         style="font-size:45px"
         sodipodi:role="line"
         x="417.41315"
         y="1509.1112"
         id="tspan65">masih merasa ada cara</tspan><tspan
         style="font-size:45px"
         sodipodi:role="line"
         x="417.41315"
         y="1565.3612"
         id="tspan75">untuk membujuknya - untuk</tspan><tspan
         style="font-size:45px"
         sodipodi:role="line"
         x="417.41315"
         y="1621.6112"
         id="tspan79">membuatnya mengerti.</tspan><tspan
         style="font-size:45px"
         sodipodi:role="line"
         x="417.41315"
         y="1677.8612"
         id="tspan63" /></text>
    <text
       xml:space="preserve"
       style="font-style:normal;font-variant:normal;font-weight:normal;font-stretch:normal;font-size:45px;line-height:1.25;font-family:Lavi;-inkscape-font-specification:Lavi;text-align:center;letter-spacing:0px;word-spacing:0px;text-anchor:middle;fill:#000000;fill-opacity:1;stroke:none"
       x="1460.6498"
       y="1490.1573"
       id="text4246-3-2-2-3-3"><tspan
         style="font-size:45px"
         sodipodi:role="line"
         x="1460.6498"
         y="1490.1573"
         id="tspan896">Lagipula, tak</tspan><tspan
         style="font-size:45px"
         sodipodi:role="line"
         x="1460.6498"
         y="1546.4073"
         id="tspan88">ada yang tak</tspan><tspan
         style="font-size:45px"
         sodipodi:role="line"
         x="1460.6498"
         y="1602.6573"
         id="tspan90">bisa diperbaiki.</tspan></text>
    <text
       xml:space="preserve"
       style="font-style:normal;font-variant:normal;font-weight:normal;font-stretch:normal;font-size:45px;line-height:1.25;font-family:Lavi;-inkscape-font-specification:Lavi;text-align:center;letter-spacing:0px;word-spacing:0px;text-anchor:middle;fill:#000000;fill-opacity:1;stroke:none"
       x="1510.4325"
       y="1725.9688"
       id="text4246-3-2-2-3-3-1"><tspan
         style="font-size:45px"
         sodipodi:role="line"
         x="1510.4325"
         y="1725.9688"
         id="tspan913">Aku memahaminya</tspan><tspan
         style="font-size:45px"
         sodipodi:role="line"
         x="1510.4325"
         y="1782.2188"
         id="tspan103">dari seorang</tspan><tspan
         style="font-size:45px"
         sodipodi:role="line"
         x="1510.4325"
         y="1838.4688"
         id="tspan105">teman lama.</tspan></text>
  </g>
</svg>
