<?xml version="1.0" encoding="UTF-8" standalone="no"?>
<svg
   xmlns:dc="http://purl.org/dc/elements/1.1/"
   xmlns:cc="http://creativecommons.org/ns#"
   xmlns:rdf="http://www.w3.org/1999/02/22-rdf-syntax-ns#"
   xmlns:svg="http://www.w3.org/2000/svg"
   xmlns="http://www.w3.org/2000/svg"
   xmlns:xlink="http://www.w3.org/1999/xlink"
   xmlns:sodipodi="http://sodipodi.sourceforge.net/DTD/sodipodi-0.dtd"
   xmlns:inkscape="http://www.inkscape.org/namespaces/inkscape"
   sodipodi:docname="E19P02.svg"
   height="3503"
   width="2481"
   inkscape:version="1.0 (4035a4fb49, 2020-05-01)"
   version="1.1"
   id="svg2">
  <sodipodi:namedview
     inkscape:document-rotation="0"
     inkscape:window-maximized="0"
     inkscape:window-y="0"
     inkscape:window-x="0"
     inkscape:current-layer="layer3"
     inkscape:cy="1011.4517"
     inkscape:cx="1350.5308"
     inkscape:zoom="0.4"
     showgrid="false"
     id="namedview70"
     inkscape:window-height="955"
     inkscape:window-width="1333"
     inkscape:pageshadow="2"
     inkscape:pageopacity="0"
     bordercolor="#666666"
     pagecolor="#ffffff" />
  <metadata
     id="metadata8">
    <rdf:RDF>
      <cc:Work
         rdf:about="">
        <dc:format>image/svg+xml</dc:format>
        <dc:type
           rdf:resource="http://purl.org/dc/dcmitype/StillImage" />
        <dc:title />
      </cc:Work>
    </rdf:RDF>
  </metadata>
  <defs
     id="defs6">
    <filter
       height="1.0558571"
       y="-0.027928527"
       width="1.0178171"
       x="-0.0089085409"
       id="filter5236-4-16-3"
       style="color-interpolation-filters:sRGB"
       inkscape:collect="always">
      <feGaussianBlur
         id="feGaussianBlur5238-0-4-6"
         stdDeviation="0.49168068"
         inkscape:collect="always" />
    </filter>
    <filter
       height="1.0558571"
       y="-0.027928527"
       width="1.0178171"
       x="-0.0089085409"
       id="filter5236-4-16"
       style="color-interpolation-filters:sRGB"
       inkscape:collect="always">
      <feGaussianBlur
         id="feGaussianBlur5238-0-4"
         stdDeviation="0.49168068"
         inkscape:collect="always" />
    </filter>
  </defs>
  <sodipodi:namedview
     inkscape:current-layer="layer1"
     inkscape:window-maximized="1"
     inkscape:window-y="26"
     inkscape:window-x="0"
     inkscape:cy="997.33668"
     inkscape:cx="1121.6917"
     inkscape:zoom="0.4224276"
     showgrid="false"
     id="namedview4"
     inkscape:window-height="1025"
     inkscape:window-width="1920"
     inkscape:pageshadow="2"
     inkscape:pageopacity="0"
     guidetolerance="10"
     gridtolerance="10"
     objecttolerance="10"
     borderopacity="1"
     bordercolor="#666666"
     pagecolor="#ffffff" />
  <g
     sodipodi:insensitive="true"
     inkscape:label="artwork"
     id="layer2"
     inkscape:groupmode="layer">
    <image
       sodipodi:absref="C:\Users\stero\Documents\Kernewek\Pepper and Carrot\webcomics\ep19_Pollution\lang\gfx_Pepper-and-Carrot_by-David-Revoy_E19P02.png"
       xlink:href="../gfx_Pepper-and-Carrot_by-David-Revoy_E19P02.png"
       y="0"
       x="0"
       id="image10"
       height="3503"
       width="2481" />
  </g>
  <g
     sodipodi:insensitive="true"
     inkscape:label="translatornotes"
     id="layer4"
     inkscape:groupmode="layer">
    <path
       style="color:#000000;clip-rule:nonzero;display:inline;overflow:visible;visibility:visible;opacity:0.481;isolation:auto;mix-blend-mode:normal;color-interpolation:sRGB;color-interpolation-filters:linearRGB;solid-color:#000000;solid-opacity:1;fill:#ffe680;fill-opacity:1;fill-rule:nonzero;stroke:#565656;stroke-width:1.20000005;stroke-linecap:butt;stroke-linejoin:miter;stroke-miterlimit:4;stroke-dasharray:none;stroke-dashoffset:0;stroke-opacity:1;marker:none;color-rendering:auto;image-rendering:auto;shape-rendering:auto;text-rendering:auto;enable-background:accumulate"
       d="m 2763.8482,1498.4924 0,-189.0352 -203.8301,0 0,90.9805 -10,0 0,-15.6308 -30.9824,26.9824 30.9824,26.9804 0,-16.6171 10,0 0,76.3398 203.8301,0 z"
       id="path3446"
       inkscape:connector-curvature="0" />
    <flowRoot
       xml:space="preserve"
       id="flowRoot3448"
       style="font-style:normal;font-variant:normal;font-weight:normal;font-stretch:normal;line-height:0.01%;font-family:Lavi;-inkscape-font-specification:'Lavi, Normal';text-align:center;letter-spacing:0px;word-spacing:0px;writing-mode:lr-tb;text-anchor:middle;display:inline;opacity:0.481;fill:#000000;fill-opacity:1;stroke:none;stroke-width:1px;stroke-linecap:butt;stroke-linejoin:miter;stroke-opacity:1"
       transform="translate(2793.4167,295.2096)"><flowRegion
         id="flowRegion3450"><rect
           id="rect3452"
           width="291.95547"
           height="247.52747"
           x="-275.14545"
           y="1061.6674" /></flowRegion><flowPara
         style="font-size:25.3242px;line-height:1.25"
         id="flowPara3473">labels</flowPara><flowPara
         style="font-size:25.3242px;line-height:1.25"
         id="flowPara4255">in the </flowPara><flowPara
         style="font-size:25.3242px;line-height:1.25"
         id="flowPara4257">garden :-)</flowPara></flowRoot>
  </g>
  <g
     style="display:inline"
     inkscape:label="speechbubbles"
     id="layer3"
     inkscape:groupmode="layer">
    <path
       sodipodi:nodetypes="zssssz"
       inkscape:connector-curvature="0"
       id="path4040-4"
       d="m 1019.1659,204.52874 c 25.0886,-33.27491 264.5733,-52.28964 340.2501,1.14813 63.1663,44.60374 70.948,141.48874 24.0214,167.96102 -46.9266,26.47238 -232.3927,27.59731 -307.7429,16.62641 -71.7438,-10.44584 -80.12926,-37.67302 -93.09598,-105.67133 -5.29234,-27.75276 11.47836,-46.78923 36.56738,-80.06423 z"
       style="color:#000000;display:inline;overflow:visible;visibility:visible;fill:#ffffff;fill-opacity:1;fill-rule:nonzero;stroke:none;stroke-width:1.03343761px;marker:none;enable-background:accumulate" />
    <path
       sodipodi:nodetypes="cssssc"
       inkscape:connector-curvature="0"
       id="path4546-6"
       d="m 1196.131,471.60657 c 7.8204,-79.99361 85.9799,-136.92767 286.0501,-117.45099 107.1681,10.43269 228.9329,18.40618 218.7218,135.61853 -10.2111,117.21223 -185.3151,110.3469 -221.529,112.29768 -36.2139,1.9509 -224.3142,-14.49623 -256.4812,-55.15064 -20.1362,-25.44858 -27.8303,-50.5104 -26.7617,-75.31458 z"
       style="color:#000000;display:inline;overflow:visible;visibility:visible;fill:#ffffff;fill-opacity:1;fill-rule:nonzero;stroke:none;stroke-width:1.06521785px;marker:none;enable-background:accumulate" />
    <path
       sodipodi:nodetypes="zsssssz"
       inkscape:connector-curvature="0"
       id="path3330"
       d="m 1401.7728,579.3583 c 45.6653,-62.44267 284.932,-49.0658 369.6595,-35.02423 125.7871,20.84619 120.4133,78.60969 124.2572,95.14219 3.8434,16.53237 -5.7656,93.18269 -48.0465,108.2123 -42.2808,15.02945 -163.3576,22.54416 -205.6383,22.54416 -42.2808,0 -177.2504,-9.56619 -211.4043,-31.56196 -32.6716,-21.04126 -74.4932,-96.86992 -28.8276,-159.31246 z"
       style="color:#000000;display:inline;overflow:visible;visibility:visible;fill:#ffffff;fill-opacity:1;fill-rule:nonzero;stroke:none;stroke-width:1.00338793px;marker:none;enable-background:accumulate" />
    <path
       sodipodi:nodetypes="cscsssssscssssccscccc"
       inkscape:connector-curvature="0"
       id="path5058"
       d="m 1537.5273,696.39507 c -4.748,19.68499 -0.6503,33.38997 2.5742,37.35036 3.2245,3.96027 2.3513,12.12365 5.2378,17.57337 2.3614,4.51862 3.5729,10.81257 -0.8434,12.64306 -4.4163,1.83058 -29.4289,3.69855 -33.6755,16.66121 -4.2467,12.96272 3.9771,24.00648 14.1454,30.32451 10.1684,6.31815 24.4145,10.44127 22.2717,20.40102 -2.1427,9.95976 -9.8422,13.23017 -15.8741,13.66024 -6.0318,0.43007 -42.6593,-1.86158 -51.9545,1.56498 -9.295,3.4266 -34.8875,18.35716 -31.0179,31.36521 11.9004,-13.15184 18.3151,-19.01847 27.1348,-20.36055 8.8198,-1.34212 24.7212,-5.09072 34.6744,-1.78852 9.9534,3.30225 30.2251,7.01956 38.1327,2.88942 7.9077,-4.13 22.6869,-13.91278 22.9796,-24.81049 0.2928,-10.89767 -5.2053,-22.98724 -21.3925,-31.19418 -10.1682,-6.31811 -14.5522,-10.2849 -13.6078,-13.29434 0.9444,-3.00939 11.8681,-7.35452 23.4562,-6.13032 11.5882,1.22424 17.0469,-9.49086 18.0108,-15.97871 0.9638,-6.48781 -2.7884,-15.67273 -3.2186,-21.7046 -0.4301,-6.03183 -6.7045,-40.19004 -6.7045,-40.19004 z"
       style="color:#000000;display:inline;overflow:visible;visibility:visible;fill:#ffffff;fill-opacity:1;fill-rule:nonzero;stroke:none;stroke-width:1px;marker:none;enable-background:accumulate" />
    <path
       sodipodi:nodetypes="cssssssc"
       inkscape:connector-curvature="0"
       id="path4546-6-3"
       d="m 1328.7151,1855.4865 c 8.1194,-76.1087 52.651,-103.6108 150.5451,-107.6021 48.6041,-1.9818 224.6412,-8.8538 295.9987,4.9161 71.3573,13.7699 132.439,55.9431 127.026,111.7126 -5.4128,55.7694 -11.8153,98.9678 -89.7451,114.7543 -77.9299,15.7864 -227.3866,4.1609 -242.9491,4.8171 -31.1242,1.3122 -192.3222,-17.2 -219.2239,-56.4257 -16.8397,-24.5542 -23.0049,-48.5521 -21.6517,-72.1723 z"
       style="color:#000000;display:inline;overflow:visible;visibility:visible;fill:#ffffff;fill-opacity:1;fill-rule:nonzero;stroke:none;stroke-width:1.14266229px;marker:none;enable-background:accumulate" />
    <path
       sodipodi:nodetypes="csssssc"
       inkscape:connector-curvature="0"
       id="path3365"
       d="m 1675.3085,1983.0096 c -3.4637,-13.9006 34.5129,-72.4119 245.8009,-63.1448 211.288,9.2671 233.3566,20.9339 242.9974,70.8244 3.5631,18.4386 -29.3172,45.3021 -60.4909,49.9356 -31.1736,4.6335 -122.3198,17.7137 -174.2758,14.007 -51.9561,-3.7069 -128.6505,-2.8275 -205.0935,-22.2636 -46.1376,-11.7307 -45.4743,-45.6518 -48.9381,-49.3586 z"
       style="color:#000000;display:inline;overflow:visible;visibility:visible;fill:#ffffff;fill-opacity:1;fill-rule:nonzero;stroke:none;stroke-width:1.25778008px;marker:none;enable-background:accumulate" />
    <path
       sodipodi:nodetypes="cssssc"
       inkscape:connector-curvature="0"
       id="path3238"
       d="m 1612.3754,2187.7137 c -14.0681,-133.8563 86.1098,-180.2891 352.9142,-180.0992 266.8045,0.1898 374.7611,38.2967 385.9718,117.9936 25.0679,178.2095 -138.6932,222.657 -226.4571,233.7187 -175.3053,22.0956 -428.6515,-19.4803 -464.4476,-56.8035 -35.7959,-37.3233 -44.8928,-79.8114 -47.9813,-114.8096 z"
       style="fill:#ffffff;fill-opacity:1;stroke:none;stroke-width:1.15012" />
    <path
       sodipodi:nodetypes="ccscc"
       inkscape:connector-curvature="0"
       id="path4440"
       d="m 1627.8278,2181.1508 c -30.6436,18.0317 -91.823,33.4189 -171.3605,13.7416 76.0815,12.0567 119.8575,-2.716 145.0149,-20.7749 21.7184,-15.5903 33.4899,-22.3602 33.4899,-22.3602 z"
       style="color:#000000;display:inline;overflow:visible;visibility:visible;fill:#ffffff;fill-opacity:1;fill-rule:nonzero;stroke:none;stroke-width:0.67505163px;marker:none;enable-background:accumulate" />
    <path
       sodipodi:nodetypes="cccccccccccccccccccccccccccccc"
       inkscape:connector-curvature="0"
       id="path3557"
       d="m 99.104281,2756.9074 c 29.066219,-10.9597 42.842989,-18.5558 0.507735,-34.3247 8.692374,-0.1198 57.200564,-2.1442 10.822174,-32.9366 15.29064,3.9749 39.74219,14.5291 12.21817,-36.5871 16.54948,8.1494 39.50498,34.2072 19.36877,-14.0742 21.80605,16.3179 50.53492,6.0013 44.6539,-2.5708 17.5496,10.4052 52.01511,9.5448 49.06283,0.7154 12.90298,9.6323 47.85751,12.4562 45.11443,-3.6881 10.72127,11.0973 43.9948,9.9541 40.73285,0.5253 28.10967,11.2241 68.74784,18.1422 84.10636,2.4934 13.11432,14.8098 74.11643,10.3376 125.27927,0.2295 0.80143,10.4538 57.74593,12.2889 104.15528,-4.7288 0.70241,15.8808 17.4497,21.2619 37.91444,9.5749 7.30803,6.5186 5.35754,10.3103 34.07654,-5.1216 -1.37105,10.6121 3.74081,20.4024 23.75026,10.2432 3.48569,6.5649 -9.26985,23.5801 41.30504,-1.2805 0.33433,9.2802 -11.53731,27.5037 32.01129,5.1216 -35.3275,55.1372 -15.74766,49.2359 8.26093,38.4113 -18.69349,32.5259 -42.80372,72.8685 4.70359,71.3855 -37.19866,7.514 -36.54836,18.687 -31.55174,36.1663 -46.62198,-35.1981 -52.09987,-8.4487 -72.28369,-3.8411 -21.30788,-5.8556 -40.93784,-27.3135 -66.08774,2.5608 -38.52838,-12.2937 -46.16706,-1.0176 -58.8596,6.402 -67.31205,-23.5924 -65.72203,-4.468 -96.03405,-5.1217 -17.92161,-29.1834 -58.36425,-7.1717 -87.77304,-10.2429 -37.17433,-23.9307 -92.49135,-2.9536 -121.43074,6.2711 14.14421,-14.9487 -20.68713,-28.2936 -53.81198,4.1237 16.44912,-27.3926 -10.539,-36.628 -60.92477,-1.3493 23.67758,-32.458 -9.06873,-27.285 -45.73843,-6.4848 35.8887,-31.5409 -2.03527,-34.2446 -23.548079,-31.8718 z"
       style="color:#000000;display:inline;overflow:visible;visibility:visible;fill:#ffffff;fill-opacity:1;fill-rule:nonzero;stroke:none;stroke-width:1.05262399px;marker:none;enable-background:accumulate" />
    <path
       sodipodi:nodetypes="cssssc"
       inkscape:connector-curvature="0"
       id="path4546"
       d="m 271.05954,2839.5634 c 8.43841,-73.3533 93.40373,-126.6439 311.0341,-111.7966 116.57455,7.953 249.02327,13.4367 238.01599,120.9006 -11.00741,107.4636 -201.47202,103.79 -240.8598,106.116 -39.38777,2.3262 -243.99617,-9.926 -279.01838,-46.6664 -21.9231,-22.9987 -30.3132,-45.8287 -29.17191,-68.5536 z"
       style="color:#000000;display:inline;overflow:visible;visibility:visible;fill:#ffffff;fill-opacity:1;fill-rule:nonzero;stroke:none;stroke-width:1px;marker:none;enable-background:accumulate" />
    <path
       sodipodi:nodetypes="cccccccccccc"
       inkscape:connector-curvature="0"
       id="path4032-6"
       d="m 990.3039,2942.0433 c -39.7219,-30.7338 -84.6659,-56.332 -118.3207,-93.0329 l 9.2071,41.4633 c -19.1495,-7.3977 -31.9655,-24.339 -46.9322,-38.0398 l 1.0996,26.2988 c -44.9905,-17.9715 -75.7521,-49.3371 -113.3909,-74.2288 l 5.8989,45.8738 c 41.0512,21.0955 84.9859,35.8216 122.7937,64.0815 l 1.7812,-25.6614 c 14.445,8.0961 28.5921,16.7337 41.4085,27.7896 l -0.8973,-32.5393 z"
       style="color:#000000;display:inline;overflow:visible;visibility:visible;fill:#ffffff;fill-opacity:1;fill-rule:nonzero;stroke:none;stroke-width:1px;marker:none;enable-background:accumulate" />
    <path
       inkscape:connector-curvature="0"
       id="path3278"
       d="m 1699.0804,2780.0225 c 7.0258,-65.4196 49.4008,-92.0254 68.6286,-100.7084 19.2276,-8.683 99.9468,-19.8215 152.6746,-17.9044 52.7279,1.9171 183.4386,11.3605 205.4209,14.5055 21.9823,3.1448 80.6264,52.1876 79.9972,94.3847 -0.6288,42.1968 -12.3874,69.9156 -44.4274,94.5516 -32.0402,24.6362 -223.1884,29.4139 -234.9651,26.6401 -11.7772,-2.7738 -169.0549,-24.9109 -178.8721,-32.3045 -9.817,-7.3935 -49.6032,-27.6044 -48.4567,-79.1646 z"
       style="fill:#ffffff;stroke:none;stroke-width:1.2268852" />
    <path
       sodipodi:nodetypes="zssssz"
       inkscape:connector-curvature="0"
       id="path4040"
       d="m 1737.6567,2884.441 c 41.1479,-46.9028 388.4817,-97.8131 510.5571,-1.1561 122.0752,96.657 48.0296,212.6455 -22.0138,249.5509 -70.0431,36.9054 -276.1703,77.3256 -370.2283,45.6924 -94.058,-31.6332 -167.3234,-78.9187 -172.1063,-175.74 -1.9521,-39.5167 12.6435,-71.4441 53.7913,-118.3472 z"
       style="color:#000000;display:inline;overflow:visible;visibility:visible;fill:#ffffff;fill-opacity:1;fill-rule:nonzero;stroke:none;stroke-width:1.01252px;marker:none;enable-background:accumulate" />
    <path
       sodipodi:nodetypes="cccccccccccccccccccccccccccc"
       inkscape:connector-curvature="0"
       id="path4508"
       d="m 1889.5795,3122.771 c 48.1261,28.5286 75.5394,16.9272 74.7133,-49.3868 22.9607,71.6603 38.8942,87.6873 48.344,52.3799 30.3984,30.3481 49.3847,21.8353 64.4586,0 5.6184,28.0816 17.6672,16.7498 28.0947,15.3549 3.4344,6.3532 -8.3613,22.1376 39.2938,1.1073 3.0868,8.4093 7.2451,15.651 35.1591,-2.9931 7.2317,34.1321 30.4341,-1.8917 54.204,-40.4074 -14.8094,47.3518 -8.6685,54.0398 10.2547,35.9176 -8.6516,19.4998 -13.8261,34.5948 19.0445,1.4966 -11.2532,35.9927 18.2696,11.2875 65.9236,-40.4072 -23.8372,38.2124 -87.0482,102.6164 -45.4139,97.2767 -5.8062,11.2651 -26.5164,21.0802 35.1591,38.9107 -11.514,7.6442 -46.6658,-3.5263 -17.3429,28.8398 3.9288,3.7834 -9.2235,6.0937 15.878,16.0571 -14.8178,-0.6778 -23.9051,1.7436 -10.2549,16.4623 -27.0478,-0.7959 -16.9276,14.6808 2.93,34.4209 -39.169,-25.3209 -41.3245,-16.1182 -42.4842,-5.9862 -49.0902,-34.521 -51.9717,-23.6523 -58.5985,-16.4623 -23.9278,0.2694 -47.8557,-4.0779 -71.7836,34.421 -6.2663,-23.9452 -18.8296,-42.3768 -71.7833,-25.4415 23.2507,-30.4626 -9.8264,-11.0548 -35.1593,1.4965 13.8728,-38.0554 -21.3342,-13.0797 -65.9235,23.945 24.9698,-42.0237 -3.39,-26.8437 -45.4141,2.9932 15.8781,-41.2842 -9.9807,-61.2497 -71.7833,-62.8558 29.5806,-14.8917 46.8304,-33.6324 16.1147,-67.3454 34.6253,9.9269 44.9535,0.7062 20.5095,-35.9176 37.767,30.0605 20.5958,-13.5407 5.8599,-53.8762 z"
       style="display:inline;fill:#ffffff;fill-rule:evenodd;stroke:none;stroke-width:1px;stroke-linecap:butt;stroke-linejoin:miter;stroke-opacity:1" />
    <path
       sodipodi:nodetypes="cccccccccccc"
       inkscape:connector-curvature="0"
       id="path4032"
       d="m 1490.4164,2866.2226 c 36.6716,-30.7338 78.1642,-56.332 109.2346,-93.0329 l -8.5001,41.4633 c 17.679,-7.3977 29.5108,-24.339 43.3282,-38.0398 l -1.0152,26.2988 c 41.5356,-17.9715 69.9349,-49.3371 104.6834,-74.2288 l -5.4459,45.8738 c -37.8988,21.0955 -78.4597,35.8216 -113.3641,64.0815 l -1.6444,-25.6614 c -13.3358,8.0961 -26.3965,16.7337 -38.2287,27.7896 l 0.8284,-32.5393 z"
       style="color:#000000;display:inline;overflow:visible;visibility:visible;fill:#ffffff;fill-opacity:1;fill-rule:nonzero;stroke:none;stroke-width:1px;marker:none;enable-background:accumulate" />
  </g>
  <g
     inkscape:label="txt"
     id="layer1"
     inkscape:groupmode="layer">
    <text
       id="text4246"
       y="229.16325"
       x="1194.6492"
       style="font-style:normal;font-variant:normal;font-weight:normal;font-stretch:normal;line-height:0%;font-family:Lavi;-inkscape-font-specification:Lavi;text-align:center;letter-spacing:0px;word-spacing:0px;text-anchor:middle;fill:#000000;fill-opacity:1;stroke:none"
       xml:space="preserve"><tspan
         id="tspan4252"
         y="229.16325"
         x="1194.6492"
         style="font-size:45px;line-height:1.25"
         sodipodi:role="line">Umm...</tspan></text>
    <text
       id="text4246-3"
       y="297.91959"
       x="1213.9131"
       style="font-style:normal;font-variant:normal;font-weight:normal;font-stretch:normal;line-height:0%;font-family:Lavi;-inkscape-font-specification:Lavi;text-align:center;letter-spacing:0px;word-spacing:0px;text-anchor:middle;fill:#000000;fill-opacity:1;stroke:none"
       xml:space="preserve"><tspan
         id="tspan3831"
         y="297.91959"
         x="1213.9131"
         style="font-size:45px;line-height:1.25"
         sodipodi:role="line">Well, heb dhout</tspan><tspan
         id="tspan98"
         y="354.16959"
         x="1213.9131"
         style="font-size:45px;line-height:1.25"
         sodipodi:role="line">nyns ov konyges...</tspan></text>
    <text
       id="text4246-3-7"
       y="455.09341"
       x="1447.9285"
       style="font-style:normal;font-variant:normal;font-weight:normal;font-stretch:normal;line-height:0%;font-family:Lavi;-inkscape-font-specification:Lavi;text-align:center;letter-spacing:0px;word-spacing:0px;text-anchor:middle;fill:#000000;fill-opacity:1;stroke:none"
       xml:space="preserve"><tspan
         id="tspan3840"
         y="455.09341"
         x="1454.9597"
         style="font-size:45px;line-height:1.25"
         sodipodi:role="line">Mes an splatt losow </tspan><tspan
         id="tspan111"
         y="511.34341"
         x="1447.9285"
         style="font-size:45px;line-height:1.25"
         sodipodi:role="line">yw fest koynt hevleni</tspan></text>
    <text
       id="text4246-3-7-6"
       y="619.19336"
       x="1637.3901"
       style="font-style:normal;font-variant:normal;font-weight:normal;font-stretch:normal;line-height:0%;font-family:Lavi;-inkscape-font-specification:Lavi;text-align:center;letter-spacing:0px;word-spacing:0px;text-anchor:middle;fill:#000000;fill-opacity:1;stroke:none"
       xml:space="preserve"><tspan
         id="tspan3849"
         y="619.19336"
         x="1637.3901"
         style="font-size:45px;line-height:1.25"
         sodipodi:role="line">ha lies plans aral </tspan><tspan
         id="tspan120"
         y="675.44336"
         x="1637.3901"
         style="font-size:45px;line-height:1.25"
         sodipodi:role="line">a-dro dhe'n chi </tspan><tspan
         id="tspan122"
         y="731.69336"
         x="1637.3901"
         style="font-size:45px;line-height:1.25"
         sodipodi:role="line">yw an keth.</tspan></text>
    <text
       transform="matrix(0.6851492,-0.06612027,-0.09994133,0.78144216,151.5816,-985.35698)"
       x="1318.7137"
       y="3129.8394"
       xml:space="preserve"
       style="font-style:normal;font-variant:normal;font-weight:normal;font-stretch:normal;line-height:0%;font-family:Lavi;-inkscape-font-specification:Lavi;text-align:center;letter-spacing:0px;word-spacing:0px;text-anchor:middle;opacity:0.633;fill:#ffffff;fill-opacity:1;stroke:none;filter:url(#filter5236-4-16)"
       id="text4178-6-5-9-0-7-0-4"><tspan
         id="tspan4293-1-6-3-5-0-2"
         sodipodi:role="line"
         style="font-style:normal;font-variant:normal;font-weight:normal;font-stretch:normal;font-size:40.6767px;line-height:1.25;font-family:Fondamento;-inkscape-font-specification:Fondamento;fill:#ffffff;fill-opacity:1"
         x="1318.7137"
         y="3129.8394">Avalow</tspan><tspan
         id="tspan94"
         sodipodi:role="line"
         style="font-style:normal;font-variant:normal;font-weight:normal;font-stretch:normal;font-size:40.6767px;line-height:1.25;font-family:Fondamento;-inkscape-font-specification:Fondamento;fill:#ffffff;fill-opacity:1"
         x="1318.7137"
         y="3180.6853">  Kerensa</tspan></text>
    <text
       transform="matrix(0.58543203,0.08325699,-0.38986142,0.70644422,2169.8616,-965.83592)"
       x="1318.7137"
       y="3129.8394"
       xml:space="preserve"
       style="font-style:normal;font-variant:normal;font-weight:normal;font-stretch:normal;line-height:0%;font-family:Lavi;-inkscape-font-specification:Lavi;text-align:center;letter-spacing:0px;word-spacing:0px;text-anchor:middle;opacity:0.633;fill:#ffffff;fill-opacity:1;stroke:none;filter:url(#filter5236-4-16-3)"
       id="text4178-6-5-9-0-7-0-4-7"><tspan
         id="tspan4293-1-6-3-5-0-2-5"
         sodipodi:role="line"
         style="font-style:normal;font-variant:normal;font-weight:normal;font-stretch:normal;font-size:40.6767px;line-height:1.25;font-family:Fondamento;-inkscape-font-specification:Fondamento;fill:#ffffff;fill-opacity:1"
         x="1318.7137"
         y="3129.8394">Plansow-Oy</tspan></text>
    <text
       id="text4246-3-2"
       y="1809.5331"
       x="1627.533"
       style="font-style:normal;font-variant:normal;font-weight:normal;font-stretch:normal;line-height:0%;font-family:Lavi;-inkscape-font-specification:Lavi;text-align:center;letter-spacing:0px;word-spacing:0px;text-anchor:middle;fill:#000000;fill-opacity:1;stroke:none"
       xml:space="preserve"><tspan
         id="tspan129"
         y="1809.5331"
         x="1627.533"
         style="font-size:45px;line-height:1.25"
         sodipodi:role="line">Ha'n moryon</tspan><tspan
         id="tspan95"
         y="1865.7831"
         x="1627.533"
         style="font-size:45px;line-height:1.25"
         sodipodi:role="line">ynwedh, ymons i</tspan><tspan
         id="tspan131"
         y="1922.0331"
         x="1627.533"
         style="font-size:45px;line-height:1.25"
         sodipodi:role="line">ow kul taklow gorgoynt.</tspan></text>
    <text
       id="text4246-3-2-9"
       y="2001.0601"
       x="1928.5547"
       style="font-style:normal;font-variant:normal;font-weight:normal;font-stretch:normal;line-height:0%;font-family:Lavi;-inkscape-font-specification:Lavi;text-align:center;letter-spacing:0px;word-spacing:0px;text-anchor:middle;fill:#000000;fill-opacity:1;stroke:none"
       xml:space="preserve"><tspan
         id="tspan4259-0"
         y="2001.0601"
         x="1928.5547"
         style="font-size:45px;line-height:1.25"
         sodipodi:role="line">Ytho, yn neb fordh...</tspan><tspan
         id="tspan133"
         y="2019.567"
         x="1928.5547"
         sodipodi:role="line" /></text>
    <text
       id="text4246-3-2-9-6"
       y="2099.1831"
       x="1985.186"
       style="font-style:normal;font-variant:normal;font-weight:normal;font-stretch:normal;line-height:0%;font-family:Lavi;-inkscape-font-specification:Lavi;text-align:center;letter-spacing:0px;word-spacing:0px;text-anchor:middle;fill:#000000;fill-opacity:1;stroke:none"
       xml:space="preserve"><tspan
         id="tspan3888"
         y="2099.1831"
         x="1985.186"
         style="font-size:45px;line-height:1.25"
         sodipodi:role="line">My a ombrederis</tspan><tspan
         id="tspan149"
         y="2155.4331"
         x="1985.186"
         style="font-size:45px;line-height:1.25"
         sodipodi:role="line">martesen y fo kaletter dhyn gans</tspan><tspan
         id="tspan151"
         y="2211.6831"
         x="1985.186"
         style="font-size:45px;line-height:1.25"
         sodipodi:role="line">defolyans hag y tegoodh dhyn</tspan><tspan
         id="tspan153"
         y="2267.9331"
         x="1985.186"
         style="font-size:45px;line-height:1.25"
         sodipodi:role="line">tybi a-dro dh'y lanhe temmik...</tspan></text>
    <text
       id="text4246-3-2-9-6-6"
       y="2692.5779"
       x="457.67166"
       style="font-style:normal;font-variant:normal;font-weight:normal;font-stretch:normal;line-height:0%;font-family:Lavi;-inkscape-font-specification:Lavi;text-align:center;letter-spacing:0px;word-spacing:0px;text-anchor:middle;fill:#000000;fill-opacity:1;stroke:none;stroke-width:2.8;stroke-miterlimit:4;stroke-dasharray:none"
       xml:space="preserve"><tspan
         id="tspan3892"
         y="2692.5779"
         x="457.67166"
         style="font-size:45px;line-height:1.25;stroke-width:2.8;stroke-miterlimit:4;stroke-dasharray:none"
         sodipodi:role="line">Goslow orthiv, Mestresik</tspan><tspan
         id="tspan3900"
         y="2748.8279"
         x="457.67166"
         style="font-size:45px;line-height:1.25;stroke-width:2.8;stroke-miterlimit:4;stroke-dasharray:none"
         sodipodi:role="line">&quot;<tspan
   id="tspan4217"
   style="stroke:#000000;stroke-width:2.8;stroke-miterlimit:4;stroke-dasharray:none;stroke-opacity:1">My-a-skoll-pub-ismek-dhymm</tspan>&quot;,</tspan><tspan
         id="tspan4378"
         y="2805.0779"
         x="464.70291"
         style="font-size:45px;line-height:1.25;stroke-width:2.8;stroke-miterlimit:4;stroke-dasharray:none"
         sodipodi:role="line"> </tspan></text>
    <text
       id="text4246-3-2-9-6-6-7"
       y="2811.6135"
       x="547.53906"
       style="font-style:normal;font-variant:normal;font-weight:normal;font-stretch:normal;line-height:0%;font-family:Lavi;-inkscape-font-specification:Lavi;text-align:center;letter-spacing:0px;word-spacing:0px;text-anchor:middle;fill:#000000;fill-opacity:1;stroke:none"
       xml:space="preserve"><tspan
         id="tspan4378-5"
         y="2811.6135"
         x="554.57031"
         style="font-size:45px;line-height:1.25"
         sodipodi:role="line">yma dha dhillas Hippiah </tspan><tspan
         id="tspan172"
         y="2867.8635"
         x="554.57031"
         style="font-size:45px;line-height:1.25"
         sodipodi:role="line">ow mos dhe'th penn, </tspan><tspan
         id="tspan174"
         y="2924.1135"
         x="547.53906"
         style="font-size:45px;line-height:1.25"
         sodipodi:role="line">heb dhout.</tspan></text>
    <text
       id="text4246-3-2-9-6-6-0"
       y="2725.4656"
       x="1956.85"
       style="font-style:normal;font-variant:normal;font-weight:normal;font-stretch:normal;line-height:0%;font-family:Lavi;-inkscape-font-specification:Lavi;text-align:center;letter-spacing:0px;word-spacing:0px;text-anchor:middle;fill:#000000;fill-opacity:1;stroke:none"
       xml:space="preserve"><tspan
         id="tspan4378-7"
         y="2725.4656"
         x="1963.8812"
         style="font-size:45px;line-height:1.25"
         sodipodi:role="line">Yn Chaosah, </tspan><tspan
         id="tspan185"
         y="2781.7156"
         x="1963.8812"
         style="font-size:45px;line-height:1.25"
         sodipodi:role="line">ni a ynkleudh agan </tspan><tspan
         id="tspan187"
         y="2837.9656"
         x="1956.85"
         style="font-size:45px;line-height:1.25"
         sodipodi:role="line">kammgemeryansow.</tspan></text>
    <text
       id="text4246-3-2-9-6-6-0-5"
       y="2913.0608"
       x="2002.6411"
       style="font-style:normal;font-variant:normal;font-weight:normal;font-stretch:normal;line-height:0%;font-family:Lavi;-inkscape-font-specification:Lavi;text-align:center;letter-spacing:0px;word-spacing:0px;text-anchor:middle;fill:#000000;fill-opacity:1;stroke:none;stroke-width:2.8;stroke-miterlimit:4;stroke-dasharray:none"
       xml:space="preserve"><tspan
         id="tspan3931"
         y="2913.0608"
         x="2002.6411"
         style="font-size:45px;line-height:1.25;stroke-width:2.8;stroke-miterlimit:4;stroke-dasharray:none"
         sodipodi:role="line">Agan hengov re beu </tspan><tspan
         id="tspan194"
         y="2969.3108"
         x="2002.6411"
         style="font-size:45px;line-height:1.25;stroke-width:2.8;stroke-miterlimit:4;stroke-dasharray:none"
         sodipodi:role="line">a-dhia dhalleth an termyn </tspan><tspan
         id="tspan196"
         y="3025.5608"
         x="2002.6411"
         style="font-size:45px;line-height:1.25;stroke-width:2.8;stroke-miterlimit:4;stroke-dasharray:none"
         sodipodi:role="line">ha ny rov oy pandr'a dyb</tspan><tspan
         id="tspan3933"
         y="3081.8108"
         x="2002.6411"
         style="font-size:45px;line-height:1.25;stroke:#000000;stroke-width:2.8;stroke-miterlimit:4;stroke-dasharray:none;stroke-opacity:1"
         sodipodi:role="line">MAMM NATUR</tspan><tspan
         id="tspan3935"
         y="3138.0608"
         x="2002.6411"
         style="font-size:45px;line-height:1.25;stroke-width:2.8;stroke-miterlimit:4;stroke-dasharray:none"
         sodipodi:role="line">yn y gever!</tspan><tspan
         id="tspan4378-7-6"
         y="3194.3108"
         x="2009.6724"
         style="font-size:45px;line-height:1.25;stroke-width:2.8;stroke-miterlimit:4;stroke-dasharray:none"
         sodipodi:role="line"> </tspan></text>
    <text
       id="text4246-3-2-9-6-6-0-5-1"
       y="3219.5076"
       x="2083.4753"
       style="font-style:normal;font-variant:normal;font-weight:normal;font-stretch:normal;line-height:0%;font-family:Lavi;-inkscape-font-specification:Lavi;text-align:center;letter-spacing:0px;word-spacing:0px;text-anchor:middle;fill:#000000;fill-opacity:1;stroke:none;stroke-width:2.8;stroke-miterlimit:4;stroke-dasharray:none"
       xml:space="preserve"><tspan
         id="tspan4544"
         y="3219.5076"
         x="2083.4753"
         style="font-size:45px;line-height:1.25;stroke-width:2.8;stroke-miterlimit:4;stroke-dasharray:none"
         sodipodi:role="line">Ytho, taw taves</tspan><tspan
         id="tspan3939"
         y="3275.7576"
         x="2090.5066"
         style="font-size:45px;line-height:1.25;stroke-width:2.8;stroke-miterlimit:4;stroke-dasharray:none"
         sodipodi:role="line">ha gwra <tspan
   id="tspan4219"
   style="stroke:#000000;stroke-width:2.8;stroke-miterlimit:4;stroke-dasharray:none;stroke-opacity:1">PALAS</tspan>!! </tspan><tspan
         id="tspan4378-7-6-4"
         y="3332.0076"
         x="2090.5066"
         style="font-size:45px;line-height:1.25;stroke-width:2.8;stroke-miterlimit:4;stroke-dasharray:none"
         sodipodi:role="line"> </tspan></text>
  </g>
</svg>
