<?xml version="1.0" encoding="UTF-8" standalone="no"?>
<!-- Created with Inkscape (http://www.inkscape.org/) -->

<svg
   xmlns:dc="http://purl.org/dc/elements/1.1/"
   xmlns:cc="http://creativecommons.org/ns#"
   xmlns:rdf="http://www.w3.org/1999/02/22-rdf-syntax-ns#"
   xmlns:svg="http://www.w3.org/2000/svg"
   xmlns="http://www.w3.org/2000/svg"
   xmlns:xlink="http://www.w3.org/1999/xlink"
   xmlns:sodipodi="http://sodipodi.sourceforge.net/DTD/sodipodi-0.dtd"
   xmlns:inkscape="http://www.inkscape.org/namespaces/inkscape"
   id="svg2"
   version="1.1"
   inkscape:version="0.92.2 (5c3e80d, 2017-08-06)"
   width="2481"
   height="3503"
   sodipodi:docname="Pepper-and-Carrot_by-David-Revoy_E14P02.svg"
   enable-background="new"
   inkscape:export-filename="E:\Users\jamesmichael\Downloads\Compressed\eps\peppercarrot_ep14_translation-master\peppercarrot_ep14_translation-master\ph\Pepper-and-Carrot_by-David-Revoy_E14P02.png"
   inkscape:export-xdpi="98.181801"
   inkscape:export-ydpi="98.181801">
  <metadata
     id="metadata8">
    <rdf:RDF>
      <cc:Work
         rdf:about="">
        <dc:format>image/svg+xml</dc:format>
        <dc:type
           rdf:resource="http://purl.org/dc/dcmitype/StillImage" />
        <dc:title />
      </cc:Work>
    </rdf:RDF>
  </metadata>
  <defs
     id="defs6">
    <filter
       style="color-interpolation-filters:sRGB;"
       inkscape:label="Out of Focus"
       id="filter2882">
      <feFlood
         flood-opacity="1"
         flood-color="rgb(255,255,255)"
         result="flood"
         id="feFlood2868" />
      <feColorMatrix
         in="SourceGraphic"
         values="1 0 0 0 0 0 1 0 0 0 0 0 1 0 0 -0.2125 -0.7154 -0.0721 1 0 "
         result="colormatrix1"
         id="feColorMatrix2870" />
      <feGaussianBlur
         in="colormatrix1"
         stdDeviation="37.37 14.72"
         result="blur"
         id="feGaussianBlur2872" />
      <feColorMatrix
         in="blur"
         values="1 0 0 0 0 0 1 0 0 0 0 0 1 0 0 0 0 0 22.66 -10.3104 "
         result="colormatrix2"
         id="feColorMatrix2874" />
      <feBlend
         in="colormatrix2"
         in2="BackgroundImage"
         mode="normal"
         result="blend"
         id="feBlend2876" />
      <feComposite
         in="blend"
         in2="blend"
         operator="arithmetic"
         k2="0.98"
         result="composite1"
         id="feComposite2878" />
      <feComposite
         in2="SourceGraphic"
         operator="in"
         id="feComposite2880" />
    </filter>
    <filter
       inkscape:collect="always"
       style="color-interpolation-filters:sRGB"
       id="filter3040"
       x="-0.033012741"
       width="1.0660255"
       y="-0.039581669"
       height="1.0791633">
      <feGaussianBlur
         inkscape:collect="always"
         stdDeviation="3.6720217"
         id="feGaussianBlur3042" />
    </filter>
    <filter
       inkscape:collect="always"
       style="color-interpolation-filters:sRGB"
       id="filter3778"
       x="-0.0082566068"
       width="1.0165132"
       y="-0.021953156"
       height="1.0439063">
      <feGaussianBlur
         inkscape:collect="always"
         stdDeviation="1.7195853"
         id="feGaussianBlur3780" />
    </filter>
    <filter
       inkscape:collect="always"
       style="color-interpolation-filters:sRGB"
       id="filter3782"
       x="-0.014116179"
       width="1.0282324"
       y="-0.010435585"
       height="1.0208712">
      <feGaussianBlur
         inkscape:collect="always"
         stdDeviation="1.6340848"
         id="feGaussianBlur3784" />
    </filter>
    <filter
       inkscape:label="Ripple"
       inkscape:menu="Distort"
       inkscape:menu-tooltip="Horizontal rippling of edges"
       style="color-interpolation-filters:sRGB;"
       id="filter3824">
      <feTurbulence
         numOctaves="1"
         baseFrequency="0.002 0.107"
         id="feTurbulence3818" />
      <feColorMatrix
         values="2 0 0 0 0 0 0 0 0 0 0 0 0 0 0 0 0 0 0.5 0.5"
         result="result91"
         id="feColorMatrix3820" />
      <feDisplacementMap
         yChannelSelector="A"
         xChannelSelector="R"
         scale="14.3"
         in="SourceGraphic"
         in2="result91"
         id="feDisplacementMap3822" />
    </filter>
    <filter
       inkscape:label="Chalk and Sponge"
       inkscape:menu="Distort"
       inkscape:menu-tooltip="Low turbulence gives sponge look and high turbulence chalk"
       width="1.6"
       height="2"
       y="-0.5"
       x="-0.3"
       style="color-interpolation-filters:sRGB;"
       id="filter3854">
      <feTurbulence
         baseFrequency="0.4"
         type="fractalNoise"
         seed="0"
         numOctaves="5"
         result="result1"
         id="feTurbulence3850" />
      <feDisplacementMap
         xChannelSelector="R"
         yChannelSelector="G"
         scale="30"
         in="SourceGraphic"
         in2="result1"
         id="feDisplacementMap3852" />
    </filter>
    <filter
       inkscape:collect="always"
       style="color-interpolation-filters:sRGB"
       id="filter930"
       x="-0.011472126"
       width="1.0229443"
       y="-0.058827443"
       height="1.1176549">
      <feGaussianBlur
         inkscape:collect="always"
         stdDeviation="7.0817325"
         id="feGaussianBlur932" />
    </filter>
    <filter
       style="color-interpolation-filters:sRGB;"
       inkscape:label="Drop Shadow"
       id="filter1010">
      <feFlood
         flood-opacity="0.498039"
         flood-color="rgb(0,0,0)"
         result="flood"
         id="feFlood1000" />
      <feComposite
         in="flood"
         in2="SourceGraphic"
         operator="in"
         result="composite1"
         id="feComposite1002" />
      <feGaussianBlur
         in="composite1"
         stdDeviation="0"
         result="blur"
         id="feGaussianBlur1004" />
      <feOffset
         dx="2.5"
         dy="3.6"
         result="offset"
         id="feOffset1006" />
      <feComposite
         in="SourceGraphic"
         in2="offset"
         operator="over"
         result="composite2"
         id="feComposite1008" />
    </filter>
  </defs>
  <sodipodi:namedview
     pagecolor="#ffffff"
     bordercolor="#666666"
     borderopacity="1"
     objecttolerance="10"
     gridtolerance="10"
     guidetolerance="10"
     inkscape:pageopacity="0"
     inkscape:pageshadow="2"
     inkscape:window-width="1366"
     inkscape:window-height="705"
     id="namedview4"
     showgrid="false"
     inkscape:zoom="0.30417501"
     inkscape:cx="1092.108"
     inkscape:cy="863.01275"
     inkscape:window-x="-8"
     inkscape:window-y="-8"
     inkscape:window-maximized="1"
     inkscape:current-layer="g958" />
  <g
     inkscape:groupmode="layer"
     id="layer2"
     inkscape:label="artwork"
     sodipodi:insensitive="true">
    <image
       sodipodi:absref="E:\Users\jamesmichael\Downloads\Compressed\eps\peppercarrot_ep14_translation-master\peppercarrot_ep14_translation-master\ph\../gfx_Pepper-and-Carrot_by-David-Revoy_E14P02.png"
       xlink:href="../gfx_Pepper-and-Carrot_by-David-Revoy_E14P02.png"
       y="0"
       x="0"
       id="image10"
       height="3503"
       width="2481" />
  </g>
  <g
     inkscape:groupmode="layer"
     id="layer3"
     inkscape:label="speechbubbles">
    <path
       style="fill:#ffffff;fill-rule:evenodd;stroke:none;stroke-width:1.23868632px;stroke-linecap:butt;stroke-linejoin:miter;stroke-opacity:1"
       d="m -211.03066,67.55908 c 23.07443,27.129634 60.33071,50.39614 -13.01539,103.79066 23.55938,7.76012 53.15503,13.68628 25.22749,37.08943 4.97174,28.96456 -30.15275,51.81647 -56.50591,76.00558 24.64062,-6.11702 50.88071,-18.3386 10.84524,37.10775 16.83927,0.81794 12.11203,16.19888 -15.22147,46.84496 61.95988,-55.49887 82.60066,-68.60759 77.20974,-18.45081 10.65652,-25.6159 24.54578,-30.60474 2.87,54.83603 57.39407,-147.05407 -18.51245,154.54722 -73.00506,451.25755 37.6728,-134.42042 153.075983,-690.21106 113.79402,-405.75152 57.895202,-200.11755 69.941649,-24.02648 74.50819,-0.72982 17.576554,-159.98534 56.301305,-86.59885 59.826159,-24.12307 2.62531,-39.28743 30.17414,-115.02366 62.315024,-12.54487 -5.786954,-36.7437 7.30875,-71.80474 35.98564,21.48646 77.040857,-24.85801 39.760637,97.3392 116.137997,133.00277 39.09455,18.25477 67.33674,86.94263 38.32036,113.21934 30.86964,5.50847 23.35052,-95.67951 -24.08384,-122.51425 -68.86845,-38.96052 -34.1313,-216.77818 27.32312,-126.86619 2.57927,-26.63344 -7.60068,-65.43808 90.04861,-1.38284 7.71196,-45.99065 25.04306,-46.1773 51.22749,-20.19598 1.00587,-40.37871 30.41533,-17.33686 67.10699,15.695 -17.70953,-58.16263 16.77624,-46.67783 65.36481,-21.89266 -0.96643,-27.0161 -3.96033,-55.06501 28.1898,-65.21168 -20.98424,-67.39689 11.54273,-66.41384 24.93266,-89.8853 -22.17941,1.0851 -35.3541,-23.91553 -5.55213,-52.95973 -45.28117,5.51378 -23.55146,-29.97816 -18.00063,-50.36143 L 489.80754,101.87009 423.4672,76.645866 343.40852,49.330268 267.03613,34.665209 188.84164,22.744511 119.34947,18.194749 62.611953,-5.565535 0,0 -84.603387,-15.919867 -133.41277,28.015524 Z"
       id="path4323"
       inkscape:connector-curvature="0"
       sodipodi:nodetypes="ccccccccccccccscscccccccccccccccccccc" />
    <path
       style="fill:#ffffff;stroke:none;stroke-width:0.95419359"
       d="m 727.54656,358.51525 c -0.91782,-50.68957 15.53796,-177.586 95.80859,-168.04123 80.2706,9.54467 105.394,65.30154 107.7463,155.40233 3.7212,142.53695 -38.5091,180.62769 -99.148,191.18528 -62.5121,10.88393 -105.37711,-86.95837 -104.40689,-178.54638 z"
       id="path3280"
       inkscape:connector-curvature="0"
       sodipodi:nodetypes="csssc" />
    <path
       style="color:#000000;display:inline;overflow:visible;visibility:visible;fill:#ffffff;fill-opacity:1;fill-rule:nonzero;stroke:none;stroke-width:1px;marker:none;enable-background:accumulate"
       d="m 786.46583,584.79758 c 39.18491,-37.68963 73.342,-77.76882 65.62626,-117.15486 -10.90688,-55.67559 -9.43261,-29.77014 -9.43261,-29.77014 l 41.81204,36.16737 c 4.42223,-1.37242 6.88006,49.17295 -98.00569,110.75763 z"
       id="path3072"
       inkscape:connector-curvature="0"
       sodipodi:nodetypes="csccc" />
    <path
       style="fill:#ffffff;fill-rule:evenodd;stroke:none;stroke-width:0.96919751px;stroke-linecap:butt;stroke-linejoin:miter;stroke-opacity:1"
       d="m 1348.5447,402.83664 c 5.6356,-43.12001 20.8115,-75.83645 37.3281,-97.67671 7.8602,-10.54413 16.8445,-18.27115 26.0381,-16.23866 9.1333,1.21438 18.0543,8.46513 27.2887,5.94664 11.2287,-0.83178 22.6546,-4.461 33.7544,0.7248 9.8673,5.65836 20.0334,8.58887 30.2158,8.75883 7.1834,-3.59168 13.7567,5.98112 20.1718,11.70677 5.7592,6.18464 11.6417,12.67334 16.4791,22.23996 4.4567,13.42957 9.793,25.1131 14.3017,38.42314 2.9502,7.27649 2.6667,17.32724 2.5308,26.62904 -0.3831,19.0481 -1.032,38.39693 -3.4403,56.74818 -1.4412,11.65062 -6.7683,15.50623 -10.8614,20.85988 -9.685,11.30155 -19.9692,19.87187 -29.2123,33.17139 -9.1573,6.81002 -18.8891,3.62464 -28.2803,2.59551 -7.8692,-2.02713 -15.7852,-4.85389 -23.722,-2.49653 -10.1018,1.72512 -20.1728,6.1919 -30.3107,5.61977 -12.6999,-3.92614 -24.8631,-13.59324 -37.1704,-21.34793 -11.0419,-6.83501 -21.1057,-19.68765 -30.7621,-33.43668 -5.1581,-7.80756 -10.6186,-16.88277 -12.439,-31.27119 -1.4923,-9.90767 -1.8439,-20.51639 -1.91,-30.95621 z"
       id="path4365"
       inkscape:connector-curvature="0" />
    <path
       style="fill:#ffffff;stroke:none"
       d="m 1482.7259,577.83457 c -28.9993,-12.17002 -21.5482,-18.51628 -11.7332,-25.66062 9.8146,-7.14432 20.4395,-13.45017 17.6267,-17.44265 -2.8126,-3.99244 -12.817,-7.31729 -21.4709,-9.24473 -8.6539,-1.92745 4.0637,-6.85173 8.5887,-11.90098 4.525,-5.04929 5.3066,-31.03144 5.3066,-31.03144 0,0 -37.2429,18.22817 -45.1105,24.68417 -7.8678,6.45595 -10.8167,8.81085 -12.3929,11.50521 -1.576,2.69443 -3.0966,9.23117 3.5991,12.37589 6.6956,3.14474 18.1296,4.16439 24.994,5.86204 6.8646,1.69761 0.8971,7.45494 -4.0557,13.14287 -4.953,5.68792 -6.415,9.84456 3.0968,16.87384 8.1533,6.02536 31.5513,10.8364 31.5513,10.8364 z"
       id="path3023"
       inkscape:connector-curvature="0"
       sodipodi:nodetypes="csssscssssssc" />
    <path
       style="color:#000000;display:inline;overflow:visible;visibility:visible;fill:#ffffff;fill-opacity:1;fill-rule:nonzero;stroke:none;stroke-width:0.78518999px;marker:none;enable-background:accumulate"
       d="m 235.47269,1286.0302 c 7.66807,-35.0235 23.79746,-64.4752 44.95076,-76.415 21.15328,-11.9399 60.28687,-8.756 67.16172,-4.776 6.87479,3.98 44.68631,18.3077 52.88318,38.2074 8.19693,19.8999 19.3024,44.5756 21.68213,70.0472 2.37981,25.4716 0.26446,86.7629 -7.40363,100.2948 -7.66808,13.5321 -42.57099,42.9833 -62.93107,44.5754 -20.36005,1.592 -67.69049,-11.1437 -81.17575,-19.8996 -13.48522,-8.7559 -27.76368,-19.8998 -31.99434,-47.7594 -4.23067,-27.8598 -12.16315,-64.4753 -3.173,-104.2748 z"
       id="path3533"
       inkscape:connector-curvature="0" />
    <path
       style="color:#000000;display:inline;overflow:visible;visibility:visible;fill:#ffffff;fill-opacity:1;fill-rule:nonzero;stroke:none;stroke-width:1.12946403px;marker:none;enable-background:accumulate"
       d="m 1060.3365,1465.0865 c 0.4883,-76.4595 6.8029,-111.232 31.1933,-122.9653 24.9377,-11.9961 119.4354,-1.9441 137.5971,30.6825 13.6494,24.52 16.9563,66.8207 15.3903,116.7132 -1.4359,45.7537 -19.8731,95.7742 -50.5651,105.0156 -30.9134,9.3086 -85.0599,0.2878 -101.6548,-19.2612 -16.5948,-19.5483 -30.9574,-49.1199 -31.9608,-110.1848 z"
       id="path3986"
       inkscape:connector-curvature="0"
       sodipodi:nodetypes="csssssc" />
    <path
       style="fill:#ffffff;fill-rule:evenodd;stroke:none;stroke-width:1.09848785px;stroke-linecap:butt;stroke-linejoin:miter;stroke-opacity:1"
       d="m 408.13916,2275.1214 c -35.40722,325.3258 224.20096,192.6963 246.08105,178.1546 17.86682,-8.8737 30.30869,-128.035 6.93874,-217.7617 -12.32976,-52.2886 -218.64393,-133.2564 -253.01979,39.6071 z"
       id="path4430"
       inkscape:connector-curvature="0"
       sodipodi:nodetypes="cccc" />
    <path
       style="color:#000000;display:inline;overflow:visible;visibility:visible;fill:#ffffff;fill-opacity:1;fill-rule:nonzero;stroke:none;stroke-width:0.7827639px;marker:none;enable-background:accumulate"
       d="m 784.03929,2527.748 c -12.2716,27.6281 -117.10522,59.8354 -154.36465,4.4161 -37.25939,-55.4192 -15.29076,-123.5386 5.75367,-145.5537 21.04441,-22.0153 83.22162,-47.0758 111.77475,-29.3351 28.55322,17.7405 50.87621,44.753 52.67236,101.1275 0.73309,23.0087 -3.56443,41.7171 -15.83613,69.3452 z"
       id="path4040"
       inkscape:connector-curvature="0"
       sodipodi:nodetypes="zssssz" />
    <path
       style="fill:#ffffff;stroke:none;stroke-width:0.57905108"
       d="m 821.10261,2632.8801 c -65.377,-10.4409 -23.65194,-26.5562 -31.56118,-92.5226 -4.05652,-33.833 -23.52132,-31.4192 -23.52132,-31.4192 l -38.45224,1.9962 c 0,0 20.65167,35.2363 20.33648,65.5363 -0.31526,30.3001 -10.64592,61.2445 73.19826,56.4093 z"
       id="path3063"
       inkscape:connector-curvature="0"
       sodipodi:nodetypes="cscczc" />
    <g
       id="g958"
       transform="translate(9.2986833,-30.220721)">
      <g
         id="g962"
         style="filter:url(#filter1010)">
        <path
           style="color:#000000;display:inline;overflow:visible;visibility:visible;fill:#ffffff;fill-opacity:1;fill-rule:nonzero;stroke:none;stroke-width:1.12258542px;marker:none;enable-background:accumulate"
           d="m 1814.4546,2944.2756 c 17.7008,-65.8293 40.8306,-112.5226 90.3779,-136.0848 49.5473,-23.562 141.4241,-19.9843 157.5935,-12.9716 16.1695,7.0123 105.0375,31.4678 124.4448,68.1124 19.4076,36.6444 26.7495,77.4025 32.5508,124.7974 5.8012,47.3948 5.5165,141.7806 -16.5273,187.6309 -26.8036,55.7507 -80.6212,87.418 -128.3944,91.6193 -47.7732,4.2015 -158.9693,-16.7077 -190.6946,-32.2344 -31.725,-15.5265 -50.8544,-44.7097 -61.02,-96.4494 -10.1658,-51.74 -29.0941,-119.5976 -8.3307,-194.4198 z"
           id="path3533-6"
           inkscape:connector-curvature="0"
           sodipodi:nodetypes="cscssssssc" />
        <path
           style="color:#000000;display:inline;overflow:visible;visibility:visible;fill:#ffffff;fill-opacity:1;fill-rule:nonzero;stroke:none;stroke-width:1px;marker:none;enable-background:accumulate"
           d="m 2002.1249,3101.2577 c -4.3264,34.1812 24.0024,8.6814 15.1523,41.8854 -8.8501,33.2041 -54.8791,125.1117 -82.7845,136.6925 -55.8106,23.1614 -63.1098,-23.354 -63.1098,-23.354 8.688,20.2325 70.2061,55.4788 130.742,-155.2239 z"
           id="path5002"
           inkscape:connector-curvature="0"
           sodipodi:nodetypes="csscc" />
      </g>
    </g>
    <path
       style="color:#000000;display:inline;overflow:visible;visibility:visible;fill:#ffffff;fill-opacity:1;fill-rule:nonzero;stroke:none;stroke-width:1.00721526px;marker:none;enable-background:accumulate;filter:url(#filter3782)"
       d="m 586.08018,1674.338 c 22.03683,8.9564 13.43608,44.4851 4.67002,56.9326 34.62652,-23.1791 50.97603,-20.391 42.87126,15.4676 66.14182,-54.2091 44.20038,-6.289 53.53942,4.7042 30.689,-44.9601 45.07521,-21.6735 63.15833,-11.0135 16.8803,-53.7516 22.20025,-26.3516 46.51675,-8.9387 -8.12052,-16.6425 -32.62836,-60.8692 25.24117,-51.2382 -23.92445,-32.6769 -28.83667,-67.2296 28.75614,-81.4304 -30.80598,-18.3067 -45.83175,-35.2955 13.07022,-55.3611 -57.17411,0.8505 -27.45784,-44.5188 -2.40748,-74.9146 -17.00814,5.9704 -51.33197,-11.2517 -24.74758,-40.7613 -30.48033,18.6446 -25.87954,-8.4917 -26.27705,-30.0609 -18.15612,26.5549 -29.84216,30.5083 -25.33665,-22.0919 -12.80062,38.9687 -25.91722,75.1742 -49.40544,25.1128 -5.22423,14.2854 15.61601,51.9273 -70.60503,25.7492 21.70033,28.025 29.84971,56.2332 -41.12177,82.4522 25.78108,19.1036 32.70425,47.9761 -8.9286,55.5021 14.95833,6.0796 15.77107,24.3852 12.01827,39.4242 -8.18629,5.0561 -18.73753,10.0332 -32.08337,14.9635 21.03949,12.8911 32.74067,29.9449 -8.92861,55.5022 z"
       id="path3549-3-7"
       inkscape:connector-curvature="0"
       sodipodi:nodetypes="cccccccccccccccccccc" />
    <path
       style="color:#000000;display:inline;overflow:visible;visibility:visible;fill:#ffffff;fill-opacity:1;fill-rule:nonzero;stroke:none;stroke-width:1.25021982px;marker:none;enable-background:accumulate;filter:url(#filter3778)"
       d="m 632.27244,1621.4377 c -44.35286,4.6761 -132.22169,-6.6887 -153.76621,-11.1223 -21.83684,-23.9723 -54.4428,-60.2385 -78.96727,-86.0734 -6.97829,-0.301 -126.10138,22.7964 -135.63244,17.3386 -9.53071,-5.4578 -91.28369,-64.4415 -96.05542,-75.2312 18.25841,31.1376 91.51541,89.0539 107.26591,94.4294 10.53094,4.0288 109.27142,-11.957 113.8812,-14.1412 14.85511,24.2619 76.93225,83.1117 86.64723,91.241 16.75053,3.9466 81.14308,19.0598 158.20329,16.0746 77.06028,-2.9851 -1.57629,-32.5155 -1.57629,-32.5155 z"
       id="path5901"
       inkscape:connector-curvature="0"
       sodipodi:nodetypes="ccccccccsc" />
    <g
       id="g896"
       style="fill:#292033;fill-opacity:1;filter:url(#filter2882)">
      <ellipse
         transform="rotate(3.7519485)"
         ry="71.925667"
         rx="36.412373"
         cy="1532.6311"
         cx="437.65237"
         id="path888"
         style="opacity:1;fill:#292033;fill-opacity:1;fill-rule:nonzero;stroke:none;stroke-width:1.36409283;stroke-miterlimit:4;stroke-dasharray:none;stroke-opacity:1" />
      <ellipse
         transform="rotate(3.1272373)"
         ry="73.61161"
         rx="36.305958"
         cy="1603.932"
         cx="618.6864"
         id="path892"
         style="opacity:1;fill:#292033;fill-opacity:1;fill-rule:nonzero;stroke:none;stroke-width:1.44993854;stroke-miterlimit:4;stroke-dasharray:none;stroke-opacity:1" />
    </g>
    <g
       style="opacity:0.769;fill:#292033;fill-opacity:1;filter:url(#filter3040)"
       id="g2658"
       transform="translate(1.1623333,-2.3246713)">
      <ellipse
         style="opacity:1;fill:#292033;fill-opacity:1;fill-rule:nonzero;stroke:none;stroke-width:1.36409283;stroke-miterlimit:4;stroke-dasharray:none;stroke-opacity:1"
         id="ellipse2654"
         cx="437.65237"
         cy="1532.6311"
         rx="36.412373"
         ry="71.925667"
         transform="rotate(3.7519485)" />
      <ellipse
         style="opacity:1;fill:#292033;fill-opacity:1;fill-rule:nonzero;stroke:none;stroke-width:1.44993854;stroke-miterlimit:4;stroke-dasharray:none;stroke-opacity:1"
         id="ellipse2656"
         cx="618.6864"
         cy="1603.932"
         rx="36.305958"
         ry="73.61161"
         transform="rotate(3.1272373)" />
    </g>
    <path
       style="fill:none;stroke:#ffffff;stroke-width:19.8;stroke-linecap:butt;stroke-linejoin:miter;stroke-miterlimit:4;stroke-dasharray:39.6, 19.80000000000000071, 9.90000000000000036, 19.80000000000000071;stroke-dashoffset:0;stroke-opacity:1;opacity:0.99999999;filter:url(#filter930)"
       d="m 425.93043,1307.8983 c 0,0 219.97342,-114.1887 414.98208,68.8398 71.30754,66.9268 135.30584,141.1803 337.39009,150.4248 123.5962,5.654 213.9502,101.6497 394.878,-53.837 124.8115,-107.2614 334.2675,28.0299 334.2675,28.0299"
       id="path3816"
       inkscape:connector-curvature="0"
       sodipodi:nodetypes="csssc" />
  </g>
  <g
     inkscape:groupmode="layer"
     id="layer1"
     inkscape:label="txt">
    <text
       xml:space="preserve"
       style="font-style:normal;font-variant:normal;font-weight:normal;font-stretch:normal;line-height:0%;font-family:Lavi;-inkscape-font-specification:Lavi;text-align:center;letter-spacing:0px;word-spacing:0px;text-anchor:middle;fill:#000000;fill-opacity:1;stroke:none"
       x="316.7012"
       y="185.42973"
       id="text4246"><tspan
         sodipodi:role="line"
         style="font-style:normal;font-variant:normal;font-weight:normal;font-stretch:normal;font-size:45px;line-height:1.25;font-family:Lavi;-inkscape-font-specification:Lavi"
         x="324.61136"
         y="185.42973"
         id="tspan3437">Cayenne! Thyme! </tspan><tspan
         sodipodi:role="line"
         style="font-style:normal;font-variant:normal;font-weight:normal;font-stretch:normal;font-size:45px;line-height:1.25;font-family:Lavi;-inkscape-font-specification:Lavi"
         x="324.61136"
         y="241.67973"
         id="tspan860">Pwede niyo ba akong </tspan><tspan
         sodipodi:role="line"
         style="font-style:normal;font-variant:normal;font-weight:normal;font-stretch:normal;font-size:45px;line-height:1.25;font-family:Lavi;-inkscape-font-specification:Lavi"
         x="324.61136"
         y="297.92972"
         id="tspan862">ihanap ng Pangil </tspan><tspan
         sodipodi:role="line"
         style="font-style:normal;font-variant:normal;font-weight:normal;font-stretch:normal;font-size:45px;line-height:1.25;font-family:Lavi;-inkscape-font-specification:Lavi"
         x="316.7012"
         y="354.17972"
         id="tspan864">ng Mandragon?</tspan></text>
    <text
       xml:space="preserve"
       style="font-style:normal;font-variant:normal;font-weight:normal;font-stretch:normal;line-height:0%;font-family:Lavi;-inkscape-font-specification:Lavi;text-align:center;letter-spacing:0px;word-spacing:0px;text-anchor:middle;fill:#000000;fill-opacity:1;stroke:none"
       x="833.36633"
       y="267.29712"
       id="text4246-7"><tspan
         sodipodi:role="line"
         style="font-size:45px;line-height:1.25"
         x="841.27649"
         y="267.29712"
         id="tspan4144-1">Sa </tspan><tspan
         sodipodi:role="line"
         style="font-size:45px;line-height:1.25"
         x="841.27649"
         y="323.54712"
         id="tspan866">gantong </tspan><tspan
         sodipodi:role="line"
         style="font-size:45px;line-height:1.25"
         x="833.36633"
         y="379.79712"
         id="tspan868">kalamig?!</tspan><tspan
         sodipodi:role="line"
         style="font-size:45px;line-height:1.25"
         x="841.27649"
         y="436.04712"
         id="tspan870">Wag na </tspan><tspan
         sodipodi:role="line"
         style="font-size:45px;line-height:1.25"
         x="833.36633"
         y="492.29712"
         id="tspan874">lang!</tspan></text>
    <text
       xml:space="preserve"
       style="font-style:normal;font-variant:normal;font-weight:normal;font-stretch:normal;line-height:0%;font-family:Lavi;-inkscape-font-specification:Lavi;text-align:center;letter-spacing:0px;word-spacing:0px;text-anchor:middle;fill:#000000;fill-opacity:1;stroke:none"
       x="1462.0654"
       y="368.54727"
       id="text4246-7-6"><tspan
         sodipodi:role="line"
         style="font-size:45px;line-height:1.25"
         x="1462.0654"
         y="368.54727"
         id="tspan878">oo nga...</tspan><tspan
         sodipodi:role="line"
         style="font-size:45px;line-height:1.25"
         x="1469.9756"
         y="424.79727"
         id="tspan882">ako din </tspan><tspan
         sodipodi:role="line"
         style="font-size:45px;line-height:1.25"
         x="1462.0654"
         y="481.04727"
         id="tspan884">pass...</tspan></text>
    <text
       xml:space="preserve"
       style="font-style:normal;font-variant:normal;font-weight:normal;font-stretch:normal;line-height:0%;font-family:Lavi;-inkscape-font-specification:Lavi;text-align:center;letter-spacing:0px;word-spacing:0px;text-anchor:middle;fill:#000000;fill-opacity:1;stroke:none"
       x="382.04089"
       y="1307.184"
       id="text4246-7-6-4"><tspan
         sodipodi:role="line"
         style="font-size:45px;line-height:1.25"
         x="382.04089"
         y="1310.6718"
         id="tspan3443" /></text>
    <text
       xml:space="preserve"
       style="font-style:normal;font-variant:normal;font-weight:normal;font-stretch:normal;line-height:0%;font-family:Lavi;-inkscape-font-specification:Lavi;text-align:center;letter-spacing:0px;word-spacing:0px;text-anchor:middle;fill:#000000;fill-opacity:1;stroke:none"
       x="1152.5389"
       y="1447.2579"
       id="text4246-7-6-4-6"><tspan
         sodipodi:role="line"
         style="font-size:37.00366974px;line-height:1.25"
         x="1159.0435"
         y="1447.2579"
         id="tspan3790">balik din </tspan><tspan
         sodipodi:role="line"
         style="font-size:37.00366974px;line-height:1.25"
         x="1152.5389"
         y="1493.5126"
         id="tspan3794">ako agad!</tspan><tspan
         sodipodi:role="line"
         style="font-size:48px;line-height:1.25;fill:#c83737"
         x="1152.5389"
         y="1539.2159"
         id="tspan934">♥</tspan></text>
    <text
       xml:space="preserve"
       style="font-style:normal;font-variant:normal;font-weight:normal;font-stretch:normal;line-height:0%;font-family:Lavi;-inkscape-font-specification:Lavi;text-align:center;letter-spacing:0px;word-spacing:0px;text-anchor:middle;fill:#000000;fill-opacity:1;stroke:none"
       x="544.56396"
       y="2310.0493"
       id="text4246-7-6-4-6-4"><tspan
         sodipodi:role="line"
         style="font-size:45px;line-height:1.25"
         x="552.47412"
         y="2310.0493"
         id="tspan4221-0-2">&quot;malamig&quot;, </tspan><tspan
         sodipodi:role="line"
         style="font-size:45px;line-height:1.25"
         x="552.47412"
         y="2366.2993"
         id="tspan942">&quot; anlamig </tspan><tspan
         sodipodi:role="line"
         style="font-size:45px;line-height:1.25"
         x="544.56396"
         y="2422.5493"
         id="tspan944">kaya! &quot;</tspan></text>
    <text
       xml:space="preserve"
       style="font-style:normal;font-variant:normal;font-weight:normal;font-stretch:normal;line-height:0%;font-family:Lavi;-inkscape-font-specification:Lavi;text-align:center;letter-spacing:0px;word-spacing:0px;text-anchor:middle;fill:#000000;fill-opacity:1;stroke:none"
       x="695.87067"
       y="2434.7708"
       id="text4246-7-6-4-6-4-5"><tspan
         sodipodi:role="line"
         style="font-size:45px;line-height:1.25"
         x="703.78082"
         y="2434.7708"
         id="tspan3450">mga </tspan><tspan
         sodipodi:role="line"
         style="font-size:45px;line-height:1.25"
         x="695.87067"
         y="2491.0208"
         id="tspan946">weak !</tspan></text>
    <text
       xml:space="preserve"
       style="font-style:normal;font-variant:normal;font-weight:normal;font-stretch:normal;line-height:0%;font-family:Lavi;-inkscape-font-specification:Lavi;text-align:center;letter-spacing:0px;word-spacing:0px;text-anchor:middle;fill:#000000;fill-opacity:1;stroke:none"
       x="2020.8719"
       y="2958.1765"
       id="text4246-7-6-4-6-4-5-2"><tspan
         sodipodi:role="line"
         style="font-size:45px;line-height:1.25"
         x="2028.7821"
         y="2958.1765"
         id="tspan3457">konting kalasag </tspan><tspan
         sodipodi:role="line"
         style="font-size:45px;line-height:1.25"
         x="2028.7821"
         y="3014.4265"
         id="tspan3459">at plais lang ang </tspan><tspan
         sodipodi:role="line"
         style="font-size:45px;line-height:1.25"
         x="2020.8719"
         y="3070.6765"
         id="tspan954">katapat ng</tspan><tspan
         sodipodi:role="line"
         style="font-size:45px;line-height:1.25"
         x="2020.8719"
         y="3126.9265"
         id="tspan3461">pangil na yan!</tspan></text>
    <text
       xml:space="preserve"
       style="font-style:normal;font-variant:normal;font-weight:normal;font-stretch:normal;font-size:10.68234539px;line-height:0%;font-family:Lavi;-inkscape-font-specification:Lavi;text-align:center;letter-spacing:0px;word-spacing:0px;text-anchor:middle;fill:#4d4d4d;fill-opacity:1;stroke:#4d4d4d;stroke-width:1.1572541;stroke-miterlimit:4;stroke-dasharray:none;stroke-opacity:1;"
       x="1286.5522"
       y="1523.0658"
       id="text4246-7-6-4-0"
       transform="skewX(-19.413735)"><tspan
         sodipodi:role="line"
         style="font-size:54.10707092px;line-height:1.25;stroke:#4d4d4d;stroke-width:1.1572541;stroke-miterlimit:4;stroke-dasharray:none;stroke-opacity:1;fill:#4d4d4d;"
         x="1286.5522"
         y="1523.0658"
         id="tspan4208">Pepper,</tspan><tspan
         sodipodi:role="line"
         style="font-size:54.10707092px;line-height:1.25;stroke:#4d4d4d;stroke-width:1.1572541;stroke-miterlimit:4;stroke-dasharray:none;stroke-opacity:1;fill:#4d4d4d;"
         x="1296.0632"
         y="1590.6996"
         id="tspan4212">Saglit </tspan><tspan
         sodipodi:role="line"
         style="font-size:54.10707092px;line-height:1.25;stroke:#4d4d4d;stroke-width:1.1572541;stroke-miterlimit:4;stroke-dasharray:none;stroke-opacity:1;fill:#4d4d4d;"
         x="1286.5522"
         y="1658.3335"
         id="tspan886">lang!</tspan></text>
    <flowRoot
       xml:space="preserve"
       id="flowRoot3796"
       style="fill:black;fill-opacity:1;stroke:none;font-family:sans-serif;font-style:normal;font-weight:normal;font-size:40px;line-height:1.25;letter-spacing:0px;word-spacing:0px"><flowRegion
         id="flowRegion3798"><rect
           id="rect3800"
           width="187.136"
           height="176.67499"
           x="223.1684"
           y="1422.4196" /></flowRegion><flowPara
         id="flowPara3802" /></flowRoot>    <flowRoot
       xml:space="preserve"
       id="flowRoot3806"
       style="font-style:normal;font-variant:normal;font-weight:normal;font-stretch:normal;font-size:40px;line-height:1.25;font-family:Lavi;-inkscape-font-specification:Lavi;letter-spacing:0px;word-spacing:0px;fill:#000000;fill-opacity:1;stroke:none"
       transform="translate(13.948025,-117.39588)"><flowRegion
         id="flowRegion3808"
         style="font-style:normal;font-variant:normal;font-weight:normal;font-stretch:normal;font-family:Lavi;-inkscape-font-specification:Lavi"><rect
           id="rect3810"
           width="149.94125"
           height="248.73975"
           x="249.90211"
           y="1371.2769"
           style="font-style:normal;font-variant:normal;font-weight:normal;font-stretch:normal;font-family:Lavi;-inkscape-font-specification:Lavi" /></flowRegion><flowPara
         id="flowPara3812">Sisiw!</flowPara><flowPara
         id="flowPara3814">gue ako na lang!</flowPara></flowRoot>    <text
       xml:space="preserve"
       style="font-style:normal;font-weight:normal;font-size:40px;line-height:1.25;font-family:sans-serif;letter-spacing:0px;word-spacing:0px;fill:#000000;fill-opacity:1;stroke:none"
       x="1708.6331"
       y="2900.9104"
       id="text938"><tspan
         sodipodi:role="line"
         id="tspan936"
         x="1708.6331"
         y="2900.9104">...</tspan></text>
  </g>
</svg>
