<?xml version="1.0" encoding="UTF-8" standalone="no"?>
<svg
   xmlns:dc="http://purl.org/dc/elements/1.1/"
   xmlns:cc="http://creativecommons.org/ns#"
   xmlns:rdf="http://www.w3.org/1999/02/22-rdf-syntax-ns#"
   xmlns:svg="http://www.w3.org/2000/svg"
   xmlns="http://www.w3.org/2000/svg"
   xmlns:xlink="http://www.w3.org/1999/xlink"
   xmlns:sodipodi="http://sodipodi.sourceforge.net/DTD/sodipodi-0.dtd"
   xmlns:inkscape="http://www.inkscape.org/namespaces/inkscape"
   sodipodi:docname="E27P06.svg"
   height="3503"
   width="2481"
   inkscape:version="1.0 (4035a4fb49, 2020-05-01)"
   version="1.1"
   id="svg2">
  <metadata
     id="metadata8">
    <rdf:RDF>
      <cc:Work
         rdf:about="">
        <dc:format>image/svg+xml</dc:format>
        <dc:type
           rdf:resource="http://purl.org/dc/dcmitype/StillImage" />
        <dc:title />
      </cc:Work>
    </rdf:RDF>
  </metadata>
  <defs
     id="defs6">
    <filter
       inkscape:label="deevad outline effect"
       id="filter4375-4-1-1-1-9"
       style="color-interpolation-filters:sRGB">
      <feFlood
         result="flood"
         flood-color="rgb(0,0,0)"
         flood-opacity="1"
         id="feFlood4377-7-9-0-8-1" />
      <feComposite
         result="composite1"
         operator="in"
         in="flood"
         in2="SourceGraphic"
         id="feComposite4379-3-8-8-2-77" />
      <feMorphology
         result="result3"
         radius="4"
         operator="dilate"
         id="feMorphology4393-1-0-49-8-9" />
      <feComposite
         result="composite2"
         operator="over"
         in="SourceGraphic"
         in2="result3"
         id="feComposite4385-9-5-7-0-8" />
    </filter>
    <filter
       inkscape:label="deevad outline effect"
       id="filter4375-4-1-1-1-9-7-7-0-3"
       style="color-interpolation-filters:sRGB">
      <feFlood
         result="flood"
         flood-color="rgb(0,0,0)"
         flood-opacity="1"
         id="feFlood4377-7-9-0-8-1-4-8-3-2" />
      <feComposite
         result="composite1"
         operator="in"
         in="flood"
         in2="SourceGraphic"
         id="feComposite4379-3-8-8-2-77-7-8-1-2" />
      <feMorphology
         result="result3"
         radius="4"
         operator="dilate"
         id="feMorphology4393-1-0-49-8-9-3-9-0-1" />
      <feComposite
         result="composite2"
         operator="over"
         in="SourceGraphic"
         in2="result3"
         id="feComposite4385-9-5-7-0-8-0-0-3-5" />
    </filter>
    <filter
       inkscape:label="deevad outline effect"
       id="filter4375-4-1-1-1-9-7-7-0"
       style="color-interpolation-filters:sRGB">
      <feFlood
         result="flood"
         flood-color="rgb(0,0,0)"
         flood-opacity="1"
         id="feFlood4377-7-9-0-8-1-4-8-3" />
      <feComposite
         result="composite1"
         operator="in"
         in="flood"
         in2="SourceGraphic"
         id="feComposite4379-3-8-8-2-77-7-8-1" />
      <feMorphology
         result="result3"
         radius="4"
         operator="dilate"
         id="feMorphology4393-1-0-49-8-9-3-9-0" />
      <feComposite
         result="composite2"
         operator="over"
         in="SourceGraphic"
         in2="result3"
         id="feComposite4385-9-5-7-0-8-0-0-3" />
    </filter>
    <filter
       inkscape:label="deevad outline effect"
       id="filter4375-4-1-1-1-9-7-7"
       style="color-interpolation-filters:sRGB">
      <feFlood
         result="flood"
         flood-color="rgb(0,0,0)"
         flood-opacity="1"
         id="feFlood4377-7-9-0-8-1-4-8" />
      <feComposite
         result="composite1"
         operator="in"
         in="flood"
         in2="SourceGraphic"
         id="feComposite4379-3-8-8-2-77-7-8" />
      <feMorphology
         result="result3"
         radius="4"
         operator="dilate"
         id="feMorphology4393-1-0-49-8-9-3-9" />
      <feComposite
         result="composite2"
         operator="over"
         in="SourceGraphic"
         in2="result3"
         id="feComposite4385-9-5-7-0-8-0-0" />
    </filter>
    <filter
       inkscape:label="deevad outline effect"
       id="filter4375-4-1-1-1-9-7"
       style="color-interpolation-filters:sRGB">
      <feFlood
         result="flood"
         flood-color="rgb(0,0,0)"
         flood-opacity="1"
         id="feFlood4377-7-9-0-8-1-4" />
      <feComposite
         result="composite1"
         operator="in"
         in="flood"
         in2="SourceGraphic"
         id="feComposite4379-3-8-8-2-77-7" />
      <feMorphology
         result="result3"
         radius="4"
         operator="dilate"
         id="feMorphology4393-1-0-49-8-9-3" />
      <feComposite
         result="composite2"
         operator="over"
         in="SourceGraphic"
         in2="result3"
         id="feComposite4385-9-5-7-0-8-0" />
    </filter>
    <filter
       inkscape:label="deevad outline effect"
       id="filter4375-4-1-1-1-9-75"
       style="color-interpolation-filters:sRGB">
      <feFlood
         result="flood"
         flood-color="rgb(0,0,0)"
         flood-opacity="1"
         id="feFlood4377-7-9-0-8-1-3" />
      <feComposite
         result="composite1"
         operator="in"
         in="flood"
         in2="SourceGraphic"
         id="feComposite4379-3-8-8-2-77-5" />
      <feMorphology
         result="result3"
         radius="4"
         operator="dilate"
         id="feMorphology4393-1-0-49-8-9-6" />
      <feComposite
         result="composite2"
         operator="over"
         in="SourceGraphic"
         in2="result3"
         id="feComposite4385-9-5-7-0-8-2" />
    </filter>
    <linearGradient
       gradientUnits="userSpaceOnUse"
       y2="254.66634"
       x2="521.5141"
       y1="252.79726"
       x1="483.93088"
       id="linearGradient966"
       xlink:href="#linearGradient964"
       inkscape:collect="always"
       gradientTransform="matrix(0.9620232,0,0,1.1282469,-764.28464,-38.250005)" />
    <linearGradient
       id="linearGradient964"
       inkscape:collect="always">
      <stop
         id="stop960"
         offset="0"
         style="stop-color:#918a6f;stop-opacity:1;" />
      <stop
         id="stop962"
         offset="1"
         style="stop-color:#c2bb9f;stop-opacity:1" />
    </linearGradient>
    <radialGradient
       gradientUnits="userSpaceOnUse"
       gradientTransform="matrix(1.0760297,-0.00865386,0.00801478,1.3707011,-845.99625,-48.45967)"
       r="182.11266"
       fy="230.87151"
       fx="322.14978"
       cy="230.87151"
       cx="322.14978"
       id="radialGradient932"
       xlink:href="#linearGradient928"
       inkscape:collect="always" />
    <linearGradient
       id="linearGradient928"
       inkscape:collect="always">
      <stop
         id="stop924"
         offset="0"
         style="stop-color:#f3efe0;stop-opacity:1" />
      <stop
         id="stop926"
         offset="1"
         style="stop-color:#d9cc9d;stop-opacity:1" />
    </linearGradient>
    <filter
       inkscape:label="Roughen"
       id="filter4375-4-1-1-1-9-30-2-7-6"
       style="color-interpolation-filters:sRGB">
      <feFlood
         result="flood"
         flood-color="rgb(0,0,0)"
         flood-opacity="1"
         id="feFlood4377-7-9-0-8-1-78-6-7-3" />
      <feComposite
         result="composite1"
         operator="in"
         in="flood"
         in2="SourceGraphic"
         id="feComposite4379-3-8-8-2-77-68-1-1-9" />
      <feMorphology
         result="result3"
         radius="4"
         operator="dilate"
         id="feMorphology4393-1-0-49-8-9-8-0-1-4" />
      <feComposite
         result="fbSourceGraphic"
         operator="over"
         in="SourceGraphic"
         in2="result3"
         id="feComposite4385-9-5-7-0-8-4-6-5-8" />
      <feColorMatrix
         id="feColorMatrix333-3-1-9-1"
         values="0 0 0 -1 0 0 0 0 -1 0 0 0 0 -1 0 0 0 0 1 0"
         in="fbSourceGraphic"
         result="fbSourceGraphicAlpha" />
      <feTurbulence
         result="turbulence"
         baseFrequency="0.013 0.013"
         seed="1"
         numOctaves="5"
         type="fractalNoise"
         id="feTurbulence335-1-5-7-2" />
      <feDisplacementMap
         result="fbSourceGraphic"
         xChannelSelector="R"
         yChannelSelector="G"
         scale="6.6"
         in="fbSourceGraphic"
         id="feDisplacementMap337-4-9-7-9"
         in2="turbulence" />
      <feColorMatrix
         id="feColorMatrix435-92-4-6-3"
         values="0 0 0 -1 0 0 0 0 -1 0 0 0 0 -1 0 0 0 0 1 0"
         in="fbSourceGraphic"
         result="fbSourceGraphicAlpha" />
      <feTurbulence
         result="turbulence"
         baseFrequency="0.001 0.4414"
         seed="27"
         numOctaves="5"
         type="fractalNoise"
         id="feTurbulence437-06-9-7-9" />
      <feDisplacementMap
         xChannelSelector="R"
         yChannelSelector="G"
         scale="4.27461"
         in="fbSourceGraphic"
         id="feDisplacementMap439-8-0-3-0"
         in2="turbulence" />
    </filter>
    <filter
       inkscape:label="Roughen"
       id="filter4375-4-1-1-1-9-30-2-7"
       style="color-interpolation-filters:sRGB">
      <feFlood
         result="flood"
         flood-color="rgb(0,0,0)"
         flood-opacity="1"
         id="feFlood4377-7-9-0-8-1-78-6-7" />
      <feComposite
         result="composite1"
         operator="in"
         in="flood"
         in2="SourceGraphic"
         id="feComposite4379-3-8-8-2-77-68-1-1" />
      <feMorphology
         result="result3"
         radius="4"
         operator="dilate"
         id="feMorphology4393-1-0-49-8-9-8-0-1" />
      <feComposite
         result="fbSourceGraphic"
         operator="over"
         in="SourceGraphic"
         in2="result3"
         id="feComposite4385-9-5-7-0-8-4-6-5" />
      <feColorMatrix
         id="feColorMatrix333-3-1-9"
         values="0 0 0 -1 0 0 0 0 -1 0 0 0 0 -1 0 0 0 0 1 0"
         in="fbSourceGraphic"
         result="fbSourceGraphicAlpha" />
      <feTurbulence
         result="turbulence"
         baseFrequency="0.013 0.013"
         seed="1"
         numOctaves="5"
         type="fractalNoise"
         id="feTurbulence335-1-5-7" />
      <feDisplacementMap
         result="fbSourceGraphic"
         xChannelSelector="R"
         yChannelSelector="G"
         scale="6.6"
         in="fbSourceGraphic"
         id="feDisplacementMap337-4-9-7"
         in2="turbulence" />
      <feColorMatrix
         id="feColorMatrix435-92-4-6"
         values="0 0 0 -1 0 0 0 0 -1 0 0 0 0 -1 0 0 0 0 1 0"
         in="fbSourceGraphic"
         result="fbSourceGraphicAlpha" />
      <feTurbulence
         result="turbulence"
         baseFrequency="0.001 0.4414"
         seed="27"
         numOctaves="5"
         type="fractalNoise"
         id="feTurbulence437-06-9-7" />
      <feDisplacementMap
         xChannelSelector="R"
         yChannelSelector="G"
         scale="4.27461"
         in="fbSourceGraphic"
         id="feDisplacementMap439-8-0-3"
         in2="turbulence" />
    </filter>
    <filter
       inkscape:label="Roughen"
       id="filter4375-4-1-1-1-9-30-2"
       style="color-interpolation-filters:sRGB">
      <feFlood
         result="flood"
         flood-color="rgb(0,0,0)"
         flood-opacity="1"
         id="feFlood4377-7-9-0-8-1-78-6" />
      <feComposite
         result="composite1"
         operator="in"
         in="flood"
         in2="SourceGraphic"
         id="feComposite4379-3-8-8-2-77-68-1" />
      <feMorphology
         result="result3"
         radius="4"
         operator="dilate"
         id="feMorphology4393-1-0-49-8-9-8-0" />
      <feComposite
         result="fbSourceGraphic"
         operator="over"
         in="SourceGraphic"
         in2="result3"
         id="feComposite4385-9-5-7-0-8-4-6" />
      <feColorMatrix
         id="feColorMatrix333-3-1"
         values="0 0 0 -1 0 0 0 0 -1 0 0 0 0 -1 0 0 0 0 1 0"
         in="fbSourceGraphic"
         result="fbSourceGraphicAlpha" />
      <feTurbulence
         result="turbulence"
         baseFrequency="0.013 0.013"
         seed="1"
         numOctaves="5"
         type="fractalNoise"
         id="feTurbulence335-1-5" />
      <feDisplacementMap
         result="fbSourceGraphic"
         xChannelSelector="R"
         yChannelSelector="G"
         scale="6.6"
         in="fbSourceGraphic"
         id="feDisplacementMap337-4-9"
         in2="turbulence" />
      <feColorMatrix
         id="feColorMatrix435-92-4"
         values="0 0 0 -1 0 0 0 0 -1 0 0 0 0 -1 0 0 0 0 1 0"
         in="fbSourceGraphic"
         result="fbSourceGraphicAlpha" />
      <feTurbulence
         result="turbulence"
         baseFrequency="0.001 0.4414"
         seed="27"
         numOctaves="5"
         type="fractalNoise"
         id="feTurbulence437-06-9" />
      <feDisplacementMap
         xChannelSelector="R"
         yChannelSelector="G"
         scale="4.27461"
         in="fbSourceGraphic"
         id="feDisplacementMap439-8-0"
         in2="turbulence" />
    </filter>
    <filter
       inkscape:label="Roughen"
       id="filter4375-4-1-1-1-9-30"
       style="color-interpolation-filters:sRGB">
      <feFlood
         result="flood"
         flood-color="rgb(0,0,0)"
         flood-opacity="1"
         id="feFlood4377-7-9-0-8-1-78" />
      <feComposite
         result="composite1"
         operator="in"
         in="flood"
         in2="SourceGraphic"
         id="feComposite4379-3-8-8-2-77-68" />
      <feMorphology
         result="result3"
         radius="4"
         operator="dilate"
         id="feMorphology4393-1-0-49-8-9-8" />
      <feComposite
         result="fbSourceGraphic"
         operator="over"
         in="SourceGraphic"
         in2="result3"
         id="feComposite4385-9-5-7-0-8-4" />
      <feColorMatrix
         id="feColorMatrix333-3"
         values="0 0 0 -1 0 0 0 0 -1 0 0 0 0 -1 0 0 0 0 1 0"
         in="fbSourceGraphic"
         result="fbSourceGraphicAlpha" />
      <feTurbulence
         result="turbulence"
         baseFrequency="0.013 0.013"
         seed="1"
         numOctaves="5"
         type="fractalNoise"
         id="feTurbulence335-1" />
      <feDisplacementMap
         result="fbSourceGraphic"
         xChannelSelector="R"
         yChannelSelector="G"
         scale="6.6"
         in="fbSourceGraphic"
         id="feDisplacementMap337-4"
         in2="turbulence" />
      <feColorMatrix
         id="feColorMatrix435-92"
         values="0 0 0 -1 0 0 0 0 -1 0 0 0 0 -1 0 0 0 0 1 0"
         in="fbSourceGraphic"
         result="fbSourceGraphicAlpha" />
      <feTurbulence
         result="turbulence"
         baseFrequency="0.001 0.4414"
         seed="27"
         numOctaves="5"
         type="fractalNoise"
         id="feTurbulence437-06" />
      <feDisplacementMap
         xChannelSelector="R"
         yChannelSelector="G"
         scale="4.27461"
         in="fbSourceGraphic"
         id="feDisplacementMap439-8"
         in2="turbulence" />
    </filter>
    <filter
       inkscape:label="Roughen"
       id="filter4375-4-1-1-1-9-3"
       style="color-interpolation-filters:sRGB">
      <feFlood
         result="flood"
         flood-color="rgb(0,0,0)"
         flood-opacity="1"
         id="feFlood4377-7-9-0-8-1-6" />
      <feComposite
         result="composite1"
         operator="in"
         in="flood"
         in2="SourceGraphic"
         id="feComposite4379-3-8-8-2-77-75" />
      <feMorphology
         result="result3"
         radius="4"
         operator="dilate"
         id="feMorphology4393-1-0-49-8-9-35" />
      <feComposite
         result="fbSourceGraphic"
         operator="over"
         in="SourceGraphic"
         in2="result3"
         id="feComposite4385-9-5-7-0-8-6" />
      <feColorMatrix
         id="feColorMatrix333"
         values="0 0 0 -1 0 0 0 0 -1 0 0 0 0 -1 0 0 0 0 1 0"
         in="fbSourceGraphic"
         result="fbSourceGraphicAlpha" />
      <feTurbulence
         result="turbulence"
         baseFrequency="0.013 0.013"
         seed="1"
         numOctaves="5"
         type="fractalNoise"
         id="feTurbulence335" />
      <feDisplacementMap
         result="fbSourceGraphic"
         xChannelSelector="R"
         yChannelSelector="G"
         scale="6.6"
         in="fbSourceGraphic"
         id="feDisplacementMap337"
         in2="turbulence" />
      <feColorMatrix
         id="feColorMatrix435"
         values="0 0 0 -1 0 0 0 0 -1 0 0 0 0 -1 0 0 0 0 1 0"
         in="fbSourceGraphic"
         result="fbSourceGraphicAlpha" />
      <feTurbulence
         result="turbulence"
         baseFrequency="0.001 0.4414"
         seed="27"
         numOctaves="5"
         type="fractalNoise"
         id="feTurbulence437" />
      <feDisplacementMap
         xChannelSelector="R"
         yChannelSelector="G"
         scale="4.27461"
         in="fbSourceGraphic"
         id="feDisplacementMap439"
         in2="turbulence" />
    </filter>
    <filter
       height="1.0091056"
       y="-0.0045528179"
       width="1.0031157"
       x="-0.0015578248"
       id="filter4210-3"
       style="color-interpolation-filters:sRGB"
       inkscape:collect="always">
      <feGaussianBlur
         id="feGaussianBlur4212-9"
         stdDeviation="0.2079876"
         inkscape:collect="always" />
    </filter>
    <filter
       height="1.0091056"
       y="-0.0045528179"
       width="1.0031157"
       x="-0.0015578248"
       id="filter4210"
       style="color-interpolation-filters:sRGB"
       inkscape:collect="always">
      <feGaussianBlur
         id="feGaussianBlur4212"
         stdDeviation="0.2079876"
         inkscape:collect="always" />
    </filter>
  </defs>
  <sodipodi:namedview
     inkscape:document-rotation="0"
     inkscape:snap-global="false"
     inkscape:current-layer="layer1"
     inkscape:window-maximized="1"
     inkscape:window-y="26"
     inkscape:window-x="1920"
     inkscape:cy="2691.0074"
     inkscape:cx="1131.559"
     inkscape:zoom="0.38945019"
     showgrid="false"
     id="namedview4"
     inkscape:window-height="1025"
     inkscape:window-width="1920"
     inkscape:pageshadow="2"
     inkscape:pageopacity="0"
     guidetolerance="10"
     gridtolerance="10"
     objecttolerance="10"
     borderopacity="1"
     bordercolor="#666666"
     pagecolor="#ffffff" />
  <g
     sodipodi:insensitive="true"
     inkscape:label="artwork"
     id="layer2"
     inkscape:groupmode="layer">
    <image
       sodipodi:absref="C:\Users\stero\Documents\Kernewek\Pepper and Carrot\webcomics\ep27_Coriander-s-Invention\lang\gfx_Pepper-and-Carrot_by-David-Revoy_E27P06.png"
       xlink:href="../gfx_Pepper-and-Carrot_by-David-Revoy_E27P06.png"
       y="0"
       x="0"
       id="image10"
       height="3503"
       width="2481" />
  </g>
  <g
     inkscape:label="speechbubbles"
     id="layer3"
     inkscape:groupmode="layer">
    <path
       inkscape:connector-curvature="0"
       id="path1055"
       d="m 124.51579,228.98155 c 0,-50.95751 15.60693,-73.97057 36.41615,-85.47711 20.80924,-11.50653 93.64154,-19.72548 128.32359,-14.79411 34.68205,4.93137 67.62999,-3.28758 81.50282,-3.28758 13.87281,0 88.43922,1.64379 117.91896,8.21895 29.47974,6.57516 53.75719,-3.28758 69.36412,3.28758 15.60691,6.57516 58.95947,55.88888 58.95947,78.90195 0,23.01306 -19.07511,90.40847 -41.61846,100.27122 -22.54334,9.86274 -98.84384,24.65686 -136.9941,24.65686 -38.15024,0 -98.84383,0 -156.06921,-6.57517 -57.22539,-6.57516 -107.51437,-13.15032 -130.0577,-39.45097 -22.54334,-26.30065 -26.01154,-32.87581 -27.74564,-65.75162 z"
       style="fill:#ffffff;fill-rule:evenodd;stroke:none;stroke-width:1.06281px;stroke-linecap:butt;stroke-linejoin:miter;stroke-opacity:1" />
    <path
       sodipodi:nodetypes="csscssc"
       inkscape:connector-curvature="0"
       id="path1057"
       d="m 331.00243,306.49609 c 0,0 -11.34439,15.12497 -17.23952,40.59312 -5.89513,25.46814 -7.35913,39.49755 -2.53393,61.15161 3.67951,16.51251 22.29674,57.72327 31.08248,67.32511 -23.57697,-24.17146 -47.44853,-51.19112 -54.87711,-89.33367 -3.46351,-17.78368 11.1671,-71.13643 15.72728,-83.70363 4.56019,-12.56722 27.8408,3.96746 27.8408,3.96746 z"
       style="fill:#ffffff;fill-rule:evenodd;stroke:none;stroke-width:1px;stroke-linecap:butt;stroke-linejoin:miter;stroke-opacity:1" />
    <g
       id="g975"
       transform="matrix(1.039476,0,0,0.88633082,839.29237,-4.1908013)">
      <path
         sodipodi:nodetypes="cccsscscccccccccccssccccc"
         style="fill:url(#linearGradient966);fill-opacity:1;fill-rule:evenodd;stroke:none;stroke-width:0.99999994px;stroke-linecap:butt;stroke-linejoin:miter;stroke-opacity:1"
         d="m 524.22751,191.63146 c -3.54348,-0.0348 -7.29462,0.1157 -11.15995,0.53804 0,0 -30.0934,62.27058 -34.39246,76.5103 11.46417,0 17.19658,2.58826 28.66075,3.88278 11.46419,1.29452 32.95953,-2.58907 41.55766,-3.23633 8.59813,-0.64726 15.76193,2.58904 44.42238,0 -2.86603,0.64726 -12.18043,-6.47148 -16.47949,-9.06051 -4.29907,-2.58904 -2.86564,-7.7685 -5.73169,-13.59384 -7.1651,4.53081 -12.18133,-3e-5 -15.76388,-3.23633 -3.58256,-3.2363 0,-6.73429 0,-6.73429 l 12.77953,-8.85507 c -3.1956,-18.67125 -9.78598,-23.87711 1.97813,-29.67315 l 19.34646,-0.64645 10.74778,-5.82622 -16.48174,0.64645 c -12.78626,1.01278 -21.80405,1.84038 -32.66837,1.29495 0,0 -11.46004,-1.8597 -26.81511,-2.01033 z m 14.40511,17.99219 c 0,0 11.92148,1.46891 13.54683,3.42659 1.62535,1.95768 4.33226,0.4895 6.4994,1.95776 2.16714,1.46826 4.87786,9.7878 2.71073,10.76663 -2.16714,0.97885 -5.41927,3.42554 -7.58642,2.44669 -2.16713,-0.97883 -4.87568,-5.87327 -4.87568,-5.87327 -0.54179,-4.40479 0,-6.85113 0,-6.85113 z"
         id="path101"
         inkscape:connector-curvature="0" />
      <path
         style="fill:#6c6753;fill-rule:evenodd;stroke:#6c6753;stroke-width:1px;stroke-linecap:butt;stroke-linejoin:miter;stroke-opacity:1"
         d="m 479.1379,267.64029 c 0,0 8.1984,-5.23752 15.06909,-6.63932 6.87069,-1.40181 24.66762,-6.18478 30.68906,-7.94356 6.02146,-1.75878 6.02146,-1.75878 6.02146,-1.75878 l -4.64731,-30.01543 -8.70287,-22.89613 -30.68908,2.80361 -5.49655,49.06313 z"
         id="path958"
         inkscape:connector-curvature="0" />
      <path
         sodipodi:nodetypes="ccsssccccccccccsssscccccccccscc"
         style="fill:url(#radialGradient932);fill-opacity:1;fill-rule:evenodd;stroke:none;stroke-width:0.99999994px;stroke-linecap:butt;stroke-linejoin:miter;stroke-opacity:1"
         d="m 541.89921,152.34375 c -0.14714,0.0194 -0.29648,0.0584 -0.44937,0.11719 -4.89222,1.87969 -40.11706,-0.93945 -46.96617,3.75976 -6.84911,4.69921 -102.98621,-0.94062 -119.61976,-2.82031 -16.63354,-1.87968 -98.82297,7.8e-4 -112.52117,2.82031 -13.69822,2.81953 -48.9227,6.57969 -91.97424,2.82032 l 2.93411,9.39843 0.98007,7.51758 -3.91418,7.51953 h 2.93411 l 15.65675,5.63867 v 8.45899 l -6.85034,6.57812 -10.76248,1.88086 c 0,16.44857 -8.57201,31.59947 -15.89192,50.34227 18.59043,-1.87969 21.76302,-3.75937 44.26723,-4.69922 22.50421,-0.93984 93.93032,10.33789 108.60698,10.33789 14.67666,0 46.9658,-2.81915 67.51312,-5.63867 20.54732,-2.81953 105.92276,1.14917 116.68564,0.20932 10.76288,-0.93985 24.46114,-7.51873 39.1378,-4.69921 l 10.76249,-41.15316 c 0,-4.69921 4.89223,-6.58008 4.89223,-6.58008 l -4.89223,-9.39843 c 0,0 3.91378,-12.21799 4.89223,-18.79688 0.94786,-6.37331 -0.85928,-24.21344 -5.4209,-23.61328 z m -352.27346,74.98942 c 1.88302,0.02 3.3984,0.6712 3.61122,2.30664 0.48646,3.73815 2.43327,8.87803 -0.97194,11.68164 -3.40522,2.80361 -12.16143,-0.46687 -12.16143,-2.33594 0,-1.86907 2.43188,-9.3457 2.43188,-9.3457 1.64181,-1.31419 4.66925,-2.33231 7.09027,-2.30664 z"
         id="path99"
         inkscape:connector-curvature="0" />
      <path
         style="opacity:0.53299997;vector-effect:none;fill:#cbc29a;fill-opacity:1;fill-rule:evenodd;stroke:none;stroke-width:0.99999994px;stroke-linecap:butt;stroke-linejoin:miter;stroke-miterlimit:4;stroke-dasharray:none;stroke-dashoffset:0;stroke-opacity:1"
         d="m 515.27248,172.97336 c 7.29689,-4.20541 14.59379,-4.20541 16.05316,0.93454 1.45939,5.13994 4.8646,8.87808 0.48646,10.74716 -4.37813,1.86907 -10.7021,9.81262 -13.62086,4.20541 -2.91876,-5.60722 -9.72919,-8.41082 -8.75627,-9.81263 0.97291,-1.4018 5.83751,-6.07448 5.83751,-6.07448 z"
         id="path111"
         inkscape:connector-curvature="0" />
      <path
         style="opacity:0.53299997;vector-effect:none;fill:#cbc29a;fill-opacity:1;fill-rule:evenodd;stroke:none;stroke-width:0.99999994px;stroke-linecap:butt;stroke-linejoin:miter;stroke-miterlimit:4;stroke-dasharray:none;stroke-dashoffset:0;stroke-opacity:1"
         d="m 508.02036,204.75351 c 4.8646,-2.80361 8.75627,0 8.75627,3.27087 0,3.27088 2.4323,6.54175 -2.91875,6.54175 -5.35106,0 -9.72919,0.46727 -9.72919,-3.27087 0,-3.73814 3.89167,-6.54175 3.89167,-6.54175 z"
         id="path113"
         inkscape:connector-curvature="0" />
      <path
         style="opacity:0.53299997;vector-effect:none;fill:#cbc29a;fill-opacity:1;fill-rule:evenodd;stroke:none;stroke-width:0.99999994px;stroke-linecap:butt;stroke-linejoin:miter;stroke-miterlimit:4;stroke-dasharray:none;stroke-dashoffset:0;stroke-opacity:1"
         d="m 487.65472,226.68348 c 3.40522,-6.07449 6.81043,-4.67268 6.81043,-4.67268 l 4.37813,4.67268 -5.35104,5.60721 z"
         id="path115"
         inkscape:connector-curvature="0" />
    </g>
    <path
       inkscape:connector-curvature="0"
       id="path1095"
       d="m 192.38578,1169.5119 c 24.85883,-24.8589 149.15301,-34.5862 174.01185,-34.5862 24.85883,0 146.99138,3.2424 159.9612,49.7176 12.96983,46.4752 6.48492,63.7683 -25.93965,83.2231 -32.42457,19.4547 -95.11207,43.2327 -136.18319,42.1519 -41.07112,-1.0808 -137.26401,-17.2931 -161.04203,-36.7478 -23.77801,-19.4548 -36.74784,-59.4451 -10.80818,-103.7586 z"
       style="fill:#ffffff;fill-rule:evenodd;stroke:none;stroke-width:1px;stroke-linecap:butt;stroke-linejoin:miter;stroke-opacity:1" />
    <path
       sodipodi:nodetypes="cccccssscc"
       inkscape:connector-curvature="0"
       id="path1097"
       d="m 482.13924,1201.3255 c 0,0 -8.62566,-5.3172 28.0282,-19.4148 36.65386,-14.0977 107.9013,-25.0538 135.15673,-23.1741 27.25544,1.8796 110.30926,1.2359 170.45918,31.3108 60.14993,30.075 115.60064,56.3906 153.19434,105.2624 -49.81165,-46.0523 -134.66245,-85.1159 -164.66532,-93.6365 -53.48105,-15.1883 -115.40776,-21.0243 -146.42257,-21.0243 -31.0148,0 -99.62331,14.0976 -140.03654,27.2554 -40.41323,13.1578 -69.54835,14.0977 -69.54835,14.0977 z"
       style="fill:#ffffff;fill-rule:evenodd;stroke:none;stroke-width:1px;stroke-linecap:butt;stroke-linejoin:miter;stroke-opacity:1" />
    <path
       sodipodi:nodetypes="ccccccccccc"
       inkscape:connector-curvature="0"
       id="path1099"
       d="m 2283.0909,1501.5439 c 23.4499,6.5381 57.0954,17.1624 61.1737,28.6039 4.0782,11.4416 25.489,32.6902 18.3521,51.4871 -7.137,18.7968 -27.5282,37.5937 -46.8998,48.218 -19.3717,10.6243 -56.0759,18.7968 -79.5258,20.4313 -23.4499,1.6346 -83.6039,-9.807 -100.9364,-6.538 -17.3326,3.269 -80.5453,4.9035 -112.1517,-3.269 -31.6064,-8.1726 -67.291,-38.411 -72.3888,-57.2078 -5.0979,-18.7969 17.3325,-56.3906 21.4107,-66.1976 4.0783,-9.8071 21.4108,-13.0761 21.4108,-13.0761 48.3913,-5.6098 218.249,-10.8872 289.5552,-2.4518 z"
       style="fill:#ffffff;fill-rule:evenodd;stroke:none;stroke-width:1.11693px;stroke-linecap:butt;stroke-linejoin:miter;stroke-opacity:1" />
    <path
       inkscape:connector-curvature="0"
       id="path1101"
       d="m 2038.3034,1513.8738 c -23.6245,-11.3705 -44.8868,-16.3451 -53.5491,-24.1623 -8.6623,-7.8172 -14.1748,-25.5836 -13.3872,-31.2688 0.7874,-5.6853 9.4497,-30.5583 19.6871,-33.4009 10.2373,-2.8426 44.0992,-17.7664 59.8489,-22.0303 15.7499,-4.2639 81.1112,-4.2639 96.8609,-1.4213 15.7497,2.8426 27.5621,7.1065 31.4995,7.1065 3.9374,0 17.3247,-1.4213 26.7745,0 9.4498,1.4213 25.1996,5.6853 32.287,6.3959 7.0874,0.7107 14.1747,-3.5532 25.1996,0.7107 11.0247,4.2639 25.987,9.2385 33.8619,20.609 7.8748,11.3705 19.6871,14.9238 14.9621,35.5328 -4.7248,20.609 -13.4661,26.5074 -23.2702,29.5988 -9.8041,3.0914 -49.1785,11.6193 -63.3532,10.9086 -14.1747,-0.7106 -121.273,-2.8426 -121.273,-2.8426 l -47.2491,3.5533 z"
       style="fill:#ffffff;fill-rule:evenodd;stroke:none;stroke-width:1.05267px;stroke-linecap:butt;stroke-linejoin:miter;stroke-opacity:1" />
    <path
       inkscape:connector-curvature="0"
       id="path1103"
       d="m 2009.0245,1445.6508 c -21.3196,-32.6901 -31.2688,-43.35 -49.7459,-55.4311 -18.477,-12.0812 -45.482,-11.3705 -78.8828,-5.6853 54.7205,-1.4213 65.3804,11.3705 73.9082,17.7664 8.5279,6.3959 29.1369,31.2689 35.5328,50.4566 6.3959,19.1877 19.1877,-7.1066 19.1877,-7.1066 z"
       style="fill:#ffffff;fill-rule:evenodd;stroke:none;stroke-width:1px;stroke-linecap:butt;stroke-linejoin:miter;stroke-opacity:1" />
    <path
       inkscape:connector-curvature="0"
       id="path1105"
       d="m 611.99625,1888.9622 12.89828,8.7006 -25.79658,6.2147 7.16572,43.503 -2.86628,31.0735 1.43314,24.8589 -4.29944,7.4576 20.06402,1.2429 34.39543,-1.2429 84.55547,1.2429 18.63086,-7.4576 63.05832,3.7288 64.49145,-12.4294 54.45946,2.4859 -5.73258,-8.7006 12.89829,-11.1865 -10.032,-52.2035 5.73257,-19.8871 -5.73257,-4.9718 7.16571,-7.4576 -107.48575,-4.9718 h -25.79658 l -7.16572,-3.7288 -21.49716,2.4859 -42.9943,3.7288 -22.93029,-3.7288 -25.79658,8.7006 -22.9303,1.2429 z"
       style="fill:#ffffff;fill-rule:evenodd;stroke:none;stroke-width:1.07379px;stroke-linecap:butt;stroke-linejoin:miter;stroke-opacity:1" />
    <path
       inkscape:connector-curvature="0"
       id="path1107"
       d="m 695.82455,2030.7094 75.31388,-11.1864 46.47026,1.2429 78.51873,-6.2147 102.55506,1.2429 17.62662,1.243 -3.2048,33.5594 -33.65089,2.4859 36.85569,9.9435 -6.4097,29.8306 -11.21692,3.7289 16.02422,4.9717 -11.2169,4.9718 h -91.33816 l -56.0848,-2.4859 -33.65088,1.243 -64.09693,6.2147 -25.63875,1.2429 -36.85573,-7.4576 6.40969,-31.0736 22.43392,-8.7006 -27.2412,-4.9718 z"
       style="fill:#ffffff;fill-rule:evenodd;stroke:none;stroke-width:1.13544px;stroke-linecap:butt;stroke-linejoin:miter;stroke-opacity:1" />
    <path
       inkscape:connector-curvature="0"
       id="path1109"
       d="m 718.59082,2119.9676 66.21354,4.5468 2.36478,-6.8202 15.371,3.4101 h 86.31409 l 46.11299,-10.2302 21.28293,-4.5468 11.82381,10.2303 53.20734,-12.5036 8.2766,-3.4102 59.1192,2.2734 -2.3647,7.9569 36.6541,5.6835 -1.1824,12.5036 -2.3649,13.6402 -20.1005,3.4102 -2.3647,5.6834 26.0125,4.5467 -2.3647,15.9137 -2.365,6.8202 -17.7357,3.4101 17.7357,6.8201 2.365,12.5036 -1.1826,40.9209 v 39.7842 l 4.7296,19.3238 v 10.2302 l -11.8239,-2.2734 5.9119,12.5036 -55.572,-1.1367 -50.8425,4.5468 h -22.46544 l -43.74817,-1.1367 -29.5596,6.8201 -43.74825,-5.6834 -36.65392,1.1367 -40.20109,2.2734 -67.39593,-1.1367 -11.82385,2.2733 v -13.6402 l 5.91193,-2.2734 -5.91193,-5.6834 -3.54715,-37.511 17.73577,-7.9568 -2.36477,-9.0934 -11.82385,-1.1368 -5.91191,-31.8273 2.36476,-7.9569 16.55339,-4.5467 v -4.5468 l -21.28293,-7.9568 2.36478,-9.0936 7.0943,-37.5108 z"
       style="fill:#ffffff;fill-rule:evenodd;stroke:none;stroke-width:1.07262px;stroke-linecap:butt;stroke-linejoin:miter;stroke-opacity:1" />
    <path
       sodipodi:nodetypes="cccccccccccccccccc"
       inkscape:connector-curvature="0"
       id="path1111"
       d="m 1192.053,2451.3632 -38.9095,-116.7285 -20.5355,-3.2425 -1.0808,35.6671 -159.9612,-194.5474 -27.02047,37.8286 -86.46552,-154.5571 -20.53556,19.4548 -32.42457,-110.2436 -50.79849,-8.6465 77.81896,143.7489 16.33097,-14.4505 85.04421,161.7527 40.21211,-44.6244 154.55706,190.2241 12.9698,3.2425 3.2425,-25.9397 z"
       style="fill:#ffffff;fill-rule:evenodd;stroke:none;stroke-width:1px;stroke-linecap:butt;stroke-linejoin:miter;stroke-opacity:1" />
  </g>
  <g
     inkscape:label="txt"
     id="layer1"
     inkscape:groupmode="layer">
    <text
       id="text4246"
       y="191.83766"
       x="365.02747"
       style="font-style:normal;font-variant:normal;font-weight:normal;font-stretch:normal;line-height:0%;font-family:Lavi;-inkscape-font-specification:Lavi;text-align:center;letter-spacing:0px;word-spacing:0px;text-anchor:middle;fill:#000000;fill-opacity:1;stroke:none"
       xml:space="preserve"><tspan
         id="tspan762"
         y="191.83766"
         x="365.02747"
         style="font-size:45px;line-height:1.2"
         sodipodi:role="line">Yma tybyans dhymm</tspan><tspan
         id="tspan177"
         y="245.83766"
         x="365.02747"
         style="font-size:45px;line-height:1.2"
         sodipodi:role="line">fatel alsen ni usya</tspan><tspan
         id="tspan179"
         y="299.83768"
         x="365.02747"
         style="font-size:45px;line-height:1.2"
         sodipodi:role="line">an pryv ma.</tspan></text>
    <text
       transform="matrix(0.77821249,-0.28959874,-0.30299683,1.0489343,541.49337,-699.9517)"
       id="text4580"
       y="1584.5073"
       x="787.65729"
       style="font-style:normal;font-variant:normal;font-weight:normal;font-stretch:normal;line-height:0%;font-family:Lavi;-inkscape-font-specification:Lavi;letter-spacing:0px;word-spacing:0px;fill:#000000;fill-opacity:1;stroke:#000000;stroke-width:0.992362;stroke-miterlimit:4;stroke-dasharray:none;stroke-opacity:1;filter:url(#filter4375-4-1-1-1-9)"
       xml:space="preserve"><tspan
         style="font-size:70px;line-height:1.25;fill:#ffffff"
         y="1584.5073"
         x="787.65729"
         id="tspan4582"
         sodipodi:role="line"><tspan
           id="tspan4617"
           style="font-size:80.4001px">Tyng!</tspan></tspan></text>
    <text
       id="text4246-3"
       y="192.86003"
       x="1215.2571"
       style="font-style:normal;font-variant:normal;font-weight:normal;font-stretch:normal;line-height:1.2;font-family:Lavi;-inkscape-font-specification:Lavi;text-align:center;letter-spacing:0px;word-spacing:0px;text-anchor:middle;fill:#000000;fill-opacity:1;stroke:none"
       xml:space="preserve"><tspan
         id="tspan18"
         y="192.86003"
         x="1215.2571"
         style="font-style:italic;font-variant:normal;font-weight:normal;font-stretch:normal;font-size:45px;line-height:1.2;font-family:Fondamento;-inkscape-font-specification:'Fondamento Italic'"
         sodipodi:role="line">Y'n gorthugher...</tspan></text>
    <text
       id="text4246-2"
       y="1197.3075"
       x="357.30118"
       style="font-style:normal;font-variant:normal;font-weight:normal;font-stretch:normal;line-height:0%;font-family:Lavi;-inkscape-font-specification:Lavi;text-align:center;letter-spacing:0px;word-spacing:0px;text-anchor:middle;fill:#000000;fill-opacity:1;stroke:none"
       xml:space="preserve"><tspan
         id="tspan939"
         y="1197.3075"
         x="357.30118"
         style="font-size:45px;line-height:1.2"
         sodipodi:role="line">Pepper,</tspan><tspan
         id="tspan196"
         y="1251.3075"
         x="357.30118"
         style="font-size:45px;line-height:1.2"
         sodipodi:role="line">awenydhes os!</tspan></text>
    <text
       id="text4246-2-0"
       y="1472.6672"
       x="2144.4941"
       style="font-style:normal;font-variant:normal;font-weight:normal;font-stretch:normal;line-height:0%;font-family:Lavi;-inkscape-font-specification:Lavi;text-align:center;letter-spacing:0px;word-spacing:0px;text-anchor:middle;fill:#000000;fill-opacity:1;stroke:none"
       xml:space="preserve"><tspan
         id="tspan939-3"
         y="1472.6672"
         x="2144.4941"
         style="font-size:45px;line-height:1.2"
         sodipodi:role="line">Nag ov, ty yw.</tspan></text>
    <text
       id="text4246-2-0-6"
       y="1566.0084"
       x="2155.8489"
       style="font-style:normal;font-variant:normal;font-weight:normal;font-stretch:normal;line-height:0%;font-family:Lavi;-inkscape-font-specification:Lavi;text-align:center;letter-spacing:0px;word-spacing:0px;text-anchor:middle;fill:#000000;fill-opacity:1;stroke:none"
       xml:space="preserve"><tspan
         id="tspan982"
         y="1566.0084"
         x="2155.8489"
         style="font-size:45px;line-height:1.2"
         sodipodi:role="line">Dha dhismygyans</tspan><tspan
         id="tspan201"
         y="1620.0084"
         x="2155.8489"
         style="font-size:45px;line-height:1.2"
         sodipodi:role="line">tejy yw!</tspan></text>
    <text
       id="text4246-3-3-2"
       y="1942.2516"
       x="781.71912"
       style="font-style:normal;font-variant:normal;font-weight:normal;font-stretch:normal;line-height:0%;font-family:Lavi;-inkscape-font-specification:Lavi;text-align:center;letter-spacing:0px;word-spacing:0px;text-anchor:middle;fill:#000000;fill-opacity:1;stroke:none"
       xml:space="preserve"><tspan
         id="tspan998"
         y="1942.2516"
         x="781.71912"
         style="font-style:normal;font-variant:normal;font-weight:normal;font-stretch:normal;font-size:32px;line-height:1.4;font-family:'Press Start 2P';-inkscape-font-specification:'Press Start 2P'"
         sodipodi:role="line">An nessa,</tspan><tspan
         id="tspan205"
         y="1987.0516"
         x="781.71912"
         style="font-style:normal;font-variant:normal;font-weight:normal;font-stretch:normal;font-size:32px;line-height:1.4;font-family:'Press Start 2P';-inkscape-font-specification:'Press Start 2P'"
         sodipodi:role="line">mar pleg.</tspan></text>
    <text
       id="text4246-3-3-2-6"
       y="2079.8193"
       x="862.06146"
       style="font-style:normal;font-variant:normal;font-weight:normal;font-stretch:normal;line-height:0%;font-family:Lavi;-inkscape-font-specification:Lavi;text-align:center;letter-spacing:0px;word-spacing:0px;text-anchor:middle;fill:#000000;fill-opacity:1;stroke:none"
       xml:space="preserve"><tspan
         id="tspan998-6"
         y="2079.8193"
         x="862.06146"
         style="font-style:normal;font-variant:normal;font-weight:normal;font-stretch:normal;font-size:32px;line-height:1.4;font-family:'Press Start 2P';-inkscape-font-specification:'Press Start 2P'"
         sodipodi:role="line">Dydh da,</tspan></text>
    <text
       id="text4246-3-3-2-6-1"
       y="2171.5"
       x="916.5"
       style="font-style:normal;font-variant:normal;font-weight:normal;font-stretch:normal;line-height:0%;font-family:Lavi;-inkscape-font-specification:Lavi;text-align:center;letter-spacing:0px;word-spacing:0px;text-anchor:middle;fill:#000000;fill-opacity:1;stroke:none"
       xml:space="preserve"><tspan
         id="tspan128"
         y="2171.5"
         x="916.5"
         style="font-style:normal;font-variant:normal;font-weight:normal;font-stretch:normal;font-size:32px;line-height:1.4;font-family:'Press Start 2P';-inkscape-font-specification:'Press Start 2P'"
         sodipodi:role="line">esos ta</tspan><tspan
         id="tspan220"
         y="2216.3"
         x="916.5"
         style="font-style:normal;font-variant:normal;font-weight:normal;font-stretch:normal;font-size:32px;line-height:1.4;font-family:'Press Start 2P';-inkscape-font-specification:'Press Start 2P'"
         sodipodi:role="line"> ow tewlel </tspan><tspan
         id="tspan216"
         y="2261.1001"
         x="916.5"
         style="font-style:normal;font-variant:normal;font-weight:normal;font-stretch:normal;font-size:32px;line-height:1.4;font-family:'Press Start 2P';-inkscape-font-specification:'Press Start 2P'"
         sodipodi:role="line">moldrans </tspan><tspan
         id="tspan218"
         y="2305.8999"
         x="916.5"
         style="font-style:normal;font-variant:normal;font-weight:normal;font-stretch:normal;font-size:32px;line-height:1.4;font-family:'Press Start 2P';-inkscape-font-specification:'Press Start 2P'"
         sodipodi:role="line">haneth?</tspan></text>
    <text
       transform="matrix(0.96049651,0,-0.32716292,1.0411282,0,0)"
       id="text4213"
       y="3318.4402"
       x="2422.7964"
       style="font-style:normal;font-variant:normal;font-weight:normal;font-stretch:normal;font-size:43.8573px;line-height:0%;font-family:Lavi;-inkscape-font-specification:'Lavi, Normal';font-variant-ligatures:normal;font-variant-caps:normal;font-variant-numeric:normal;font-feature-settings:normal;text-align:center;letter-spacing:0px;word-spacing:0px;writing-mode:lr-tb;text-anchor:middle;display:inline;fill:#241c1c;fill-opacity:1;stroke:#000000;stroke-width:0.822;stroke-miterlimit:4;stroke-dasharray:none;stroke-opacity:1"
       xml:space="preserve"><tspan
         style="font-style:normal;font-variant:normal;font-weight:normal;font-stretch:normal;font-size:43.8573px;line-height:1.25;font-family:Lavi;-inkscape-font-specification:'Lavi, Normal';font-variant-ligatures:normal;font-variant-caps:normal;font-variant-numeric:normal;font-feature-settings:normal;text-align:center;writing-mode:lr-tb;text-anchor:middle;stroke-width:0.822"
         y="3318.4402"
         x="2422.7964"
         id="tspan3562"
         sodipodi:role="line">DHE VOS YSTYNNYS...</tspan></text>
    <text
       transform="matrix(1.1613654,-0.69321719,0.44569052,1.6077045,-156.83333,-1430.875)"
       id="text4580-2"
       y="1584.5073"
       x="787.65729"
       style="font-style:normal;font-variant:normal;font-weight:normal;font-stretch:normal;line-height:0%;font-family:Lavi;-inkscape-font-specification:Lavi;letter-spacing:0px;word-spacing:0px;fill:#000000;fill-opacity:1;stroke:#000000;stroke-width:0;stroke-linecap:square;stroke-miterlimit:4;stroke-dasharray:none;stroke-opacity:1;filter:url(#filter4375-4-1-1-1-9-3)"
       xml:space="preserve"><tspan
         style="font-style:normal;font-variant:normal;font-weight:normal;font-stretch:normal;font-size:70px;line-height:1.25;font-family:ComicSpice;-inkscape-font-specification:ComicSpice;fill:#ffffff;stroke-width:0;stroke-linecap:square;stroke-miterlimit:4;stroke-dasharray:none"
         y="1584.5073"
         x="787.65729"
         id="tspan4582-9"
         sodipodi:role="line">B</tspan></text>
    <text
       transform="matrix(1.0231831,-0.61448535,0.39266108,1.4251102,81.385407,-1213.691)"
       id="text4580-9-1"
       y="1584.5073"
       x="787.65729"
       style="font-style:normal;font-variant:normal;font-weight:normal;font-stretch:normal;line-height:0%;font-family:Lavi;-inkscape-font-specification:Lavi;letter-spacing:0px;word-spacing:0px;fill:#000000;fill-opacity:1;stroke:#000000;stroke-width:0;stroke-linecap:square;stroke-miterlimit:4;stroke-dasharray:none;stroke-opacity:1;filter:url(#filter4375-4-1-1-1-9-30)"
       xml:space="preserve"><tspan
         style="font-style:normal;font-variant:normal;font-weight:normal;font-stretch:normal;font-size:70px;line-height:1.25;font-family:ComicSpice;-inkscape-font-specification:ComicSpice;fill:#ffffff;stroke-width:0;stroke-linecap:square;stroke-miterlimit:4;stroke-dasharray:none"
         y="1584.5073"
         x="787.65729"
         id="tspan4582-26"
         sodipodi:role="line">Z</tspan></text>
    <text
       transform="matrix(0.96706972,-0.54046136,0.32409822,1.325527,277.0066,-1122.6108)"
       id="text4580-9-9"
       y="1584.5073"
       x="787.65729"
       style="font-style:normal;font-variant:normal;font-weight:normal;font-stretch:normal;line-height:0%;font-family:Lavi;-inkscape-font-specification:Lavi;letter-spacing:0px;word-spacing:0px;fill:#000000;fill-opacity:1;stroke:#000000;stroke-width:0;stroke-linecap:square;stroke-miterlimit:4;stroke-dasharray:none;stroke-opacity:1;filter:url(#filter4375-4-1-1-1-9-30-2)"
       xml:space="preserve"><tspan
         style="font-style:normal;font-variant:normal;font-weight:normal;font-stretch:normal;font-size:70px;line-height:1.25;font-family:ComicSpice;-inkscape-font-specification:ComicSpice;fill:#ffffff;stroke-width:0;stroke-linecap:square;stroke-miterlimit:4;stroke-dasharray:none"
         y="1584.5073"
         x="787.65729"
         id="tspan4582-26-1"
         sodipodi:role="line">Z</tspan></text>
    <text
       transform="matrix(0.79978398,-0.46065546,0.26803503,1.1297963,538.53638,-881.29232)"
       id="text4580-9-9-6"
       y="1584.5073"
       x="787.65729"
       style="font-style:normal;font-variant:normal;font-weight:normal;font-stretch:normal;line-height:0%;font-family:Lavi;-inkscape-font-specification:Lavi;letter-spacing:0px;word-spacing:0px;fill:#000000;fill-opacity:1;stroke:#000000;stroke-width:0;stroke-linecap:square;stroke-miterlimit:4;stroke-dasharray:none;stroke-opacity:1;filter:url(#filter4375-4-1-1-1-9-30-2-7)"
       xml:space="preserve"><tspan
         style="font-style:normal;font-variant:normal;font-weight:normal;font-stretch:normal;font-size:70px;line-height:1.25;font-family:ComicSpice;-inkscape-font-specification:ComicSpice;fill:#ffffff;stroke-width:0;stroke-linecap:square;stroke-miterlimit:4;stroke-dasharray:none"
         y="1584.5073"
         x="787.65729"
         id="tspan4582-26-1-5"
         sodipodi:role="line">Z</tspan></text>
    <text
       transform="matrix(1.2353491,-0.45667938,0.06126805,1.7149541,559.73632,-1837.3338)"
       id="text4580-9-9-6-8"
       y="1584.5073"
       x="787.65729"
       style="font-style:normal;font-variant:normal;font-weight:normal;font-stretch:normal;line-height:0%;font-family:Lavi;-inkscape-font-specification:Lavi;letter-spacing:0px;word-spacing:0px;fill:#000000;fill-opacity:1;stroke:#000000;stroke-width:0;stroke-linecap:square;stroke-miterlimit:4;stroke-dasharray:none;stroke-opacity:1;filter:url(#filter4375-4-1-1-1-9-30-2-7-6)"
       xml:space="preserve"><tspan
         style="font-style:normal;font-variant:normal;font-weight:normal;font-stretch:normal;font-size:70px;line-height:1.25;font-family:ComicSpice;-inkscape-font-specification:ComicSpice;fill:#ffffff;stroke-width:0;stroke-linecap:square;stroke-miterlimit:4;stroke-dasharray:none"
         y="1584.5073"
         x="787.65729"
         id="tspan4582-26-1-5-8"
         sodipodi:role="line">!</tspan></text>
    <text
       transform="matrix(0.43806884,-0.0642896,-0.00211348,0.65091426,1449.4618,-231.63771)"
       id="text4246-5-9"
       y="1085.962"
       x="1174.0292"
       style="font-style:normal;font-variant:normal;font-weight:normal;font-stretch:normal;line-height:0%;font-family:Lavi;-inkscape-font-specification:Lavi;text-align:center;letter-spacing:0px;word-spacing:0px;text-anchor:middle;display:inline;opacity:0.6;fill:#c9bbb2;fill-opacity:1;stroke:#c9bbb2;stroke-width:2.68153;stroke-miterlimit:4;stroke-dasharray:none;stroke-opacity:1;filter:url(#filter4210)"
       xml:space="preserve"><tspan
         id="tspan754-5"
         y="1085.962"
         x="1174.0292"
         style="font-style:normal;font-variant:normal;font-weight:normal;font-stretch:normal;font-size:45.0081px;line-height:1;font-family:Fondamento;-inkscape-font-specification:Fondamento;fill:#c9bbb2;fill-opacity:1;stroke:#c9bbb2;stroke-width:2.68153;stroke-miterlimit:4;stroke-dasharray:none;stroke-opacity:1"
         sodipodi:role="line">KURUNYANS</tspan><tspan
         id="tspan186"
         y="1130.9701"
         x="1174.0292"
         style="font-style:normal;font-variant:normal;font-weight:normal;font-stretch:normal;font-size:45.0081px;line-height:1;font-family:Fondamento;-inkscape-font-specification:Fondamento;fill:#c9bbb2;fill-opacity:1;stroke:#c9bbb2;stroke-width:2.68153;stroke-miterlimit:4;stroke-dasharray:none;stroke-opacity:1"
         sodipodi:role="line">HY</tspan><tspan
         id="tspan188"
         y="1175.9783"
         x="1174.0292"
         style="font-style:normal;font-variant:normal;font-weight:normal;font-stretch:normal;font-size:45.0081px;line-height:1;font-family:Fondamento;-inkscape-font-specification:Fondamento;fill:#c9bbb2;fill-opacity:1;stroke:#c9bbb2;stroke-width:2.68153;stroke-miterlimit:4;stroke-dasharray:none;stroke-opacity:1"
         sodipodi:role="line">MEUREDH</tspan></text>
    <text
       transform="matrix(0.51278087,-0.03586668,-0.01317943,0.74688801,1369.9321,-59.005938)"
       id="text4246-5-9-4"
       y="1085.962"
       x="1174.0292"
       style="font-style:normal;font-variant:normal;font-weight:normal;font-stretch:normal;line-height:0%;font-family:Lavi;-inkscape-font-specification:Lavi;text-align:center;letter-spacing:0px;word-spacing:0px;text-anchor:middle;display:inline;opacity:0.6;fill:#fff6d5;fill-opacity:1;stroke:#fff6d5;stroke-width:2.70249;stroke-miterlimit:4;stroke-dasharray:none;filter:url(#filter4210-3)"
       xml:space="preserve"><tspan
         id="tspan121-0"
         y="1085.962"
         x="1174.0292"
         style="font-style:normal;font-variant:normal;font-weight:normal;font-stretch:normal;font-size:40.9607px;line-height:1;font-family:Fondamento;-inkscape-font-specification:Fondamento;fill:#fff6d5;stroke:#fff6d5;stroke-width:2.70249;stroke-miterlimit:4;stroke-dasharray:none;stroke-opacity:1"
         sodipodi:role="line">MYGHTERNES</tspan><tspan
         id="tspan192"
         y="1129.8647"
         x="1174.0292"
         style="font-style:normal;font-variant:normal;font-weight:normal;font-stretch:normal;font-size:45.0081px;line-height:1;font-family:Fondamento;-inkscape-font-specification:Fondamento;fill:#fff6d5;stroke:#fff6d5;stroke-width:2.70249;stroke-miterlimit:4;stroke-dasharray:none;stroke-opacity:1"
         sodipodi:role="line">CORIANDER</tspan></text>
  </g>
</svg>
