<?xml version="1.0" encoding="UTF-8" standalone="no"?>
<svg
   xmlns:dc="http://purl.org/dc/elements/1.1/"
   xmlns:cc="http://creativecommons.org/ns#"
   xmlns:rdf="http://www.w3.org/1999/02/22-rdf-syntax-ns#"
   xmlns:svg="http://www.w3.org/2000/svg"
   xmlns="http://www.w3.org/2000/svg"
   xmlns:xlink="http://www.w3.org/1999/xlink"
   xmlns:sodipodi="http://sodipodi.sourceforge.net/DTD/sodipodi-0.dtd"
   xmlns:inkscape="http://www.inkscape.org/namespaces/inkscape"
   sodipodi:docname="E09P02.svg"
   height="3503"
   width="2481"
   inkscape:version="1.0 (4035a4fb49, 2020-05-01)"
   version="1.1"
   id="svg2">
  <sodipodi:namedview
     inkscape:document-rotation="0"
     inkscape:window-maximized="0"
     inkscape:window-y="0"
     inkscape:window-x="0"
     inkscape:current-layer="layer1"
     inkscape:cy="818.6204"
     inkscape:cx="868.1731"
     inkscape:zoom="0.4"
     showgrid="false"
     id="namedview70"
     inkscape:window-height="955"
     inkscape:window-width="1813"
     inkscape:pageshadow="2"
     inkscape:pageopacity="0"
     bordercolor="#666666"
     pagecolor="#ffffff" />
  <metadata
     id="metadata8">
    <rdf:RDF>
      <cc:Work
         rdf:about="">
        <dc:format>image/svg+xml</dc:format>
        <dc:type
           rdf:resource="http://purl.org/dc/dcmitype/StillImage" />
        <dc:title />
      </cc:Work>
    </rdf:RDF>
  </metadata>
  <defs
     id="defs6" />
  <sodipodi:namedview
     showguides="false"
     inkscape:current-layer="layer1"
     inkscape:window-maximized="1"
     inkscape:window-y="26"
     inkscape:window-x="0"
     inkscape:cy="636.93881"
     inkscape:cx="1179.3576"
     inkscape:zoom="0.34782609"
     showgrid="false"
     id="namedview4"
     inkscape:window-height="1025"
     inkscape:window-width="1920"
     inkscape:pageshadow="2"
     inkscape:pageopacity="0"
     guidetolerance="10"
     gridtolerance="10"
     objecttolerance="10"
     borderopacity="1"
     bordercolor="#666666"
     pagecolor="#ffffff" />
  <g
     sodipodi:insensitive="true"
     inkscape:label="artwork"
     id="layer2"
     inkscape:groupmode="layer">
    <image
       sodipodi:absref="C:\Users\stero\Documents\Kernewek\Pepper and Carrot\webcomics\ep09_The-Remedy\lang\gfx_Pepper-and-Carrot_by-David-Revoy_E09P02.png"
       xlink:href="../gfx_Pepper-and-Carrot_by-David-Revoy_E09P02.png"
       width="2481"
       height="3503"
       id="image10"
       x="0"
       y="0" />
  </g>
  <g
     inkscape:label="speechbubbles"
     id="layer3"
     inkscape:groupmode="layer" />
  <g
     inkscape:label="txt"
     id="layer1"
     inkscape:groupmode="layer">
    <path
       sodipodi:nodetypes="csssc"
       inkscape:connector-curvature="0"
       id="path3274"
       d="m 559.72349,2761.7479 c 0.69823,-90.8272 10.39136,-177.8197 339.97599,-173.6899 234.47122,2.9379 325.01162,66.3125 321.22502,180.7675 -3.7866,114.455 -129.2171,161.6951 -325.94739,159.5354 -196.73024,-2.1597 -331.18287,-48.123 -335.25362,-166.613 z"
       style="fill:#ffffff;stroke:none" />
    <path
       sodipodi:nodetypes="zssssz"
       inkscape:connector-curvature="0"
       id="path4040"
       d="m 819.72791,2609.1218 c -37.57206,32.9386 -349.0877,62.6921 -456.70313,-9.2881 -107.61544,-71.9803 -39.48832,-153.9852 23.76703,-179.1563 63.25523,-25.1711 248.29263,-50.1743 331.9091,-25.5446 83.61662,24.6295 148.37877,60.1115 151.07549,129.885 1.10065,28.4774 -12.4763,51.1651 -50.04849,84.104 z"
       style="color:#000000;display:inline;overflow:visible;visibility:visible;fill:#ffffff;fill-opacity:1;fill-rule:nonzero;stroke:none;stroke-width:1.06056917px;marker:none;enable-background:accumulate" />
    <path
       sodipodi:nodetypes="cssssc"
       inkscape:connector-curvature="0"
       id="path4546-0-3"
       d="m 114.34931,1474.9762 c 8.46121,-73.2514 108.09638,-126.2753 366.4912,-110.9123 138.41022,8.2292 295.59314,14.0306 284.80434,121.3484 -10.78899,107.3176 -236.73329,103.1826 -283.39316,105.4097 -46.65992,2.2274 -289.55763,-10.5115 -331.8637,-47.297 -26.48263,-23.0266 -36.91328,-45.8519 -36.03868,-68.5488 z"
       style="color:#000000;display:inline;overflow:visible;visibility:visible;fill:#ffffff;fill-opacity:1;fill-rule:nonzero;stroke:none;stroke-width:1px;marker:none;enable-background:accumulate" />
    <path
       sodipodi:nodetypes="csscc"
       inkscape:connector-curvature="0"
       id="path5018"
       d="m 149.5319,237.97293 c -1.29133,-57.32649 102.51212,-69.41682 193.96938,-69.58715 91.45744,-0.17032 246.58307,1.8189 244.58735,81.92893 -2.32029,93.13843 -304.71907,70.4535 -313.67524,71.81988 -8.95618,1.36625 -139.79479,-14.77599 -124.88149,-84.16166 z"
       style="color:#000000;display:inline;overflow:visible;visibility:visible;fill:#ffffff;fill-opacity:1;fill-rule:nonzero;stroke:none;stroke-width:1.0832566px;marker:none;enable-background:accumulate" />
    <path
       inkscape:connector-curvature="0"
       id="path4201"
       d="m 842.8376,505.67472 c 22.75894,31.36316 36.92168,58.48731 -3.76855,108.91199 46.07559,-30.50609 66.18145,-76.69578 53.29121,-112.23489 -12.89024,-35.53909 -49.52266,3.3229 -49.52266,3.3229 z"
       style="fill:#ffffff;fill-rule:evenodd;stroke:none;stroke-width:1px;stroke-linecap:butt;stroke-linejoin:miter;stroke-opacity:1" />
    <path
       sodipodi:nodetypes="cscsscc"
       inkscape:connector-curvature="0"
       id="path3276"
       d="m 599.66457,1809.031 c 51.60054,6.5328 69.89222,45.7908 69.53557,69.1473 -0.35672,23.3565 51.26695,38.0903 71.5221,24.124 -42.11057,37.4152 -95.95231,11.4531 -119.94631,-33.3419 -7.04419,-13.1509 -32.45984,-13.1413 -49.73119,5.435 -15.96302,17.1691 -43.85075,15.3917 -43.85075,15.3917 z"
       style="fill:#ffffff;stroke:none" />
    <path
       sodipodi:nodetypes="cssssc"
       inkscape:connector-curvature="0"
       id="path4546-0-6"
       d="m 767.15761,1782.5103 c -4.9508,67.5084 -78.92218,118.0221 -273.71999,108.4454 -104.34421,-5.1299 -222.77213,-7.6966 -216.72881,-106.5724 6.04345,-98.8756 176.19753,-99.0522 211.27651,-101.922 35.07896,-2.8698 218.16091,4.5668 250.71796,37.6483 20.37993,20.7083 28.67324,41.514 28.45433,62.4007 z"
       style="color:#000000;display:inline;overflow:visible;visibility:visible;fill:#ffffff;fill-opacity:1;fill-rule:nonzero;stroke:none;stroke-width:1px;marker:none;enable-background:accumulate" />
    <path
       sodipodi:nodetypes="cssssc"
       inkscape:connector-curvature="0"
       id="path4546-0"
       d="m 170.67551,1650.8554 c -2.21908,-109.446 85.24908,-126.3281 330.1611,-118.2726 131.18809,4.315 280.05297,5.851 273.37232,107.9964 -6.68082,102.1452 -217.83575,97.7759 -262.02132,98.5204 -47.91574,0.8073 -216.40725,-11.3635 -255.06136,-24.0838 -32.04509,-10.5454 -86.53267,-42.5929 -86.45074,-64.1604 z"
       style="color:#000000;display:inline;overflow:visible;visibility:visible;fill:#ffffff;fill-opacity:1;fill-rule:nonzero;stroke:none;stroke-width:1px;marker:none;enable-background:accumulate" />
    <path
       sodipodi:nodetypes="cssssc"
       inkscape:connector-curvature="0"
       id="path3238"
       d="m 426.64653,376.66033 c -7.57434,-111.5499 89.61051,-160.181 300.17674,-155.11055 210.5662,5.07037 268.23717,75.6538 283.38583,114.94974 15.1487,39.29601 3.3269,132.45064 -126.95148,175.54949 -130.27836,43.09868 -330.42061,16.99772 -391.04743,-31.63117 -52.44654,-42.06747 -64.04882,-74.6025 -65.56366,-103.75751 z"
       style="fill:#ffffff;fill-opacity:1;stroke:none" />
    <flowRoot
       transform="translate(318.33762,6.6910875)"
       style="font-style:normal;font-variant:normal;font-weight:normal;font-stretch:normal;line-height:0.01%;font-family:Lavi;-inkscape-font-specification:Lavi;text-align:center;letter-spacing:0px;word-spacing:0px;text-anchor:middle;fill:#000000;fill-opacity:1;stroke:none"
       id="flowRoot2987-4-9-3-7"
       xml:space="preserve"><flowRegion
         id="flowRegion2989-5-4-5-9"><rect
           style="font-style:normal;font-variant:normal;font-weight:normal;font-stretch:normal;font-family:Lavi;-inkscape-font-specification:Lavi;text-align:center;text-anchor:middle"
           y="285.65546"
           x="111.92751"
           height="220.38373"
           width="571.99487"
           id="rect2991-7-9-6-4" /></flowRegion><flowPara
         id="flowPara3458"
         style="font-size:48px;line-height:1.25;text-align:center;text-anchor:middle">My a ankovas yn tien skwychya yn farow ow &quot;system sawder&quot;</flowPara></flowRoot>
    <flowRoot
       transform="translate(121.07446,1462.6242)"
       style="font-style:normal;font-variant:normal;font-weight:normal;font-stretch:normal;line-height:0.01%;font-family:Lavi;-inkscape-font-specification:Lavi;text-align:center;letter-spacing:0px;word-spacing:0px;text-anchor:middle;fill:#000000;fill-opacity:1;stroke:none"
       id="flowRoot2987-4-9-3-7-3-7"
       xml:space="preserve"><flowRegion
         id="flowRegion2989-5-4-5-9-3-2"><rect
           style="font-style:normal;font-variant:normal;font-weight:normal;font-stretch:normal;font-family:Lavi;-inkscape-font-specification:Lavi;text-align:center;text-anchor:middle"
           y="265.53046"
           x="120.55251"
           height="312.3837"
           width="577.74487"
           id="rect2991-7-9-6-4-4-0" /></flowRegion><flowPara
         id="flowPara3468"
         style="font-size:48px;line-height:1.25;text-align:center;text-anchor:middle">Temmik a law, </flowPara><flowPara
         id="flowPara75"
         style="font-size:48px;line-height:1.25;text-align:center;text-anchor:middle">dell grysav?</flowPara></flowRoot>
    <flowRoot
       transform="translate(66.444963,1312.7913)"
       style="font-style:normal;font-variant:normal;font-weight:normal;font-stretch:normal;line-height:0.01%;font-family:Lavi;-inkscape-font-specification:Lavi;text-align:center;letter-spacing:0px;word-spacing:0px;text-anchor:middle;fill:#000000;fill-opacity:1;stroke:none"
       id="flowRoot2987-4-9-3-7-3-4"
       xml:space="preserve"><flowRegion
         id="flowRegion2989-5-4-5-9-3-0"><rect
           style="font-style:normal;font-variant:normal;font-weight:normal;font-stretch:normal;font-family:Lavi;-inkscape-font-specification:Lavi;text-align:center;text-anchor:middle"
           y="265.53046"
           x="120.55251"
           height="312.3837"
           width="577.74487"
           id="rect2991-7-9-6-4-4-2" /></flowRegion><flowPara
         id="flowPara4298-3"
         style="font-size:48px;line-height:1.25;text-align:center;text-anchor:middle">Mes marnas henna, </flowPara><flowPara
         id="flowPara71"
         style="font-size:48px;line-height:1.25;text-align:center;text-anchor:middle">fatel o dha nos?</flowPara></flowRoot>
    <flowRoot
       transform="translate(187.00435,2175.4217)"
       style="font-style:normal;font-variant:normal;font-weight:normal;font-stretch:normal;line-height:0.01%;font-family:Lavi;-inkscape-font-specification:Lavi;text-align:center;letter-spacing:0px;word-spacing:0px;text-anchor:middle;fill:#000000;fill-opacity:1;stroke:none"
       id="flowRoot2987-4-9-3-7-3-7-8"
       xml:space="preserve"><flowRegion
         id="flowRegion2989-5-4-5-9-3-2-0"><rect
           style="font-style:normal;font-variant:normal;font-weight:normal;font-stretch:normal;font-family:Lavi;-inkscape-font-specification:Lavi;text-align:center;text-anchor:middle"
           y="265.53046"
           x="120.55251"
           height="312.3837"
           width="577.74487"
           id="rect2991-7-9-6-4-4-0-8" /></flowRegion><flowPara
         id="flowPara3477"
         style="font-size:48px;line-height:1.25;text-align:center;text-anchor:middle">Assa gemerav duwon,</flowPara><flowPara
         id="flowPara82"
         style="font-size:48px;line-height:1.25;text-align:center;text-anchor:middle">mes shyndyans vyth, </flowPara><flowPara
         id="flowPara84"
         style="font-size:48px;line-height:1.25;text-align:center;text-anchor:middle">gwir?</flowPara></flowRoot>
    <path
       inkscape:connector-curvature="0"
       id="path3072"
       d="m 1216.7346,2918.2863 c -43.3715,1.0822 -59.0619,-1.0925 -84.8726,-48.9239 -25.8107,-47.8314 -41.7698,-38.7869 -41.7698,-38.7869 l -1.2183,35.8616 c 0,0 61.508,98.5494 127.8607,51.8492 z"
       style="color:#000000;display:inline;overflow:visible;visibility:visible;fill:#ffffff;fill-opacity:1;fill-rule:nonzero;stroke:none;stroke-width:1px;marker:none;enable-background:accumulate" />
    <flowRoot
       transform="translate(489.31345,2369.631)"
       style="font-style:normal;font-variant:normal;font-weight:normal;font-stretch:normal;line-height:0.01%;font-family:Lavi;-inkscape-font-specification:Lavi;text-align:center;letter-spacing:0px;word-spacing:0px;text-anchor:middle;fill:#000000;fill-opacity:1;stroke:none"
       id="flowRoot2987-4-9-3-7-3-7-8-5"
       xml:space="preserve"><flowRegion
         id="flowRegion2989-5-4-5-9-3-2-0-4"><rect
           style="font-style:normal;font-variant:normal;font-weight:normal;font-stretch:normal;font-family:Lavi;-inkscape-font-specification:Lavi;text-align:center;text-anchor:middle"
           y="265.53046"
           x="120.55251"
           height="312.3837"
           width="577.74487"
           id="rect2991-7-9-6-4-4-0-8-5" /></flowRegion><flowPara
         id="flowPara3505"
         style="font-size:48px;line-height:1.25;text-align:center;text-anchor:middle">My re bareusis te</flowPara><flowPara
         id="flowPara95"
         style="font-size:48px;line-height:1.25;text-align:center;text-anchor:middle">may hyllyn daskavos</flowPara><flowPara
         id="flowPara97"
         style="font-size:48px;line-height:1.25;text-align:center;text-anchor:middle">agan cher da wosa an droglam byghan ma!</flowPara></flowRoot>
    <flowRoot
       xml:space="preserve"
       id="flowRoot4212-3-7-8-6"
       style="font-style:normal;font-variant:normal;font-weight:normal;font-stretch:normal;line-height:0.01%;font-family:Lavi;-inkscape-font-specification:Lavi;text-align:center;letter-spacing:0px;word-spacing:0px;text-anchor:middle;fill:#000000;fill-opacity:1;stroke:#000000;stroke-width:1.97815;stroke-miterlimit:4;stroke-dasharray:none;stroke-opacity:1"
       transform="matrix(1.0893046,0,0.05787519,1.1966756,-208.64545,-108.66519)"><flowRegion
         id="flowRegion4214-6-7-8-3"><rect
           id="rect4216-4-0-26-5"
           width="798.1947"
           height="355.03918"
           x="120.55251"
           y="265.53046"
           style="font-style:normal;font-variant:normal;font-weight:normal;font-stretch:normal;font-family:Lavi;-inkscape-font-specification:Lavi;text-align:center;text-anchor:middle;stroke:#000000;stroke-width:1.97814989;stroke-miterlimit:4;stroke-dasharray:none;stroke-opacity:1" /></flowRegion><flowPara
         id="flowPara4358-7-1"
         style="font-size:48px;line-height:1.25;text-align:center;letter-spacing:5.20896px;text-anchor:middle;stroke:#000000;stroke-width:1.97815;stroke-miterlimit:4;stroke-dasharray:none;stroke-opacity:1">Diharesow...</flowPara></flowRoot>
    <flowRoot
       transform="translate(30.294829,1140.1741)"
       style="font-style:normal;font-variant:normal;font-weight:normal;font-stretch:normal;line-height:0.01%;font-family:Lavi;-inkscape-font-specification:Lavi;text-align:center;letter-spacing:0px;word-spacing:0px;text-anchor:middle;fill:#000000;fill-opacity:1;stroke:none"
       id="flowRoot2987-4-9-3-7-3-4-6"
       xml:space="preserve"><flowRegion
         id="flowRegion2989-5-4-5-9-3-0-1"><rect
           style="font-style:normal;font-variant:normal;font-weight:normal;font-stretch:normal;font-family:Lavi;-inkscape-font-specification:Lavi;text-align:center;text-anchor:middle"
           y="265.53046"
           x="120.55251"
           height="312.3837"
           width="577.74487"
           id="rect2991-7-9-6-4-4-2-6" /></flowRegion><flowPara
         id="flowPara3462"
         style="font-size:48px;line-height:1.25;text-align:center;text-anchor:middle">Mes ass ov vy lowen</flowPara><flowPara
         id="flowPara69"
         style="font-size:48px;line-height:1.25;text-align:center;text-anchor:middle">hwi dhe dhos!</flowPara></flowRoot>
    <flowRoot
       style="font-style:normal;font-variant:normal;font-weight:normal;font-stretch:normal;line-height:0.01%;font-family:Arial;-inkscape-font-specification:Arial;letter-spacing:0px;word-spacing:0px;fill:#000000;fill-opacity:1;stroke:none;stroke-width:1px;stroke-linecap:butt;stroke-linejoin:miter;stroke-opacity:1"
       id="flowRoot4519"
       xml:space="preserve"><flowRegion
         id="flowRegion4521"><rect
           y="1792.375"
           x="2866.375"
           height="17.25"
           width="103.5"
           id="rect4523" /></flowRegion><flowPara
         style="font-size:12px;line-height:1.25"
         id="flowPara4525"> </flowPara></flowRoot>
  </g>
</svg>
