<?xml version="1.0" encoding="UTF-8" standalone="no"?>
<!-- Created with Inkscape (http://www.inkscape.org/) -->

<svg
   xmlns:dc="http://purl.org/dc/elements/1.1/"
   xmlns:cc="http://creativecommons.org/ns#"
   xmlns:rdf="http://www.w3.org/1999/02/22-rdf-syntax-ns#"
   xmlns:svg="http://www.w3.org/2000/svg"
   xmlns="http://www.w3.org/2000/svg"
   xmlns:xlink="http://www.w3.org/1999/xlink"
   xmlns:sodipodi="http://sodipodi.sourceforge.net/DTD/sodipodi-0.dtd"
   xmlns:inkscape="http://www.inkscape.org/namespaces/inkscape"
   id="svg2"
   version="1.1"
   inkscape:version="0.92.2 (5c3e80d, 2017-08-06)"
   width="2481"
   height="3503"
   sodipodi:docname="E23P05.svg">
  <metadata
     id="metadata8">
    <rdf:RDF>
      <cc:Work
         rdf:about="">
        <dc:format>image/svg+xml</dc:format>
        <dc:type
           rdf:resource="http://purl.org/dc/dcmitype/StillImage" />
        <dc:title />
      </cc:Work>
    </rdf:RDF>
  </metadata>
  <defs
     id="defs6" />
  <sodipodi:namedview
     pagecolor="#ffffff"
     bordercolor="#666666"
     borderopacity="1"
     objecttolerance="10"
     gridtolerance="10"
     guidetolerance="10"
     inkscape:pageopacity="0"
     inkscape:pageshadow="2"
     inkscape:window-width="1920"
     inkscape:window-height="1022"
     id="namedview4"
     showgrid="false"
     inkscape:zoom="0.526013"
     inkscape:cx="1355.9169"
     inkscape:cy="1210.1469"
     inkscape:window-x="0"
     inkscape:window-y="26"
     inkscape:window-maximized="1"
     inkscape:current-layer="layer1"
     inkscape:document-rotation="0"
     inkscape:snap-global="false" />
  <g
     inkscape:groupmode="layer"
     id="layer2"
     inkscape:label="artwork"
     sodipodi:insensitive="true">
    <image
       sodipodi:absref="/home/nightlock/peppercarrot/webcomics/ep23_Take-a-Chance/lang/kr/../gfx_Pepper-and-Carrot_by-David-Revoy_E23P05.png"
       xlink:href="../gfx_Pepper-and-Carrot_by-David-Revoy_E23P05.png"
       width="2481"
       height="3503"
       id="image10"
       x="0"
       y="0" />
  </g>
  <g
     inkscape:groupmode="layer"
     id="layer3"
     inkscape:label="speechbubbles"
     style="display:inline">
    <path
       style="color:#000000;display:inline;overflow:visible;visibility:visible;fill:#ffffff;fill-opacity:1;fill-rule:nonzero;stroke:none;stroke-width:1px;marker:none;enable-background:accumulate"
       d="M 190.03794,456.03998 C 105.53248,444.5626 79.774292,398.97456 79.91358,318.31756 80.043488,243.09241 73.75777,101.15564 96.282331,89.076504 118.67446,77.068385 180.87351,72.693527 262.36195,73.303927 336.50294,73.85929 474.18166,42.67857 520.29715,187.12545 c 22.49808,70.47047 16.06663,193.99815 -80.08865,248.35287 -93.34679,52.76712 -250.17056,20.56166 -250.17056,20.56166 z"
       id="path3970"
       inkscape:connector-curvature="0"
       sodipodi:nodetypes="csssssc" />
    <path
       style="fill:#ffffff;fill-rule:evenodd;stroke:none;stroke-width:1px;stroke-linecap:butt;stroke-linejoin:miter;stroke-opacity:1"
       d="M 599.21792,525.82095 C 484.89991,589.88304 333.06159,463.02228 324.3431,413.59379 c -8.7185,-49.42848 29.27876,-67.41517 29.27876,-67.41517 l 26.59028,22.09505 c 0,0 -15.9022,-8.60358 -7.84832,36.35392 8.05389,44.9575 112.77168,159.17272 226.8541,121.19336 z"
       id="path4367"
       inkscape:connector-curvature="0"
       sodipodi:nodetypes="csccsc" />
    <path
       style="fill:#ffffff;stroke:none;stroke-width:1"
       d="m 1217.0633,1194.5906 c -1.2468,-36.8921 46.5626,-48.1225 80.1531,-52.8323 33.5907,-4.7097 144.8616,0.8252 137.357,45.8406 -7.5046,45.0154 -84.0653,49.691 -125.8299,47.0991 -41.7646,-2.5918 -85.4907,-5.0794 -91.6802,-40.1074 z"
       id="path3938"
       inkscape:connector-curvature="0"
       sodipodi:nodetypes="csssc" />
    <path
       style="fill:#ffffff;fill-rule:evenodd;stroke:none;stroke-width:1px;stroke-linecap:butt;stroke-linejoin:miter;stroke-opacity:1"
       d="m 1319.9169,1418.4578 c -79.6639,-37.1698 -55.9039,-129.7638 14.1457,-180.8499 70.0496,-51.086 29.4921,-47.0022 29.4921,-47.0022 0,0 -17.1327,-11.2383 -67.0329,47.9216 -49.9003,59.16 -82.7104,161.2474 23.3951,179.9305 z"
       id="path4375"
       inkscape:connector-curvature="0"
       sodipodi:nodetypes="cscsc" />
    <path
       style="fill:#ffffff;fill-opacity:1;stroke:none;stroke-width:1.09609663"
       d="m 1742.1445,1242.2558 c 5.089,-64.3163 42.5795,-98.3641 55.6077,-102.6952 36.404,-12.1022 421.5457,-24.0697 458.4768,21.2199 22.5872,27.6992 67.4795,148.0219 -21.9616,224.9716 -48.8458,42.0239 -378.4979,26.1542 -418.6802,-2.654 -41.9089,-30.0461 -81.7232,-67.2322 -73.4427,-140.8423 z"
       id="path3659"
       inkscape:connector-curvature="0"
       sodipodi:nodetypes="cssssc" />
    <path
       style="fill:#ffffff;fill-rule:evenodd;stroke:none;stroke-width:1px;stroke-linecap:butt;stroke-linejoin:miter;stroke-opacity:1"
       d="m 1756.031,1518.1378 c 24.2675,-5.1738 2.3375,-12.1848 -4.0584,-24.266 -6.3959,-12.0811 -8.0227,-26.9013 9.033,-30.4546 17.0557,-3.5532 50.4566,10.6599 50.4566,10.6599 0,0 -21.3197,-32.6902 -9.2386,-41.9287 12.0812,-9.2385 54.7206,6.3959 54.7206,6.3959 0,0 -16.3452,-45.482 19.8983,-63.2484 36.2435,-17.7664 81.7255,6.3959 55.4312,15.6344 -26.2943,9.2386 -84.5681,7.1066 -44.7713,77.4615 -62.5378,-29.8475 -60.4058,-23.4516 -64.6697,-19.1877 -4.264,4.264 9.2385,41.9287 14.2131,53.2992 -17.0558,-10.6598 -66.8017,-36.9541 -74.6189,-22.741 -7.8172,14.2132 12.0812,25.5837 11.3705,32.6902 -0.7107,7.1066 -17.7664,5.6853 -17.7664,5.6853 z"
       id="path4394"
       inkscape:connector-curvature="0"
       sodipodi:nodetypes="csscscsscscssc" />
    <path
       style="fill:#ffffff;fill-rule:evenodd;stroke:none;stroke-width:1px;stroke-linecap:butt;stroke-linejoin:miter;stroke-opacity:1"
       d="m 1870.7797,1649.0812 c 21.5843,-32.8604 213.2448,-55.6259 316.0104,-22.239 42.1754,19.2128 96.4181,77.8563 56.364,125.2802 -53.6152,29.0304 -118.6143,17.8709 -176.7686,31.1587 -67.1532,5.7443 -127.4741,9.6804 -191.8637,-15.6583 -45.4545,-29.0231 -29.3546,-85.7728 -3.7421,-118.5416 z"
       id="path4405"
       inkscape:connector-curvature="0"
       sodipodi:nodetypes="cccccc" />
    <path
       style="fill:#ffffff;fill-rule:evenodd;stroke:none;stroke-width:1px;stroke-linecap:butt;stroke-linejoin:miter;stroke-opacity:1"
       d="m 1750.9267,1594.1797 c 19.7367,-19.7367 46.0523,-32.8945 56.3906,-21.6163 10.3382,11.2781 2.8195,39.4733 2.8195,39.4733 0,0 42.2929,-21.6163 90.2249,34.7742 47.932,56.3906 17.857,52.6312 17.857,52.6312 0,0 -10.3383,-3.7594 -34.7742,-32.8945 -24.4359,-29.1351 -45.1124,-46.9921 -72.3679,-35.714 -9.3984,3.7594 -19.7367,-1.8797 -16.9171,-9.3984 12.2179,-30.075 15.9773,-64.8492 -43.2328,-27.2555 z"
       id="path4419"
       inkscape:connector-curvature="0" />
    <path
       style="fill:#ffffff;fill-rule:evenodd;stroke:none;stroke-width:1px;stroke-linecap:butt;stroke-linejoin:miter;stroke-opacity:1"
       d="m 2238.1959,1745.6006 c 58.6675,8.7998 77.5603,35.0159 98.442,65.9987 14.8065,21.969 20.8538,60.9107 -5.9016,94.9807 -24.199,30.815 -77.6603,29.2523 -114.6076,34.6316 -55.7163,8.1121 -137.8273,3.1968 -181.777,-2.0151 -41.1579,-4.8807 -83.5263,-9.6797 -99.4361,-36.0792 -15.9098,-26.3994 -10.9381,-75.6784 -4.9718,-89.7581 5.9661,-14.0797 25.8534,-55.4388 41.7632,-58.9588 15.9098,-3.5199 258.5341,-8.7998 258.5341,-8.7998 z"
       id="path4423"
       inkscape:connector-curvature="0"
       sodipodi:nodetypes="cssssssscc" />
    <path
       style="color:#000000;display:inline;overflow:visible;visibility:visible;fill:#ffffff;fill-opacity:1;fill-rule:nonzero;stroke:none;stroke-width:1px;marker:none;enable-background:accumulate"
       d="m 330.43035,2251.5789 c -4.57925,-33.0758 7.63206,-120.9334 101.50699,-113.698 93.87484,7.2352 109.13911,48.58 111.4287,60.9834 2.28967,12.4034 22.13312,82.6895 -51.13505,101.2947 -73.26827,18.6052 -138.90431,-1.0337 -161.80064,-48.5801 z"
       id="path3525"
       inkscape:connector-curvature="0" />
    <path
       style="color:#000000;display:inline;overflow:visible;visibility:visible;fill:#ffffff;fill-opacity:1;fill-rule:nonzero;stroke:none;stroke-width:0.88823932px;marker:none;enable-background:accumulate"
       d="m 181.34769,2518.2536 c -3.62715,-94.361 -37.06054,-235.2953 178.38966,-239.2107 176.70741,-3.2113 385.7536,-33.7027 385.29201,210.1832 -0.31761,167.8155 -162.32356,167.2515 -247.98024,170.4482 -182.91316,6.8263 -312.88146,-45.5168 -315.70143,-141.4207 z"
       id="path3525-0"
       inkscape:connector-curvature="0"
       sodipodi:nodetypes="csssc" />
    <path
       style="fill:#ffffff;fill-rule:evenodd;stroke:none;stroke-width:1.07884932px;stroke-linecap:butt;stroke-linejoin:miter;stroke-opacity:1"
       d="m 706.73385,2371.9356 c 107.33977,-140.7839 262.10947,-308.8988 882.96395,1.4762 -563.4824,-329.2002 -744.36405,-213.1218 -907.32075,-34.2586 -182.54564,200.3642 24.3568,32.7824 24.3568,32.7824 z"
       id="path4446"
       inkscape:connector-curvature="0"
       sodipodi:nodetypes="ccsc" />
  </g>
  <g
     inkscape:groupmode="layer"
     id="layer1"
     inkscape:label="txt">
    <text
       id="text3395"
       y="173.77419"
       x="297.14352"
       style="font-style:normal;font-variant:normal;font-weight:normal;font-stretch:normal;line-height:0%;font-family:'Nanum Pen Script OTF';-inkscape-font-specification:'Nanum Pen Script OTF';text-align:center;letter-spacing:0px;word-spacing:0px;text-anchor:middle;fill:#000000;fill-opacity:1;stroke:none"
       xml:space="preserve"><tspan
         id="tspan3401"
         y="173.77419"
         x="297.14352"
         style="font-style:normal;font-variant:normal;font-weight:normal;font-stretch:normal;font-size:56.9682045px;line-height:100%;font-family:'Nanum Pen Script OTF';-inkscape-font-specification:'Nanum Pen Script OTF'"
         sodipodi:role="line">여기 문서 밑에 작게</tspan><tspan
         y="230.74239"
         x="297.14352"
         style="font-style:normal;font-variant:normal;font-weight:normal;font-stretch:normal;font-size:56.9682045px;line-height:100%;font-family:'Nanum Pen Script OTF';-inkscape-font-specification:'Nanum Pen Script OTF'"
         sodipodi:role="line"
         id="tspan4518">서명만 하시고</tspan><tspan
         id="tspan3405"
         y="287.7106"
         x="297.14352"
         style="font-style:normal;font-variant:normal;font-weight:normal;font-stretch:normal;font-size:56.9682045px;line-height:100%;font-family:'Nanum Pen Script OTF';-inkscape-font-specification:'Nanum Pen Script OTF'"
         sodipodi:role="line">영광의 길을</tspan><tspan
         y="344.6788"
         x="297.14352"
         style="font-style:normal;font-variant:normal;font-weight:normal;font-stretch:normal;font-size:56.9682045px;line-height:100%;font-family:'Nanum Pen Script OTF';-inkscape-font-specification:'Nanum Pen Script OTF'"
         sodipodi:role="line"
         id="tspan4530">눈 앞에서</tspan><tspan
         y="401.647"
         x="297.14352"
         style="font-style:normal;font-variant:normal;font-weight:normal;font-stretch:normal;font-size:56.9682045px;line-height:100%;font-family:'Nanum Pen Script OTF';-inkscape-font-specification:'Nanum Pen Script OTF'"
         sodipodi:role="line"
         id="tspan4532">맞이해 보세요!</tspan></text>
    <text
       id="text3407"
       y="1205.7395"
       x="1326.3638"
       style="font-style:normal;font-variant:normal;font-weight:normal;font-stretch:normal;line-height:0%;font-family:'Nanum Pen Script OTF';-inkscape-font-specification:'Nanum Pen Script OTF';text-align:center;letter-spacing:0px;word-spacing:0px;text-anchor:middle;fill:#000000;fill-opacity:1;stroke:none"
       xml:space="preserve"><tspan
         id="tspan3411"
         y="1205.7395"
         x="1326.3638"
         style="font-style:normal;font-variant:normal;font-weight:normal;font-stretch:normal;font-size:56.23438263px;line-height:1.25;font-family:'Nanum Pen Script OTF';-inkscape-font-specification:'Nanum Pen Script OTF'"
         sodipodi:role="line">잠시만요.</tspan></text>
    <text
       id="text3413"
       y="1693.9885"
       x="2051.3962"
       style="font-style:normal;font-variant:normal;font-weight:normal;font-stretch:normal;line-height:0%;font-family:'Nanum Pen Script OTF';-inkscape-font-specification:'Nanum Pen Script OTF';text-align:center;letter-spacing:0px;word-spacing:0px;text-anchor:middle;fill:#000000;fill-opacity:1;stroke:none"
       xml:space="preserve"><tspan
         id="tspan3417"
         y="1693.9885"
         x="2059.4578"
         style="font-style:normal;font-variant:normal;font-weight:normal;font-stretch:normal;font-size:57.72793579px;line-height:100%;font-family:'Nanum Pen Script OTF';-inkscape-font-specification:'Nanum Pen Script OTF'"
         sodipodi:role="line">도대체 이            </tspan><tspan
         y="1751.7164"
         x="2051.3962"
         style="font-style:normal;font-variant:normal;font-weight:normal;font-stretch:normal;font-size:57.72793579px;line-height:100%;font-family:'Nanum Pen Script OTF';-inkscape-font-specification:'Nanum Pen Script OTF'"
         sodipodi:role="line"
         id="tspan3422">       는 뭐죠?!</tspan></text>
    <text
       id="text3421"
       y="1203.6216"
       x="2026.2019"
       style="font-style:normal;font-variant:normal;font-weight:normal;font-stretch:normal;line-height:0%;font-family:'Nanum Pen Script OTF';-inkscape-font-specification:'Nanum Pen Script OTF';text-align:center;letter-spacing:0px;word-spacing:0px;text-anchor:middle;fill:#000000;fill-opacity:1;stroke:none"
       xml:space="preserve"><tspan
         id="tspan3423"
         y="1203.6216"
         x="2026.2019"
         style="font-style:normal;font-variant:normal;font-weight:normal;font-stretch:normal;font-size:57.21403885px;line-height:100%;font-family:'Nanum Pen Script OTF';-inkscape-font-specification:'Nanum Pen Script OTF'"
         sodipodi:role="line">하필 제가 제일 우울할 때,</tspan><tspan
         id="tspan3429"
         y="1260.8356"
         x="2026.2019"
         style="font-style:normal;font-variant:normal;font-weight:normal;font-stretch:normal;font-size:57.21403885px;line-height:100%;font-family:'Nanum Pen Script OTF';-inkscape-font-specification:'Nanum Pen Script OTF'"
         sodipodi:role="line">하늘에서 뚝 떨어져서</tspan><tspan
         id="tspan3431"
         y="1318.0497"
         x="2026.2019"
         style="font-style:normal;font-variant:normal;font-weight:normal;font-stretch:normal;font-size:57.21403885px;line-height:100%;font-family:'Nanum Pen Script OTF';-inkscape-font-specification:'Nanum Pen Script OTF'"
         sodipodi:role="line">모든 문제를 순식간에</tspan><tspan
         y="1375.2637"
         x="2026.2019"
         style="font-style:normal;font-variant:normal;font-weight:normal;font-stretch:normal;font-size:57.21403885px;line-height:100%;font-family:'Nanum Pen Script OTF';-inkscape-font-specification:'Nanum Pen Script OTF'"
         sodipodi:role="line"
         id="tspan3418">해결해 준다고요?</tspan></text>
    <text
       id="text3433"
       y="1839.5408"
       x="2142.908"
       style="font-style:normal;font-variant:normal;font-weight:normal;font-stretch:normal;line-height:0%;font-family:'Nanum Pen Script OTF';-inkscape-font-specification:'Nanum Pen Script OTF';text-align:center;letter-spacing:0px;word-spacing:0px;text-anchor:middle;fill:#000000;fill-opacity:1;stroke:none"
       xml:space="preserve"><tspan
         id="tspan3437"
         y="1839.5408"
         x="2142.908"
         style="font-style:normal;font-variant:normal;font-weight:normal;font-stretch:normal;font-size:61.94947052px;line-height:100%;font-family:'Nanum Pen Script OTF';-inkscape-font-specification:'Nanum Pen Script OTF'"
         sodipodi:role="line">이거 다 수상해요;</tspan><tspan
         id="tspan3439"
         y="1901.4902"
         x="2142.908"
         style="font-style:normal;font-variant:normal;font-weight:normal;font-stretch:normal;font-size:61.94947052px;line-height:100%;font-family:'Nanum Pen Script OTF';-inkscape-font-specification:'Nanum Pen Script OTF'"
         sodipodi:role="line">       수상해요!</tspan></text>
    <text
       id="text3443"
       y="2210.5659"
       x="440.37823"
       style="font-style:normal;font-variant:normal;font-weight:normal;font-stretch:normal;line-height:0%;font-family:'Nanum Pen Script OTF';-inkscape-font-specification:'Nanum Pen Script OTF';text-align:center;letter-spacing:0px;word-spacing:0px;text-anchor:middle;fill:#000000;fill-opacity:1;stroke:none"
       xml:space="preserve"><tspan
         id="tspan3447"
         y="2210.5659"
         x="440.37823"
         style="font-style:normal;font-variant:normal;font-weight:normal;font-stretch:normal;font-size:56.01937485px;line-height:100%;font-family:'Nanum Pen Script OTF';-inkscape-font-specification:'Nanum Pen Script OTF'"
         sodipodi:role="line">이리 온</tspan><tspan
         y="2266.5852"
         x="440.37823"
         style="font-style:normal;font-variant:normal;font-weight:normal;font-stretch:normal;font-size:56.01937485px;line-height:100%;font-family:'Nanum Pen Script OTF';-inkscape-font-specification:'Nanum Pen Script OTF'"
         sodipodi:role="line"
         id="tspan3412">당근.</tspan></text>
    <text
       id="text3449"
       y="2382.3159"
       x="457.8121"
       style="font-style:normal;font-variant:normal;font-weight:normal;font-stretch:normal;font-size:14.96508312px;line-height:1;font-family:'Nanum Pen Script OTF';-inkscape-font-specification:'Nanum Pen Script OTF';text-align:center;letter-spacing:0px;word-spacing:0px;text-anchor:middle;fill:#000000;fill-opacity:1;stroke:none;stroke-width:1.24709022"
       xml:space="preserve"><tspan
         y="2382.3159"
         x="457.8121"
         style="font-style:normal;font-variant:normal;font-weight:normal;font-stretch:normal;font-size:56.11906052px;line-height:1;font-family:'Nanum Pen Script OTF';-inkscape-font-specification:'Nanum Pen Script OTF';stroke-width:1.24709022"
         sodipodi:role="line"
         id="tspan75">이런 게 예전에는 먹혔을지</tspan><tspan
         y="2438.4351"
         x="457.8121"
         style="font-style:normal;font-variant:normal;font-weight:normal;font-stretch:normal;font-size:56.11906052px;line-height:1;font-family:'Nanum Pen Script OTF';-inkscape-font-specification:'Nanum Pen Script OTF';stroke-width:1.24709022"
         sodipodi:role="line"
         id="tspan79">모르겠지만, 저희는</tspan><tspan
         y="2494.554"
         x="457.8121"
         style="font-style:normal;font-variant:normal;font-weight:normal;font-stretch:normal;font-size:56.11906052px;line-height:1;font-family:'Nanum Pen Script OTF';-inkscape-font-specification:'Nanum Pen Script OTF';stroke-width:1.24709022"
         sodipodi:role="line"
         id="tspan83">이제 이런 식의 유혹에</tspan><tspan
         y="2550.6731"
         x="457.8121"
         style="font-style:normal;font-variant:normal;font-weight:normal;font-stretch:normal;font-size:56.11906052px;line-height:1;font-family:'Nanum Pen Script OTF';-inkscape-font-specification:'Nanum Pen Script OTF';stroke-width:1.24709022"
         sodipodi:role="line"
         id="tspan87">넘어갈 정도로</tspan><tspan
         y="2606.7922"
         x="457.8121"
         style="font-style:normal;font-variant:normal;font-weight:normal;font-stretch:normal;font-size:56.11906052px;line-height:1;font-family:'Nanum Pen Script OTF';-inkscape-font-specification:'Nanum Pen Script OTF';stroke-width:1.24709022"
         sodipodi:role="line"
         id="tspan89">멍청하지 않아요!</tspan></text>
    <text
       transform="skewX(-16.937082)"
       id="text3408"
       y="1691.9041"
       x="2565.4512"
       style="font-style:normal;font-variant:normal;font-weight:normal;font-stretch:normal;line-height:0%;font-family:'Nanum Pen Script OTF';-inkscape-font-specification:'Nanum Pen Script OTF';text-align:center;letter-spacing:0px;word-spacing:0px;text-anchor:middle;fill:#000000;fill-opacity:1;stroke:none"
       xml:space="preserve"><tspan
         id="tspan3410"
         y="1691.9041"
         x="2565.4512"
         style="font-style:normal;font-variant:normal;font-weight:normal;font-stretch:normal;font-size:57.72793579px;line-height:100%;font-family:'Nanum Pen Script OTF';-inkscape-font-specification:'Nanum Pen Script OTF'"
         sodipodi:role="line">          데우스 엑스</tspan><tspan
         y="1749.632"
         x="2573.5127"
         style="font-style:normal;font-variant:normal;font-weight:normal;font-stretch:normal;font-size:57.72793579px;line-height:100%;font-family:'Nanum Pen Script OTF';-inkscape-font-specification:'Nanum Pen Script OTF'"
         sodipodi:role="line"
         id="tspan3413">마키나         </tspan></text>
    <text
       xml:space="preserve"
       style="font-style:normal;font-variant:normal;font-weight:normal;font-stretch:normal;line-height:0%;font-family:'Nanum Pen Script OTF';-inkscape-font-specification:'Nanum Pen Script OTF';text-align:center;letter-spacing:0px;word-spacing:0px;text-anchor:middle;fill:#000000;fill-opacity:1;stroke:none"
       x="2636.0261"
       y="1902.5143"
       id="text3966"
       transform="skewX(-17.150535)"><tspan
         sodipodi:role="line"
         style="font-style:normal;font-variant:normal;font-weight:normal;font-stretch:normal;font-size:61.94947052px;line-height:100%;font-family:'Nanum Pen Script OTF';-inkscape-font-specification:'Nanum Pen Script OTF'"
         x="2636.0261"
         y="1902.5143"
         id="tspan3970">진짜로</tspan></text>
  </g>
</svg>
