<?xml version="1.0" encoding="UTF-8" standalone="no"?>
<!-- Created with Inkscape (http://www.inkscape.org/) -->

<svg
   xmlns:dc="http://purl.org/dc/elements/1.1/"
   xmlns:cc="http://creativecommons.org/ns#"
   xmlns:rdf="http://www.w3.org/1999/02/22-rdf-syntax-ns#"
   xmlns:svg="http://www.w3.org/2000/svg"
   xmlns="http://www.w3.org/2000/svg"
   xmlns:xlink="http://www.w3.org/1999/xlink"
   xmlns:sodipodi="http://sodipodi.sourceforge.net/DTD/sodipodi-0.dtd"
   xmlns:inkscape="http://www.inkscape.org/namespaces/inkscape"
   id="svg2"
   version="1.1"
   inkscape:version="0.92.4 5da689c313, 2019-01-14"
   width="2481"
   height="3503"
   sodipodi:docname="E19P06.svg">
  <metadata
     id="metadata8">
    <rdf:RDF>
      <cc:Work
         rdf:about="">
        <dc:format>image/svg+xml</dc:format>
        <dc:type
           rdf:resource="http://purl.org/dc/dcmitype/StillImage" />
        <dc:title />
      </cc:Work>
    </rdf:RDF>
  </metadata>
  <defs
     id="defs6">
    <linearGradient
       inkscape:collect="always"
       id="linearGradient953">
      <stop
         style="stop-color:#000000;stop-opacity:1;"
         offset="0"
         id="stop949" />
      <stop
         style="stop-color:#000000;stop-opacity:0;"
         offset="1"
         id="stop951" />
    </linearGradient>
    <linearGradient
       inkscape:collect="always"
       xlink:href="#linearGradient953"
       id="linearGradient955"
       x1="253.04034"
       y1="952.25143"
       x2="516.97464"
       y2="952.25143"
       gradientUnits="userSpaceOnUse"
       gradientTransform="translate(0,-16.644606)" />
  </defs>
  <sodipodi:namedview
     pagecolor="#ffffff"
     bordercolor="#666666"
     borderopacity="1"
     objecttolerance="10"
     gridtolerance="10"
     guidetolerance="10"
     inkscape:pageopacity="0"
     inkscape:pageshadow="2"
     inkscape:window-width="1920"
     inkscape:window-height="1001"
     id="namedview4"
     showgrid="false"
     inkscape:zoom="1.6993056"
     inkscape:cx="979.52251"
     inkscape:cy="2556.9151"
     inkscape:window-x="0"
     inkscape:window-y="45"
     inkscape:window-maximized="1"
     inkscape:current-layer="layer1" />
  <g
     inkscape:groupmode="layer"
     id="layer2"
     inkscape:label="artwork"
     sodipodi:insensitive="true">
    <image
       sodipodi:absref="/home/ambernite/peppercarrot/webcomics/ep19_Pollution/lang/kr/../gfx_Pepper-and-Carrot_by-David-Revoy_E19P06.png"
       xlink:href="../gfx_Pepper-and-Carrot_by-David-Revoy_E19P06.png"
       y="0"
       x="0"
       id="image10"
       height="3503"
       width="2481" />
  </g>
  <g
     inkscape:groupmode="layer"
     id="layer3"
     inkscape:label="speechbubbles">
    <path
       style="fill:#ffffff;stroke:none"
       d="m 481.27782,827.21649 -20.91977,12.96296 c -46.25534,-5.04051 -174.08164,-11.95044 -239.31966,-8.33486 l -26.58596,8.87047 -14.3811,-16.37609 -6.53867,20.46857 -13.07337,-14.32781 -13.86853,13.09594 -15.68884,-9.55187 5.66618,20.46858 -8.71689,12.28155 -17.43381,-8.87047 9.58938,36.84469 c 10e-6,0 -5.34057,4.02908 -11.44219,4.02908 15.30764,29.67904 17.33499,183.27037 12.23291,235.96537 l -12.24637,9.2307 12.23846,11.6405 4.88075,4.3195 -20.5142,14.6211 15.36438,-0.9725 -11.94172,16.2584 12.6401,9.554 -0.87248,12.2794 -1.74299,7.5077 10.10773,8.185 -17.42731,18.0219 24.46256,-5.0239 0.72608,0.6504 c 0,0 -16.54338,24.7562 -21.08602,34.0563 13.30441,-5.6458 34.16106,-14.2702 35.90435,-14.9526 0.13984,-0.054 0.48458,-0.023 0.91601,0.043 l -10.94262,19.1594 26.39207,-14.8563 c 1.80177,0.5199 3.61718,1.0355 5.39712,1.5113 l -5.05808,17.3048 28.27479,-13.9412 c 9.08248,1.6416 20.3198,4.6407 23.00899,5.1084 3.92244,0.6824 24.84253,-6.8232 29.63667,-6.1408 4.79414,0.6822 48.81223,8.187 52.73467,8.187 3.92245,0 27.89271,-2.7287 33.12265,-3.411 5.22992,-0.6822 32.68697,3.411 37.4811,3.411 4.79404,0 13.07556,-6.8233 17.43379,-7.5056 4.35836,-0.6823 16.56119,4.0949 19.61204,5.4594 3.05077,1.3648 24.842,3.4111 30.07193,3.4111 5.22993,0 42.7511,-7.1472 52.29943,-4.0946 6.93673,2.2176 70.15596,0.1985 104.11414,-2.1866 l -3.57104,16.1614 22.02571,-17.9124 c 1.81226,-0.2909 2.86501,-0.5727 2.94982,-0.8383 0,0 6.97308,12.965 9.15215,12.965 2.17916,0 5.66644,-10.9189 6.97392,-12.2835 1.30749,-1.3647 10.46083,6.1417 12.6401,5.4593 2.17917,-0.6823 3.05072,-14.3279 3.05072,-14.3279 l 2.17823,-6.8241 c 0,0 6.10193,-2.0465 8.71691,-4.776 2.61495,-2.7292 -0.43653,-14.3286 -3.92321,-19.7871 3.05087,-2.7293 10.46013,-7.5043 11.76763,-10.2334 1.30756,-2.7295 -3.05072,-11.6001 -3.05072,-11.6001 0,0 2.61563,-4.7754 3.9232,-8.1869 1.30749,-3.4119 -8.16063,-14.7973 -8.16063,-14.7973 0,0 8.16008,-11.1314 8.59588,-15.2253 0.38519,-3.6187 -1.95584,-7.2323 -5.81457,-8.0239 l 12.1178,-7.1525 -13.70844,-2.42 c -1.05752,-38.1375 -1.76711,-165.2013 5.86008,-197.54262 l 16.46042,-13.38625 -16.04694,-6.28739 c -1.11733,-1.57248 -2.3318,-3.18966 -3.59676,-4.79657 l 16.04353,-18.47971 -23.50556,-9.21116 0,-12.18245 -8.7169,-6.82218 c 0,0 0.37656,-1.78973 0.74982,-4.37123 l 9.05917,-17.68312 -35.24603,14.45535 0.0752,0.33657 c -10.36608,-1.78366 -18.74945,-6.5558 -18.74945,-6.5558 l 4.7937,-30.70391 -32.25213,15.01126 -2.17824,-12.96296 -13.5106,12.28157 -4.35846,-19.78719 -13.5106,15.01125 -11.33237,-7.79742 -2.54913,2.41196 -10.45989,-8.87048 -10.45988,8.18702 -20.83867,4.29037 -6.10144,-19.10373 z"
       id="path3894"
       inkscape:connector-curvature="0"
       sodipodi:nodetypes="ccccccccccccccccccccccccccccccccccccccscsscssccccscccccccccccccccccccccccccccccccccccccccc" />
    <path
       style="color:#000000;display:inline;overflow:visible;visibility:visible;fill:#ffffff;fill-opacity:1;fill-rule:nonzero;stroke:none;stroke-width:1px;marker:none;enable-background:accumulate"
       d="m 535.70109,762.59499 c 38.34876,34.92863 35.4166,55.61846 35.05492,70.73951 -5.21085,0.99543 -14.03945,4.31409 -14.03945,4.31409 0,0 2.34858,29.8366 -0.92638,41.34315 -3.27496,11.50653 -19.13613,8.37057 -19.13613,8.37057 0,0 -6.17597,-57.93992 -11.57097,-70.14779 14.42663,-2.21185 21.11631,-4.94055 26.71433,-3.83376 3.38923,-8.44544 -2.96428,-38.06103 -16.09632,-50.78577 z"
       id="path4456"
       inkscape:connector-curvature="0" />
    <path
       style="color:#000000;display:inline;overflow:visible;visibility:visible;fill:#ffffff;fill-opacity:1;fill-rule:nonzero;stroke:none;stroke-width:0.91883343px;marker:none;enable-background:accumulate"
       d="m 797.55861,187.04504 -36.9371,-13.30995 20.52363,39.67762 -34.72501,-14.32657 27.21871,39.6804 -34.30872,-2.18654 23.64939,28.51438 -19.50637,5.66891 19.87415,24.72657 -20.52201,7.39453 18.46005,26.09268 -20.3668,18.07431 12.14798,17.24551 -14.73146,15.16459 13.35785,10.17616 -11.74481,23.2461 15.86574,4.12172 -16.48895,23.91228 25.5454,-7.58577 -8.02294,27.50936 29.80591,-15.77306 -12.94609,34.26254 26.12942,-0.31564 -36.12979,77.50134 56.69606,-47.80187 4.31813,40.98197 28.08823,-36.00221 0.71182,25.11364 24.81636,-31.68592 -0.5329,31.41708 27.41832,-37.00242 0.0674,117.52047 46.35031,-100.18172 8.22837,41.3788 7.5249,-38.64401 8.06058,16.98699 7.81705,-21.35843 7.5751,33.70638 13.86318,-38.87185 54.5785,56.93971 -9.5401,-68.31767 45.2982,9.27348 -15.1891,-33.52422 65.2664,17.83372 -30.7461,-30.90493 55.4376,16.71909 -62.0182,-55.07038 57.0321,14.30842 -42.3037,-43.89778 39.3836,-3.73896 -36.2513,-30.24848 64.7466,-4.93849 -59.1096,-25.19321 53.08,-13.05308 -40.0098,-26.36784 46.1847,-21.80999 -49.4186,-16.85782 36.3904,-56.17648 -50.8246,14.19089 5.8535,-38.39832 -47.5449,28.74393 22.2754,-68.52699 -60.5354,60.70685 3.0227,-19.44785 -21.4764,15.98093 13.2394,-43.93066 -40.5224,41.55856 4.1209,-19.25884 -12.36274,18.24531 2.74718,-25.34076 -21.29132,30.40886 1.96023,-26.49516 -13.00891,14.29178 -0.33478,-13.56677 -11.96843,10.56572 -16.13388,-46.04946 -24.07153,47.48969 -11.83444,-20.42633 -13.69939,19.56344 -9.51532,-23.01114 -14.32618,27.49746 -23.30655,-37.27394 1.5238,36.98513 -56.22063,-40.06585 z"
       id="path4024"
       inkscape:connector-curvature="0"
       sodipodi:nodetypes="ccccccccccccccccccccccccccccccccccccccccccccccccccccccccccccccccccccccccccccccccccccc" />
    <path
       style="color:#000000;display:inline;overflow:visible;visibility:visible;fill:#ffffff;fill-opacity:1;fill-rule:nonzero;stroke:none;stroke-width:1px;marker:none;enable-background:accumulate"
       d="m 981.87504,489.07837 c 15.79816,16.30726 34.68336,141.58053 227.57366,231.14516 -154.1725,-93.5024 -173.4435,-224.61445 -180.0947,-249.55706 -53.90514,-8.39388 -24.7768,9.78373 -47.47896,18.4119 z"
       id="path4024-3"
       inkscape:connector-curvature="0"
       sodipodi:nodetypes="cccc" />
    <path
       style="color:#000000;display:inline;overflow:visible;visibility:visible;fill:#ffffff;fill-opacity:1;fill-rule:nonzero;stroke:none;stroke-width:0.90554047px;marker:none;enable-background:accumulate"
       d="m 1130.0743,858.24078 c 23.7481,44.03488 21.6435,130.36717 15.0156,150.34892 -6.6279,19.9817 -15.7294,49.9462 -47.6689,50.2525 -31.9396,0.3064 -253.7342,23.4584 -286.73875,-22.7008 -33.00456,-46.15927 -32.55426,-126.94282 -4.23861,-181.43608 28.31564,-54.49326 181.34306,-44.89527 181.34306,-44.89527 0,0 105.8728,-7.65482 142.2876,48.43073 z"
       id="path3992"
       inkscape:connector-curvature="0" />
    <path
       style="display:inline;fill:#ffffff;fill-rule:evenodd;stroke:none;stroke-width:0.84691823px;stroke-linecap:butt;stroke-linejoin:miter;stroke-opacity:1"
       d="m 804.65207,996.89136 c 53.69918,73.60324 74.44447,3.96944 73.65578,-66.62566 21.92092,76.2866 37.13305,93.3483 46.15482,55.7614 29.02183,32.3075 47.14842,23.245 61.53972,0 5.36399,29.8947 16.86711,17.8312 26.82251,16.3462 3.2789,6.7635 -7.9828,23.5669 37.5144,1.1789 2.9471,8.9521 6.9171,16.6614 33.5671,-3.1864 6.9042,36.3357 29.0559,-2.01383 51.7494,-43.01599 -14.1387,50.40869 -14.9792,52.65279 3.0872,33.36049 -2.7224,8.56916 -7.1555,25.7196 11.1117,7.14359 -10.7437,38.31631 25.6075,-11.18964 71.1036,-66.22169 -22.7578,40.67928 -75.7494,136.6484 -36.0006,130.9639 -5.5431,11.9924 -24.1498,26.098 31.8185,36.547 -10.9926,8.1378 -44.5527,-3.7539 -16.5576,30.7017 3.7509,4.0276 -8.8058,6.4871 15.159,17.0938 -14.1467,-0.7216 -22.8225,1.8562 -9.7904,17.525 -25.823,-0.8472 -16.1611,15.6287 2.7973,36.6432 -37.3953,-26.9556 -39.4533,-17.1588 -40.5603,-6.3727 -46.8673,-36.7496 -49.6185,-25.1792 -55.9451,-17.5251 -22.8444,0.2868 -45.6887,-4.3411 -68.533,36.6433 -5.9826,-25.4912 -17.977,-45.1128 -68.53275,-27.0841 22.19781,-32.4293 -9.38152,-11.7684 -33.56709,1.5931 13.2445,-40.5122 -20.36833,-13.9241 -62.93841,25.491 23.83908,-44.7368 -25.84202,-48.3517 -65.96307,-16.5884 28.01306,-34.6799 36.21565,-43.5858 -22.78833,-45.2956 28.24113,-15.8531 21.57076,-37.6472 -7.754,-73.5366 33.05737,10.5678 42.91792,0.7517 19.58077,-38.2364 36.05679,32.0011 17.33741,-0.3644 3.26885,-43.30394 z"
       id="path4508"
       inkscape:connector-curvature="0"
       sodipodi:nodetypes="cccccccccccccccccccccccccccc" />
    <path
       style="color:#000000;display:inline;overflow:visible;visibility:visible;fill:#ffffff;fill-opacity:1;fill-rule:nonzero;stroke:none;stroke-width:0.91174304px;marker:none;enable-background:accumulate"
       d="m 796.7159,1192.5775 c 6.65517,-57.0318 62.47572,-96.8019 202.98347,-80.6312 75.26353,8.6619 165.97073,-3.5616 157.09713,94.9884 -7.5428,83.77 -138.159,69.9004 -163.67055,70.8837 -25.51162,0.9834 -156.09878,3.1783 -178.14911,-26.2153 -13.803,-18.3996 -19.37013,-41.326 -18.26094,-59.0256 z"
       id="path4546-6-3"
       inkscape:connector-curvature="0"
       sodipodi:nodetypes="cssssc" />
    <path
       style="color:#000000;display:inline;overflow:visible;visibility:visible;fill:#ffffff;fill-opacity:1;fill-rule:nonzero;stroke:none;stroke-width:0.91047943px;marker:none;enable-background:accumulate"
       d="m 174.09791,1488.4784 c 31.9194,-47.6958 208.91943,-40.4013 263.97364,-28.1166 60.08178,13.4065 78.58,32.4028 81.26667,74.0366 0.82985,12.8598 -4.03001,71.1761 -33.58374,82.6562 -29.55361,11.48 -114.18442,17.22 -143.73815,17.22 -29.55361,0 -123.89536,-7.307 -147.76842,-24.108 -22.83693,-16.0721 -52.06953,-73.9926 -20.15,-121.6882 z"
       id="path3330"
       inkscape:connector-curvature="0"
       sodipodi:nodetypes="zsssssz" />
    <path
       style="color:#000000;display:inline;overflow:visible;visibility:visible;fill:#ffffff;fill-opacity:1;fill-rule:nonzero;stroke:none;stroke-width:0.87903351px;marker:none;enable-background:accumulate"
       d="m 298.68918,1678.0072 c -0.77975,-29.0026 3.19647,-48.2355 21.05357,-63.6443 16.25643,-14.0276 52.05352,-17.904 75.93956,-17.904 38.60844,-0.198 137.71413,-5.4181 126.01951,85.1901 -0.46189,42.9756 -58.05285,44.8494 -69.74934,48.3297 -11.69649,3.4803 -58.45477,4.2477 -69.3715,3.0877 -40.13274,2.1088 -82.49789,-19.7128 -83.8918,-55.0592 z"
       id="path3357"
       inkscape:connector-curvature="0"
       sodipodi:nodetypes="csccscc" />
    <path
       style="color:#000000;display:inline;overflow:visible;visibility:visible;fill:#ffffff;fill-opacity:1;fill-rule:nonzero;stroke:none;stroke-width:1px;marker:none;enable-background:accumulate"
       d="m 453.45684,1711.8886 c -0.37144,57.0275 25.35707,95.1396 67.76656,103.3368 -67.9487,-0.4363 -102.57173,-72.2713 -100.82948,-96.6104 1.70602,-23.8329 33.06292,-6.7264 33.06292,-6.7264 z"
       id="path5010"
       inkscape:connector-curvature="0"
       sodipodi:nodetypes="ccsc" />
    <path
       style="color:#000000;display:inline;overflow:visible;visibility:visible;fill:#ffffff;fill-opacity:1;fill-rule:nonzero;stroke:none;stroke-width:1px;marker:none;enable-background:accumulate"
       d="m 232.60887,2112.7468 c 28.82884,-21.6901 278.41375,-34.8028 344.5222,0.8436 55.17978,29.7537 33.65046,103.8509 -15.42321,120.9177 -49.0735,17.0669 -212.3232,15.086 -283.87185,7.3484 -68.12416,-7.3674 -79.56334,-29.6049 -82.91431,-74.38 -1.36765,-18.2745 8.85821,-33.0393 37.68717,-54.7297 z"
       id="path4040-4"
       inkscape:connector-curvature="0"
       sodipodi:nodetypes="zssssz" />
    <path
       style="color:#000000;display:inline;overflow:visible;visibility:visible;fill:#ffffff;fill-opacity:1;fill-rule:nonzero;stroke:none;stroke-width:1px;marker:none;enable-background:accumulate"
       d="m 535.00775,1986.8306 c -11.22357,-11.0259 -34.07155,-13.8129 -52.41966,-13.1663 -5.21231,0.2939 -10.58546,0.9606 -15.40703,2.9669 -4.5497,3.204 -5.8508,9.2452 -4.71647,14.4517 1.1116,7.6336 5.4512,15.1923 3.33691,23.0221 -1.67716,5.6622 -7.62933,7.7967 -12.46033,10.0265 -12.42532,5.4417 -25.66044,9.2324 -37.15366,16.6288 -13.48154,7.4861 -27.12386,16.3412 -35.233,29.8576 -3.11895,5.4019 -5.62626,11.4889 -5.13528,17.8477 0.51982,16.3695 10.44001,32.6806 25.75127,39.1373 10.15783,3.1917 22.85144,-2.6898 25.43476,-13.369 1.44801,-5.6168 -1.12924,-11.3042 -4.7776,-15.4765 -5.27333,-8.9228 -5.03206,-20.3779 -0.31332,-29.473 3.77147,-7.5698 9.88065,-13.877 17.08927,-18.2489 8.233,-8.5339 20.53978,-9.9068 31.26386,-13.4482 4.87531,-1.6909 9.9467,-3.8199 13.48797,-7.6632 3.74598,-6.6816 1.05856,-14.5289 -1.98107,-20.9052 -2.96548,-6.6569 -7.15746,-14.0436 -4.63677,-21.5174 1.0509,-5.4219 7.54846,-5.1616 11.76803,-6.5249 14.15942,-2.6164 28.95507,-0.7769 42.45081,4.0015 1.25162,0.5512 2.45101,1.1992 3.65131,1.8525 z"
       id="path4496"
       inkscape:connector-curvature="0"
       sodipodi:nodetypes="ccccccccccccccccccccc" />
    <path
       style="color:#000000;display:inline;overflow:visible;visibility:visible;fill:#ffffff;fill-opacity:1;fill-rule:nonzero;stroke:none;stroke-width:0.82832438px;marker:none;enable-background:accumulate"
       d="m 397.50425,2528.0155 c 6.6245,-78.4304 68.55661,-134.4262 226.1363,-115.8152 84.40818,9.969 180.3351,17.4924 171.61192,132.4111 -8.72328,114.9186 -146.69792,108.6096 -175.25234,110.6088 -28.55441,1.9992 -176.71716,-13.6708 -201.83663,-53.444 -15.72422,-24.8968 -21.64434,-49.4446 -20.65925,-73.7607 z"
       id="path4546-6"
       inkscape:connector-curvature="0"
       sodipodi:nodetypes="cssssc" />
    <path
       style="fill:#ffffff;stroke:none"
       d="m 694.38649,2534.9643 c 31.16173,50.5895 56.21292,58.6934 72.83219,79.5631 16.61925,20.8701 -4.22375,65.3135 0.2296,80.4242 5.36252,14.254 23.11118,27.2288 57.37772,44.4988 -73.16324,-15.6884 -73.36945,-34.9149 -78.29883,-48.1564 -6.77646,-18.203 5.60657,-39.7648 -12.3168,-56.2686 -17.36077,-15.9861 -80.58056,-61.1983 -92.85364,-95.1241 -12.2733,-33.9259 -18.60006,-35.9967 -18.60006,-35.9967 z"
       id="path3282"
       inkscape:connector-curvature="0"
       sodipodi:nodetypes="csccssscc" />
  </g>
  <g
     inkscape:groupmode="layer"
     id="layer1"
     inkscape:label="txt">
    <text
       id="text933"
       y="2162.9121"
       x="400.53656"
       style="font-style:normal;font-variant:normal;font-weight:normal;font-stretch:normal;font-size:14.98274803px;line-height:100%;font-family:'Nanum Pen Script OTF';-inkscape-font-specification:'Nanum Pen Script OTF';text-align:center;letter-spacing:0px;word-spacing:0px;text-anchor:middle;fill:#000000;fill-opacity:1;stroke:none;stroke-width:1.24856234"
       xml:space="preserve"><tspan
         id="tspan931"
         y="2162.9121"
         x="400.53656"
         style="font-style:normal;font-variant:normal;font-weight:normal;font-stretch:normal;font-size:56.18530655px;line-height:100%;font-family:'Nanum Pen Script OTF';-inkscape-font-specification:'Nanum Pen Script OTF';stroke-width:1.24856234"
         sodipodi:role="line">이게 어쩌다 이 밑으로</tspan><tspan
         y="2219.0974"
         x="400.53656"
         style="font-style:normal;font-variant:normal;font-weight:normal;font-stretch:normal;font-size:56.18530655px;line-height:100%;font-family:'Nanum Pen Script OTF';-inkscape-font-specification:'Nanum Pen Script OTF';stroke-width:1.24856234"
         sodipodi:role="line"
         id="tspan968">내려온 거지?</tspan></text>
    <text
       id="text875"
       y="927.80365"
       x="386.73404"
       style="font-style:normal;font-variant:normal;font-weight:normal;font-stretch:normal;font-size:14.70763779px;line-height:100%;font-family:'Nanum Pen Script OTF';-inkscape-font-specification:'Nanum Pen Script OTF';text-align:center;letter-spacing:0px;word-spacing:0px;text-anchor:middle;fill:#000000;fill-opacity:1;stroke:url(#linearGradient955);stroke-width:1.22563648"
       xml:space="preserve"><tspan
         id="tspan873"
         y="927.80365"
         x="386.73404"
         style="font-style:normal;font-variant:normal;font-weight:normal;font-stretch:normal;font-size:67.7612915px;line-height:100%;font-family:'Nanum Pen Script OTF';-inkscape-font-specification:'Nanum Pen Script OTF';stroke:url(#linearGradient955);stroke-width:1.22563648"
         sodipodi:role="line">그럼 <tspan
   style="stroke:url(#linearGradient955);stroke-opacity:1"
   id="tspan961">환경은요!</tspan></tspan><tspan
         y="995.56494"
         x="386.73404"
         style="font-style:normal;font-variant:normal;font-weight:normal;font-stretch:normal;font-size:67.7612915px;line-height:100%;font-family:'Nanum Pen Script OTF';-inkscape-font-specification:'Nanum Pen Script OTF';stroke:url(#linearGradient955);stroke-width:1.22563648;stroke-opacity:1"
         sodipodi:role="line"
         id="tspan947">자연은요!</tspan></text>
    <text
       id="text885"
       y="1064.3915"
       x="394.00424"
       style="font-style:normal;font-variant:normal;font-weight:normal;font-stretch:normal;font-size:15.3804636px;line-height:100%;font-family:'Nanum Pen Script OTF';-inkscape-font-specification:'Nanum Pen Script OTF';text-align:center;letter-spacing:0px;word-spacing:0px;text-anchor:middle;fill:#000000;fill-opacity:1;stroke:none;stroke-width:1.28170526"
       xml:space="preserve"><tspan
         id="tspan883"
         y="1064.3915"
         x="394.00424"
         style="font-style:normal;font-variant:normal;font-weight:normal;font-stretch:normal;font-size:57.67673874px;line-height:100%;font-family:'Nanum Pen Script OTF';-inkscape-font-specification:'Nanum Pen Script OTF';stroke-width:1.28170526"
         sodipodi:role="line">이렇게 계속 모든 것을</tspan><tspan
         y="1122.0682"
         x="402.05872"
         style="font-style:normal;font-variant:normal;font-weight:normal;font-stretch:normal;font-size:57.67673874px;line-height:100%;font-family:'Nanum Pen Script OTF';-inkscape-font-specification:'Nanum Pen Script OTF';stroke-width:1.28170526"
         sodipodi:role="line"
         id="tspan910">오염시키다간 </tspan><tspan
         y="1179.745"
         x="394.00424"
         style="font-style:normal;font-variant:normal;font-weight:normal;font-stretch:normal;font-size:57.67673874px;line-height:100%;font-family:'Nanum Pen Script OTF';-inkscape-font-specification:'Nanum Pen Script OTF';stroke-width:1.28170526"
         sodipodi:role="line"
         id="tspan912">심각한 결과에</tspan><tspan
         y="1237.4218"
         x="402.05869"
         style="font-style:normal;font-variant:normal;font-weight:normal;font-stretch:normal;font-size:57.67673874px;line-height:100%;font-family:'Nanum Pen Script OTF';-inkscape-font-specification:'Nanum Pen Script OTF';stroke-width:1.28170526"
         sodipodi:role="line"
         id="tspan914">직면할 수 밖에 없다고요!!! </tspan></text>
    <text
       transform="scale(0.97469088,1.0259663)"
       id="text895"
       y="281.83545"
       x="971.10272"
       style="font-style:normal;font-variant:normal;font-weight:normal;font-stretch:normal;font-size:16.81592751px;line-height:100%;font-family:'Nanum Pen Script OTF';-inkscape-font-specification:'Nanum Pen Script OTF';text-align:center;letter-spacing:0px;word-spacing:0px;text-anchor:middle;fill:#000000;fill-opacity:1;stroke:#000000;stroke-width:1.40132725;stroke-opacity:1;"
       xml:space="preserve"><tspan
         id="tspan893"
         y="281.83545"
         x="971.10272"
         style="font-style:normal;font-variant:normal;font-weight:normal;font-stretch:normal;font-size:81.9516449px;line-height:100%;font-family:'Nanum Pen Script OTF';-inkscape-font-specification:'Nanum Pen Script OTF';stroke:#000000;stroke-width:2.6625216;stroke-miterlimit:4;stroke-dasharray:none;stroke-opacity:1;"
         sodipodi:role="line">아직까지</tspan><tspan
         y="363.78711"
         x="971.10272"
         style="font-style:normal;font-variant:normal;font-weight:normal;font-stretch:normal;font-size:81.9516449px;line-height:100%;font-family:'Nanum Pen Script OTF';-inkscape-font-specification:'Nanum Pen Script OTF';stroke:#000000;stroke-width:2.6625216;stroke-miterlimit:4;stroke-dasharray:none;stroke-opacity:1;"
         sodipodi:role="line"
         id="tspan934">아무런 문제가</tspan><tspan
         y="445.73874"
         x="971.10272"
         style="font-style:normal;font-variant:normal;font-weight:normal;font-stretch:normal;font-size:81.9516449px;line-height:100%;font-family:'Nanum Pen Script OTF';-inkscape-font-specification:'Nanum Pen Script OTF';stroke:#000000;stroke-width:2.6625216;stroke-miterlimit:4;stroke-dasharray:none;stroke-opacity:1;"
         sodipodi:role="line"
         id="tspan936">없잖아!</tspan></text>
    <text
       id="text905"
       y="874.2865"
       x="968.52295"
       style="font-style:normal;font-variant:normal;font-weight:normal;font-stretch:normal;font-size:14.70819473px;line-height:100%;font-family:'Nanum Pen Script OTF';-inkscape-font-specification:'Nanum Pen Script OTF';text-align:center;letter-spacing:0px;word-spacing:0px;text-anchor:middle;fill:#000000;fill-opacity:1;stroke:none;stroke-width:1.22568285"
       xml:space="preserve"><tspan
         id="tspan903"
         y="874.2865"
         x="968.52295"
         style="font-style:normal;font-variant:normal;font-weight:normal;font-stretch:normal;font-size:55.15572739px;line-height:100%;font-family:'Nanum Pen Script OTF';-inkscape-font-specification:'Nanum Pen Script OTF';stroke-width:1.22568285"
         sodipodi:role="line">우리는 카오사의</tspan><tspan
         y="929.4422"
         x="968.52295"
         style="font-style:normal;font-variant:normal;font-weight:normal;font-stretch:normal;font-size:55.15572739px;line-height:100%;font-family:'Nanum Pen Script OTF';-inkscape-font-specification:'Nanum Pen Script OTF';stroke-width:1.22568285"
         sodipodi:role="line"
         id="tspan952">마녀다!</tspan><tspan
         y="984.59796"
         x="968.52295"
         style="font-style:normal;font-variant:normal;font-weight:normal;font-stretch:normal;font-size:55.15572739px;line-height:100%;font-family:'Nanum Pen Script OTF';-inkscape-font-specification:'Nanum Pen Script OTF';stroke-width:1.22568285"
         sodipodi:role="line"
         id="tspan954">우리의 문제점들은</tspan><tspan
         y="1039.7537"
         x="968.52295"
         style="font-style:normal;font-variant:normal;font-weight:normal;font-stretch:normal;font-size:55.15572739px;line-height:100%;font-family:'Nanum Pen Script OTF';-inkscape-font-specification:'Nanum Pen Script OTF';stroke-width:1.22568285"
         sodipodi:role="line"
         id="tspan956">파묻힌다.</tspan></text>
    <text
       transform="scale(0.97469088,1.0259663)"
       id="text909"
       y="1098.731"
       x="999.9693"
       style="font-style:normal;font-variant:normal;font-weight:normal;font-stretch:normal;font-size:17.79859352px;line-height:100%;font-family:'Nanum Pen Script OTF';-inkscape-font-specification:'Nanum Pen Script OTF';text-align:center;letter-spacing:0px;word-spacing:0px;text-anchor:middle;fill:#000000;fill-opacity:1;stroke:#000000;stroke-width:1.84004645;stroke-opacity:1;"
       xml:space="preserve"><tspan
         id="tspan907"
         y="1098.731"
         x="1012.0825"
         style="font-style:normal;font-variant:normal;font-weight:normal;font-stretch:normal;font-size:86.7406311px;line-height:100%;font-family:'Nanum Pen Script OTF';-inkscape-font-specification:'Nanum Pen Script OTF';stroke:#000000;stroke-width:1.84004645;stroke-miterlimit:4;stroke-dasharray:none;stroke-opacity:1;"
         sodipodi:role="line">깊이! </tspan></text>
    <text
       id="text915"
       y="1195.3995"
       x="975.3139"
       style="font-style:normal;font-variant:normal;font-weight:normal;font-stretch:normal;font-size:14.56702423px;line-height:100%;font-family:'Nanum Pen Script OTF';-inkscape-font-specification:'Nanum Pen Script OTF';text-align:center;letter-spacing:0px;word-spacing:0px;text-anchor:middle;fill:#000000;fill-opacity:1;stroke:none;stroke-width:1.21391881"
       xml:space="preserve"><tspan
         id="tspan913"
         y="1195.3995"
         x="975.3139"
         style="font-style:normal;font-variant:normal;font-weight:normal;font-stretch:normal;font-size:54.62634277px;line-height:100%;font-family:'Nanum Pen Script OTF';-inkscape-font-specification:'Nanum Pen Script OTF';stroke-width:1.21391881"
         sodipodi:role="line">전통을 따지고</tspan><tspan
         y="1250.0259"
         x="975.3139"
         style="font-style:normal;font-variant:normal;font-weight:normal;font-stretch:normal;font-size:54.62634277px;line-height:100%;font-family:'Nanum Pen Script OTF';-inkscape-font-specification:'Nanum Pen Script OTF';stroke-width:1.21391881"
         sodipodi:role="line"
         id="tspan940">들려 하지 마!</tspan></text>
    <text
       id="text921"
       y="1529.3445"
       x="338.38489"
       style="font-style:normal;font-variant:normal;font-weight:normal;font-stretch:normal;font-size:15.06803703px;line-height:100%;font-family:'Nanum Pen Script OTF';-inkscape-font-specification:'Nanum Pen Script OTF';text-align:center;letter-spacing:0px;word-spacing:0px;text-anchor:middle;fill:#000000;fill-opacity:1;stroke:none;stroke-width:1.25566971"
       xml:space="preserve"><tspan
         id="tspan919"
         y="1529.3445"
         x="338.38489"
         style="font-style:normal;font-variant:normal;font-weight:normal;font-stretch:normal;font-size:56.5051384px;line-height:100%;font-family:'Nanum Pen Script OTF';-inkscape-font-specification:'Nanum Pen Script OTF';stroke-width:1.25566971"
         sodipodi:role="line">오, 내가 찾은 거</tspan><tspan
         y="1585.8496"
         x="338.38489"
         style="font-style:normal;font-variant:normal;font-weight:normal;font-stretch:normal;font-size:56.5051384px;line-height:100%;font-family:'Nanum Pen Script OTF';-inkscape-font-specification:'Nanum Pen Script OTF';stroke-width:1.25566971"
         sodipodi:role="line"
         id="tspan960">좀 봐봐!</tspan></text>
    <text
       id="text927"
       y="1653.849"
       x="410.17102"
       style="font-style:normal;font-variant:normal;font-weight:normal;font-stretch:normal;font-size:13.63948154px;line-height:100%;font-family:'Nanum Pen Script OTF';-inkscape-font-specification:'Nanum Pen Script OTF';text-align:center;letter-spacing:0px;word-spacing:0px;text-anchor:middle;fill:#000000;fill-opacity:1;stroke:none;stroke-width:1.1366235"
       xml:space="preserve"><tspan
         id="tspan925"
         y="1653.849"
         x="410.17102"
         style="font-style:normal;font-variant:normal;font-weight:normal;font-stretch:normal;font-size:51.14805603px;line-height:100%;font-family:'Nanum Pen Script OTF';-inkscape-font-specification:'Nanum Pen Script OTF';stroke-width:1.1366235"
         sodipodi:role="line">믿기지가</tspan><tspan
         y="1704.9971"
         x="410.17102"
         style="font-style:normal;font-variant:normal;font-weight:normal;font-stretch:normal;font-size:51.14805603px;line-height:100%;font-family:'Nanum Pen Script OTF';-inkscape-font-specification:'Nanum Pen Script OTF';stroke-width:1.1366235"
         sodipodi:role="line"
         id="tspan964">않네!</tspan></text>
    <text
       id="text941"
       y="2496.0266"
       x="602.91223"
       style="font-style:normal;font-variant:normal;font-weight:normal;font-stretch:normal;font-size:14.51621151px;line-height:100%;font-family:'Nanum Pen Script OTF';-inkscape-font-specification:'Nanum Pen Script OTF';text-align:center;letter-spacing:0px;word-spacing:0px;text-anchor:middle;fill:#000000;fill-opacity:1;stroke:none;stroke-width:1.20968425"
       xml:space="preserve"><tspan
         id="tspan939"
         y="2496.0266"
         x="610.5141"
         style="font-style:normal;font-variant:normal;font-weight:normal;font-stretch:normal;font-size:54.43579483px;line-height:100%;font-family:'Nanum Pen Script OTF';-inkscape-font-specification:'Nanum Pen Script OTF';stroke-width:1.20968425"
         sodipodi:role="line">조율이 좀 필요하긴 </tspan><tspan
         y="2550.4624"
         x="602.91223"
         style="font-style:normal;font-variant:normal;font-weight:normal;font-stretch:normal;font-size:54.43579483px;line-height:100%;font-family:'Nanum Pen Script OTF';-inkscape-font-specification:'Nanum Pen Script OTF';stroke-width:1.20968425"
         sodipodi:role="line"
         id="tspan977">할 건데,</tspan><tspan
         y="2604.8982"
         x="602.91223"
         style="font-style:normal;font-variant:normal;font-weight:normal;font-stretch:normal;font-size:54.43579483px;line-height:100%;font-family:'Nanum Pen Script OTF';-inkscape-font-specification:'Nanum Pen Script OTF';stroke-width:1.20968425"
         sodipodi:role="line"
         id="tspan975">그래도 잘 쳐지네.</tspan></text>
  </g>
</svg>
