<?xml version="1.0" encoding="UTF-8" standalone="no"?>
<!-- Created with Inkscape (http://www.inkscape.org/) -->

<svg
   xmlns:dc="http://purl.org/dc/elements/1.1/"
   xmlns:cc="http://creativecommons.org/ns#"
   xmlns:rdf="http://www.w3.org/1999/02/22-rdf-syntax-ns#"
   xmlns:svg="http://www.w3.org/2000/svg"
   xmlns="http://www.w3.org/2000/svg"
   xmlns:xlink="http://www.w3.org/1999/xlink"
   xmlns:sodipodi="http://sodipodi.sourceforge.net/DTD/sodipodi-0.dtd"
   xmlns:inkscape="http://www.inkscape.org/namespaces/inkscape"
   id="svg2"
   version="1.1"
   inkscape:version="0.92.4 5da689c313, 2019-01-14"
   width="2481"
   height="3503"
   sodipodi:docname="E19P01.svg">
  <metadata
     id="metadata8">
    <rdf:RDF>
      <cc:Work
         rdf:about="">
        <dc:format>image/svg+xml</dc:format>
        <dc:type
           rdf:resource="http://purl.org/dc/dcmitype/StillImage" />
        <dc:title />
      </cc:Work>
    </rdf:RDF>
  </metadata>
  <defs
     id="defs6" />
  <sodipodi:namedview
     pagecolor="#ffffff"
     bordercolor="#666666"
     borderopacity="1"
     objecttolerance="10"
     gridtolerance="10"
     guidetolerance="10"
     inkscape:pageopacity="0"
     inkscape:pageshadow="2"
     inkscape:window-width="1920"
     inkscape:window-height="1001"
     id="namedview4"
     showgrid="false"
     inkscape:zoom="0.6388319"
     inkscape:cx="1148.8676"
     inkscape:cy="354.99599"
     inkscape:window-x="0"
     inkscape:window-y="45"
     inkscape:window-maximized="1"
     inkscape:current-layer="layer3"
     showguides="false"
     inkscape:snap-text-baseline="true" />
  <g
     inkscape:groupmode="layer"
     id="layer2"
     inkscape:label="artwork"
     sodipodi:insensitive="true">
    <image
       sodipodi:absref="/home/ambernite/peppercarrot/webcomics/ep19_Pollution/lang/kr/../gfx_Pepper-and-Carrot_by-David-Revoy_E19P01.png"
       xlink:href="../gfx_Pepper-and-Carrot_by-David-Revoy_E19P01.png"
       y="0"
       x="0"
       id="image10"
       height="3503"
       width="2481" />
  </g>
  <g
     inkscape:groupmode="layer"
     id="layer3"
     inkscape:label="speechbubbles">
    <path
       style="color:#000000;display:inline;overflow:visible;visibility:visible;fill:#ffffff;fill-opacity:1;fill-rule:nonzero;stroke:none;stroke-width:1px;marker:none;enable-background:accumulate"
       d="m 1029.8393,1969.7341 c -4.0128,-29.8516 27.4228,-65.8653 141.2314,-57.9056 113.8089,7.9598 136.1975,21.984 139.559,60.2936 1.3936,15.8826 -28.9185,40.5945 -45.71,44.5744 -16.7915,3.9798 -86.4023,4.5754 -114.3882,1.3916 -27.9856,-3.1839 -88.0421,-10.1473 -104.8336,-24.4749 -16.7916,-14.3274 -13.9928,-20.6952 -15.8586,-23.8791 z"
       id="path3365"
       inkscape:connector-curvature="0"
       sodipodi:nodetypes="csssssc" />
    <path
       style="color:#000000;display:inline;overflow:visible;visibility:visible;fill:#ffffff;fill-opacity:1;fill-rule:nonzero;stroke:none;stroke-width:1px;marker:none;enable-background:accumulate"
       d="m 1339.2346,2101.9163 c -8.8916,54.0667 -49.131,78.2371 -82.523,92.8985 -62.3188,23.2222 -127.6242,11.5665 -190.4108,-0.9669 -32.5753,-8.9095 -66.1303,-47.3197 -62.7243,-99.1832 3.2917,-46.4894 34.8719,-76.7852 65.3104,-81.1038 44.6219,-15.0719 91.1584,-22.414 136.5287,-9.5916 38.958,7.3208 80.6808,9.3053 115.3794,38.2204 11.5958,15.2781 16.0511,38.1542 18.4396,59.7266 z"
       id="path3365-3"
       inkscape:connector-curvature="0" />
    <path
       style="fill:#ffffff;stroke:none;stroke-width:0.88904953"
       d="m 1046.2249,2282.586 c 5.1578,-54.7925 45.448,-84.4416 104.5864,-92.0735 72.5021,-16.2859 140.0803,-23.7472 212.4314,-8.1426 47.3119,12.908 86.1953,14.3734 122.953,51.4242 24.375,27.1738 33.1515,130.0095 -6.3289,156.6617 -41.0995,38.9656 -151.229,47.5981 -206.9488,46.533 -80.1993,1.6036 -150.4861,-5.4921 -190.0924,-37.9463 -37.0339,-31.1374 -41.645,-75.8952 -36.6007,-116.4565 z"
       id="path3065"
       inkscape:connector-curvature="0"
       sodipodi:nodetypes="cccccccc" />
    <path
       style="display:inline;fill:#ffffff;stroke:none"
       d="m 1628.6266,2303.4458 c -21.9558,36.2988 -64.6442,61.9501 -96.7367,35.7869 -19.4449,-15.8524 -29.1134,-28.291 -29.1134,-28.291 l -6.3679,30.9322 20.7854,19.5483 c 0,0 65.508,31.9103 111.4326,-57.9764 z"
       id="path3063-1"
       inkscape:connector-curvature="0"
       sodipodi:nodetypes="cscccc" />
    <path
       style="color:#000000;display:inline;overflow:visible;visibility:visible;fill:#ffffff;fill-opacity:1;fill-rule:nonzero;stroke:none;stroke-width:1px;marker:none;enable-background:accumulate"
       d="m 1913.7084,2318.7633 c 22.0218,-14.8351 108.7391,-27.5791 195.348,-26.0229 86.6089,1.5563 169.6176,9.704 220.3618,46.2927 74.763,53.907 40.7099,177.1599 1.9878,197.9002 -28.0636,15.0314 -112.0563,28.518 -192.5037,30.0346 -80.4472,1.5168 -157.3491,-8.9363 -194.921,-22.5197 -32.4257,-11.723 -79.6687,-43.6247 -83.5261,-120.7802 -1.5743,-31.4904 9.21,-75.2341 53.2532,-104.9047 z"
       id="path4040"
       inkscape:connector-curvature="0"
       sodipodi:nodetypes="ssssssss" />
    <path
       style="color:#000000;display:inline;overflow:visible;visibility:visible;fill:#ffffff;fill-opacity:1;fill-rule:nonzero;stroke:none;stroke-width:1px;marker:none;enable-background:accumulate"
       d="m 2091.5868,2309.6031 c -12.6779,-33.6245 -30.9699,-60.7293 -65.977,-55.676 52.3023,-18.546 92.9308,35.3617 103.6224,53.2726 10.6914,17.9109 -37.6454,2.4034 -37.6454,2.4034 z"
       id="path5010"
       inkscape:connector-curvature="0" />
    <path
       style="color:#000000;display:inline;overflow:visible;visibility:visible;fill:#ffffff;fill-opacity:1;fill-rule:nonzero;stroke:none;stroke-width:1px;marker:none;enable-background:accumulate"
       d="m 628.01922,2726.3612 c -0.95298,-26.3558 9.57321,-45.2414 49.59603,-62.4534 40.023,-17.2119 96.82343,-9.0026 111.7267,-8.4347 69.9372,2.665 93.37108,11.5648 107.66493,30.9284 14.29393,19.3634 17.94569,15.1087 17.44053,48.6465 -0.45226,30.0255 -4.49249,44.1361 -21.64514,50.5905 -17.15276,6.4545 -148.92483,13.8487 -169.21221,13.5611 -19.86289,-0.2816 -45.15266,-3.5096 -64.84564,-14.0823 -18.59066,-9.9808 -29.77229,-32.4002 -30.7252,-58.7561 z"
       id="path3373"
       inkscape:connector-curvature="0"
       sodipodi:nodetypes="zsssssssz" />
    <path
       style="color:#000000;display:inline;overflow:visible;visibility:visible;fill:#ffffff;fill-opacity:1;fill-rule:nonzero;stroke:none;stroke-width:0.92756182px;marker:none;enable-background:accumulate"
       d="m 692.20574,2853.9321 c 8.52742,-71.4433 73.41834,-96.2842 258.64808,-100.5518 48.44553,-1.1161 130.05398,7.4337 168.09798,24.0922 38.0442,16.6585 59.7066,73.9993 54.0217,126.3501 -11.3699,104.7015 -130.172,87.2502 -162.8606,88.4821 -32.68855,1.2319 -257.66845,4.6116 -289.9178,-42.9057 -30.92646,-45.5681 -29.41058,-73.2947 -27.98936,-95.4669 z"
       id="path4546"
       inkscape:connector-curvature="0"
       sodipodi:nodetypes="csssssc" />
    <path
       style="color:#000000;display:inline;overflow:visible;visibility:visible;fill:#ffffff;fill-opacity:1;fill-rule:nonzero;stroke:none;stroke-width:0.85716969px;marker:none;enable-background:accumulate"
       d="m 892.56019,2985.8994 c 23.96643,-42.4872 154.32221,-38.8602 197.69391,-20.4526 43.3716,18.4073 62.1214,23.4094 61.5272,61.358 -0.5564,35.5277 -14.543,68.7281 -36.7333,78.9545 -22.1901,10.2263 -74.2174,10.0146 -96.4076,10.0146 -22.19006,0 -93.02583,-6.509 -110.95074,-21.4754 -17.14693,-14.3168 -39.09601,-65.9121 -15.12947,-108.3991 z"
       id="path3330"
       inkscape:connector-curvature="0"
       sodipodi:nodetypes="zsssssz" />
    <path
       style="color:#000000;display:inline;overflow:visible;visibility:visible;fill:#ffffff;fill-opacity:1;fill-rule:nonzero;stroke:none;stroke-width:1px;marker:none;enable-background:accumulate"
       d="m 929.99953,3158.9683 c 39.78505,-10.9584 53.20162,-17.1208 58.43434,-65.1641 5.23266,-48.0433 23.16173,-44.6696 23.16173,-44.6696 l 14.7504,30.3838 c 0,0 -18.3423,101.2684 -96.34647,79.4499 z"
       id="path3072"
       inkscape:connector-curvature="0" />
    <path
       style="fill:#ffffff;fill-rule:evenodd;stroke:none;stroke-width:1.05476117px;stroke-linecap:butt;stroke-linejoin:miter;stroke-opacity:1"
       d="m 1883.9368,3238.0381 c 27.8349,2.2703 64.0858,-9.0309 41.5823,-43.2115 40.5007,27.3881 78.8668,32.5183 119.2574,2.5347 -5.9044,30.2693 60.1375,32.6046 82.7665,12.5754 -6.9044,31.5436 24.8442,32.7604 51.3741,33.7619 -56.1213,38.5637 -26.6514,50.828 -4.5378,65.3528 -55.1538,-10.7463 -41.8146,11.0276 -48.4023,23.3403 -47.3136,-27.8974 -81.7217,-21.2764 -108.9051,4.668 -14.2171,-14.1093 -18.6797,-43.2707 -71.0907,1.556 19.2728,-38.6983 -5.9895,-34.6364 -46.8897,-15.56 9.4099,-8.8956 49.0158,-32.6615 -15.1547,-30.557 10.0205,-3.1326 18.0613,-6.543 23.7282,-10.2864 5.6669,-3.7435 -30.7726,-13.7375 -30.2473,-18.2021 0.5254,-4.4647 38.0156,-3.4001 32.6113,-8.6967 -5.4043,-5.2964 -13.9704,-11.0365 -26.0922,-17.2754 z"
       id="path4584"
       inkscape:connector-curvature="0"
       sodipodi:nodetypes="cccccccccccsssc" />
    <path
       style="color:#000000;display:inline;overflow:visible;visibility:visible;fill:#ffffff;fill-opacity:1;fill-rule:nonzero;stroke:none;stroke-width:1px;marker:none;enable-background:accumulate"
       d="m 1929.0839,3276.1051 c -26.7744,0.1934 -96.6935,-12.0611 -103.8888,-13.0148 6.0705,-5.4371 10.1298,-10.8932 13.4021,-15.1162 -13.7156,-0.9263 -59.5001,-2.596 -79.7676,1.5975 50.7453,-11.4228 73.8083,-12.6417 95.8809,-9.8645 -2.9601,5.998 -5.8701,9.4267 -7.3188,12.6033 18.7307,6.708 117.9634,8.8349 106.078,1.4065 z"
       id="path5066"
       inkscape:connector-curvature="0"
       sodipodi:nodetypes="cccccccc" />
  </g>
  <g
     inkscape:groupmode="layer"
     id="layer1"
     inkscape:label="txt"
     style="display:inline">
    <text
       id="text94"
       y="2713.5481"
       x="775.05273"
       style="font-style:normal;font-variant:normal;font-weight:normal;font-stretch:normal;font-size:15.15277481px;line-height:100%;font-family:'Nanum Pen Script OTF';-inkscape-font-specification:'Nanum Pen Script OTF';text-align:center;letter-spacing:0px;word-spacing:0px;text-anchor:middle;fill:#000000;fill-opacity:1;stroke:none;stroke-width:1.26273119"
       xml:space="preserve"><tspan
         id="tspan90"
         y="2713.5481"
         x="775.05273"
         style="font-style:normal;font-variant:normal;font-weight:normal;font-stretch:normal;font-size:56.82290268px;line-height:100%;font-family:'Nanum Pen Script OTF';-inkscape-font-specification:'Nanum Pen Script OTF';stroke-width:1.26273119"
         sodipodi:role="line">알겠어요,</tspan><tspan
         id="tspan92"
         y="2770.3711"
         x="782.98798"
         style="font-style:normal;font-variant:normal;font-weight:normal;font-stretch:normal;font-size:56.82290268px;line-height:100%;font-family:'Nanum Pen Script OTF';-inkscape-font-specification:'Nanum Pen Script OTF';stroke-width:1.26273119"
         sodipodi:role="line">빨리 할게요! </tspan></text>
    <text
       id="text116"
       y="3289.9961"
       x="2030.4269"
       style="font-style:normal;font-variant:normal;font-weight:normal;font-stretch:normal;font-size:15.77988148px;line-height:100%;font-family:'Nanum Pen Script OTF';-inkscape-font-specification:'Nanum Pen Script OTF';text-align:center;letter-spacing:0px;word-spacing:0px;text-anchor:middle;fill:#000000;fill-opacity:1;stroke:none;stroke-width:1.31499016"
       xml:space="preserve"><tspan
         id="tspan114"
         y="3289.9961"
         x="2030.4269"
         style="font-style:normal;font-variant:normal;font-weight:normal;font-stretch:normal;font-size:59.17455673px;line-height:100%;font-family:'Nanum Pen Script OTF';-inkscape-font-specification:'Nanum Pen Script OTF';stroke-width:1.31499016"
         sodipodi:role="line">안 해도 <tspan
   style="stroke:#000000;stroke-opacity:1"
   id="tspan4687">뭐</tspan>?</tspan></text>
    <text
       id="text56"
       y="1978.2552"
       x="1177.1116"
       style="font-style:normal;font-variant:normal;font-weight:normal;font-stretch:normal;font-size:14.31944084px;line-height:100%;font-family:'Nanum Pen Script OTF';-inkscape-font-specification:'Nanum Pen Script OTF';text-align:center;letter-spacing:0px;word-spacing:0px;text-anchor:middle;fill:#000000;fill-opacity:1;stroke:none;stroke-width:1.1932869"
       xml:space="preserve"><tspan
         id="tspan54"
         y="1978.2552"
         x="1184.6104"
         style="font-style:normal;font-variant:normal;font-weight:normal;font-stretch:normal;font-size:53.69790649px;line-height:100%;font-family:'Nanum Pen Script OTF';-inkscape-font-specification:'Nanum Pen Script OTF';stroke-width:1.1932869"
         sodipodi:role="line">난 들어간다. </tspan></text>
    <text
       id="text68"
       y="2428.1746"
       x="2227.1233"
       style="font-style:normal;font-variant:normal;font-weight:normal;font-stretch:normal;font-size:13.12427044px;line-height:100%;font-family:'Nanum Pen Script OTF';-inkscape-font-specification:'Nanum Pen Script OTF';text-align:center;letter-spacing:0px;word-spacing:0px;text-anchor:middle;fill:#000000;fill-opacity:1;stroke:none;stroke-width:1.0936892"
       xml:space="preserve"><text
   id="text64"
   y="2064.8091"
   x="1174.7733"
   style="font-style:normal;font-variant:normal;font-weight:normal;font-stretch:normal;line-height:100%;font-family:'Nanum Pen Script OTF';-inkscape-font-specification:'Nanum Pen Script OTF';text-align:center;letter-spacing:0px;word-spacing:0px;text-anchor:middle;fill:#000000;fill-opacity:1;stroke:none;stroke-width:1.0936892"
   xml:space="preserve"><tspan
     id="tspan62"
     y="2064.8091"
     x="1174.7733"
     style="font-style:normal;font-variant:normal;font-weight:normal;font-stretch:normal;font-size:49.21601105px;line-height:100%;font-family:'Nanum Pen Script OTF';-inkscape-font-specification:'Nanum Pen Script OTF';stroke-width:1.0936892"
     sodipodi:role="line">쓸데없이</tspan><tspan
     y="2114.0251"
     x="1174.7733"
     style="font-style:normal;font-variant:normal;font-weight:normal;font-stretch:normal;font-size:49.21601105px;line-height:100%;font-family:'Nanum Pen Script OTF';-inkscape-font-specification:'Nanum Pen Script OTF';stroke-width:1.0936892"
     sodipodi:role="line"
     id="tspan122">땅 파는 거 구경할</tspan><tspan
     y="2163.2412"
     x="1181.6462"
     style="font-style:normal;font-variant:normal;font-weight:normal;font-stretch:normal;font-size:49.21601105px;line-height:100%;font-family:'Nanum Pen Script OTF';-inkscape-font-specification:'Nanum Pen Script OTF';stroke-width:1.0936892"
     sodipodi:role="line"
     id="tspan124">필요 없으니까... </tspan></text>
  <tspan
   id="tspan66"
   y="2163.2412"
   x="1176.6061"
   style="font-style:normal;font-variant:normal;font-weight:normal;font-stretch:normal;font-size:49.21601105px;line-height:100%;font-family:'Nanum Pen Script OTF';-inkscape-font-specification:'Nanum Pen Script OTF';stroke-width:1.0936892"
   sodipodi:role="line" /></text>
    <text
       id="text78"
       y="2276.1509"
       x="1275.0822"
       style="font-style:normal;font-variant:normal;font-weight:normal;font-stretch:normal;font-size:15.24002171px;line-height:100%;font-family:'Nanum Pen Script OTF';-inkscape-font-specification:'Nanum Pen Script OTF';text-align:center;letter-spacing:0px;word-spacing:0px;text-anchor:middle;fill:#000000;fill-opacity:1;stroke:none;stroke-width:1.27000177"
       xml:space="preserve"><tspan
         id="tspan72"
         y="2276.1509"
         x="1283.0631"
         style="font-style:normal;font-variant:normal;font-weight:normal;font-stretch:normal;font-size:57.15008163px;line-height:100%;font-family:'Nanum Pen Script OTF';-inkscape-font-specification:'Nanum Pen Script OTF';stroke-width:1.27000177"
         sodipodi:role="line">네 실패작들 전부 다 </tspan><tspan
         y="2333.301"
         x="1275.0822"
         style="font-style:normal;font-variant:normal;font-weight:normal;font-stretch:normal;font-size:57.15008163px;line-height:100%;font-family:'Nanum Pen Script OTF';-inkscape-font-specification:'Nanum Pen Script OTF';stroke-width:1.27000177"
         sodipodi:role="line"
         id="tspan135">묻어버리고 얼른 들어와서</tspan><tspan
         id="tspan76"
         y="2390.4509"
         x="1275.0822"
         style="font-style:normal;font-variant:normal;font-weight:normal;font-stretch:normal;font-size:57.15008163px;line-height:100%;font-family:'Nanum Pen Script OTF';-inkscape-font-specification:'Nanum Pen Script OTF';stroke-width:1.27000177"
         sodipodi:role="line">쉬어.</tspan></text>
    <text
       id="text88"
       y="2369.0464"
       x="2112.0647"
       style="font-style:normal;font-variant:normal;font-weight:normal;font-stretch:normal;font-size:15.18629646px;line-height:100%;font-family:'Nanum Pen Script OTF';-inkscape-font-specification:'Nanum Pen Script OTF';text-align:center;letter-spacing:0px;word-spacing:0px;text-anchor:middle;fill:#000000;fill-opacity:1;stroke:none;stroke-width:1.26552463"
       xml:space="preserve"><tspan
         id="tspan82"
         y="2369.0464"
         x="2112.0647"
         style="font-style:normal;font-variant:normal;font-weight:normal;font-stretch:normal;font-size:56.94861221px;line-height:100%;font-family:'Nanum Pen Script OTF';-inkscape-font-specification:'Nanum Pen Script OTF';stroke-width:1.26552463"
         sodipodi:role="line">네가 내일 성공하는 걸</tspan><tspan
         y="2425.9951"
         x="2112.0647"
         style="font-style:normal;font-variant:normal;font-weight:normal;font-stretch:normal;font-size:56.94861221px;line-height:100%;font-family:'Nanum Pen Script OTF';-inkscape-font-specification:'Nanum Pen Script OTF';stroke-width:1.26552463"
         sodipodi:role="line"
         id="tspan145">보는 게 기우일 수도</tspan><tspan
         id="tspan84"
         y="2482.9436"
         x="2112.0647"
         style="font-style:normal;font-variant:normal;font-weight:normal;font-stretch:normal;font-size:56.94861221px;line-height:100%;font-family:'Nanum Pen Script OTF';-inkscape-font-specification:'Nanum Pen Script OTF';stroke-width:1.26552463"
         sodipodi:role="line">있겠다만,</tspan><tspan
         id="tspan86"
         y="2539.8923"
         x="2112.0647"
         style="font-style:normal;font-variant:normal;font-weight:normal;font-stretch:normal;font-size:56.94861221px;line-height:100%;font-family:'Nanum Pen Script OTF';-inkscape-font-specification:'Nanum Pen Script OTF';stroke-width:1.26552463"
         sodipodi:role="line">혹시 모르지!</tspan></text>
    <text
       id="text104"
       y="2834.5386"
       x="943.10773"
       style="font-style:normal;font-variant:normal;font-weight:normal;font-stretch:normal;font-size:15.22831249px;line-height:100%;font-family:'Nanum Pen Script OTF';-inkscape-font-specification:'Nanum Pen Script OTF';text-align:center;letter-spacing:0px;word-spacing:0px;text-anchor:middle;fill:#000000;fill-opacity:1;stroke:none;stroke-width:1.26902604"
       xml:space="preserve"><tspan
         id="tspan96"
         y="2834.5386"
         x="943.10773"
         style="font-style:normal;font-variant:normal;font-weight:normal;font-stretch:normal;font-size:57.10617447px;line-height:100%;font-family:'Nanum Pen Script OTF';-inkscape-font-specification:'Nanum Pen Script OTF';stroke-width:1.26902604"
         sodipodi:role="line">그런데요, 도대체</tspan><tspan
         id="tspan98"
         y="2891.6448"
         x="943.10773"
         style="font-style:normal;font-variant:normal;font-weight:normal;font-stretch:normal;font-size:57.10617447px;line-height:100%;font-family:'Nanum Pen Script OTF';-inkscape-font-specification:'Nanum Pen Script OTF';stroke-width:1.26902604"
         sodipodi:role="line">뭔 이유가 있어서 맨날</tspan><tspan
         id="tspan102"
         y="2948.751"
         x="951.08252"
         style="font-style:normal;font-variant:normal;font-weight:normal;font-stretch:normal;font-size:57.10617447px;line-height:100%;font-family:'Nanum Pen Script OTF';-inkscape-font-specification:'Nanum Pen Script OTF';stroke-width:1.26902604"
         sodipodi:role="line"><tspan
   style="stroke:#000000;stroke-opacity:1"
   id="tspan4689">땅에다 파묻는 거예요</tspan>? </tspan></text>
    <text
       id="text110"
       y="3032.2722"
       x="1017.6758"
       style="font-style:normal;font-variant:normal;font-weight:normal;font-stretch:normal;font-size:15.10381317px;line-height:100%;font-family:'Nanum Pen Script OTF';-inkscape-font-specification:'Nanum Pen Script OTF';text-align:center;letter-spacing:0px;word-spacing:0px;text-anchor:middle;fill:#000000;fill-opacity:1;stroke:none;stroke-width:1.25865114"
       xml:space="preserve"><tspan
         id="tspan108"
         y="3032.2722"
         x="1017.6758"
         style="font-style:normal;font-variant:normal;font-weight:normal;font-stretch:normal;font-size:56.6393013px;line-height:100%;font-family:'Nanum Pen Script OTF';-inkscape-font-specification:'Nanum Pen Script OTF';stroke-width:1.25865114"
         sodipodi:role="line">굳이 이렇게</tspan><tspan
         y="3088.9116"
         x="1025.5853"
         style="font-style:normal;font-variant:normal;font-weight:normal;font-stretch:normal;font-size:56.6393013px;line-height:100%;font-family:'Nanum Pen Script OTF';-inkscape-font-specification:'Nanum Pen Script OTF';stroke-width:1.25865114"
         sodipodi:role="line"
         id="tspan4675">안 해도... </tspan></text>
  </g>
</svg>
