<?xml version="1.0" encoding="UTF-8" standalone="no"?>
<svg
   xmlns:dc="http://purl.org/dc/elements/1.1/"
   xmlns:cc="http://creativecommons.org/ns#"
   xmlns:rdf="http://www.w3.org/1999/02/22-rdf-syntax-ns#"
   xmlns:svg="http://www.w3.org/2000/svg"
   xmlns="http://www.w3.org/2000/svg"
   xmlns:xlink="http://www.w3.org/1999/xlink"
   xmlns:sodipodi="http://sodipodi.sourceforge.net/DTD/sodipodi-0.dtd"
   xmlns:inkscape="http://www.inkscape.org/namespaces/inkscape"
   inkscape:export-ydpi="90"
   inkscape:export-xdpi="90"
   inkscape:export-filename="credit.png"
   sodipodi:docname="E33P09.svg"
   height="6200"
   width="2481"
   inkscape:version="0.48.5 r10040"
   version="1.1"
   id="svg2">
  <metadata
     id="metadata8">
    <rdf:RDF>
      <cc:Work
         rdf:about="">
        <dc:format>image/svg+xml</dc:format>
        <dc:type
           rdf:resource="http://purl.org/dc/dcmitype/StillImage" />
        <dc:title />
      </cc:Work>
    </rdf:RDF>
  </metadata>
  <defs
     id="defs6">
    <filter
       style="color-interpolation-filters:sRGB"
       id="filter5546"
       inkscape:label="Drop Shadow">
      <feFlood
         id="feFlood5548"
         result="flood"
         flood-color="rgb(0,0,0)"
         flood-opacity="1" />
      <feComposite
         id="feComposite5550"
         result="composite1"
         operator="in"
         in2="SourceGraphic"
         in="flood" />
      <feGaussianBlur
         id="feGaussianBlur5552"
         result="blur"
         stdDeviation="1"
         in="composite1" />
      <feOffset
         id="feOffset5554"
         result="offset"
         dy="2.5"
         dx="2.5" />
      <feComposite
         id="feComposite5556"
         result="composite2"
         operator="over"
         in2="offset"
         in="SourceGraphic" />
    </filter>
  </defs>
  <sodipodi:namedview
     inkscape:document-rotation="0"
     inkscape:snap-global="false"
     inkscape:guide-bbox="true"
     showguides="true"
     inkscape:object-nodes="true"
     inkscape:current-layer="layer2"
     inkscape:window-maximized="0"
     inkscape:window-y="0"
     inkscape:window-x="130"
     inkscape:cy="4393.3769"
     inkscape:cx="844.67177"
     inkscape:zoom="0.43016842"
     showgrid="false"
     id="namedview4"
     inkscape:window-height="590"
     inkscape:window-width="1219"
     inkscape:pageshadow="2"
     inkscape:pageopacity="0"
     guidetolerance="10"
     gridtolerance="10"
     objecttolerance="10"
     borderopacity="1"
     bordercolor="#666666"
     pagecolor="#ffffff">
    <sodipodi:guide
       inkscape:locked="false"
       id="guide171"
       orientation="0,1"
       position="1570,6115" />
  </sodipodi:namedview>
  <g
     transform="translate(0,2224)"
     style="display:inline"
     inkscape:label="artwork"
     id="layer1"
     inkscape:groupmode="layer"
     sodipodi:insensitive="true">
    <image
       sodipodi:absref="/Users/su_huynh/Downloads/lang 5/vi/../gfx_Pepper-and-Carrot_by-David-Revoy_E33P09.png"
       xlink:href="../gfx_Pepper-and-Carrot_by-David-Revoy_E33P09.png"
       width="2481"
       height="6200"
       preserveAspectRatio="none"
       id="image4223"
       x="0"
       y="-2224.0303" />
  </g>
  <g
     transform="translate(0,850)"
     style="opacity:0.55699989"
     inkscape:label="notes"
     id="layer4"
     inkscape:groupmode="layer"
     sodipodi:insensitive="true">
    <path
       sodipodi:nodetypes="ccccc"
       inkscape:connector-curvature="0"
       id="rect4191-6"
       d="M -574.6862,-444.24892 V -97.685415 H -69.701155 V -444.24892 z"
       style="color:#000000;fill:#fff3c0;fill-opacity:1;fill-rule:nonzero;stroke:#565656;stroke-width:1.20000005;stroke-linecap:butt;stroke-linejoin:miter;stroke-miterlimit:4;stroke-opacity:1;stroke-dasharray:none;stroke-dashoffset:0;marker:none;visibility:visible;display:inline;overflow:visible;enable-background:accumulate" />
    <path
       style="color:#000000;fill:#fff3c0;fill-opacity:1;fill-rule:nonzero;stroke:#565656;stroke-width:1.20000005;stroke-linecap:butt;stroke-linejoin:miter;stroke-miterlimit:4;stroke-opacity:1;stroke-dasharray:none;stroke-dashoffset:0;marker:none;visibility:visible;display:inline;overflow:visible;enable-background:accumulate"
       d="M -574.6862,-39.605914 V 72.542927 H -69.701155 V -39.605914 z"
       id="path1126"
       inkscape:connector-curvature="0"
       sodipodi:nodetypes="ccccc" />
    <rect
       style="fill:#ffffff;fill-opacity:1;fill-rule:nonzero;stroke:#565656;stroke-width:2;stroke-linecap:butt;stroke-linejoin:miter;stroke-miterlimit:4;stroke-opacity:1;stroke-dasharray:none;stroke-dashoffset:0"
       id="rect1119"
       width="40.609375"
       height="40.609375"
       x="-550.34448"
       y="-15.366078"
       rx="6.828125"
       ry="6.828125" />
    <flowRoot
       transform="matrix(1.1072392,0,0,1.1072392,-254.26383,-1597.3294)"
       style="font-size:32.51330185px;font-style:normal;font-variant:normal;font-weight:normal;font-stretch:normal;text-align:center;line-height:0.01%;letter-spacing:0px;word-spacing:0px;writing-mode:lr-tb;text-anchor:middle;opacity:0.86000001;fill:#000000;fill-opacity:1;stroke:none;display:inline;font-family:ComicSpice;-inkscape-font-specification:ComicSpice"
       id="flowRoot4212-7"
       xml:space="preserve"><flowRegion
         style="font-size:32.51330185px;font-style:normal;font-variant:normal;font-weight:normal;font-stretch:normal;text-align:center;writing-mode:lr-tb;text-anchor:middle;font-family:Lavi;-inkscape-font-specification:'Lavi, Normal'"
         id="flowRegion4214-5"><rect
           style="font-size:32.51329803px;font-style:normal;font-variant:normal;font-weight:normal;font-stretch:normal;text-align:center;writing-mode:lr-tb;text-anchor:middle;font-family:ComicSpice;-inkscape-font-specification:ComicSpice"
           y="1061.6674"
           x="-275.14545"
           height="405.5687"
           width="426.3205"
           id="rect4216-3" /></flowRegion><flowPara
         id="flowPara542"
         style="font-size:32.51330185px;font-style:normal;font-variant:normal;font-weight:normal;font-stretch:normal;text-align:center;line-height:1.25;writing-mode:lr-tb;text-anchor:middle;font-family:ComicSpice;-inkscape-font-specification:ComicSpice">HƯỚNG DẪN CHO</flowPara><flowPara
         style="font-size:32.51330185px;font-style:normal;font-variant:normal;font-weight:normal;font-stretch:normal;text-align:center;line-height:1.25;writing-mode:lr-tb;text-anchor:middle;font-family:ComicSpice;-inkscape-font-specification:ComicSpice"
         id="flowPara17420">NGƯỜI PHIÊN DỊCH</flowPara><flowPara
         style="font-size:32.51330185px;font-style:normal;font-variant:normal;font-weight:normal;font-stretch:normal;text-align:center;line-height:1.25;writing-mode:lr-tb;text-anchor:middle;font-family:ComicSpice;-inkscape-font-specification:ComicSpice"
         id="flowPara17422">Thay thông tin của</flowPara><flowPara
         style="font-size:32.51330185px;font-style:normal;font-variant:normal;font-weight:normal;font-stretch:normal;text-align:center;line-height:1.25;writing-mode:lr-tb;text-anchor:middle;font-family:ComicSpice;-inkscape-font-specification:ComicSpice"
         id="flowPara17424">bạn vào đầy, ví dụ:</flowPara><flowPara
         id="flowPara552"
         style="font-size:12.04199982px;font-style:normal;font-variant:normal;font-weight:normal;font-stretch:normal;text-align:center;line-height:1.25;writing-mode:lr-tb;text-anchor:middle;font-family:ComicSpice;-inkscape-font-specification:ComicSpice" /><flowPara
         id="flowPara1038"
         style="font-size:32.51330185px;font-style:normal;font-variant:normal;font-weight:normal;font-stretch:normal;text-align:center;line-height:1.25;writing-mode:lr-tb;text-anchor:middle;font-family:ComicSpice;-inkscape-font-specification:ComicSpice">Phiên Bản Tiếng Pháp</flowPara><flowPara
         style="font-size:32.51330185px;font-style:normal;font-variant:normal;font-weight:normal;font-stretch:normal;text-align:center;line-height:1.25;writing-mode:lr-tb;text-anchor:middle;font-family:ComicSpice;-inkscape-font-specification:ComicSpice"
         id="flowPara17432">Phiên Dịch: Tên Tôi.</flowPara><flowPara
         style="font-size:32.51330185px;font-style:normal;font-variant:normal;font-weight:normal;font-stretch:normal;text-align:center;line-height:1.25;writing-mode:lr-tb;text-anchor:middle;font-family:ComicSpice;-inkscape-font-specification:ComicSpice"
         id="flowPara17434">Kiểm tra: Tên Khác.</flowPara></flowRoot>    <flowRoot
       transform="translate(0,-850)"
       style="font-size:13.33329964px;font-style:normal;font-variant:normal;font-weight:normal;font-stretch:normal;text-align:center;line-height:139.99999762%;letter-spacing:0px;word-spacing:0px;writing-mode:lr-tb;text-anchor:middle;fill:#000000;fill-opacity:1;stroke:none;font-family:sans-serif;-inkscape-font-specification:'sans-serif, Normal'"
       id="flowRoot147"
       xml:space="preserve"><flowRegion
         id="flowRegion149"><rect
           y="445.68756"
           x="-209.875"
           height="74.75"
           width="127.9375"
           id="rect151" /></flowRegion><flowPara
         id="flowPara153" /></flowRoot>    <rect
       ry="6.828125"
       rx="6.828125"
       y="9.6104832"
       x="-516.38354"
       height="40.609375"
       width="40.609375"
       id="rect1053"
       style="fill:#ffffff;fill-opacity:1;fill-rule:nonzero;stroke:#565656;stroke-width:2;stroke-linecap:butt;stroke-linejoin:miter;stroke-miterlimit:4;stroke-opacity:1;stroke-dasharray:none;stroke-dashoffset:0" />
    <g
       transform="matrix(0.59407669,0,0,0.59407669,-163.26261,134.65845)"
       id="text1042"
       style="font-size:53.33330154px;font-style:normal;font-variant:normal;font-weight:500;font-stretch:normal;text-align:center;line-height:139.99999762%;letter-spacing:0px;word-spacing:0px;writing-mode:lr-tb;text-anchor:middle;fill:#000000;fill-opacity:1;stroke:#000000;stroke-width:1px;stroke-linecap:butt;stroke-linejoin:miter;stroke-opacity:1;font-family:Beteckna;-inkscape-font-specification:'Beteckna, Medium'"
       aria-label="文">
      <path
         style="stroke:#000000;stroke-opacity:1"
         inkscape:connector-curvature="0"
         id="path1044"
         d="m -579.73479,-186.8389 q -1.06667,0 -1.81333,-0.74666 -0.74667,-0.74667 -0.74667,-1.81334 0,-1.01333 0.74667,-1.76 0.74666,-0.74666 1.81333,-0.74666 h 17.49333 q 0.48,0 0.48,-0.48 v -4.21334 q 0,-1.22666 0.85334,-2.08 0.90666,-0.85333 2.08,-0.85333 1.17333,0 2.02666,0.85333 0.90667,0.85334 0.90667,2.08 v 4.21334 q 0,0.48 0.48,0.48 h 17.54666 q 1.01334,0 1.76,0.74666 0.74667,0.69334 0.74667,1.76 0,1.06667 -0.74667,1.81334 -0.74666,0.74666 -1.76,0.74666 h -4.26666 q -0.42667,0 -0.58667,0.42667 -4.58667,13.92 -11.57333,21.12 -0.32,0.32 0.0533,0.58667 6.02667,4.16 16.48,7.46666 1.01333,0.32 1.49333,1.28 0.48,0.96 0.16,1.97334 -0.37333,1.06666 -1.33333,1.54666 -0.96,0.48 -1.97333,0.16 -11.89334,-3.68 -19.04,-8.8 -0.37333,-0.26666 -0.74667,0 -7.14666,5.17334 -19.04,8.8 -1.01333,0.32 -1.97333,-0.16 -0.96,-0.48 -1.33333,-1.54666 -0.32,-1.01334 0.16,-1.97334 0.48,-0.96 1.49333,-1.28 10.50667,-3.36 16.48,-7.52 0.37333,-0.21333 0.0533,-0.53333 -5.81333,-5.97333 -9.76,-15.68 -0.42666,-1.01333 0.10667,-2.02667 0.53333,-1.06666 1.65333,-1.33333 1.17334,-0.32 2.18667,0.26667 1.06667,0.53333 1.49333,1.65333 3.36,8.42667 8.48,13.6 0.26667,0.26667 0.58667,-0.0533 5.76,-6.08 9.70666,-17.54667 0.10667,-0.42667 -0.32,-0.42667 z" />
    </g>
    <flowRoot
       xml:space="preserve"
       id="flowRoot1089"
       style="font-size:32.51330185px;font-style:normal;font-variant:normal;font-weight:normal;font-stretch:normal;text-align:start;line-height:0.01%;letter-spacing:0px;word-spacing:0px;writing-mode:lr-tb;text-anchor:start;opacity:0.86000001;fill:#000000;fill-opacity:1;stroke:none;display:inline;font-family:ComicSpice;-inkscape-font-specification:ComicSpice"
       transform="matrix(1.1072392,0,0,1.1072392,-152.13883,-1201.8712)"><flowRegion
         id="flowRegion1067"
         style="font-size:32.51330185px;font-style:normal;font-variant:normal;font-weight:normal;font-stretch:normal;text-align:start;writing-mode:lr-tb;text-anchor:start;font-family:Lavi;-inkscape-font-specification:'Lavi, Normal'"><rect
           id="rect1065"
           width="328.94995"
           height="150.45786"
           x="-275.14545"
           y="1061.6674"
           style="font-size:32.51329803px;font-style:normal;font-variant:normal;font-weight:normal;font-stretch:normal;text-align:start;writing-mode:lr-tb;text-anchor:start;font-family:ComicSpice;-inkscape-font-specification:ComicSpice" /></flowRegion><flowPara
         id="flowPara1115"
         style="font-size:32.51330185px;font-style:normal;font-variant:normal;font-weight:normal;font-stretch:normal;text-align:start;line-height:1.25;writing-mode:lr-tb;text-anchor:start;font-family:ComicSpice;-inkscape-font-specification:ComicSpice">Bạn cũng có thể dịch</flowPara><flowPara
         style="font-size:32.51330185px;font-style:normal;font-variant:normal;font-weight:normal;font-stretch:normal;text-align:start;line-height:1.25;writing-mode:lr-tb;text-anchor:start;font-family:ComicSpice;-inkscape-font-specification:ComicSpice"
         id="flowPara17438">trang này.</flowPara></flowRoot>    <path
       sodipodi:nodetypes="ccccc"
       inkscape:connector-curvature="0"
       id="path158"
       d="m -574.47486,-702.16467 v 205.24103 h 504.562363 v -205.24103 z"
       style="color:#000000;fill:#fff3c0;fill-opacity:1;fill-rule:nonzero;stroke:#565656;stroke-width:1.62267995;stroke-linecap:butt;stroke-linejoin:miter;stroke-miterlimit:4;stroke-opacity:1;stroke-dasharray:none;stroke-dashoffset:0;marker:none;visibility:visible;display:inline;overflow:visible;enable-background:accumulate" />
    <flowRoot
       transform="matrix(1.1072392,0,0,1.1072392,-167.38582,-1864.6414)"
       style="font-size:32.51330185px;font-style:normal;font-variant:normal;font-weight:normal;font-stretch:normal;text-align:start;line-height:0.01%;letter-spacing:0px;word-spacing:0px;writing-mode:lr-tb;text-anchor:start;opacity:0.86000001;fill:#000000;fill-opacity:1;stroke:none;display:inline;font-family:ComicSpice;-inkscape-font-specification:ComicSpice"
       id="flowRoot180"
       xml:space="preserve"><flowRegion
         style="font-size:32.51330185px;font-style:normal;font-variant:normal;font-weight:normal;font-stretch:normal;text-align:start;writing-mode:lr-tb;text-anchor:start;font-family:Lavi;-inkscape-font-specification:'Lavi, Normal'"
         id="flowRegion174"><rect
           style="font-size:32.51329803px;font-style:normal;font-variant:normal;font-weight:normal;font-stretch:normal;text-align:start;writing-mode:lr-tb;text-anchor:start;font-family:ComicSpice;-inkscape-font-specification:ComicSpice"
           y="1061.6674"
           x="-275.14545"
           height="212.88319"
           width="353.73645"
           id="rect172" /></flowRegion><flowPara
         style="font-size:32.51330185px;font-style:normal;font-variant:normal;font-weight:normal;font-stretch:normal;text-align:start;line-height:1.25;writing-mode:lr-tb;text-anchor:start;font-family:ComicSpice;-inkscape-font-specification:ComicSpice"
         id="flowPara178">Những người kiểm tra kịch bản giúp phát triển câu chuyện, còn những người tìm sai lầm gúp chỉnh sửa văn bản.</flowPara></flowRoot>    <g
       transform="translate(-8.1317279,84.400435)"
       id="g1043">
      <path
         style="fill:#cccccc;fill-opacity:1;fill-rule:nonzero;stroke:#787878;stroke-width:2;stroke-linecap:butt;stroke-linejoin:miter;stroke-miterlimit:4;stroke-opacity:1;stroke-dasharray:none;stroke-dashoffset:0"
         d="m -518.53699,-666.84645 c -0.61422,0 -1.11032,0.44692 -1.11032,1.00248 v 12.91861 c 0,0.55556 0.4961,1.00249 1.11032,1.00249 h 1.73686 v 0.60907 c 0,0.76558 0.61574,1.38132 1.38132,1.38132 h 6.37043 c 0.76558,0 1.38133,-0.61574 1.38133,-1.38132 v -0.60907 h 1.73685 c 0.61423,0 1.11031,-0.44693 1.11031,-1.00249 v -12.91861 c 0,-0.55556 -0.49608,-1.00248 -1.11031,-1.00248 z"
         id="rect192"
         inkscape:connector-curvature="0" />
      <path
         style="fill:#ffff98;fill-opacity:1;fill-rule:nonzero;stroke:#787878;stroke-width:2;stroke-linecap:butt;stroke-linejoin:miter;stroke-miterlimit:4;stroke-opacity:1;stroke-dasharray:none;stroke-dashoffset:0"
         d="m -512.23359,-731.76886 c -20.17859,0 -27.20983,14.91405 -27.20983,25.74398 0,18.52719 18.63045,25.28436 18.63045,37.26089 v 2.29638 c 0,0.73518 0.59075,1.32595 1.32595,1.32595 h 14.50685 c 0.7352,0 1.32597,-0.59077 1.32597,-1.32595 v -2.29638 c 0,-11.97653 18.63043,-18.7337 18.63043,-37.26089 0,-10.82993 -7.03125,-25.74398 -27.20982,-25.74398 z"
         id="path184"
         inkscape:connector-curvature="0"
         sodipodi:nodetypes="ssscsscsss" />
      <path
         id="path1016"
         style="fill:none;stroke:#787878;stroke-width:1px;stroke-linecap:butt;stroke-linejoin:miter;stroke-opacity:1"
         d="m -507.44236,-664.67965 c -2.02309,-12.0089 -0.93024,-25.69888 3.20539,-31.87898 l 2e-5,-1.4e-4 c -0.69465,2.89489 -6.40555,2.16513 -6.6718,-0.75503 -1.0292,0.75759 -2.788,0.37964 -3.26183,0.2394 -0.0566,5.19286 -5.00817,-2.69192 -6.34424,0.51563 3.22578,4.01626 4.8117,19.84006 3.01482,31.87912"
         inkscape:connector-curvature="0"
         sodipodi:nodetypes="ccccccc" />
    </g>
  </g>
  <g
     transform="translate(0,2224)"
     style="display:inline"
     inkscape:label="speechbubbles"
     id="layer3"
     inkscape:groupmode="layer">
    <g
       style="opacity:0.607;stroke-width:0.453865"
       transform="matrix(2.2032985,0,0,2.2032985,1108.3021,-1214.7884)"
       inkscape:label="Layer 1"
       id="layer1-8">
      <g
         style="stroke-width:0.453865"
         transform="matrix(0.9937728,0,0,0.9936696,-177.69267,6.25128e-7)"
         id="g260"
         inkscape:export-filename="/mnt/hgfs/Bov/Documents/Work/2007/cc/identity/srr buttons/big/by.png"
         inkscape:export-xdpi="300.23013"
         inkscape:export-ydpi="300.23013">
        <path
           inkscape:connector-curvature="0"
           id="path3817_1_"
           nodetypes="ccccccc"
           d="m 181.96579,0.51074 114.06396,0.20264 c 1.59375,0 3.01758,-0.23633 3.01758,3.18066 l -0.13965,37.56689 H 179.08737 V 3.75439 c 0,-1.68505 0.16309,-3.24365 2.87842,-3.24365 z"
           style="fill:#aab2ab;stroke-width:0.453865" />
        <path
           style="stroke-width:0.453865"
           inkscape:connector-curvature="0"
           d="m 297.29636,0 h -116.229 c -1.24658,0 -2.26123,1.01416 -2.26123,2.26074 v 39.49658 c 0,0.28174 0.229,0.51025 0.51074,0.51025 h 119.73047 c 0.28174,0 0.51074,-0.22852 0.51074,-0.51025 V 2.26074 C 299.55807,1.01416 298.54343,0 297.29636,0 Z M 181.06735,1.02148 h 116.229 c 0.68408,0 1.24023,0.55566 1.24023,1.23926 0,0 0,15.94824 0,27.44971 h -83.34424 c -3.04492,5.50586 -8.91113,9.24414 -15.64355,9.24414 -6.73535,0 -12.6001,-3.73486 -15.64355,-9.24414 h -4.07764 c 0,-11.50146 0,-27.44971 0,-27.44971 1e-5,-0.68359 0.55616,-1.23926 1.23975,-1.23926 z"
           id="path263" />
        <g
           style="stroke-width:0.453865"
           enable-background="new    "
           id="g265">
          <path
             inkscape:connector-curvature="0"
             d="m 253.07761,32.95605 c 0.31738,0 0.60742,0.02832 0.87012,0.08398 0.26172,0.05566 0.48535,0.14746 0.67285,0.27539 0.18652,0.12695 0.33203,0.29688 0.43457,0.50781 0.10254,0.21191 0.1543,0.47266 0.1543,0.78418 0,0.33594 -0.0762,0.61523 -0.22949,0.83887 -0.15234,0.22461 -0.37891,0.40723 -0.67773,0.55078 0.41211,0.11816 0.71973,0.3252 0.92285,0.62109 0.20312,0.29589 0.30469,0.65234 0.30469,1.06934 0,0.33594 -0.0654,0.62695 -0.19629,0.87305 -0.13086,0.24512 -0.30762,0.44629 -0.52832,0.60156 -0.22168,0.15625 -0.47461,0.27148 -0.75781,0.3457 -0.28418,0.0752 -0.5752,0.1123 -0.875,0.1123 H 249.936 v -6.66406 h 3.14161 z m -0.1875,2.69532 c 0.26172,0 0.47656,-0.0625 0.64551,-0.18652 0.16797,-0.12402 0.25195,-0.3252 0.25195,-0.60449 0,-0.15527 -0.0283,-0.2832 -0.084,-0.38184 -0.0566,-0.09961 -0.13086,-0.17676 -0.22461,-0.2334 -0.0937,-0.05566 -0.20117,-0.09473 -0.32227,-0.11621 -0.1211,-0.02148 -0.24805,-0.03223 -0.37793,-0.03223 h -1.37402 v 1.55469 z m 0.0859,2.82812 c 0.14355,0 0.28027,-0.01367 0.41113,-0.04199 0.13086,-0.02832 0.24609,-0.0752 0.34668,-0.13965 0.0996,-0.06543 0.17871,-0.1543 0.23828,-0.2666 0.0596,-0.11133 0.0889,-0.25488 0.0889,-0.42871 0,-0.3418 -0.0967,-0.58594 -0.29004,-0.73242 -0.19336,-0.14551 -0.44922,-0.21875 -0.7666,-0.21875 h -1.59961 v 1.82812 z"
             id="path267"
             style="fill:#ffffff;stroke-width:0.453865" />
          <path
             inkscape:connector-curvature="0"
             d="m 255.78854,32.95605 h 1.64355 l 1.56055,2.63184 1.55078,-2.63184 h 1.63379 l -2.47363,4.10645 v 2.55762 h -1.46875 v -2.59473 z"
             id="path269"
             style="fill:#ffffff;stroke-width:0.453865" />
        </g>
        <g
           style="stroke-width:0.453865"
           id="g5908_1_"
           transform="matrix(0.872921,0,0,0.872921,50.12536,143.2144)">
          <path
             inkscape:connector-curvature="0"
             id="path5906_1_"
             cx="296.35416"
             ry="22.939548"
             cy="264.3577"
             type="arc"
             rx="22.939548"
             d="m 186.90065,-141.46002 c 0.006,8.68079 -7.02786,15.7215 -15.70808,15.72711 -8.68022,0.006 -15.72206,-7.02734 -15.7271,-15.70807 0,-0.006 0,-0.0123 0,-0.019 -0.005,-8.68079 7.02786,-15.7215 15.70808,-15.72656 8.68135,-0.006 15.72206,7.02734 15.7271,15.70813 0,0.006 0,0.0123 0,0.0184 z"
             style="fill:#ffffff;stroke-width:0.453865" />
          <g
             style="stroke-width:0.453865"
             id="g5706_1_"
             transform="translate(-289.6157,99.0653)">
            <path
               style="stroke-width:0.453865"
               inkscape:connector-curvature="0"
               id="path5708_1_"
               d="m 473.57574,-253.32751 c 3.48541,3.48541 5.22839,7.75391 5.22839,12.80219 0,5.04938 -1.71277,9.27203 -5.13831,12.66791 -3.63531,3.5766 -7.93182,5.36432 -12.88947,5.36432 -4.89777,0 -9.11987,-1.77319 -12.66513,-5.31952 -3.54581,-3.54584 -5.31845,-7.78302 -5.31845,-12.71271 0,-4.92859 1.77264,-9.19598 5.31845,-12.80219 3.4552,-3.48651 7.67728,-5.22949 12.66513,-5.22949 5.0483,-10e-6 9.31404,1.74297 12.79939,5.22949 z m -23.11798,2.34484 c -2.94672,2.97638 -4.41953,6.46289 -4.41953,10.46234 0,3.99835 1.45828,7.45526 4.37424,10.37067 2.9165,2.9165 6.38849,4.37421 10.41705,4.37421 4.02856,0 7.53015,-1.47223 10.50653,-4.4184 2.82593,-2.73645 4.23944,-6.17706 4.23944,-10.32648 0,-4.11804 -1.43646,-7.61346 -4.30768,-10.48468 -2.87067,-2.87067 -6.34991,-4.30658 -10.43829,-4.30658 -4.0884,1e-5 -7.54638,1.44318 -10.37176,4.32892 z m 7.75449,8.70319 c -0.45029,-0.98169 -1.1243,-1.47284 -2.02322,-1.47284 -1.58917,0 -2.38345,1.07007 -2.38345,3.20911 0,2.13953 0.79428,3.2085 2.38345,3.2085 1.04938,0 1.79892,-0.52075 2.24866,-1.56451 l 2.20276,1.17297 c -1.04993,1.86548 -2.62509,2.79846 -4.72549,2.79846 -1.6199,0 -2.91763,-0.4967 -3.89206,-1.48901 -0.9761,-0.99341 -1.46274,-2.36273 -1.46274,-4.10852 0,-1.71503 0.50229,-3.07654 1.50748,-4.08502 1.00519,-1.00854 2.25702,-1.51257 3.75781,-1.51257 2.22012,0 3.80981,0.87488 4.77081,2.62286 z m 10.36337,0 c -0.45087,-0.98169 -1.11145,-1.47284 -1.98242,-1.47284 -1.62103,0 -2.43213,1.07007 -2.43213,3.20911 0,2.13953 0.8111,3.2085 2.43213,3.2085 1.05109,0 1.78717,-0.52075 2.20728,-1.56451 l 2.25201,1.17297 c -1.04828,1.86548 -2.62122,2.79846 -4.71771,2.79846 -1.61768,0 -2.9126,-0.4967 -3.88647,-1.48901 -0.97217,-0.99341 -1.45935,-2.36273 -1.45935,-4.10852 0,-1.71503 0.49445,-3.07654 1.48285,-4.08502 0.98785,-1.00854 2.2453,-1.51257 3.7735,-1.51257 2.21619,0 3.80365,0.87488 4.76129,2.62286 z" />
          </g>
        </g>
        <g
           style="stroke-width:0.453865"
           id="g275">
          <circle
             cx="255.55124"
             cy="15.31348"
             r="10.80664"
             id="circle277"
             style="fill:#ffffff;stroke-width:0.453865"
             d="m 266.35788,15.31348 c 0,5.968343 -4.8383,10.80664 -10.80664,10.80664 -5.96834,0 -10.80664,-4.838297 -10.80664,-10.80664 0,-5.9683419 4.8383,-10.8066393 10.80664,-10.8066393 5.96834,0 10.80664,4.8382974 10.80664,10.8066393 z" />
          <g
             style="stroke-width:0.453865"
             id="g279">
            <path
               style="stroke-width:0.453865"
               inkscape:connector-curvature="0"
               d="m 258.67819,12.18701 c 0,-0.4165 -0.33789,-0.75391 -0.75293,-0.75391 h -4.77344 c -0.41504,0 -0.75293,0.3374 -0.75293,0.75391 v 4.77295 h 1.33105 v 5.65186 h 3.61719 v -5.65186 h 1.33105 v -4.77295 z"
               id="path281" />
            <circle
               style="stroke-width:0.453865"
               cx="255.53854"
               cy="9.1723604"
               r="1.63281"
               id="circle283"
               d="m 257.17135,9.1723604 c 0,0.9017756 -0.73103,1.6328096 -1.63281,1.6328096 -0.90177,0 -1.63281,-0.731034 -1.63281,-1.6328096 0,-0.901776 0.73104,-1.63281 1.63281,-1.63281 0.90178,0 1.63281,0.731034 1.63281,1.63281 z" />
          </g>
          <path
             inkscape:connector-curvature="0"
             d="m 255.5239,3.40723 c -3.23242,0 -5.96875,1.12793 -8.20801,3.38379 -2.29785,2.3335 -3.44629,5.0957 -3.44629,8.28467 0,3.18897 1.14844,5.93164 3.44629,8.22656 2.29785,2.29443 5.03418,3.44189 8.20801,3.44189 3.21289,0 5.99805,-1.15625 8.35352,-3.47119 2.21973,-2.19727 3.33008,-4.92969 3.33008,-8.19727 0,-3.26758 -1.12988,-6.02881 -3.3877,-8.28467 -2.25977,-2.25585 -5.02442,-3.38378 -8.2959,-3.38378 z m 0.0293,2.09961 c 2.64844,0 4.89746,0.93408 6.74707,2.80127 1.86914,1.84717 2.80371,4.10303 2.80371,6.76758 0,2.68359 -0.91504,4.91064 -2.74512,6.68018 -1.92871,1.90625 -4.19629,2.85889 -6.80566,2.85889 -2.61035,0 -4.85938,-0.94287 -6.74707,-2.82959 -1.88965,-1.88672 -2.83301,-4.12305 -2.83301,-6.70947 0,-2.58691 0.9541,-4.84229 2.8623,-6.76758 1.83009,-1.8672 4.06934,-2.80128 6.71778,-2.80128 z"
             id="path285"
             style="clip-rule:evenodd;fill-rule:evenodd;stroke-width:0.453865" />
        </g>
      </g>
    </g>
    <path
       sodipodi:nodetypes="cssssc"
       inkscape:connector-curvature="0"
       id="path4546-6"
       d="m 1182.6069,-865.19683 c 8.1611,-101.70673 37.3079,-118.04753 294.2661,-120.75813 140.7465,-1.4847 326.0103,-7.5259 325.7375,154.45746 -0.2881,171.15897 -208.6846,134.08212 -328.9214,132.95914 -139.8923,-1.30655 -235.4751,-5.45605 -265.7128,-37.7503 -27.6701,-29.55202 -26.1663,-97.40666 -25.3694,-128.90817 z"
       style="color:#000000;display:inline;overflow:visible;visibility:visible;opacity:1;fill:#ffffff;fill-opacity:1;fill-rule:nonzero;stroke:none;stroke-width:1px;marker:none;enable-background:accumulate" />
    <path
       sodipodi:nodetypes="cscccc"
       inkscape:connector-curvature="0"
       id="path3365"
       d="m 1749.4448,-744.28229 c -8.7999,-64.22524 -27.7612,-150.29135 234.2999,-140.37165 201.754,7.63693 246.6288,35.32977 246.2251,146.40598 -1.6469,40.22833 -8.7867,83.93829 -80.6869,112.63954 -47.0412,18.75772 -128.1636,8.09223 -206.1515,14.9621 -83.8739,0.89668 -190.6181,-39.4061 -193.6866,-133.63597 z"
       style="color:#000000;display:inline;overflow:visible;visibility:visible;fill:#ffffff;fill-opacity:1;fill-rule:nonzero;stroke:none;stroke-width:1px;marker:none;enable-background:accumulate" />
    <path
       sodipodi:nodetypes="cscccc"
       inkscape:connector-curvature="0"
       id="path3063"
       d="m 872.55605,-963.13496 c 50.81358,-32.3879 129.46405,-43.64824 168.21135,0.1997 23.4771,26.56752 33.1071,45.02242 33.1071,45.02242 l 23.8879,-32.88042 -23.9282,-31.3954 c 0,0 -88.73129,-64.76174 -201.27815,19.0537 z"
       style="fill:#ffffff;stroke:none;stroke-width:1" />
    <path
       sodipodi:nodetypes="zssssz"
       inkscape:connector-curvature="0"
       id="path4040"
       d="m 371.62292,3324.2052 c 37.34584,-42.0543 326.43902,-81.1855 419.36286,9.9336 92.92382,91.1192 26.60389,243.1661 -33.7136,275.4453 -60.31741,32.2795 -269.40644,44.5104 -344.25036,13.5248 -74.84403,-30.9858 -97.95322,-102.9689 -94.54269,-191.7133 1.39197,-36.22 15.7978,-65.1359 53.14379,-107.1904 z"
       style="color:#000000;display:inline;overflow:visible;visibility:visible;fill:#ffffff;fill-opacity:1;fill-rule:nonzero;stroke:none;stroke-width:1px;marker:none;enable-background:accumulate" />
    <path
       sodipodi:nodetypes="cccsscc"
       inkscape:connector-curvature="0"
       id="path3517"
       d="m 794.81027,3503.9749 c -3.17177,-84.7363 16.84208,-125.2915 90.24998,-161.5948 69.94832,-26.4599 256.50535,-16.7025 286.17335,19.3703 29.6681,36.0727 53.2608,72.8665 49.8374,105.1423 -3.4232,32.2756 2.4981,66.7726 -55.5273,107.7854 -40.0376,28.299 -160.4481,23.9605 -221.84431,20.5478 -53.02307,-3.4124 -153.45348,-17.2068 -148.88912,-91.251 z"
       style="color:#000000;display:inline;overflow:visible;visibility:visible;fill:#ffffff;fill-opacity:1;fill-rule:nonzero;stroke:none;stroke-width:1px;marker:none;enable-background:accumulate" />
    <path
       sodipodi:nodetypes="csccc"
       inkscape:connector-curvature="0"
       id="path4974"
       d="m 1162.1295,3514.1886 c -6.7822,-81.1939 144.2051,-93.8241 254.052,-93.001 109.8471,0.8229 252.899,28.8095 258.8884,88.4464 10.8528,101.1661 -165.6552,114.8727 -262.694,115.9951 -45.4388,0.069 -263.4797,-8.9755 -250.2464,-111.4405 z"
       style="color:#000000;display:inline;overflow:visible;visibility:visible;fill:#ffffff;fill-opacity:1;fill-rule:nonzero;stroke:none;stroke-width:1px;marker:none;enable-background:accumulate" />
    <path
       sodipodi:nodetypes="cssssc"
       inkscape:connector-curvature="0"
       id="path3659-8"
       d="m 2095.1618,3703.7812 c -2.4947,-24.9075 14.0519,-37.2977 29.1177,-43.1671 19.0937,-7.4386 143.8638,-5.1704 166.97,11.8391 20.3954,15.0141 32.6685,47.784 -13.0403,65.2222 -45.7087,17.4382 -121.9934,7.8865 -134.9788,4.716 -12.9855,-3.1707 -45.4716,-11.6604 -48.0686,-38.6102 z"
       style="fill:#ffffff;fill-opacity:1;stroke:none;stroke-width:0.942393" />
    <path
       sodipodi:nodetypes="csccc"
       inkscape:connector-curvature="0"
       id="path3072"
       d="m 1815.9787,3458.3614 c -145.0577,-17.8084 -151.3521,38.1867 -173.8389,41.2954 -47.8722,6.6181 -34.2474,16.1578 -34.2474,16.1578 l 14.6011,-30.4558 c 0,0 76.6292,-84.3387 193.4852,-26.9974 z"
       style="color:#000000;display:inline;overflow:visible;visibility:visible;fill:#ffffff;fill-opacity:1;fill-rule:nonzero;stroke:none;stroke-width:1px;marker:none;enable-background:accumulate" />
    <path
       inkscape:connector-curvature="0"
       id="path5010"
       d="m 2144.8841,3684.561 c -34.7278,-9.2362 -63.5331,-24.713 -62.0215,-60.0508 -13.1987,53.9008 44.5176,88.9089 63.4118,97.7471 18.8944,8.8383 -1.3903,-37.6963 -1.3903,-37.6963 z"
       style="color:#000000;display:inline;overflow:visible;visibility:visible;fill:#ffffff;fill-opacity:1;fill-rule:nonzero;stroke:none;stroke-width:1px;marker:none;enable-background:accumulate" />
    <path
       sodipodi:nodetypes="cssssc"
       inkscape:connector-curvature="0"
       id="path4546-6-4"
       d="m 1252.7013,-916.55194 c -4.15,56.05753 -15.9257,64.82543 -118.5005,64.11844 -56.1844,-0.38727 -130.1754,1.35842 -128.6445,-88.03084 1.6175,-94.45276 84.4622,-72.20506 132.4383,-70.55456 55.8189,1.9203 93.9292,5.0296 105.7136,23.11064 10.7836,16.5457 9.5877,53.97882 8.9931,71.35632 z"
       style="color:#000000;display:inline;overflow:visible;visibility:visible;opacity:1;fill:#ffffff;fill-opacity:1;fill-rule:nonzero;stroke:none;stroke-width:1px;marker:none;enable-background:accumulate" />
  </g>
  <g
     transform="translate(0,2224)"
     style="display:inline;opacity:0.855"
     inkscape:label="text"
     id="layer2"
     inkscape:groupmode="layer">
    <text
       transform="scale(0.99514974,1.0048739)"
       xml:space="preserve"
       style="font-size:12.78649998px;font-style:normal;font-variant:normal;font-weight:normal;font-stretch:normal;text-indent:0;text-align:center;text-decoration:none;line-height:0%;letter-spacing:0px;word-spacing:0px;text-transform:none;direction:ltr;writing-mode:lr-tb;text-anchor:middle;baseline-shift:baseline;opacity:0.85500004;color:#000000;fill:#060404;fill-opacity:1;fill-rule:nonzero;stroke:none;visibility:visible;display:inline;overflow:visible;enable-background:accumulate;font-family:ComicSpice;-inkscape-font-specification:ComicSpice"
       x="1249.3534"
       y="-2090.9727"
       id="text4151"
       inkscape:label="credit"
       sodipodi:linespacing="0%"><tspan
         id="tspan4170"
         sodipodi:role="line"
         style="font-size:37.33330154px;font-style:normal;font-variant:normal;font-weight:normal;font-stretch:normal;text-indent:0;text-align:center;text-decoration:none;line-height:125%;letter-spacing:0px;word-spacing:0px;text-transform:none;direction:ltr;writing-mode:lr-tb;text-anchor:middle;baseline-shift:baseline;color:#000000;fill:#060404;fill-opacity:1;fill-rule:nonzero;stroke:none;visibility:visible;display:inline;overflow:visible;enable-background:accumulate;font-family:ComicSpice;-inkscape-font-specification:ComicSpice"
         x="1249.3534"
         y="-2090.9727">2020.06.29</tspan><tspan
         id="tspan4150"
         sodipodi:role="line"
         style="font-size:42.66669846px;font-style:normal;font-variant:normal;font-weight:normal;font-stretch:normal;text-indent:0;text-align:center;text-decoration:none;line-height:125%;letter-spacing:0px;word-spacing:0px;text-transform:none;direction:ltr;writing-mode:lr-tb;text-anchor:middle;baseline-shift:baseline;color:#000000;fill:#060404;fill-opacity:1;fill-rule:nonzero;stroke:none;visibility:visible;display:inline;overflow:visible;enable-background:accumulate;font-family:ComicSpice;-inkscape-font-specification:ComicSpice"
         x="1249.3534"
         y="-2044.306" /><tspan
         id="tspan1101"
         sodipodi:role="line"
         style="font-size:42.66669846px;font-style:normal;font-variant:normal;font-weight:normal;font-stretch:normal;text-indent:0;text-align:center;text-decoration:none;line-height:125%;letter-spacing:0px;word-spacing:0px;text-transform:none;direction:ltr;writing-mode:lr-tb;text-anchor:middle;baseline-shift:baseline;color:#000000;fill:#060404;fill-opacity:1;fill-rule:nonzero;stroke:none;visibility:visible;display:inline;overflow:visible;enable-background:accumulate;font-family:ComicSpice;-inkscape-font-specification:ComicSpice"
         x="1249.3534"
         y="-1992.3708">Nghệ thuật &amp; câu truyện: David Revoy.</tspan><tspan
         id="tspan943"
         sodipodi:role="line"
         x="1249.3534"
         y="-1939.0375" /><tspan
         id="tspan183"
         sodipodi:role="line"
         style="font-size:42.66669846px;font-style:normal;font-variant:normal;font-weight:normal;font-stretch:normal;text-indent:0;text-align:center;text-decoration:none;line-height:125%;letter-spacing:0px;word-spacing:0px;text-transform:none;direction:ltr;writing-mode:lr-tb;text-anchor:middle;baseline-shift:baseline;color:#000000;fill:#060404;fill-opacity:1;fill-rule:nonzero;stroke:none;visibility:visible;display:inline;overflow:visible;enable-background:accumulate;font-family:ComicSpice;-inkscape-font-specification:ComicSpice"
         x="1253.4368"
         y="-1885.7041">Người kiểm tra kịch bản: Arlo James Barnes, Craig Maloney, GunChleoc, Hyperbolic Pain, </tspan><tspan
         id="tspan968"
         sodipodi:role="line"
         style="font-size:42.66669846px;font-style:normal;font-variant:normal;font-weight:normal;font-stretch:normal;text-indent:0;text-align:center;text-decoration:none;line-height:125%;letter-spacing:0px;word-spacing:0px;text-transform:none;direction:ltr;writing-mode:lr-tb;text-anchor:middle;baseline-shift:baseline;color:#000000;fill:#060404;fill-opacity:1;fill-rule:nonzero;stroke:none;visibility:visible;display:inline;overflow:visible;enable-background:accumulate;font-family:ComicSpice;-inkscape-font-specification:ComicSpice"
         x="1249.3534"
         y="-1832.3707">Karl Ove Hufthammer, Martin Disch, Nicolas Artance, Quetzal2, Valvin.</tspan><tspan
         id="tspan285"
         sodipodi:role="line"
         style="font-size:42.66669846px;font-style:normal;font-variant:normal;font-weight:normal;font-stretch:normal;text-indent:0;text-align:center;text-decoration:none;line-height:125%;letter-spacing:0px;word-spacing:0px;text-transform:none;direction:ltr;writing-mode:lr-tb;text-anchor:middle;baseline-shift:baseline;color:#000000;fill:#060404;fill-opacity:1;fill-rule:nonzero;stroke:none;visibility:visible;display:inline;overflow:visible;enable-background:accumulate;font-family:ComicSpice;-inkscape-font-specification:ComicSpice"
         x="1249.3534"
         y="-1779.0374" /><tspan
         id="tspan1018"
         sodipodi:role="line"
         style="font-size:37.33330154px;font-style:normal;font-variant:normal;font-weight:normal;font-stretch:normal;text-indent:0;text-align:center;text-decoration:none;line-height:125%;letter-spacing:0px;word-spacing:0px;text-transform:none;direction:ltr;writing-mode:lr-tb;text-anchor:middle;baseline-shift:baseline;color:#000000;fill:#060404;fill-opacity:1;fill-rule:nonzero;stroke:none;visibility:visible;display:inline;overflow:visible;enable-background:accumulate;font-family:ComicSpice;-inkscape-font-specification:ComicSpice"
         x="1252.9263"
         y="-1730.9725">Phiên bản tiếng Việt: </tspan><tspan
         sodipodi:role="line"
         style="font-size:37.33330154px;font-style:normal;font-variant:normal;font-weight:normal;font-stretch:normal;text-indent:0;text-align:center;text-decoration:none;line-height:125%;letter-spacing:0px;word-spacing:0px;text-transform:none;direction:ltr;writing-mode:lr-tb;text-anchor:middle;baseline-shift:baseline;color:#000000;fill:#060404;fill-opacity:1;fill-rule:nonzero;stroke:none;visibility:visible;display:inline;overflow:visible;enable-background:accumulate;font-family:ComicSpice;-inkscape-font-specification:ComicSpice"
         x="1249.3534"
         y="-1684.3059"
         id="tspan17364">Dịch: Hồ Nhựt Châu.</tspan><tspan
         id="tspan1026"
         sodipodi:role="line"
         style="font-size:42.66669846px;font-style:normal;font-variant:normal;font-weight:normal;font-stretch:normal;text-indent:0;text-align:center;text-decoration:none;line-height:125%;letter-spacing:0px;word-spacing:0px;text-transform:none;direction:ltr;writing-mode:lr-tb;text-anchor:middle;baseline-shift:baseline;color:#000000;fill:#060404;fill-opacity:1;fill-rule:nonzero;stroke:none;visibility:visible;display:inline;overflow:visible;enable-background:accumulate;font-family:ComicSpice;-inkscape-font-specification:ComicSpice"
         x="1249.3534"
         y="-1637.6393" /><tspan
         id="tspan979"
         sodipodi:role="line"
         style="font-size:32px;font-style:normal;font-variant:normal;font-weight:normal;font-stretch:normal;text-indent:0;text-align:center;text-decoration:none;line-height:125%;letter-spacing:0px;word-spacing:0px;text-transform:none;direction:ltr;writing-mode:lr-tb;text-anchor:middle;baseline-shift:baseline;color:#000000;fill:#060404;fill-opacity:1;fill-rule:nonzero;stroke:none;visibility:visible;display:inline;overflow:visible;enable-background:accumulate;font-family:ComicSpice;-inkscape-font-specification:ComicSpice"
         x="1249.3534"
         y="-1596.2411">Sáng chế từ vũ trụ Hà Nhất Hạ</tspan><tspan
         sodipodi:role="line"
         style="font-size:32px;font-style:normal;font-variant:normal;font-weight:normal;font-stretch:normal;text-indent:0;text-align:center;text-decoration:none;line-height:125%;letter-spacing:0px;word-spacing:0px;text-transform:none;direction:ltr;writing-mode:lr-tb;text-anchor:middle;baseline-shift:baseline;color:#000000;fill:#060404;fill-opacity:1;fill-rule:nonzero;stroke:none;visibility:visible;display:inline;overflow:visible;enable-background:accumulate;font-family:ComicSpice;-inkscape-font-specification:ComicSpice"
         x="1249.3534"
         y="-1556.2411"
         id="tspan17368">Người Sáng Tạo: David Revoy.</tspan><tspan
         id="tspan981"
         sodipodi:role="line"
         style="font-size:32px;font-style:normal;font-variant:normal;font-weight:normal;font-stretch:normal;text-indent:0;text-align:center;text-decoration:none;line-height:125%;letter-spacing:0px;word-spacing:0px;text-transform:none;direction:ltr;writing-mode:lr-tb;text-anchor:middle;baseline-shift:baseline;color:#000000;fill:#060404;fill-opacity:1;fill-rule:nonzero;stroke:none;visibility:visible;display:inline;overflow:visible;enable-background:accumulate;font-family:ComicSpice;-inkscape-font-specification:ComicSpice"
         x="1249.3534"
         y="-1516.2411">Người bảo trì chánh: Craig Maloney.</tspan><tspan
         id="tspan983"
         sodipodi:role="line"
         style="font-size:32px;font-style:normal;font-variant:normal;font-weight:normal;font-stretch:normal;text-indent:0;text-align:center;text-decoration:none;line-height:125%;letter-spacing:0px;word-spacing:0px;text-transform:none;direction:ltr;writing-mode:lr-tb;text-anchor:middle;baseline-shift:baseline;color:#000000;fill:#060404;fill-opacity:1;fill-rule:nonzero;stroke:none;visibility:visible;display:inline;overflow:visible;enable-background:accumulate;font-family:ComicSpice;-inkscape-font-specification:ComicSpice"
         x="1249.3534"
         y="-1476.2411">Tác giả: Craig Maloney, Nartance, Scribblemaniac, Valvin.</tspan><tspan
         id="tspan985"
         sodipodi:role="line"
         style="font-size:32px;font-style:normal;font-variant:normal;font-weight:normal;font-stretch:normal;text-indent:0;text-align:center;text-decoration:none;line-height:100%;letter-spacing:0px;word-spacing:0px;text-transform:none;direction:ltr;writing-mode:lr-tb;text-anchor:middle;baseline-shift:baseline;color:#000000;fill:#060404;fill-opacity:1;fill-rule:nonzero;stroke:none;visibility:visible;display:inline;overflow:visible;enable-background:accumulate;font-family:ComicSpice;-inkscape-font-specification:ComicSpice"
         x="1249.3534"
         y="-1442.5632">Người chỉnh sửa: Willem Sonke, Moini, Hali, CGand, Alex Gryson.</tspan><tspan
         id="tspan1052"
         sodipodi:role="line"
         style="font-size:32px;font-style:normal;font-variant:normal;font-weight:normal;font-stretch:normal;text-indent:0;text-align:center;text-decoration:none;line-height:125%;letter-spacing:0px;word-spacing:0px;text-transform:none;direction:ltr;writing-mode:lr-tb;text-anchor:middle;baseline-shift:baseline;color:#000000;fill:#060404;fill-opacity:1;fill-rule:nonzero;stroke:none;visibility:visible;display:inline;overflow:visible;enable-background:accumulate;font-family:ComicSpice;-inkscape-font-specification:ComicSpice"
         x="1249.3534"
         y="-1410.5632" /><tspan
         id="tspan995"
         sodipodi:role="line"
         x="1249.3534"
         y="-1378.5632" /><tspan
         id="tspan4134"
         sodipodi:role="line"
         style="font-size:37.33330154px;font-style:normal;font-variant:normal;font-weight:normal;font-stretch:normal;text-indent:0;text-align:center;text-decoration:none;line-height:125%;letter-spacing:0px;word-spacing:0px;text-transform:none;direction:ltr;writing-mode:lr-tb;text-anchor:middle;baseline-shift:baseline;color:#000000;fill:#060404;fill-opacity:1;fill-rule:nonzero;stroke:none;visibility:visible;display:inline;overflow:visible;enable-background:accumulate;font-family:ComicSpice;-inkscape-font-specification:ComicSpice"
         x="1249.3534"
         y="-1334.9727">Phần Mềm: Krita 4.3, Inkscape 1.0 với Kubuntu 19.10.</tspan><tspan
         id="tspan4152"
         sodipodi:role="line"
         style="font-size:37.33330154px;font-style:normal;font-variant:normal;font-weight:normal;font-stretch:normal;text-indent:0;text-align:center;text-decoration:none;line-height:125%;letter-spacing:0px;word-spacing:0px;text-transform:none;direction:ltr;writing-mode:lr-tb;text-anchor:middle;baseline-shift:baseline;color:#000000;fill:#060404;fill-opacity:1;fill-rule:nonzero;stroke:none;visibility:visible;display:inline;overflow:visible;enable-background:accumulate;font-family:ComicSpice;-inkscape-font-specification:ComicSpice"
         x="1249.3534"
         y="-1288.306">Bản Phép: Creative Commons Attribution 4.0.</tspan><tspan
         id="tspan842"
         sodipodi:role="line"
         style="font-size:42.66669846px;font-style:normal;font-variant:normal;font-weight:normal;font-stretch:normal;text-indent:0;text-align:center;text-decoration:none;line-height:125%;letter-spacing:0px;word-spacing:0px;text-transform:none;direction:ltr;writing-mode:lr-tb;text-anchor:middle;baseline-shift:baseline;color:#000000;fill:#060404;fill-opacity:1;fill-rule:nonzero;stroke:none;visibility:visible;display:inline;overflow:visible;enable-background:accumulate;font-family:ComicSpice;-inkscape-font-specification:ComicSpice"
         x="1249.3534"
         y="-1236.3708">www.peppercarrot.com</tspan></text>
    <text
       transform="scale(0.96265764,1.0387909)"
       id="text4162-7-8"
       y="-908.4812"
       x="1170.2362"
       style="font-size:17.13619995px;font-style:normal;font-variant:normal;font-weight:normal;font-stretch:normal;text-align:center;line-height:0%;letter-spacing:0px;word-spacing:0px;text-anchor:middle;opacity:0.85500004;fill:#000000;fill-opacity:1;stroke:none;display:inline;filter:url(#filter4155);font-family:ComicSpice;-inkscape-font-specification:ComicSpice"
       xml:space="preserve"
       inkscape:label="pepperA"
       sodipodi:linespacing="0%"><tspan
         id="tspan416"
         style="font-size:46.14619827px;font-style:normal;font-variant:normal;font-weight:normal;font-stretch:normal;line-height:1.25;fill:#000000;fill-opacity:1;font-family:ComicSpice;-inkscape-font-specification:ComicSpice"
         y="-908.4812"
         x="1170.2362"
         sodipodi:role="line">Bạn có biết</tspan><tspan
         style="font-size:46.14619827px;font-style:normal;font-variant:normal;font-weight:normal;font-stretch:normal;line-height:1.25;fill:#000000;fill-opacity:1;font-family:ComicSpice;-inkscape-font-specification:ComicSpice"
         y="-850.79846"
         x="1170.2362"
         sodipodi:role="line"
         id="tspan17372">không?</tspan></text>
    <text
       transform="scale(0.96265765,1.0387909)"
       id="text4162-7"
       y="-870.62775"
       x="1551.3723"
       style="font-size:14.85389996px;font-style:normal;font-variant:normal;font-weight:normal;font-stretch:normal;text-align:center;line-height:0%;letter-spacing:0px;word-spacing:0px;text-anchor:middle;opacity:0.85500004;fill:#000000;fill-opacity:1;stroke:none;display:inline;filter:url(#filter4155);font-family:ComicSpice;-inkscape-font-specification:ComicSpice"
       xml:space="preserve"
       inkscape:label="pepperB"
       sodipodi:linespacing="0%"><tspan
         id="tspan862"
         style="font-size:40px;font-style:normal;font-variant:normal;font-weight:normal;font-stretch:normal;line-height:1.25;fill:#000000;fill-opacity:1;font-family:ComicSpice;-inkscape-font-specification:ComicSpice"
         y="-870.62775"
         x="1551.3723"
         sodipodi:role="line">Hạt Tiêu &amp; Củ Đỏ hoàn toàn</tspan><tspan
         style="font-size:40px;font-style:normal;font-variant:normal;font-weight:normal;font-stretch:normal;line-height:1.25;fill:#000000;fill-opacity:1;font-family:ComicSpice;-inkscape-font-specification:ComicSpice"
         y="-820.62775"
         x="1551.3723"
         sodipodi:role="line"
         id="tspan17383">tự do, nội dung mở</tspan><tspan
         style="font-size:40px;font-style:normal;font-variant:normal;font-weight:normal;font-stretch:normal;line-height:1.25;fill:#000000;fill-opacity:1;font-family:ComicSpice;-inkscape-font-specification:ComicSpice"
         y="-770.62775"
         x="1551.3723"
         sodipodi:role="line"
         id="tspan17385">và được tài trợ bởi đọc giả.</tspan></text>
    <text
       transform="scale(0.97948259,1.0209472)"
       id="text4162-7-3"
       y="-780.14758"
       x="2022.3665"
       style="font-size:18.41130066px;font-style:normal;font-variant:normal;font-weight:normal;font-stretch:normal;text-align:center;line-height:0%;letter-spacing:0px;word-spacing:0px;text-anchor:middle;opacity:0.85500004;fill:#000000;fill-opacity:1;stroke:none;display:inline;filter:url(#filter4155);font-family:ComicSpice;-inkscape-font-specification:ComicSpice"
       xml:space="preserve"
       inkscape:label="pepperC"
       sodipodi:linespacing="0%"><tspan
         id="tspan1668"
         style="font-size:49.57989883px;font-style:normal;font-variant:normal;font-weight:normal;font-stretch:normal;line-height:1.25;fill:#000000;fill-opacity:1;font-family:ComicSpice;-inkscape-font-specification:ComicSpice"
         y="-780.14758"
         x="2022.3665"
         sodipodi:role="line">Chân thành cảm</tspan><tspan
         id="tspan1670"
         style="font-size:49.57989883px;font-style:normal;font-variant:normal;font-weight:normal;font-stretch:normal;line-height:1.25;fill:#000000;fill-opacity:1;font-family:ComicSpice;-inkscape-font-specification:ComicSpice"
         y="-718.17273"
         x="2022.3665"
         sodipodi:role="line">ơn 1190 người đã</tspan><tspan
         style="font-size:49.57989883px;font-style:normal;font-variant:normal;font-weight:normal;font-stretch:normal;line-height:1.25;fill:#000000;fill-opacity:1;font-family:ComicSpice;-inkscape-font-specification:ComicSpice"
         y="-656.19781"
         x="2022.3665"
         sodipodi:role="line"
         id="tspan17391">hỗ trợ tập này!</tspan></text>
    <text
       transform="scale(0.99748275,1.0025236)"
       id="text4221-3"
       y="3348.5134"
       x="580.71674"
       style="font-size:17.10210037px;font-style:normal;font-variant:normal;font-weight:normal;font-stretch:normal;text-align:center;line-height:0%;letter-spacing:0px;word-spacing:0px;text-anchor:middle;opacity:0.85500004;fill:#000000;fill-opacity:1;stroke:none;display:inline;filter:url(#filter4155);font-family:ComicSpice;-inkscape-font-specification:ComicSpice"
       xml:space="preserve"
       inkscape:label="pepperD"
       sodipodi:linespacing="0%"><tspan
         id="tspan1761"
         style="font-size:48px;font-style:normal;font-variant:normal;font-weight:normal;font-stretch:normal;line-height:1.25;fill:#000000;fill-opacity:1;font-family:ComicSpice;-inkscape-font-specification:ComicSpice"
         y="3348.5134"
         x="580.71674"
         sodipodi:role="line">Bạn cũng có thể</tspan><tspan
         style="font-size:48px;font-style:normal;font-variant:normal;font-weight:normal;font-stretch:normal;line-height:1.25;fill:#000000;fill-opacity:1;font-family:ComicSpice;-inkscape-font-specification:ComicSpice"
         y="3408.5134"
         x="580.71674"
         sodipodi:role="line"
         id="tspan17354">hỗ trợ Hạt Tiêu &amp;</tspan><tspan
         style="font-size:48px;font-style:normal;font-variant:normal;font-weight:normal;font-stretch:normal;line-height:1.25;fill:#000000;fill-opacity:1;font-family:ComicSpice;-inkscape-font-specification:ComicSpice"
         y="3468.5134"
         x="580.71674"
         sodipodi:role="line"
         id="tspan17356">Củ Đỏ và bạn được</tspan><tspan
         style="font-size:48px;font-style:normal;font-variant:normal;font-weight:normal;font-stretch:normal;line-height:1.25;fill:#000000;fill-opacity:1;font-family:ComicSpice;-inkscape-font-specification:ComicSpice"
         y="3528.5134"
         x="580.71674"
         sodipodi:role="line"
         id="tspan17358">ghi tên vào danh</tspan><tspan
         style="font-size:48px;font-style:normal;font-variant:normal;font-weight:normal;font-stretch:normal;line-height:1.25;fill:#000000;fill-opacity:1;font-family:ComicSpice;-inkscape-font-specification:ComicSpice"
         y="3588.5134"
         x="580.71674"
         sodipodi:role="line"
         id="tspan17360">sách này!</tspan></text>
    <text
       id="text4221-3-4"
       y="3400.583"
       x="1011.5229"
       style="font-size:13.96039962999999950px;font-style:normal;font-variant:normal;font-weight:normal;font-stretch:normal;text-align:center;line-height:0%;letter-spacing:0px;word-spacing:0px;text-anchor:middle;opacity:0.85500003999999996;fill:#181412;fill-opacity:1;stroke:none;display:inline;filter:url(#filter4155);font-family:ComicSpice;-inkscape-font-specification:ComicSpice"
       xml:space="preserve"
       inkscape:label="pepperE"
       sodipodi:linespacing="0%"><tspan
         id="tspan1761-7"
         style="font-size:37.33330154000000078px;font-style:normal;font-variant:normal;font-weight:normal;font-stretch:normal;line-height:1.25000000000000000;fill:#181412;fill-opacity:1;font-family:ComicSpice;-inkscape-font-specification:ComicSpice"
         y="3400.583"
         x="1011.5229"
         sodipodi:role="line">Chúng tôi nhận</tspan><tspan
         style="font-size:37.33330154000000078px;font-style:normal;font-variant:normal;font-weight:normal;font-stretch:normal;line-height:1.25000000000000000;fill:#181412;fill-opacity:1;font-family:ComicSpice;-inkscape-font-specification:ComicSpice"
         y="3449.2363"
         x="1011.5229"
         sodipodi:role="line"
         id="tspan17333">Patreon, Tipeee,</tspan><tspan
         style="font-size:37.33330154000000078px;font-style:normal;font-variant:normal;font-weight:normal;font-stretch:normal;line-height:1.25000000000000000;fill:#181412;fill-opacity:1;font-family:ComicSpice;-inkscape-font-specification:ComicSpice"
         y="3495.9028"
         x="1011.5229"
         sodipodi:role="line"
         id="tspan17335">PayPal, Liberapay</tspan><tspan
         style="font-size:37.33330154000000078px;font-style:normal;font-variant:normal;font-weight:normal;font-stretch:normal;line-height:1.25000000000000000;fill:#181412;fill-opacity:1;font-family:ComicSpice;-inkscape-font-specification:ComicSpice"
         y="3542.8052"
         x="1011.5229"
         sodipodi:role="line"
         id="tspan17337">...và còn nữa!</tspan></text>
    <text
       id="text4221-3-9"
       y="3486.6992"
       x="1411.3262"
       style="font-style:normal;font-variant:normal;font-weight:normal;font-stretch:normal;text-align:center;line-height:0%;letter-spacing:0px;word-spacing:0px;text-anchor:middle;opacity:0.85500003999999996;fill:#100e0c;fill-opacity:1;stroke:none;display:inline;filter:url(#filter4155);font-family:ComicSpice;-inkscape-font-specification:ComicSpice"
       xml:space="preserve"
       inkscape:label="pepperF"
       sodipodi:linespacing="0%"><tspan
         id="tspan1761-2"
         style="font-size:37.33330154000000078px;font-style:normal;font-variant:normal;font-weight:normal;font-stretch:normal;line-height:1.25000000000000000;fill:#100e0c;fill-opacity:1;font-family:ComicSpice;-inkscape-font-specification:ComicSpice"
         y="3486.6992"
         x="1411.3262"
         sodipodi:role="line">Xem</tspan><tspan
         style="font-size:37.33330154000000078px;font-style:normal;font-variant:normal;font-weight:normal;font-stretch:normal;line-height:1.25000000000000000;fill:#100e0c;fill-opacity:1;font-family:ComicSpice;-inkscape-font-specification:ComicSpice"
         y="3533.366"
         x="1411.3262"
         sodipodi:role="line"
         id="tspan17320">www.peppercarrot.com</tspan><tspan
         style="font-size:37.33330154000000078px;font-style:normal;font-variant:normal;font-weight:normal;font-stretch:normal;line-height:1.25000000000000000;fill:#100e0c;fill-opacity:1;font-family:ComicSpice;-inkscape-font-specification:ComicSpice"
         y="3580.0325"
         x="1411.3262"
         sodipodi:role="line"
         id="tspan17322">cho thông tin thêm!</tspan></text>
    <text
       id="text4221-3-9-3"
       y="3710.0959"
       x="2199.4309"
       style="font-size:10.33670044px;font-style:normal;font-variant:normal;font-weight:normal;font-stretch:normal;text-align:center;line-height:0%;letter-spacing:0px;word-spacing:0px;text-anchor:middle;opacity:0.85500004;fill:#000000;fill-opacity:1;stroke:none;display:inline;filter:url(#filter4155);font-family:ComicSpice;-inkscape-font-specification:ComicSpice"
       xml:space="preserve"
       inkscape:label="pepperG"
       sodipodi:linespacing="0%"><tspan
         id="tspan1838-7"
         style="font-size:32px;font-style:normal;font-variant:normal;font-weight:normal;font-stretch:normal;line-height:1.25;fill:#000000;fill-opacity:1;font-family:ComicSpice;-inkscape-font-specification:ComicSpice"
         y="3710.0959"
         x="2199.4309"
         sodipodi:role="line">Cám ơn!</tspan><tspan
         id="tspan1761-2-2"
         y="3750.0959"
         x="2199.4309"
         sodipodi:role="line" /></text>
  </g>
</svg>
