<?xml version="1.0" encoding="UTF-8" standalone="no"?>
<svg
   xmlns:dc="http://purl.org/dc/elements/1.1/"
   xmlns:cc="http://creativecommons.org/ns#"
   xmlns:rdf="http://www.w3.org/1999/02/22-rdf-syntax-ns#"
   xmlns:svg="http://www.w3.org/2000/svg"
   xmlns="http://www.w3.org/2000/svg"
   xmlns:xlink="http://www.w3.org/1999/xlink"
   xmlns:sodipodi="http://sodipodi.sourceforge.net/DTD/sodipodi-0.dtd"
   xmlns:inkscape="http://www.inkscape.org/namespaces/inkscape"
   id="svg2"
   version="1.1"
   inkscape:version="0.92.2 (5c3e80d, 2017-08-06)"
   width="2481"
   height="3503"
   sodipodi:docname="E34P07.svg">
  <metadata
     id="metadata8">
    <rdf:RDF>
      <cc:Work
         rdf:about="">
        <dc:format>image/svg+xml</dc:format>
        <dc:type
           rdf:resource="http://purl.org/dc/dcmitype/StillImage" />
        <dc:title />
      </cc:Work>
    </rdf:RDF>
  </metadata>
  <defs
     id="defs6">
    <filter
       style="color-interpolation-filters:sRGB"
       id="filter3018-9-9"
       inkscape:label="Lapping"
       inkscape:menu="Distort"
       inkscape:menu-tooltip="Something like a water noise"
       height="1.3"
       y="-0.15000001"
       width="1.3"
       x="-0.15000001">
      <feTurbulence
         id="feTurbulence3020-3-0"
         numOctaves="5"
         seed="0"
         type="fractalNoise"
         baseFrequency="0.045999999999999999"
         result="result1" />
      <feGaussianBlur
         id="feGaussianBlur3022-77-9"
         stdDeviation="2"
         result="result2" />
      <feDisplacementMap
         id="feDisplacementMap3024-6-9"
         in2="result2"
         scale="50"
         yChannelSelector="B"
         xChannelSelector="R"
         in="SourceGraphic" />
    </filter>
    <filter
       style="color-interpolation-filters:sRGB"
       id="filter4375-4-1-1-1-9-5-8-8-5-5-3-3"
       inkscape:label="soundFX1">
      <feFlood
         id="feFlood4377-7-9-0-8-1-7-3-1-2-7-6-6"
         flood-opacity="1"
         flood-color="rgb(255,255,255)"
         result="flood" />
      <feComposite
         id="feComposite4379-3-8-8-2-77-4-1-0-6-4-7-7"
         in2="SourceGraphic"
         in="flood"
         operator="in"
         result="composite1"
         baseFrequency="0.053999999999999999 0.053999999999999999" />
      <feMorphology
         id="feMorphology4393-1-0-49-8-9-3-0-1-9-9-5-5"
         operator="dilate"
         radius="7.5999999999999996"
         result="result3" />
      <feComposite
         id="feComposite4385-9-5-7-0-8-8-7-5-4-9-3-3"
         in2="result3"
         in="SourceGraphic"
         operator="over"
         result="fbSourceGraphic" />
      <feColorMatrix
         result="fbSourceGraphicAlpha"
         in="fbSourceGraphic"
         values="0 0 0 -1 0 0 0 0 -1 0 0 0 0 -1 0 0 0 0 1 0"
         id="feColorMatrix4544-9-4-4-5-5" />
      <feTurbulence
         id="feTurbulence4546-3-6-5-6-6"
         type="fractalNoise"
         numOctaves="2"
         seed="143"
         baseFrequency="0.063613027137887024"
         result="turbulence" />
      <feDisplacementMap
         id="feDisplacementMap4548-8-0-9-2-2"
         in2="turbulence"
         in="fbSourceGraphic"
         scale="13.690758453556365"
         yChannelSelector="G"
         xChannelSelector="R"
         result="fbSourceGraphic" />
      <feColorMatrix
         result="fbSourceGraphicAlpha"
         in="fbSourceGraphic"
         values="0 0 0 -1 0 0 0 0 -1 0 0 0 0 -1 0 0 0 0 1 0"
         id="feColorMatrix4670-7-7-3-9-9" />
      <feFlood
         id="feFlood4672-4-4-5-1-1"
         flood-opacity="1"
         flood-color="rgb(28,28,28)"
         result="flood"
         in="fbSourceGraphic" />
      <feComposite
         id="feComposite4674-8-3-7-2-2"
         in2="fbSourceGraphic"
         in="flood"
         operator="in"
         result="composite1" />
      <feGaussianBlur
         id="feGaussianBlur4676-3-7-08-7-7"
         in="composite1"
         stdDeviation="0"
         result="blur" />
      <feOffset
         id="feOffset4678-6-9-1-0-0"
         dx="5.2324892869636273"
         dy="12.957991414995334"
         result="offset" />
      <feComposite
         id="feComposite4680-4-0-9-9-9"
         in2="offset"
         in="fbSourceGraphic"
         operator="over"
         result="composite2" />
    </filter>
    <filter
       style="color-interpolation-filters:sRGB"
       id="filter4375-4-1-1-1-9-5-8-8-5-5-3-3-3-0"
       inkscape:label="soundFX1">
      <feFlood
         id="feFlood4377-7-9-0-8-1-7-3-1-2-7-6-6-5-96"
         flood-opacity="1"
         flood-color="rgb(52,52,52)"
         result="flood" />
      <feComposite
         id="feComposite4379-3-8-8-2-77-4-1-0-6-4-7-7-6-3"
         in2="SourceGraphic"
         in="flood"
         operator="in"
         result="composite1"
         baseFrequency="0.053999999999999999 0.053999999999999999" />
      <feMorphology
         id="feMorphology4393-1-0-49-8-9-3-0-1-9-9-5-5-2-8"
         operator="dilate"
         radius="5.1135076992753623"
         result="result3" />
      <feComposite
         id="feComposite4385-9-5-7-0-8-8-7-5-4-9-3-3-9-5"
         in2="result3"
         in="SourceGraphic"
         operator="over"
         result="fbSourceGraphic" />
      <feColorMatrix
         result="fbSourceGraphicAlpha"
         in="fbSourceGraphic"
         values="0 0 0 -1 0 0 0 0 -1 0 0 0 0 -1 0 0 0 0 1 0"
         id="feColorMatrix4544-9-4-4-5-5-1-6" />
      <feTurbulence
         id="feTurbulence4546-3-6-5-6-6-2-1"
         type="fractalNoise"
         numOctaves="4"
         seed="147"
         baseFrequency="0.046080819231719368"
         result="turbulence" />
      <feDisplacementMap
         id="feDisplacementMap4548-8-0-9-2-2-7-1"
         in2="turbulence"
         in="fbSourceGraphic"
         scale="13.20326"
         yChannelSelector="G"
         xChannelSelector="R"
         result="fbSourceGraphic" />
      <feColorMatrix
         result="fbSourceGraphicAlpha"
         in="fbSourceGraphic"
         values="0 0 0 -1 0 0 0 0 -1 0 0 0 0 -1 0 0 0 0 1 0"
         id="feColorMatrix4670-7-7-3-9-9-0-5" />
      <feFlood
         id="feFlood4672-4-4-5-1-1-9-9"
         flood-opacity="1"
         flood-color="rgb(28,28,28)"
         result="flood"
         in="fbSourceGraphic" />
      <feComposite
         id="feComposite4674-8-3-7-2-2-3-8"
         in2="fbSourceGraphic"
         in="flood"
         operator="in"
         result="composite1" />
      <feGaussianBlur
         id="feGaussianBlur4676-3-7-08-7-7-6-4"
         in="composite1"
         stdDeviation="0"
         result="blur" />
      <feOffset
         id="feOffset4678-6-9-1-0-0-0-8"
         dx="1.0219896610696537"
         dy="-3.6141922224813356"
         result="offset" />
      <feComposite
         id="feComposite4680-4-0-9-9-9-6-1"
         in2="offset"
         in="fbSourceGraphic"
         operator="over"
         result="composite2" />
    </filter>
    <filter
       style="color-interpolation-filters:sRGB"
       id="filter4375-4-1-1-1-9-5-8-8-5-5-3-3-3-4"
       inkscape:label="soundFX1">
      <feFlood
         id="feFlood4377-7-9-0-8-1-7-3-1-2-7-6-6-5-5"
         flood-opacity="1"
         flood-color="rgb(52,52,52)"
         result="flood" />
      <feComposite
         id="feComposite4379-3-8-8-2-77-4-1-0-6-4-7-7-6-0"
         in2="SourceGraphic"
         in="flood"
         operator="in"
         result="composite1"
         baseFrequency="0.053999999999999999 0.053999999999999999" />
      <feMorphology
         id="feMorphology4393-1-0-49-8-9-3-0-1-9-9-5-5-2-3"
         operator="dilate"
         radius="1.8999624943387681"
         result="result3" />
      <feComposite
         id="feComposite4385-9-5-7-0-8-8-7-5-4-9-3-3-9-6"
         in2="result3"
         in="SourceGraphic"
         operator="over"
         result="fbSourceGraphic" />
      <feColorMatrix
         result="fbSourceGraphicAlpha"
         in="fbSourceGraphic"
         values="0 0 0 -1 0 0 0 0 -1 0 0 0 0 -1 0 0 0 0 1 0"
         id="feColorMatrix4544-9-4-4-5-5-1-1" />
      <feTurbulence
         id="feTurbulence4546-3-6-5-6-6-2-0"
         type="fractalNoise"
         numOctaves="3"
         seed="88"
         baseFrequency="0.03818384303719944"
         result="turbulence" />
      <feDisplacementMap
         id="feDisplacementMap4548-8-0-9-2-2-7-6"
         in2="turbulence"
         in="fbSourceGraphic"
         scale="9.6365525"
         yChannelSelector="G"
         xChannelSelector="R"
         result="fbSourceGraphic" />
      <feColorMatrix
         result="fbSourceGraphicAlpha"
         in="fbSourceGraphic"
         values="0 0 0 -1 0 0 0 0 -1 0 0 0 0 -1 0 0 0 0 1 0"
         id="feColorMatrix4670-7-7-3-9-9-0-3" />
      <feFlood
         id="feFlood4672-4-4-5-1-1-9-20"
         flood-opacity="1"
         flood-color="rgb(28,28,28)"
         result="flood"
         in="fbSourceGraphic" />
      <feComposite
         id="feComposite4674-8-3-7-2-2-3-6"
         in2="fbSourceGraphic"
         in="flood"
         operator="in"
         result="composite1" />
      <feGaussianBlur
         id="feGaussianBlur4676-3-7-08-7-7-6-1"
         in="composite1"
         stdDeviation="0"
         result="blur" />
      <feOffset
         id="feOffset4678-6-9-1-0-0-0-5"
         dx="-5.6583689219916096"
         dy="0.39217365321829334"
         result="offset" />
      <feComposite
         id="feComposite4680-4-0-9-9-9-6-5"
         in2="offset"
         in="fbSourceGraphic"
         operator="over"
         result="composite2" />
    </filter>
    <filter
       style="color-interpolation-filters:sRGB"
       id="filter4375-4-1-1-1-9-5-8-8-5-5-3-3-3-4-2"
       inkscape:label="soundFX1">
      <feFlood
         id="feFlood4377-7-9-0-8-1-7-3-1-2-7-6-6-5-5-6"
         flood-opacity="1"
         flood-color="rgb(52,52,52)"
         result="flood" />
      <feComposite
         id="feComposite4379-3-8-8-2-77-4-1-0-6-4-7-7-6-0-1"
         in2="SourceGraphic"
         in="flood"
         operator="in"
         result="composite1"
         baseFrequency="0.053999999999999999 0.053999999999999999" />
      <feMorphology
         id="feMorphology4393-1-0-49-8-9-3-0-1-9-9-5-5-2-3-8"
         operator="dilate"
         radius="1.8999624943387681"
         result="result3" />
      <feComposite
         id="feComposite4385-9-5-7-0-8-8-7-5-4-9-3-3-9-6-7"
         in2="result3"
         in="SourceGraphic"
         operator="over"
         result="fbSourceGraphic" />
      <feColorMatrix
         result="fbSourceGraphicAlpha"
         in="fbSourceGraphic"
         values="0 0 0 -1 0 0 0 0 -1 0 0 0 0 -1 0 0 0 0 1 0"
         id="feColorMatrix4544-9-4-4-5-5-1-1-9" />
      <feTurbulence
         id="feTurbulence4546-3-6-5-6-6-2-0-2"
         type="fractalNoise"
         numOctaves="3"
         seed="88"
         baseFrequency="0.03818384303719944"
         result="turbulence" />
      <feDisplacementMap
         id="feDisplacementMap4548-8-0-9-2-2-7-6-0"
         in2="turbulence"
         in="fbSourceGraphic"
         scale="9.6365525"
         yChannelSelector="G"
         xChannelSelector="R"
         result="fbSourceGraphic" />
      <feColorMatrix
         result="fbSourceGraphicAlpha"
         in="fbSourceGraphic"
         values="0 0 0 -1 0 0 0 0 -1 0 0 0 0 -1 0 0 0 0 1 0"
         id="feColorMatrix4670-7-7-3-9-9-0-3-2" />
      <feFlood
         id="feFlood4672-4-4-5-1-1-9-20-3"
         flood-opacity="1"
         flood-color="rgb(28,28,28)"
         result="flood"
         in="fbSourceGraphic" />
      <feComposite
         id="feComposite4674-8-3-7-2-2-3-6-7"
         in2="fbSourceGraphic"
         in="flood"
         operator="in"
         result="composite1" />
      <feGaussianBlur
         id="feGaussianBlur4676-3-7-08-7-7-6-1-5"
         in="composite1"
         stdDeviation="0"
         result="blur" />
      <feOffset
         id="feOffset4678-6-9-1-0-0-0-5-9"
         dx="-5.6583689219916096"
         dy="0.39217365321829334"
         result="offset" />
      <feComposite
         id="feComposite4680-4-0-9-9-9-6-5-2"
         in2="offset"
         in="fbSourceGraphic"
         operator="over"
         result="composite2" />
    </filter>
    <filter
       style="color-interpolation-filters:sRGB"
       id="filter4375-4-1-1-1-9-5-8-8-5-5-3-3-3-4-3"
       inkscape:label="soundFX1">
      <feFlood
         id="feFlood4377-7-9-0-8-1-7-3-1-2-7-6-6-5-5-67"
         flood-opacity="1"
         flood-color="rgb(52,52,52)"
         result="flood" />
      <feComposite
         id="feComposite4379-3-8-8-2-77-4-1-0-6-4-7-7-6-0-5"
         in2="SourceGraphic"
         in="flood"
         operator="in"
         result="composite1"
         baseFrequency="0.053999999999999999 0.053999999999999999" />
      <feMorphology
         id="feMorphology4393-1-0-49-8-9-3-0-1-9-9-5-5-2-3-3"
         operator="dilate"
         radius="1.8999624943387681"
         result="result3" />
      <feComposite
         id="feComposite4385-9-5-7-0-8-8-7-5-4-9-3-3-9-6-5"
         in2="result3"
         in="SourceGraphic"
         operator="over"
         result="fbSourceGraphic" />
      <feColorMatrix
         result="fbSourceGraphicAlpha"
         in="fbSourceGraphic"
         values="0 0 0 -1 0 0 0 0 -1 0 0 0 0 -1 0 0 0 0 1 0"
         id="feColorMatrix4544-9-4-4-5-5-1-1-6" />
      <feTurbulence
         id="feTurbulence4546-3-6-5-6-6-2-0-29"
         type="fractalNoise"
         numOctaves="3"
         seed="88"
         baseFrequency="0.03818384303719944"
         result="turbulence" />
      <feDisplacementMap
         id="feDisplacementMap4548-8-0-9-2-2-7-6-1"
         in2="turbulence"
         in="fbSourceGraphic"
         scale="9.6365525"
         yChannelSelector="G"
         xChannelSelector="R"
         result="fbSourceGraphic" />
      <feColorMatrix
         result="fbSourceGraphicAlpha"
         in="fbSourceGraphic"
         values="0 0 0 -1 0 0 0 0 -1 0 0 0 0 -1 0 0 0 0 1 0"
         id="feColorMatrix4670-7-7-3-9-9-0-3-27" />
      <feFlood
         id="feFlood4672-4-4-5-1-1-9-20-0"
         flood-opacity="1"
         flood-color="rgb(28,28,28)"
         result="flood"
         in="fbSourceGraphic" />
      <feComposite
         id="feComposite4674-8-3-7-2-2-3-6-9"
         in2="fbSourceGraphic"
         in="flood"
         operator="in"
         result="composite1" />
      <feGaussianBlur
         id="feGaussianBlur4676-3-7-08-7-7-6-1-3"
         in="composite1"
         stdDeviation="0"
         result="blur" />
      <feOffset
         id="feOffset4678-6-9-1-0-0-0-5-6"
         dx="-5.6583689219916096"
         dy="0.39217365321829334"
         result="offset" />
      <feComposite
         id="feComposite4680-4-0-9-9-9-6-5-0"
         in2="offset"
         in="fbSourceGraphic"
         operator="over"
         result="composite2" />
    </filter>
  </defs>
  <sodipodi:namedview
     pagecolor="#ffffff"
     bordercolor="#666666"
     borderopacity="1"
     objecttolerance="10"
     gridtolerance="10"
     guidetolerance="10"
     inkscape:pageopacity="0"
     inkscape:pageshadow="2"
     inkscape:window-width="1468"
     inkscape:window-height="1031"
     id="namedview4"
     showgrid="false"
     inkscape:zoom="0.56568542"
     inkscape:cx="1294.0909"
     inkscape:cy="483.43444"
     inkscape:window-x="406"
     inkscape:window-y="-1"
     inkscape:window-maximized="0"
     inkscape:current-layer="layer1"
     inkscape:document-rotation="0"
     inkscape:snap-global="false" />
  <g
     inkscape:groupmode="layer"
     id="layer2"
     inkscape:label="artwork"
     sodipodi:insensitive="true">
    <image
       sodipodi:absref="C:\Users\Kari\Documents\Pepper and Carrot\Episode 34\fi\../lang/en/./../gfx_Pepper-and-Carrot_by-David-Revoy_E34P07.png"
       xlink:href="../gfx_Pepper-and-Carrot_by-David-Revoy_E34P07.png"
       width="2481"
       height="3503"
       id="image10"
       x="0"
       y="0" />
  </g>
  <g
     inkscape:groupmode="layer"
     id="layer3"
     inkscape:label="speechbubbles"
     style="display:inline">
    <path
       style="fill:#ffffff;fill-rule:evenodd;stroke:none;stroke-width:1.02901566px;stroke-linecap:butt;stroke-linejoin:miter;stroke-opacity:1"
       d="m 1678.8952,2538.2278 c 15.7441,-15.8653 58.0067,-27.7548 6.0329,-53.7736 27.7517,-1.4817 56.6409,-17.417 30.7835,-49.8 6.859,-16.5655 20.3619,-14.2971 -16.2903,-57.6889 28.1445,8.8678 68.5458,18.8501 34.0675,-36.3215 28.3024,11.9998 66.7667,-0.1305 68.2604,-20.6936 40.0977,33.7225 63.7227,21.4407 65.0942,-7.383 45.4129,43.0002 74.3002,30.0195 88.5338,7.3287 25.7143,20.5362 49.1699,23.6224 85.3951,-4.2128 -11.4788,29.6153 14.953,22.9199 47.9988,3.7439 -7.7232,28.8773 17.3134,22.2481 45.6991,-8.0852 -39.5507,44.1029 8.0136,36.0854 67.5595,18.6917 -6.5974,14.1632 -11.1255,27.0302 40.6201,4.6494 -5.4305,5.2649 -51.0781,44.6766 31.2325,25.2026 -23.9265,17.557 -5.8153,29.8891 33.875,31.4253 -22.7025,15.9398 -16.1921,34.3296 16.0387,42.7448 -34.8518,27.6324 4.1449,31.5449 20.1286,42.8491 -25.5086,10.8146 -75.9573,29.5135 -6.2124,54.5448 -74.8906,1.1861 -48.3654,34.0758 -19.3212,59.5291 -90.8381,-20.6806 -81.9708,17.6331 -46.0349,42.5985 -48.0938,-7.5256 -67.1429,-2.1461 -59.4135,15.1317 -44.9207,-18.2319 -49.0685,-10.7971 -49.5858,-1.0772 -49.0173,-21.8512 -43.9464,-4.9566 -50.5504,3.575 -25.7578,-20.5906 -43.7848,-21.8557 -53.5957,-2.5801 -19.4889,-8.0322 -43.1109,-20.4774 -58.5155,12.455 -14.2754,-32.7275 -35.0091,-34.0442 -47.5852,-4.5722 -3.8316,-41.2669 -54.9972,-18.8955 -55.7701,1.5328 -3.7154,-21.3712 -12.446,-47.4473 -51.6562,-16.054 -9.952,-9.6315 0.7853,-38.6714 -62.775,14.4331 36.3372,-53.476 -6.5957,-25.4269 -24.1883,-15.6814 5.9248,-17.7517 17.6343,-41.5417 -35.1763,-28.5629 29.0579,-27.0131 -20.9385,-9.5181 -38.5005,-6.8601 48.9028,-24.971 30.0012,-30.7585 13.5175,-37.2308 25.8694,-10.6946 -1.3052,-20.1755 -19.6659,-29.8582 z"
       id="path1421"
       sodipodi:nodetypes="cccccccccccccccccccccccccccccccccc"
       inkscape:connector-curvature="0" />
    <path
       style="fill:#ffffff;fill-rule:evenodd;stroke:none;stroke-width:1px;stroke-linecap:butt;stroke-linejoin:miter;stroke-opacity:1"
       d="m 1334.1166,2234.6868 c 25.4015,54.7414 43.2457,117.8561 85.6932,153.7108 l -76.0086,-3.8011 c 22.6984,-22.0351 0.7056,-92.223 -9.6846,-149.9097 z"
       id="path1397-8"
       sodipodi:nodetypes="cccc" />
    <path
       style="fill:#ffffff;fill-rule:evenodd;stroke:none;stroke-width:1.03634083px;stroke-linecap:butt;stroke-linejoin:miter;stroke-opacity:1"
       d="m 1198.2368,2367.4088 c 67.1036,30.3129 49.3105,-8.1374 50.5457,-31.1754 26.5571,28.6666 53.0178,56.8765 61.2678,-1.169 16.6885,40.2993 35.5598,64.6578 65.3199,9.4997 12.9566,32.7785 20.809,42.2504 100.7086,-29.0531 -7.1407,27.1841 -29.729,79.822 78.6775,18.4925 4.343,7.3787 -102.3204,100.3077 64.3731,-6.3673 -33.5341,35.69 -95.8946,87.4492 10.1632,45.3232 -50.4019,39.4491 -67.2507,70.0257 28.3498,70.8673 -38.0339,25.5945 -75.0563,51.0259 4.5323,57.6586 -31.5477,13.0572 -76.8041,26.8715 -7.8491,34.3779 -62.2714,10.9817 -57.3684,22.4932 -23.9749,34.2294 -73.583,-5.8773 -69.3324,9.0525 -31.3172,33.0085 -111.8374,-35.9645 -112.764,-14.5046 -115.77,5.8784 -91.253,-38.2838 -59.0435,-0.9083 -65.9569,12.4919 -33.1538,-33.4287 -71.4553,-39.6445 -117.8059,-3.3123 -27.3495,-12.4028 -40.2075,-41.1517 -107.0357,-10.6116 15.8545,-25.4899 -10.5463,-42.2945 -63.708,-24.1666 39.4508,-32.4111 4.2982,-39.4276 -48.5313,-23.9527 35.8289,-29.2654 34.6257,-41.2179 0.5279,-44.6954 57.6175,-25.8894 17.7516,-42.2005 -42.6584,-56.493 42.8319,-6.6901 98.0131,-10.7155 27.4964,-41.8638 56.3077,5.8618 84.7364,3.6139 30.534,-22.6704 37.3,9.9067 65.2999,11.1537 51.6885,-26.3458 69.1686,27.8595 53.0319,10.3576 50.4227,0.049 z"
       id="path1399"
       sodipodi:nodetypes="cccccccccccccccccccccccccc"
       inkscape:connector-curvature="0" />
    <path
       style="fill:#ffffff;fill-rule:evenodd;stroke:none;stroke-width:0.999996px;stroke-linecap:butt;stroke-linejoin:miter;stroke-opacity:1"
       d="m 647.0071,2309.6592 c 14.8329,72.713 20.49189,156.5482 56.01714,204.174 l -75.27475,-5.049 c 26.95263,-29.2692 18.51062,-122.4998 19.25761,-199.125 z"
       id="path1397"
       sodipodi:nodetypes="cccc" />
    <path
       style="fill:#ffffff;fill-rule:evenodd;stroke:none;stroke-width:1px;stroke-linecap:butt;stroke-linejoin:miter;stroke-opacity:1"
       d="m 441.56969,2474.2243 c 45.2215,24.7738 71.11189,38.1343 75.99588,-3.0664 22.65488,14.9923 47.51832,5.0915 36.66354,-44.7605 30.33109,47.2326 53.37301,47.8531 62.54474,16.4293 31.38384,43.8233 43.03093,26.7079 56.2142,14.3356 18.36869,27.8679 34.0273,19.1931 48.06003,-11.405 20.14174,59.1755 32.44768,36.3029 47.93495,9.6891 11.23271,64.9719 30.32109,23.3507 49.4728,13.6468 -8.64895,57.682 21.35178,32.5249 37.65491,36.7263 l 0.56099,156.2833 -428.04633,-2.0081 c 23.36271,-17.6848 43.5826,-36.3394 10.50724,-71.4395 13.56388,-6.6907 30.69591,-11.6399 -15.96926,-47.7261 34.14366,-1.6807 53.90312,-13.9175 18.40631,-66.7048 z"
       id="path1395"
       sodipodi:nodetypes="cccccccccccccc" />
    <path
       style="fill:#ffffff;fill-rule:evenodd;stroke:none;stroke-width:1px;stroke-linecap:butt;stroke-linejoin:miter;stroke-opacity:1"
       d="m 499.11056,1834.7339 -139.22494,-175.3756 -41.36363,4.3518 c 67.65771,69.4613 71.1147,77.1365 180.58857,171.0238 z"
       id="path1111-7"
       inkscape:connector-curvature="0"
       sodipodi:nodetypes="cccc" />
    <path
       style="fill:#ffffff;fill-rule:evenodd;stroke:none;stroke-width:0.86283779px;stroke-linecap:butt;stroke-linejoin:miter;stroke-opacity:1"
       d="m 98.128903,1663.4627 c 34.210557,-17.9701 65.646487,-31.1935 39.683457,53.7797 31.60002,-28.3772 62.91707,-56.1092 60.72101,-7.434 17.22238,-9.2161 30.34253,-8.2937 38.77773,4.2075 8.35877,-15.042 17.71507,-23.2208 30.98362,-4.4825 24.23022,-45.827 37.25557,-16.7332 49.32486,18.7532 3.34316,-16.5474 6.80384,-32.6631 18.44764,-18.7101 12.17039,-25.9012 32.17259,-23.9266 46.13768,-4.5271 l 12.20647,29.2368 c -6.88449,-37.4189 -11.73108,-61.2732 43.55131,-37.8058 -9.63487,-20.5279 16.72491,-28.4633 54.93335,-18.1603 -10.57,-23.3438 -21.22297,-46.7108 45.00828,-48.3862 -34.13683,-34.8695 0.72171,-43.8379 72.92239,-38.7878 -59.67001,-27.3279 -35.95871,-47.2458 -22.06892,-68.0364 -35.66323,-19.1054 -3.95782,-39.391 36.07661,-59.8226 -67.70818,-7.5562 -20.11463,-20.239 -15.49263,-31.0111 l -530.845858,-8.6825 4.922029,229.5645 z"
       id="path1384"
       sodipodi:nodetypes="ccccccccccccccccccc"
       inkscape:connector-curvature="0" />
    <path
       style="fill:#ffffff;fill-rule:evenodd;stroke:none;stroke-width:1.05426px;stroke-linecap:butt;stroke-linejoin:miter;stroke-opacity:1"
       d="m 384.27217,922.69956 c 21.53575,6.49155 35.46157,4.81198 36.513,-10.69129 10.02795,-1.18503 23.06298,15.92161 25.83873,-29.37752 11.94117,10.62975 22.50689,14.96474 30.58788,7.92835 8.40151,7.47577 12.08305,-0.81548 15.71349,-9.27737 6.79315,8.37603 13.58628,13.51234 20.37941,2.34182 2.69853,23.30423 12.2313,27.26525 18.85386,29.84951 10.30127,-0.86923 32.92748,-1.90176 42.47459,-21.69449 -7.12829,26.89996 10.52436,11.38146 24.2423,0.29127 -16.0159,32.78954 -4.84724,37.2347 38.43846,28.78931 -19.44306,7.68079 -52.06655,18.36993 -16.06603,13.39607 -35.74034,19.5955 -4.87911,20.39351 12.40223,17.60984 0.41364,5.99794 -23.91345,13.10451 11.25719,27.66631 -7.34748,4.26475 -32.857,-5.95478 -11.85367,20.91983 -40.76749,-14.83362 -47.0999,-8.58029 -26.90995,15.8762 -48.42235,-30.5077 -37.58934,2.1972 -38.6229,22.2431 -10.051,-21.7373 -20.09102,-42.75834 -29.45136,-19.4057 -5.11002,-13.4432 -13.6596,7.1759 -21.68712,22.625 1.57506,-26.0869 -2.85941,-40.2343 -21.30295,-26.5489 -5.75219,-5.0165 -3.77431,-19.27263 -37.10976,8.6812 3.02342,-16.5667 -2.82728,-14.7846 -9.73297,-10.821 -7.10082,-2.2653 -5.72545,-12.6407 -31.44685,2.9106 9.84562,-16.81363 7.41488,-25.29079 -0.12521,-30.29835 -14.50977,-10.5268 -31.00995,-14.31827 -49.17586,-12.47297 11.08413,-4.29786 24.62332,-5.4901 25.3894,-22.84055 6.54522,-4.42169 5.30967,-12.8204 -8.60591,-27.70027 z"
       id="path1373"
       sodipodi:nodetypes="cccccccccccccccccccccccccc" />
    <path
       style="color:#000000;display:inline;overflow:visible;visibility:visible;fill:#0f0f0f;fill-opacity:1;fill-rule:nonzero;stroke:none;stroke-width:0.73643px;marker:none;filter:url(#filter3018-9-9);enable-background:accumulate"
       d="m 181.47423,238.56133 c 0,-59.7361 13.09665,-137.30912 101.52845,-142.909522 88.4319,-5.6002 170.85502,11.959242 209.60612,31.560142 38.751,19.601 47.37342,84.70884 30.92692,121.28253 -14.89463,33.12265 5.84895,86.38003 -82.58285,83.57993 -88.4319,-2.8002 -142.20375,16.08508 -189.89735,2.08438 -47.6936,-14.0007 -65.60679,-47.99526 -69.58129,-95.59746 z"
       id="path3986-45"
       inkscape:connector-curvature="0"
       sodipodi:nodetypes="csssssc"
       transform="matrix(1.2353531,-0.09540406,0,1.2562259,-87.04811,189.50525)" />
    <path
       style="color:#000000;display:inline;overflow:visible;visibility:visible;fill:#000000;fill-opacity:1;fill-rule:nonzero;stroke:none;stroke-width:1px;marker:none;enable-background:accumulate"
       d="m 599.80325,583.95304 c -58.57262,16.45031 -71.19089,3.0084 -90.27717,-5.94076 0.66082,-5.50351 28.21165,-20.15792 28.21165,-20.15792 0,0 -70.59135,-2.22142 -84.00623,-11.8735 -13.41411,-9.65269 3.85672,-34.87348 3.85672,-34.87348 0,0 89.58291,33.39635 107.09398,35.23393 -2.52266,14.92714 -19.90063,20.9447 -23.37713,25.61838 9.48121,8.01825 37.46946,17.19211 58.49818,11.99335 z"
       id="path4456-10"
       inkscape:connector-curvature="0"
       sodipodi:nodetypes="cccscccc" />
    <path
       style="color:#000000;display:inline;overflow:visible;visibility:visible;fill:#ffffff;fill-opacity:1;fill-rule:nonzero;stroke:none;stroke-width:0.770015px;marker:none;enable-background:accumulate"
       d="m 588.58428,985.1883 c 13.46613,13.42935 32.4998,36.5734 34.47564,41.4721 -5.75056,-0.7967 -8.85791,2.3627 -12.80297,2.624 4.35005,8.8618 38.46116,40.8692 47.5395,45.1566 -22.47583,-9.3947 -66.25773,-37.7705 -72.41706,-52.7204 4.994,-1.3996 8.98317,-2.4672 11.58492,-3.2811 -2.75433,-7.5763 -26.75978,-25.87314 -26.75978,-25.87314 z"
       id="path5066-9"
       inkscape:connector-curvature="0"
       sodipodi:nodetypes="cccccccc" />
    <path
       style="fill:#ffffff;fill-rule:evenodd;stroke:none;stroke-width:0.999998px;stroke-linecap:butt;stroke-linejoin:miter;stroke-opacity:1"
       d="m 2095.0948,2168.3594 c 19.7952,7.2511 39.7188,16.9216 58.4942,32.5036 0.659,1.7153 -0.1184,13.4045 -13.9816,24.4813 9.7805,8.8999 26.9757,29.0069 28.9063,45.8339 -16.6424,26.5415 -70.6514,82.155 -100.4085,101.6665 -0.9778,0.6412 -10.8485,3.4463 -2.9062,1.7643 l -69.1777,-2.7281 c 42.2436,-18.4462 118.0005,-73.0054 143.0167,-106.7279 -6.354,-10.1375 -18.5646,-37.9872 -35.5242,-41.5593 48.805,-19.7239 7.6056,-42.2189 -8.419,-55.2343 z"
       id="path1423"
       sodipodi:nodetypes="ccccsccccc" />
    <path
       style="color:#000000;display:inline;overflow:visible;visibility:visible;fill:#ffffff;fill-opacity:1;fill-rule:nonzero;stroke:none;stroke-width:0.976411px;marker:none;enable-background:accumulate"
       d="m 1772.9159,2771.3502 c -41.7532,0.4604 -84.128,7.1149 -122.1443,25.0345 -16.1422,7.81 -31.111,19.9498 -38.3344,36.7614 -8.5633,18.7007 -9.8959,39.7067 -9.4373,59.9854 1.1483,15.8494 8.897,31.0541 21.0792,41.2668 17.008,15.5871 39.3909,23.2639 61.3494,28.8696 41.5455,10.4264 84.8299,11.5623 127.4004,8.9857 37.6378,-2.4065 75.6304,-8.2732 110.4955,-23.2287 20.4178,-10.16 36.2779,-30.211 39.1598,-53.1068 4.481,-26.605 -3.6677,-55.8409 -23.6735,-74.442 -15.9068,-14.4209 -36.1478,-22.5007 -55.6489,-30.7632 -35.0051,-13.6417 -72.7471,-19.7144 -110.2459,-19.3627 z"
       id="path3525-0"
       inkscape:connector-curvature="0" />
    <path
       style="fill:#ffffff;fill-rule:evenodd;stroke:none;stroke-width:1px;stroke-linecap:butt;stroke-linejoin:miter;stroke-opacity:1"
       d="m 1696.1492,2922.6747 c -4.9424,15.7994 -8.5741,32.3607 -17.5078,46.5371 -5.7283,8.1716 -15.2584,12.5651 -24.6347,15.0798 -5.6543,1.5241 -11.7641,3.905 -14.8497,9.2288 -2.7865,6.0841 -0.4659,13.2551 3.5433,18.2155 5.0949,7.3005 11.4587,13.6871 15.902,21.4447 -1.1158,4.5821 -5.7661,6.9174 -9.8551,8.3524 -9.2915,3.1977 -19.3098,2.3975 -28.9183,1.8976 1.7343,1.225 3.9299,1.9165 5.9242,2.7369 10.3208,3.8115 22.2678,4.033 32.2472,-0.9403 7.5898,-2.9189 12.1516,-11.4958 10.9704,-19.4422 -0.4723,-4.1648 -2.5775,-7.8778 -4.8639,-11.2964 -1.8832,-3.3454 -3.6942,-6.7307 -5.5357,-10.0991 1.4457,-3.516 5.4974,-4.9482 8.9822,-5.444 3.951,-0.4545 8.0141,-0.6502 11.6917,-2.3226 12.9323,-4.6802 23.7976,-13.8407 32.4428,-24.3579 5.2226,-6.772 8.8363,-15.5171 7.1723,-24.1743 -1.9937,-11.8066 -11.0027,-22.2669 -22.5879,-25.5371 z m -80.1426,118.8203 v -0.1758 z"
       id="path1085"
       inkscape:connector-curvature="0"
       sodipodi:nodetypes="cscscsccc" />
    <path
       style="color:#000000;display:inline;overflow:visible;visibility:visible;fill:#ffffff;fill-opacity:1;fill-rule:nonzero;stroke:none;stroke-width:0.821064px;marker:none;enable-background:accumulate"
       d="m 1554.3747,2879.3599 c 3.0461,-8.1499 19.3164,-33.3934 24.078,-6.6884 35.0592,-35.7584 78.3251,-23.1582 87.9154,-17.9476 -4.4255,-10.586 4.4971,-29.614 29.9809,-24.9355 -4.8419,-10.2267 2.4688,-17.9058 20.6227,-23.3107 -25.7272,-4.7844 -31.1649,-11.0078 14.0988,-20.8321 -35.2473,1.4728 -68.2401,2.0884 -30.1923,-24.3013 -13.0174,0.2138 -41.049,22.0077 -34.5452,-37.152 -19.7508,20.0194 -42.1028,31.7672 -77.1127,-5.4978 -7.0823,15.9924 -19.3624,27.2492 -48.5056,7.8015 -3.5769,15.6625 -35.1687,18.8726 -47.2749,16.4738 25.8583,15.695 26.4754,26.389 -5.2934,29.9985 57.7871,27.6041 13.3224,25.6281 5.7246,33.9881 43.5499,8.0678 26.4753,22.4483 20.7426,36.0923 48.478,-2.5073 35.4645,19.6018 39.7611,36.3112 z"
       id="path3549-3-8"
       inkscape:connector-curvature="0"
       sodipodi:nodetypes="ccccccccccccccc" />
  </g>
  <g
     inkscape:groupmode="layer"
     id="layer1"
     inkscape:label="txt">
    <text
       xml:space="preserve"
       style="font-style:normal;font-variant:normal;font-weight:normal;font-stretch:normal;font-size:13.9734px;line-height:0%;font-family:Lavi;-inkscape-font-specification:Lavi;text-align:center;letter-spacing:0px;word-spacing:0px;text-anchor:middle;fill:#ffffff;fill-opacity:1;stroke:none;stroke-width:1.16445"
       x="360.53488"
       y="361.98544"
       id="text4180"
       transform="scale(0.97214513,1.028653)"><tspan
         sodipodi:role="line"
         id="tspan4182"
         x="360.53488"
         y="361.98544"
         style="font-style:normal;font-variant:normal;font-weight:normal;font-stretch:normal;font-size:58.7426px;line-height:1.25;font-family:'Drukaatie burti';-inkscape-font-specification:'Drukaatie burti';stroke-width:1.16445">CURSUS</tspan><tspan
         sodipodi:role="line"
         x="360.53488"
         y="435.4137"
         style="font-style:normal;font-variant:normal;font-weight:normal;font-stretch:normal;font-size:58.7426px;line-height:1.25;font-family:'Drukaatie burti';-inkscape-font-specification:'Drukaatie burti';stroke-width:1.16445"
         id="tspan845">CANCELLARE</tspan><tspan
         sodipodi:role="line"
         x="360.53488"
         y="508.84195"
         style="font-style:normal;font-variant:normal;font-weight:normal;font-stretch:normal;font-size:58.7426px;line-height:1.25;font-family:'Drukaatie burti';-inkscape-font-specification:'Drukaatie burti';stroke-width:1.16445"
         id="tspan847">MAXIMUS!!!</tspan></text>
    <text
       xml:space="preserve"
       style="font-style:normal;font-variant:normal;font-weight:normal;font-stretch:normal;font-size:140px;line-height:1.25;font-family:Lavi;-inkscape-font-specification:Lavi;letter-spacing:0px;word-spacing:0px;fill:#000000;fill-opacity:1;stroke:#000000;stroke-width:0.767697;stroke-miterlimit:4;stroke-dasharray:none;stroke-opacity:1;filter:url(#filter4375-4-1-1-1-9-5-8-8-5-5-3-3)"
       id="text4580-6-0-0-0-9-3-3"
       transform="matrix(0.78930062,-0.13614632,0.09898673,1.1655785,2474.7436,272.30868)"
       x="313.77448"
       y="979.88452"><textPath
         xlink:href="#path974"
         id="textPath2837"
         style="font-size:140px;fill:#000000;stroke:#000000;stroke-width:0.767697;stroke-opacity:1"
         rotate="30 30 30 30 30 30 30 0"><tspan
   style="font-size:152.838px;fill:#000000;stroke:#000000;stroke-width:0.767697;stroke-opacity:1"
   id="tspan921"><tspan
   style="font-size:164.509px;fill:#000000;stroke:#000000;stroke-width:0.767697;stroke-opacity:1"
   id="tspan925"><tspan
   style="font-size:176.18px;fill:#000000;stroke:#000000;stroke-width:0.767697;stroke-opacity:1"
   id="tspan929"><tspan
   style="font-size:199.522px;fill:#000000;stroke:#000000;stroke-width:0.767697;stroke-opacity:1"
   id="tspan933">S</tspan>H</tspan>K</tspan>L</tspan>AK!</textPath></text>
    <path
       style="fill:none;fill-rule:evenodd;stroke:none;stroke-width:1.13654px;stroke-linecap:butt;stroke-linejoin:miter;stroke-opacity:1"
       d="M -782.19308,325.4414 C -589.01028,245.86428 -187.91734,67.856922 -31.335687,8.6587174"
       id="path974"
       sodipodi:nodetypes="cc" />
    <text
       xml:space="preserve"
       style="font-style:normal;font-variant:normal;font-weight:normal;font-stretch:normal;font-size:55.74150085px;line-height:1.25;font-family:Lavi;-inkscape-font-specification:Lavi;text-align:center;letter-spacing:0px;word-spacing:0px;text-anchor:middle;fill:#000000;fill-opacity:1;stroke:none;stroke-width:1.15534997"
       x="702.73871"
       y="914.20453"
       id="text4246-3-2-2-6-3-7-9-3-3-56-9-3-20"
       transform="matrix(0.93489145,0,-0.16751518,1.0696429,0,0)"><tspan
         style="font-style:normal;font-variant:normal;font-weight:bold;font-stretch:normal;font-size:55.74150085px;font-family:Lavi;-inkscape-font-specification:'Lavi Bold';stroke-width:1.15534997"
         sodipodi:role="line"
         x="702.73871"
         y="914.20453"
         id="tspan334">Auts!</tspan></text>
    <text
       xml:space="preserve"
       style="font-style:normal;font-variant:normal;font-weight:normal;font-stretch:normal;font-size:80px;line-height:1.25;font-family:Lavi;-inkscape-font-specification:Lavi;letter-spacing:0px;word-spacing:0px;fill:#ffffff;fill-opacity:1;stroke:#ffffff;stroke-width:0.822276;stroke-miterlimit:4;stroke-dasharray:none;stroke-opacity:1;filter:url(#filter4375-4-1-1-1-9-5-8-8-5-5-3-3-3-0)"
       id="text4580-6-0-0-0-9-3-3-2-0"
       transform="matrix(1.296644,-0.59261719,-0.5584343,2.1151802,2801.1166,-1940.1494)"
       x="-607.91235"
       y="1245.0809"><tspan
         id="tspan1534-6"
         style="font-size:61.3371px;stroke-width:0.822276">P<tspan
   style="font-size:52.4338px;stroke-width:0.822276"
   id="tspan1009">AF</tspan>!!</tspan></text>
    <text
       xml:space="preserve"
       style="font-style:normal;font-variant:normal;font-weight:normal;font-stretch:normal;font-size:49.67950058px;line-height:1.25;font-family:Lavi;-inkscape-font-specification:Lavi;text-align:center;letter-spacing:0px;word-spacing:0px;text-anchor:middle;fill:#000000;fill-opacity:1;stroke:none;stroke-width:1.10398996"
       x="314.82587"
       y="1509.1068"
       id="text4246-3-2-2-6-3-7-9-3-3-56-9-3-20-3"><tspan
         style="font-size:49.67950058px;stroke-width:1.10398996"
         sodipodi:role="line"
         x="314.82587"
         y="1509.1068"
         id="tspan1049">Sinun paras</tspan><tspan
         style="font-size:49.67950058px;stroke-width:1.10398996"
         sodipodi:role="line"
         x="314.82587"
         y="1571.2062"
         id="tspan3827">peruutusloitsusikaan</tspan><tspan
         style="font-size:49.67950058px;stroke-width:1.10398996"
         sodipodi:role="line"
         x="314.82587"
         y="1633.3055"
         id="tspan962">ei tehoa minuun!</tspan></text>
    <text
       xml:space="preserve"
       style="font-style:normal;font-variant:normal;font-weight:normal;font-stretch:normal;font-size:45px;line-height:1.25;font-family:Lavi;-inkscape-font-specification:Lavi;text-align:center;letter-spacing:0px;word-spacing:0px;text-anchor:middle;fill:#000000;fill-opacity:1;stroke:none"
       x="659.58832"
       y="2547.5586"
       id="text4246-3-2-2-6-3-7-9-3-3-56-9-3-20-3-7"><tspan
         style="font-size:45px"
         sodipodi:role="line"
         x="659.58832"
         y="2547.5586"
         id="tspan1107">Luovuta, Pepper,</tspan><tspan
         style="font-size:45px"
         sodipodi:role="line"
         x="659.58832"
         y="2603.8086"
         id="tspan968"> ja mene pois!</tspan></text>
    <text
       xml:space="preserve"
       style="font-style:normal;font-variant:normal;font-weight:normal;font-stretch:normal;font-size:58.66009903px;line-height:1.25;font-family:Lavi;-inkscape-font-specification:Lavi;text-align:center;letter-spacing:0px;word-spacing:0px;text-anchor:middle;fill:#000000;fill-opacity:1;stroke:#000000;stroke-width:0.64709598;stroke-miterlimit:4;stroke-dasharray:none;stroke-opacity:1"
       x="1604.7555"
       y="2476.3179"
       id="text4246-3-2-2-6-3-7-9-3-3-56-9-3-20-3-7-9"
       transform="matrix(1.004667,0,-0.09777912,0.99535468,0,0)"><tspan
         style="font-size:58.66009903px;stroke:#000000;stroke-width:0.64709598;stroke-miterlimit:4;stroke-dasharray:none;stroke-opacity:1"
         sodipodi:role="line"
         x="1604.7555"
         y="2476.3179"
         id="tspan1149">Älä pakota minua</tspan><tspan
         style="font-size:58.66009903px;stroke:#000000;stroke-width:0.64709598;stroke-miterlimit:4;stroke-dasharray:none;stroke-opacity:1"
         sodipodi:role="line"
         x="1604.7555"
         y="2549.6431"
         id="tspan975">satuttamaan sinua!</tspan></text>
    <text
       xml:space="preserve"
       style="font-style:normal;font-variant:normal;font-weight:normal;font-stretch:normal;font-size:50px;line-height:1.25;font-family:Lavi;-inkscape-font-specification:Lavi;text-align:center;letter-spacing:0px;word-spacing:0px;text-anchor:middle;fill:#000000;fill-opacity:1;stroke:none"
       x="2009.5503"
       y="2413.4648"
       id="text4246-3-2-2-6-3-7-9-3-3-56-9-3-20-3-7-7"><tspan
         sodipodi:role="line"
         x="2009.5503"
         y="2413.4648"
         id="tspan1187"
         style="font-size:50px">Minun peruutus-</tspan><tspan
         sodipodi:role="line"
         x="2009.5503"
         y="2475.9648"
         style="font-size:50px"
         id="tspan982">loitsuni toimi täydellisesti</tspan><tspan
         sodipodi:role="line"
         x="2009.5503"
         y="2538.4648"
         style="font-size:50px"
         id="tspan3844">mutta sinä et ollutkaan</tspan><tspan
         sodipodi:role="line"
         x="2009.5503"
         y="2600.9648"
         style="font-size:50px"
         id="tspan8463">sen kohteena.</tspan></text>
    <text
       xml:space="preserve"
       style="font-style:normal;font-variant:normal;font-weight:normal;font-stretch:normal;font-size:50px;line-height:1.25;font-family:Lavi;-inkscape-font-specification:Lavi;text-align:center;letter-spacing:0px;word-spacing:0px;text-anchor:middle;fill:#000000;fill-opacity:1;stroke:none"
       x="1592.5446"
       y="2812.7163"
       id="text4246-3-2-2-6-3-7-9-3-3-56-9-3-20-3-7-7-3-3"><tspan
         sodipodi:role="line"
         x="1592.5446"
         y="2812.7163"
         style="font-size:50px"
         id="tspan1234-7">Täh?</tspan></text>
    <text
       xml:space="preserve"
       style="font-style:normal;font-variant:normal;font-weight:normal;font-stretch:normal;font-size:50px;line-height:1.25;font-family:Lavi;-inkscape-font-specification:Lavi;text-align:center;letter-spacing:0px;word-spacing:0px;text-anchor:middle;fill:#000000;fill-opacity:1;stroke:none"
       x="1786.558"
       y="2857.2175"
       id="text4246-3-2-2-6-3-7-9-3-3-56-9-3-20-3-7-7-3"><tspan
         sodipodi:role="line"
         x="1786.558"
         y="2857.2175"
         style="font-size:50px"
         id="tspan1234">Mitä</tspan><tspan
         sodipodi:role="line"
         x="1786.558"
         y="2919.7175"
         style="font-size:50px"
         id="tspan3855">tarkoitat?!</tspan></text>
    <text
       xml:space="preserve"
       style="font-style:normal;font-variant:normal;font-weight:normal;font-stretch:normal;font-size:131.375px;line-height:1.25;font-family:Lavi;-inkscape-font-specification:Lavi;letter-spacing:0px;word-spacing:0px;fill:#ffffff;fill-opacity:1;stroke:#ffffff;stroke-width:0.792768;stroke-miterlimit:4;stroke-dasharray:none;stroke-opacity:1;filter:url(#filter4375-4-1-1-1-9-5-8-8-5-5-3-3-3-4)"
       id="text4580-6-0-0-0-9-3-3-2-4"
       transform="matrix(0.40673393,-0.14739048,-0.13453696,0.59699085,2175.9236,2308.7188)"
       x="-607.91235"
       y="1245.0809">Pshh...</text>
    <text
       xml:space="preserve"
       style="font-style:normal;font-variant:normal;font-weight:normal;font-stretch:normal;font-size:131.375px;line-height:1.25;font-family:Lavi;-inkscape-font-specification:Lavi;letter-spacing:0px;word-spacing:0px;fill:#ffffff;fill-opacity:1;stroke:#ffffff;stroke-width:0.792768;stroke-miterlimit:4;stroke-dasharray:none;stroke-opacity:1;filter:url(#filter4375-4-1-1-1-9-5-8-8-5-5-3-3-3-4-3)"
       id="text4580-6-0-0-0-9-3-3-2-4-6"
       transform="matrix(0.40673393,-0.14739048,-0.13453696,0.59699085,1023.5679,2296.8448)"
       x="-607.91235"
       y="1245.0809">Pshh...</text>
  </g>
</svg>
