<?xml version="1.0" encoding="UTF-8" standalone="no"?>
<svg
   xmlns:dc="http://purl.org/dc/elements/1.1/"
   xmlns:cc="http://creativecommons.org/ns#"
   xmlns:rdf="http://www.w3.org/1999/02/22-rdf-syntax-ns#"
   xmlns:svg="http://www.w3.org/2000/svg"
   xmlns="http://www.w3.org/2000/svg"
   xmlns:xlink="http://www.w3.org/1999/xlink"
   xmlns:sodipodi="http://sodipodi.sourceforge.net/DTD/sodipodi-0.dtd"
   xmlns:inkscape="http://www.inkscape.org/namespaces/inkscape"
   id="svg2"
   version="1.1"
   inkscape:version="1.0.2-2 (e86c870879, 2021-01-15)"
   width="2481"
   height="3503"
   sodipodi:docname="E34P08.svg">
  <metadata
     id="metadata8">
    <rdf:RDF>
      <cc:Work
         rdf:about="">
        <dc:format>image/svg+xml</dc:format>
        <dc:type
           rdf:resource="http://purl.org/dc/dcmitype/StillImage" />
        <dc:title />
      </cc:Work>
    </rdf:RDF>
  </metadata>
  <defs
     id="defs6" />
  <sodipodi:namedview
     pagecolor="#ffffff"
     bordercolor="#666666"
     borderopacity="1"
     objecttolerance="10"
     gridtolerance="10"
     guidetolerance="10"
     inkscape:pageopacity="0"
     inkscape:pageshadow="2"
     inkscape:window-width="1920"
     inkscape:window-height="1001"
     id="namedview4"
     showgrid="false"
     inkscape:zoom="0.50383782"
     inkscape:cx="1240.5"
     inkscape:cy="2661.8512"
     inkscape:window-x="-9"
     inkscape:window-y="-9"
     inkscape:window-maximized="1"
     inkscape:current-layer="layer1"
     inkscape:document-rotation="0"
     inkscape:snap-global="false"
     borderlayer="true" />
  <g
     inkscape:groupmode="layer"
     id="layer2"
     inkscape:label="artwork"
     sodipodi:insensitive="true">
    <image
       sodipodi:absref="/home/peppercarrot/webcomics/"
       xlink:href="../gfx_Pepper-and-Carrot_by-David-Revoy_E34P08.png"
       width="2481"
       height="3503"
       id="image10"
       x="0"
       y="0" />
  </g>
  <g
     inkscape:groupmode="layer"
     id="layer3"
     inkscape:label="speechbubbles"
     style="display:inline">
    <path
       style="color:#000000;display:inline;overflow:visible;visibility:visible;fill:#ffffff;fill-opacity:1;fill-rule:nonzero;stroke:none;stroke-width:0.770224px;marker:none;enable-background:accumulate"
       d="m 1858.8745,2602.7661 c 24.645,-31.5484 88.5186,-58.8546 134.0691,-29.1667 47.5832,1.2392 31.3766,-27.3129 31.3766,-27.3129 -2.2798,-13.3723 -128.0086,-31.4485 -165.4457,56.4796 z"
       id="path3984-7"
       inkscape:connector-curvature="0"
       sodipodi:nodetypes="cccc" />
    <path
       style="display:inline;fill:#ffffff;stroke:none;stroke-width:1.45534"
       d="m 2124.6394,2621.5134 c -47.3082,1.3936 -95.3165,12.4549 -133.9977,36.8284 -61.9474,40.5512 -92.4649,114.0988 -73.9978,179.6353 8.9306,35.6596 34.9469,68.4078 72.0145,86.1028 36.0467,17.5884 77.3209,24.7287 117.9903,28.723 60.1059,5.3823 121.4712,-0.9608 178.7367,-17.5893 32.2899,-9.9889 58.778,-32.6833 71.2164,-60.3993 12.3441,-26.5503 14.6121,-55.6117 14.6554,-83.9544 -1.0207,-43.4538 -18.4119,-86.551 -48.9093,-120.9958 -14.3675,-16.2281 -35.0718,-28.059 -57.9719,-32.9218 -26.8886,-5.6806 -54.4133,-8.551 -81.7526,-12.0453 -19.2239,-2.1394 -38.5861,-3.63 -57.984,-3.3836 z"
       id="path3280-8-3"
       inkscape:connector-curvature="0"
       sodipodi:nodetypes="csssc" />
    <path
       style="color:#000000;display:inline;overflow:visible;visibility:visible;fill:#ffffff;fill-opacity:1;fill-rule:nonzero;stroke:none;stroke-width:0.753063px;marker:none;enable-background:accumulate"
       d="m 2149.746,2472.571 c -44.62,-0.9701 -89.8401,3.662 -131.6957,17.4105 -15.7235,5.29 -31.2285,12.7608 -41.5019,24.7234 -12.856,15.1252 -19.129,34.0355 -19.6717,52.7878 -0.1117,18.5638 7.663,37.6624 23.3721,50.5903 12.5405,10.1785 28.8043,15.6751 44.6155,20.7364 28.9831,9.1294 59.3636,14.2904 89.849,17.5432 20.278,2.1752 40.6386,3.74 61.0174,4.8757 18.0429,0.6093 36.0284,-1.6169 53.5489,-5.1354 25.3827,-4.5131 51.0236,-10.3879 73.1609,-22.4672 15.746,-8.7345 29.054,-21.7633 34.2339,-37.6643 7.0267,-20.4107 1.6949,-43.6413 -13.4783,-60.4231 -12.6551,-15.4162 -27.6928,-29.9854 -46.9431,-39.2111 -16.2392,-7.5829 -34.2983,-11.3046 -52.0394,-15.0934 -24.4535,-4.9277 -49.4218,-7.7894 -74.4676,-8.6728 z"
       id="path3970-3"
       inkscape:connector-curvature="0"
       sodipodi:nodetypes="cccscsc" />
    <path
       style="display:inline;fill:#ffffff;fill-rule:evenodd;stroke:none;stroke-width:1.19769px;stroke-linecap:butt;stroke-linejoin:miter;stroke-opacity:1"
       d="m 151.20551,2668.4894 c 39.86193,27.8955 32.52231,40.0735 -23.67073,35.9837 89.58912,42.8351 52.60569,49.2464 -4.1167,49.9774 38.07751,15.6456 80.20982,30.956 -7.20414,56.9743 50.65722,4.2183 94.79578,10.1746 8.23329,50.977 44.91072,-1.6758 74.04332,-18.7567 19.8773,36.7827 73.51489,-24.9458 140.64956,-17.0906 102.59359,45.1802 36.95129,-18.3388 97.70046,-64.815 76.15825,-13.9936 16.9296,-16.2306 38.47559,-22.3733 77.18751,8.9959 -7.54878,-22.6233 -30.29283,-58.4779 38.07913,-14.9932 -20.6692,-34.0251 -0.84903,-68.3859 68.1897,-17.9249 -10.28467,-25.6552 -78.5565,-35.3843 5.91036,-61.0395 -58.18262,-2.5587 -40.13526,-19.9247 -3.08744,-40.9814 -69.28068,-11.6374 -35.0024,-25.7279 6.17499,-39.982 -42.91247,-5.4331 -76.01888,-14.5828 -8.2334,-61.972 -74.61274,19.6735 -53.02033,-13.6004 -49.40008,-36.9833 -34.43236,18.5673 -73.37075,47.7106 -76.15836,-7.9964 -46.18982,69.1143 -63.67863,16.2752 -89.5375,-0.9995 -26.8957,82.2398 -87.8655,6.4455 -104.97483,0.9995 34.89138,33.6606 40.98338,48.9014 -36.02094,10.9951 z"
       id="path1096"
       inkscape:connector-curvature="0"
       sodipodi:nodetypes="cccccccccccccccccccc" />
    <path
       style="fill:#ffffff;fill-rule:evenodd;stroke:none;stroke-width:1px;stroke-linecap:butt;stroke-linejoin:miter;stroke-opacity:1"
       d="m 280.37551,2665.5865 c 22.24357,147.5922 76.16994,294.7462 66.72409,442.7767 39.32721,-7.5351 57.02691,-43.538 110.60404,61.3044 36.13567,-50.5432 43.46402,-9.9468 54.08883,20.3938 25.92501,-21.2619 53.62712,-17.4156 81.20022,-15.3921 -24.07084,-2.6294 -42.56765,-23.176 -74.42406,-0.7793 -0.99204,-50.5675 -24.7242,-64.2967 -53.19608,-40.6932 -22.25284,-65.4923 -46.37098,-77.5206 -92.38131,-54.9383 1.82968,-175.1557 -47.49605,-279.4592 -67.44658,-422.2765 z"
       id="path1313"
       sodipodi:nodetypes="cccccccccc" />
    <path
       style="color:#000000;display:inline;overflow:visible;visibility:visible;fill:#ffffff;fill-opacity:1;fill-rule:nonzero;stroke:none;stroke-width:1.31433px;marker:none;enable-background:accumulate"
       d="m 134.26241,2981.6869 c 2.57481,-42.4765 8.37968,-76.1738 40.31649,-94.8593 31.93682,-18.6853 90.00534,-22.3584 163.67617,-15.008 39.46208,3.9372 95.53388,9.6703 126.98199,27.4197 31.4482,17.7488 38.27248,47.5133 34.95875,109.7344 -3.31371,62.2209 -14.9026,95.3659 -51.27921,110.7925 -36.37663,15.4267 -97.54109,13.1348 -110.85534,14.7045 -34.81312,-4.9421 -101.93998,2.0672 -144.61363,-11.013 -42.67375,-13.0801 -60.89408,-46.2498 -59.18522,-141.7708 z"
       id="path4546-6-0"
       inkscape:connector-curvature="0"
       sodipodi:nodetypes="cssssscsc" />
    <path
       style="fill:#ffffff;fill-rule:evenodd;stroke:none;stroke-width:1.62437px;stroke-linecap:butt;stroke-linejoin:miter;stroke-opacity:1"
       d="m 217.08242,2688.6569 c 36.90709,-58.9113 39.2881,-6.0278 58.31878,42.5682 18.49928,-35.9036 5.37016,-43.4923 47.77595,2.7081 8.80076,-71.0974 28.70148,-50.4535 52.77387,-12.8438 -8.33465,-49.9952 -8.81213,-73.3985 28.15389,-30.4056 9.37569,-56.7971 28.08772,-15.4565 54.29681,12.1628 -6.36522,-64.1627 -9.43727,-63.9754 44.24189,-52.7023 -37.30857,-56.5334 12.34553,-31.0721 50.27471,-24.3259 -56.92936,-43.857 -36.38571,-36.1066 20.1101,-32.4325 -70.09485,-36.3038 -74.25014,-31.2782 -8.04407,-75.001 -98.70585,13.1078 -89.4022,11.5376 -24.13193,-64.8654 -39.18092,6.4716 -140.98295,97.2864 -78.42873,16.2172 -53.48141,21.4075 -77.40978,46.0451 -49.37466,-24.6037 l -19.66776,-1.2004 c -20.37926,25.6866 -44.11621,66.2436 -47.59527,13.6411 -29.76644,39.3154 -28.07601,45.8837 -42.23077,-4.0542 -19.66696,67.871 -22.71029,15.3245 -34.18713,-28.3784 -25.83448,40.775 -26.07555,87.4334 -42.23077,22.2971 -11.24706,66.2863 -34.0037,19.2474 -66.36284,-12.1615 10.09255,72.1449 12.97253,71.4087 -36.19797,26.3513 18.43992,65.8692 -0.12592,52.0404 -52.285671,48.6482 62.451481,58.1819 42.560661,56.4239 -20.110112,97.2996 35.01382,6.4755 97.345683,-33.7721 64.351853,20.2698 77.3397,-33.0592 15.08709,52.9124 -4.02196,97.2981 69.10198,-67.7564 97.75391,-122.5894 104.57179,-36.4868 z"
       id="path1309"
       inkscape:connector-curvature="0"
       sodipodi:nodetypes="ccccccccccccccccccccccccc" />
    <path
       style="display:inline;fill:#ffffff;stroke:none;stroke-width:0.887071"
       d="m 2005.3142,1896.8372 c -35.2643,2.3343 -70.0803,9.697 -100.9462,21.6512 -20.7561,8.0706 -39.7509,18.3094 -54.8376,30.7294 -39.3207,31.457 -59.7513,72.1928 -58.3543,112.04 -0.2214,33.1305 13.1146,66.5441 42.4284,93.2163 28.0819,26.1332 67.7718,47.5852 115.017,57.2553 27.6276,5.7808 56.1571,9.7696 84.875,12.8386 39.8159,2.8058 80.062,-2.8078 118.544,-10.2456 34.3331,-6.6184 68.6229,-16.1673 95.1871,-32.5853 29.3604,-18.1388 48.1348,-42.1459 62.4034,-66.3757 14.4748,-24.2752 22.2724,-50.6792 16.8009,-76.302 -4.7815,-26.1803 -14.3089,-52.557 -35.829,-74.8276 -21.0344,-21.6039 -52.5045,-38.3236 -88.2115,-48.7531 -46.818,-14.1461 -99.166,-19.2977 -150.9915,-19.816 -15.356,-0.034 -30.7428,0.2391 -46.0857,1.1745 z"
       id="path3280-5"
       inkscape:connector-curvature="0"
       sodipodi:nodetypes="csssc" />
    <path
       style="color:#000000;display:inline;overflow:visible;visibility:visible;fill:#ffffff;fill-opacity:1;fill-rule:nonzero;stroke:none;stroke-width:0.869755px;marker:none;enable-background:accumulate"
       d="m 631.52816,1840.5303 c 47.24511,-27.3875 115.83444,-55.1086 154.24551,3.9472 23.5574,-4.8627 69.71482,-40.1263 115.42935,17.7336 -47.53609,-35.9834 -78.50267,-15.4767 -118.07887,4.9225 -18.59072,-41.5285 -83.01307,-49.4207 -140.96132,7.1368 -57.94866,56.5566 -38.62415,45.003 -38.62415,45.003 l 10.52452,-62.5977 z"
       id="path5074-8"
       inkscape:connector-curvature="0"
       sodipodi:nodetypes="ccccsccc" />
    <path
       style="display:inline;fill:#ffffff;stroke:none;stroke-width:1.2205"
       d="m 465.71015,1809.6055 c -43.58558,0.6202 -88.12144,2.8871 -129.02741,14.1083 -53.86633,15.3776 -94.75848,50.1228 -106.316,89.4906 -8.29204,26.0118 -7.52212,53.7456 5.1824,79.025 12.17812,23.3857 38.40316,42.7535 70.54492,53.7349 16.16641,5.7353 33.80862,9.0777 51.58268,11.4444 29.44247,4.2459 59.18921,7.586 89.11839,9.6772 66.88339,4.2645 136.38878,0.3106 198.29018,-18.7444 20.95901,-6.5084 41.43054,-14.7612 56.86384,-26.7076 21.22993,-17.5909 30.61053,-40.2604 36.25678,-62.4104 6.87624,-28.9396 2.3896,-60.0042 -18.93034,-85.7743 -21.95681,-26.0108 -60.38219,-44.2053 -102.07389,-52.0684 -41.87427,-8.5105 -85.74078,-10.583 -129.13658,-11.8245 -7.45141,-0.084 -14.90444,-0.064 -22.35497,0.049 z"
       id="path3280-5-9"
       inkscape:connector-curvature="0"
       sodipodi:nodetypes="csssc" />
    <path
       style="color:#000000;display:inline;overflow:visible;visibility:visible;fill:#ffffff;fill-opacity:1;fill-rule:nonzero;stroke:none;stroke-width:1.29012px;marker:none;enable-background:accumulate"
       d="m 1518.7834,287.38617 c 6.7523,-104.19184 79.1218,-179.7625 328.2677,-161.03345 133.4562,10.03213 284.9456,16.38907 276.6008,169.01732 -8.345,152.62799 -226.0248,149.46422 -270.9196,153.1892 -44.8942,3.72524 -256.4895,-12.4332 -297.9343,-64.19772 -25.9439,-32.403 -36.4246,-64.71246 -36.0146,-96.97535 z"
       id="path4546-7"
       inkscape:connector-curvature="0"
       sodipodi:nodetypes="cssssc" />
    <path
       style="fill:#ffffff;fill-rule:evenodd;stroke:none;stroke-width:1px;stroke-linecap:butt;stroke-linejoin:miter;stroke-opacity:1"
       d="m 1583.1971,228.38894 -0.065,25.78758 C 1064.4433,130.64867 897.1794,416.85146 793.5913,670.33743 810.89342,604.71047 848.83107,539.01086 867.11504,495.25305 921.33848,365.48369 1120.9039,126.81475 1583.1971,228.38894 Z"
       id="path1237"
       sodipodi:nodetypes="cccsc" />
    <path
       style="fill:#ffffff;fill-rule:evenodd;stroke:none;stroke-width:0.995392px;stroke-linecap:butt;stroke-linejoin:miter;stroke-opacity:1"
       d="m 801.68287,207.03093 c 31.23642,11.9513 59.472,19.38174 49.87247,-30.18819 55.2905,67.29855 47.35913,21.20817 56.10653,5.03134 32.87221,47.53945 61.15605,40.76473 85.71829,-10.06267 13.88544,73.31613 42.94184,37.79397 68.57484,26.83393 -0.062,20.61765 -33.6381,54.12063 59.2648,15.50149 -21.6262,18.62128 -57.345,49.79709 7.4284,31.12904 -10.4969,4.93682 8.4726,8.84657 0.9181,11.7529 -33.8097,13.00689 -40.1128,42.32376 11.1469,52.70597 -36.2224,11.56973 -44.4417,40.51616 -1.7894,73.81247 -54.1638,-22.97529 -45.9811,7.40035 -35.9586,22.05579 -53.1877,-30.13153 -60.6294,-18.06798 -56.1064,5.03133 -16.9745,-21.07496 -36.3432,-29.89935 -73.7393,6.03737 8.36497,-21.58566 -32.32197,-20.97547 -69.86864,13.18538 19.77233,-32.86714 -8.14562,-37.28699 -39.2274,-16.53964 -8.19802,-34.92651 -38.98172,-17.19318 -71.69169,5.03143 26.69882,-34.08903 28.63353,-62.56765 -23.3777,-78.82493 50.40323,-19.5014 41.22524,-35.23136 21.81921,-50.31372 19.17253,-14.18277 31.67327,-29.63238 -18.70218,-57.02232 29.45327,4.25814 60.81415,9.74799 29.61177,-25.15697 z"
       id="path4582"
       inkscape:connector-curvature="0"
       sodipodi:nodetypes="cccccccscccccccccccc" />
    <path
       style="fill:#ffffff;fill-rule:evenodd;stroke:none;stroke-width:1.14149px;stroke-linecap:butt;stroke-linejoin:miter;stroke-opacity:1"
       d="m 186.64099,269.10219 c 14.16793,-17.9695 21.6656,-57.67395 -26.96962,-49.84375 39.28832,-24.22773 26.02054,-46.39487 -3.9116,-60.30611 73.97307,21.84758 73.30597,-3.1264 61.65626,-34.98976 47.54155,45.23929 40.41961,-2.73478 35.84699,-20.87523 10.75548,16.73933 13.0223,42.92164 49.60085,2.10678 -0.32028,30.13252 -6.17118,65.92523 62.1714,25.78584 -22.50387,36.76194 -23.29348,63.59943 42.00483,60.23151 -28.38205,11.84018 -67.58994,23.8538 -13.96314,34.38016 -34.61657,-0.92979 -57.61576,1.55757 -42.76886,15.17701 -14.37392,-2.5435 -33.83306,-9.95842 -3.30801,30.50934 -20.80242,-14.97453 -46.52652,-38.26005 -39.11492,-5.59088 -18.23798,-14.68676 -19.40407,6.8976 -15.2404,39.80566 -12.94537,-38.21825 -26.75878,-42.54053 -41.59034,-7.10557 6.55708,-27.98121 3.27152,-63.65454 -44.38626,-25.35425 -12.90735,-2.90399 -11.03497,-2.74842 -20.02718,-3.93075 z"
       id="path1213"
       sodipodi:nodetypes="cccccccccccccccc" />
    <path
       style="fill:#ffffff;fill-rule:evenodd;stroke:none;stroke-width:1.28731px;stroke-linecap:butt;stroke-linejoin:miter;stroke-opacity:1"
       d="M 223.92681,451.40352 C 191.03014,380.78428 162.95416,309.9462 234.75229,234.57441 l -10.34265,-15.32374 c -90.31546,91.35161 -49.21656,162.34365 -0.48283,232.15285 z"
       id="path1217"
       sodipodi:nodetypes="cccc" />
    <path
       style="fill:#ffffff;fill-rule:evenodd;stroke:none;stroke-width:1.08499px;stroke-linecap:butt;stroke-linejoin:miter;stroke-opacity:1"
       d="m 1643.7985,1929.1739 c 96.8015,-46.6867 120.9988,-40.2821 80.5755,28.3512 65.4725,-1.176 123.2483,3.9962 149.8904,34.8462 l 15.5883,-26.0596 c -31.2138,-18.9598 -72.3678,-35.221 -134.1445,-30.1606 20.9177,-34.9284 13.3859,-99.1339 -111.9097,-6.9772 z"
       id="path1284"
       sodipodi:nodetypes="cccccc" />
  </g>
  <g
     inkscape:groupmode="layer"
     id="layer1"
     inkscape:label="txt">
    <text
       xml:space="preserve"
       style="font-style:normal;font-variant:normal;font-weight:normal;font-stretch:normal;font-size:81.3623px;line-height:1.25;font-family:Lavi;-inkscape-font-specification:Lavi;text-align:center;letter-spacing:0px;word-spacing:0px;text-anchor:middle;fill:#000000;fill-opacity:1;stroke:none;stroke-width:1.408;stroke-miterlimit:4;stroke-dasharray:none"
       x="316.34204"
       y="221.56798"
       id="text4246-3-2-2-6-3-7-9-3-3-56-9-3-20"
       transform="matrix(0.93887237,0,-0.13753791,1.0651075,0,0)"><tspan
         style="font-style:normal;font-variant:normal;font-weight:normal;font-stretch:normal;font-size:81.3623px;font-family:Lavi;-inkscape-font-specification:Lavi;stroke:#000000;stroke-width:1.408;stroke-miterlimit:4;stroke-dasharray:none;stroke-opacity:1"
         sodipodi:role="line"
         x="316.34204"
         y="221.56798"
         id="tspan334">?!!</tspan></text>
    <text
       xml:space="preserve"
       style="font-style:normal;font-variant:normal;font-weight:normal;font-stretch:normal;font-size:55.0875px;line-height:1.25;font-family:Lavi;-inkscape-font-specification:Lavi;text-align:center;letter-spacing:0px;word-spacing:0px;text-anchor:middle;fill:#000000;fill-opacity:1;stroke:none;stroke-width:1.22417"
       x="980.52393"
       y="277.9678"
       id="text4246-3-2-2-6-3-7-9-3-3-56-9-3-20-3"
       transform="scale(0.97385247,1.0268496)"><tspan
         style="font-size:55.0875px;stroke-width:1.22417"
         sodipodi:role="line"
         x="980.52393"
         y="277.9678"
         id="tspan888"><tspan
   style="font-style:normal;font-variant:normal;font-weight:bold;font-stretch:normal;font-family:Lavi;-inkscape-font-specification:'Lavi Bold'"
   id="tspan141">Она</tspan> была</tspan><tspan
         style="font-size:55.0875px;stroke-width:1.22417"
         sodipodi:role="line"
         x="980.52393"
         y="346.82718"
         id="tspan139">целью!</tspan></text>
    <text
       xml:space="preserve"
       style="font-style:normal;font-variant:normal;font-weight:normal;font-stretch:normal;font-size:48.8015px;line-height:1.25;font-family:Lavi;-inkscape-font-specification:'Lavi, Normal';font-variant-ligatures:normal;font-variant-caps:normal;font-variant-numeric:normal;font-variant-east-asian:normal;text-align:center;letter-spacing:0px;word-spacing:0px;text-anchor:middle;fill:#000000;fill-opacity:1;stroke:none;stroke-width:1.08448"
       x="1829.2006"
       y="218.32166"
       id="text4246-3-2-2-6-3-7-9-3-3-56-9-3-20-3-7"><tspan
         sodipodi:role="line"
         id="tspan143"
         x="1829.2006"
         y="218.32166">Я только что отменила</tspan><tspan
         sodipodi:role="line"
         id="tspan145"
         x="1829.2006"
         y="279.32352">её Заклинание Обаяния,</tspan><tspan
         sodipodi:role="line"
         id="tspan147"
         x="1829.2006"
         y="340.32541">которое помогало ей</tspan><tspan
         sodipodi:role="line"
         id="tspan149"
         x="1829.2006"
         y="401.32727">молодо выглядеть.</tspan></text>
    <text
       xml:space="preserve"
       style="font-style:normal;font-variant:normal;font-weight:normal;font-stretch:normal;font-size:45px;line-height:1.25;font-family:Lavi;-inkscape-font-specification:'Lavi, Normal';font-variant-ligatures:normal;font-variant-caps:normal;font-variant-numeric:normal;font-variant-east-asian:normal;text-align:center;letter-spacing:0px;word-spacing:0px;text-anchor:middle;fill:#000000;fill-opacity:1;stroke:none"
       x="487.57349"
       y="1898.2463"
       id="text4246-3-2-2-6-3-7-9-3-3-56-9-3-20-5"><tspan
         sodipodi:role="line"
         id="tspan151"
         x="487.57349"
         y="1898.2463">Я заметила это </tspan><tspan
         sodipodi:role="line"
         id="tspan153"
         x="487.57349"
         y="1954.4963">заклинание, как только </tspan><tspan
         sodipodi:role="line"
         id="tspan155"
         x="487.57349"
         y="2010.7463">прилетела сюда.</tspan></text>
    <text
       xml:space="preserve"
       style="font-style:normal;font-variant:normal;font-weight:normal;font-stretch:normal;font-size:45px;line-height:1.25;font-family:Lavi;-inkscape-font-specification:Lavi;text-align:center;letter-spacing:0px;word-spacing:0px;text-anchor:middle;fill:#000000;fill-opacity:1;stroke:none"
       x="2069.9702"
       y="2012.4236"
       id="text4246-3-2-2-6-3-7-9-3-3-56-9-3-20-5-9"><tspan
         style="font-size:45px"
         sodipodi:role="line"
         x="2069.9702"
         y="2012.4236"
         id="tspan216">Вы заставили Ситими </tspan><tspan
         style="font-size:45px"
         sodipodi:role="line"
         x="2069.9702"
         y="2068.6736"
         id="tspan222">сражаться со мной, </tspan><tspan
         style="font-size:45px"
         sodipodi:role="line"
         x="2069.9702"
         y="2124.9236"
         id="tspan218">и заслужили это!</tspan></text>
    <text
       xml:space="preserve"
       style="font-style:normal;font-variant:normal;font-weight:normal;font-stretch:normal;font-size:60px;line-height:1.25;font-family:Lavi;-inkscape-font-specification:Lavi;text-align:center;letter-spacing:2px;word-spacing:0px;text-anchor:middle;fill:#000000;fill-opacity:1;stroke:none;stroke-width:1.32287"
       x="369.80817"
       y="2191.199"
       id="text4246-3-2-2-6-3-7-9-3-3-56-9-3-20-5-9-0"
       transform="scale(0.860916,1.1615535)"><tspan
         style="font-style:normal;font-variant:normal;font-weight:bold;font-stretch:normal;font-size:60px;font-family:Lavi;-inkscape-font-specification:'Lavi Bold';stroke-width:1.32287"
         sodipodi:role="line"
         x="369.80817"
         y="2191.199"
         id="tspan992-6">КАКАЯ </tspan><tspan
         style="font-style:normal;font-variant:normal;font-weight:bold;font-stretch:normal;font-size:60px;font-family:Lavi;-inkscape-font-specification:'Lavi Bold';stroke-width:1.32287"
         sodipodi:role="line"
         x="370.80817"
         y="2266.199"
         id="tspan205">НАГЛОСТЬ!</tspan></text>
    <text
       xml:space="preserve"
       style="font-style:normal;font-variant:normal;font-weight:normal;font-stretch:normal;font-size:58px;line-height:1.25;font-family:Lavi;-inkscape-font-specification:Lavi;text-align:center;letter-spacing:0px;word-spacing:0px;text-anchor:middle;fill:#000000;fill-opacity:1;stroke:none;stroke-width:1.30553"
       x="322.38547"
       y="2781.3376"
       id="text4246-3-2-2-6-3-7-9-3-3-56-9-3-20-5-2"><tspan
         sodipodi:role="line"
         id="tspan163"
         x="322.38547"
         y="2781.3376">Как ты</tspan><tspan
         sodipodi:role="line"
         id="tspan165"
         x="322.38547"
         y="2853.8376"><tspan
   style="font-style:normal;font-variant:normal;font-weight:bold;font-stretch:normal;font-family:Lavi;-inkscape-font-specification:'Lavi Bold'"
   id="tspan167">посмела</tspan>,</tspan></text>
    <text
       xml:space="preserve"
       style="font-style:normal;font-variant:normal;font-weight:normal;font-stretch:normal;font-size:50px;line-height:1.25;font-family:Lavi;-inkscape-font-specification:'Lavi, Normal';font-variant-ligatures:normal;font-variant-caps:normal;font-variant-numeric:normal;font-variant-east-asian:normal;text-align:center;letter-spacing:0px;word-spacing:0px;text-anchor:middle;fill:#000000;fill-opacity:1;stroke:none;stroke-width:1.30553"
       x="316.88544"
       y="2959.9014"
       id="text4246-3-2-2-6-3-7-9-3-3-56-9-3-20-5-2-7"><tspan
         sodipodi:role="line"
         id="tspan169"
         x="316.88544"
         y="2959.9014">и на глазах</tspan><tspan
         sodipodi:role="line"
         id="tspan171"
         x="316.88544"
         y="3022.4014">у всей моей</tspan><tspan
         sodipodi:role="line"
         id="tspan173"
         x="316.88544"
         y="3084.9014">школы!</tspan></text>
    <text
       xml:space="preserve"
       style="font-style:normal;font-variant:normal;font-weight:normal;font-stretch:normal;font-size:45px;line-height:1.25;font-family:Lavi;-inkscape-font-specification:'Lavi, Normal';text-align:center;letter-spacing:0px;word-spacing:0px;text-anchor:middle;fill:#000000;fill-opacity:1;stroke:none;font-variant-ligatures:normal;font-variant-caps:normal;font-variant-numeric:normal;font-variant-east-asian:normal;"
       x="2149.2981"
       y="2544.0259"
       id="text4246-3-2-2-6-3-7-9-3-3-56-9-3-20-5-9-02"><tspan
         sodipodi:role="line"
         id="tspan175">Считайте,</tspan><tspan
         sodipodi:role="line"
         id="tspan177">что вам повезло!</tspan></text>
    <text
       xml:space="preserve"
       style="font-style:normal;font-variant:normal;font-weight:normal;font-stretch:normal;font-size:45px;line-height:1.25;font-family:Lavi;-inkscape-font-specification:'Lavi, Normal';font-variant-ligatures:normal;font-variant-caps:normal;font-variant-numeric:normal;font-variant-east-asian:normal;text-align:center;letter-spacing:0px;word-spacing:0px;text-anchor:middle;fill:#000000;fill-opacity:1;stroke:none"
       x="2145.7327"
       y="2717.9202"
       id="text4246-3-2-2-6-3-7-9-3-3-56-9-3-20-5-9-02-2"><tspan
         sodipodi:role="line"
         id="tspan195"
         x="2145.7327"
         y="2717.9202">Если бы у меня </tspan><tspan
         sodipodi:role="line"
         id="tspan197"
         x="2145.7327"
         y="2774.1702">была вся моя Ри, </tspan><tspan
         sodipodi:role="line"
         id="tspan199"
         x="2145.7327"
         y="2830.4202">я бы не остановилась</tspan><tspan
         sodipodi:role="line"
         id="tspan201"
         x="2145.7327"
         y="2886.6702">на этом.</tspan></text>
  </g>
</svg>
