<?xml version="1.0" encoding="UTF-8" standalone="no"?>
<!-- Created with Inkscape (http://www.inkscape.org/) -->

<svg
   xmlns:dc="http://purl.org/dc/elements/1.1/"
   xmlns:cc="http://creativecommons.org/ns#"
   xmlns:rdf="http://www.w3.org/1999/02/22-rdf-syntax-ns#"
   xmlns:svg="http://www.w3.org/2000/svg"
   xmlns="http://www.w3.org/2000/svg"
   xmlns:xlink="http://www.w3.org/1999/xlink"
   xmlns:sodipodi="http://sodipodi.sourceforge.net/DTD/sodipodi-0.dtd"
   xmlns:inkscape="http://www.inkscape.org/namespaces/inkscape"
   id="svg2"
   version="1.1"
   inkscape:version="0.92.1 r15371"
   width="2646.3999"
   height="2644.2666"
   sodipodi:docname="Pepper-and-Carrot_by-David-Revoy_E04P08.svg">
  <metadata
     id="metadata8">
    <rdf:RDF>
      <cc:Work
         rdf:about="">
        <dc:format>image/svg+xml</dc:format>
        <dc:type
           rdf:resource="http://purl.org/dc/dcmitype/StillImage" />
        <dc:title />
      </cc:Work>
    </rdf:RDF>
  </metadata>
  <defs
     id="defs6">
    <pattern
       y="0"
       x="0"
       height="6"
       width="6"
       patternUnits="userSpaceOnUse"
       id="EMFhbasepattern" />
  </defs>
  <sodipodi:namedview
     pagecolor="#ffffff"
     bordercolor="#666666"
     borderopacity="1"
     objecttolerance="10"
     gridtolerance="10"
     guidetolerance="10"
     inkscape:pageopacity="0"
     inkscape:pageshadow="2"
     inkscape:window-width="1278"
     inkscape:window-height="1368"
     id="namedview4"
     showgrid="false"
     inkscape:zoom="0.35371357"
     inkscape:cx="1376.4102"
     inkscape:cy="1554.1514"
     inkscape:window-x="1273"
     inkscape:window-y="0"
     inkscape:window-maximized="0"
     inkscape:current-layer="layer2"
     inkscape:object-nodes="true" />
  <g
     inkscape:groupmode="layer"
     id="layer1"
     inkscape:label="artwork"
     style="display:inline"
     sodipodi:insensitive="true">
    <image
       sodipodi:absref="D:\Mes Documents\GitHub\peppercarrot\peppercarrot_ep04_translation\da\../gfx_Pepper-and-Carrot_by-David-Revoy_E04P08.png"
       xlink:href="../gfx_Pepper-and-Carrot_by-David-Revoy_E04P08.png"
       width="2646.3999"
       height="2644.2666"
       id="image10"
       x="0"
       y="0" />
  </g>
  <g
     inkscape:groupmode="layer"
     id="layer3"
     inkscape:label="speechbubbles"
     style="display:inline" />
  <g
     inkscape:groupmode="layer"
     id="layer2"
     inkscape:label="text"
     style="display:inline">
    <flowRoot
       xml:space="preserve"
       id="flowRoot2987"
       style="font-style:normal;font-variant:normal;font-weight:normal;font-stretch:normal;line-height:0.01%;font-family:Arial;-inkscape-font-specification:Arial;letter-spacing:0px;word-spacing:0px;fill:#000000;fill-opacity:1;stroke:none"
       transform="matrix(0.85278657,0,0,0.97616934,250.86986,113.8648)"><flowRegion
         id="flowRegion2989"><rect
           id="rect2991"
           width="2808.0764"
           height="1866.6244"
           x="-141.0901"
           y="266.68515" /></flowRegion><flowPara
         id="flowPara3025"
         style="font-style:normal;font-variant:normal;font-weight:normal;font-stretch:normal;font-size:48px;line-height:1.25;font-family:Lavi;-inkscape-font-specification:Lavi;text-align:center;text-anchor:middle">Алексей - 獨孤欣 - Adrian Lord - Alan Hardman - Albert Westra - Alejandro Flores Prieto - Alexander Sopicki - Alex Lusco</flowPara><flowPara
         style="font-style:normal;font-variant:normal;font-weight:normal;font-stretch:normal;font-size:48px;line-height:1.25;font-family:Lavi;-inkscape-font-specification:Lavi;text-align:center;text-anchor:middle"
         id="flowPara3198">Alex Silver - Alex Vandiver - Alfredo - Alice Queenofcats - Ali Poulton (Aunty Pol) - Alison Harding - Allan Zieser</flowPara><flowPara
         style="font-style:normal;font-variant:normal;font-weight:normal;font-stretch:normal;font-size:48px;line-height:1.25;font-family:Lavi;-inkscape-font-specification:Lavi;text-align:center;text-anchor:middle"
         id="flowPara3200">Andreas Rieger - Andrew - Andrew Godfrey - Andrey Alekseenko - Angela K - Anna Orlova - anonymous - Antan Karmola</flowPara><flowPara
         style="font-style:normal;font-variant:normal;font-weight:normal;font-stretch:normal;font-size:48px;line-height:1.25;font-family:Lavi;-inkscape-font-specification:Lavi;text-align:center;text-anchor:middle"
         id="flowPara3202">Arco - Ardash Crowfoot - Arne Brix - Aslak Kjølås-Sæverud - Axel Bordelon - Axel Philipsenburg - barbix - Ben Evans</flowPara><flowPara
         style="font-style:normal;font-variant:normal;font-weight:normal;font-stretch:normal;font-size:48px;line-height:1.25;font-family:Lavi;-inkscape-font-specification:Lavi;text-align:center;text-anchor:middle"
         id="flowPara3204">Bernd - Boonsak Watanavisit - Boudewijn Rempt - Brian Behnke - carlos levischi - Charlotte Lacombe-bar - Chris Radcliff</flowPara><flowPara
         style="font-style:normal;font-variant:normal;font-weight:normal;font-stretch:normal;font-size:48px;line-height:1.25;font-family:Lavi;-inkscape-font-specification:Lavi;text-align:center;text-anchor:middle"
         id="flowPara3206">Chris Sakkas - Christophe Carré - Clara Dexter - Colby Driedger - Conway Scott Smith - Cyrille Largillier - Cyril Paciullo</flowPara><flowPara
         style="font-style:normal;font-variant:normal;font-weight:normal;font-stretch:normal;font-size:48px;line-height:1.25;font-family:Lavi;-inkscape-font-specification:Lavi;text-align:center;text-anchor:middle"
         id="flowPara3208">Daniel - david - Damien de Lemeny - Dmitry - Donald Hayward - Dubema Ulo - Eitan Goldshtrom - Enrico Billich</flowPara><flowPara
         style="font-style:normal;font-variant:normal;font-weight:normal;font-stretch:normal;font-size:48px;line-height:1.25;font-family:Lavi;-inkscape-font-specification:Lavi;text-align:center;text-anchor:middle"
         id="flowPara3210">-epsilon- - Eric Schulz - Garret Patterson - Guillaume - Gustav Strömbom - Guy Davis - Happy Mimic - Helmar Suschka</flowPara><flowPara
         style="font-style:normal;font-variant:normal;font-weight:normal;font-stretch:normal;font-size:48px;line-height:1.25;font-family:Lavi;-inkscape-font-specification:Lavi;text-align:center;text-anchor:middle"
         id="flowPara3212">Ilyas Akhmedov - Inga Huang - Irene C. - Ivan Korotkov - Jared Tritsch - JDB - Jean-Baptiste Hebbrecht - Jessey Wright</flowPara><flowPara
         style="font-style:normal;font-variant:normal;font-weight:normal;font-stretch:normal;font-size:48px;line-height:1.25;font-family:Lavi;-inkscape-font-specification:Lavi;text-align:center;text-anchor:middle"
         id="flowPara3214">John - Jónatan Nilsson - Jon Brake - Joseph Bowman - Jurgo van den Elzen - Justin Diehl - Kai-Ting (Danil) Ko - Kasper Hansen</flowPara><flowPara
         style="font-style:normal;font-variant:normal;font-weight:normal;font-stretch:normal;font-size:48px;line-height:1.25;font-family:Lavi;-inkscape-font-specification:Lavi;text-align:center;text-anchor:middle"
         id="flowPara3216">Kathryn Wuerstl - Ken Mingyuan Xia - Liselle - Lorentz Grip - MacCoy - Magnus Kronnäs - Mandy - marcus - Martin Owens</flowPara><flowPara
         style="font-style:normal;font-variant:normal;font-weight:normal;font-stretch:normal;font-size:48px;line-height:1.25;font-family:Lavi;-inkscape-font-specification:Lavi;text-align:center;text-anchor:middle"
         id="flowPara3218">Masked Admirer - Mathias Stærk - mattscribbles - Maurice-Marie Stromer - mefflin ross bullis-bates - Michael Gill</flowPara><flowPara
         style="font-style:normal;font-variant:normal;font-weight:normal;font-stretch:normal;font-size:48px;line-height:1.25;font-family:Lavi;-inkscape-font-specification:Lavi;text-align:center;text-anchor:middle"
         id="flowPara3220">Michelle Pereira Garcia - Mike Mosher - Morten Hellesø Johansen - Muzyka Dmytro - Nazhif - Nicholas DeLateur</flowPara><flowPara
         style="font-style:normal;font-variant:normal;font-weight:normal;font-stretch:normal;font-size:48px;line-height:1.25;font-family:Lavi;-inkscape-font-specification:Lavi;text-align:center;text-anchor:middle"
         id="flowPara3222">Nick Allott - Nicki Aya - Nicolae Berbece - Nicole Heersema - Noah Summers - Noble Hays - Nora Czaykowski</flowPara><flowPara
         style="font-style:normal;font-variant:normal;font-weight:normal;font-stretch:normal;font-size:48px;line-height:1.25;font-family:Lavi;-inkscape-font-specification:Lavi;text-align:center;text-anchor:middle"
         id="flowPara3224">Nyx - Olivier Amrein - Olivier Brun - Omar Willey - Oscar Moreno - Öykü Su Gürler - Ozone S. - Paul - Paul</flowPara><flowPara
         style="font-style:normal;font-variant:normal;font-weight:normal;font-stretch:normal;font-size:48px;line-height:1.25;font-family:Lavi;-inkscape-font-specification:Lavi;text-align:center;text-anchor:middle"
         id="flowPara3226">Pavel Semenov - Peter - Peter Moonen - Petr Vlašic - Pierre Geier - Pierre Vuillemin - Pranab Shenoy - Rajul Gupta</flowPara><flowPara
         style="font-style:normal;font-variant:normal;font-weight:normal;font-stretch:normal;font-size:48px;line-height:1.25;font-family:Lavi;-inkscape-font-specification:Lavi;text-align:center;text-anchor:middle"
         id="flowPara3228">Ret Samys - rictic - RJ van der Weide - Roman - Rumiko Hoshino - Rustin Simons - Sami T - Samuel Mitson - Scott RussSean Adams - Shadefalcon - Shane Lopez - Shawn Meyer - Sigmundur Þórir Jónsson - Simon Forster - Simon IsenbergSonny W. - Stanislav Vodetskyi - Stephen Bates - Steven Bennett - Stuart Dickson - surt - Tadamichi Ohkubo - tar8156TheFaico - Thomas Schwery - Tracey Reuben - Travis Humble - Vespertinus - Victoria - Vlad Tomash - Westen CurryXavier Claude - Yalyn Vinkindo</flowPara><flowPara
         style="font-style:normal;font-variant:normal;font-weight:normal;font-stretch:normal;font-size:48px;line-height:1.25;font-family:Lavi;-inkscape-font-specification:Lavi;text-align:center;text-anchor:middle"
         id="flowPara3238">og særligt tak til Amireeti for hjælp med engelske rettelser !</flowPara><flowPara
         style="font-style:normal;font-variant:normal;font-weight:normal;font-stretch:normal;font-size:48px;line-height:1.25;font-family:Lavi;-inkscape-font-specification:Lavi;text-align:center;text-anchor:middle"
         id="flowPara3230"> </flowPara><flowPara
         style="font-style:normal;font-variant:normal;font-weight:normal;font-stretch:normal;font-size:48px;line-height:1.25;font-family:Lavi;-inkscape-font-specification:Lavi;text-align:center;text-anchor:middle"
         id="flowPara3232"> </flowPara><flowPara
         style="font-style:normal;font-variant:normal;font-weight:normal;font-stretch:normal;font-size:48px;line-height:1.25;font-family:Lavi;-inkscape-font-specification:Lavi;text-align:center;text-anchor:middle"
         id="flowPara3234"> </flowPara><flowPara
         style="font-style:normal;font-variant:normal;font-weight:normal;font-stretch:normal;font-size:48px;line-height:1.25;font-family:Lavi;-inkscape-font-specification:Lavi;text-align:center;text-anchor:middle"
         id="flowPara3236"> </flowPara></flowRoot>    <flowRoot
       xml:space="preserve"
       id="flowRoot3027"
       style="font-style:normal;font-variant:normal;font-weight:normal;font-stretch:normal;line-height:0.01%;font-family:Arial;-inkscape-font-specification:Arial;text-align:center;letter-spacing:0px;word-spacing:0px;text-anchor:middle;fill:#000000;fill-opacity:1;stroke:none"
       transform="matrix(1.3156368,0,0,1.3708641,-484.68095,-160.70622)"><flowRegion
         id="flowRegion3029"><rect
           id="rect3031"
           width="2475.8752"
           height="241.27675"
           x="135.21135"
           y="219.33444"
           style="text-align:center;text-anchor:middle" /></flowRegion><flowPara
         id="flowPara3033"
         style="font-size:12px;line-height:1.25"> </flowPara><flowPara
         style="font-style:normal;font-variant:normal;font-weight:normal;font-stretch:normal;font-size:48px;line-height:1.25;font-family:Lavi;-inkscape-font-specification:Lavi;text-align:center;text-anchor:middle"
         id="flowPara3044">Pepper&amp;Carrot er helt gratis, open-source, og sponsoreret af læsere.</flowPara><flowPara
         style="font-style:normal;font-variant:normal;font-weight:normal;font-stretch:normal;font-size:48px;line-height:1.25;font-family:Lavi;-inkscape-font-specification:Lavi;text-align:center;text-anchor:middle"
         id="flowPara88">Denne episode kunne ikke være blevet til uden støtte fra de 156 tilhængere:</flowPara></flowRoot>    <flowRoot
       xml:space="preserve"
       id="flowRoot3027-8-8"
       style="font-style:normal;font-variant:normal;font-weight:normal;font-stretch:normal;line-height:0.01%;font-family:Arial;-inkscape-font-specification:Arial;text-align:center;letter-spacing:0px;word-spacing:0px;text-anchor:middle;fill:#a72f14;fill-opacity:1;stroke:none"
       transform="matrix(1.3049839,0,0,1.3340167,-300.88741,1509.3678)"><flowRegion
         id="flowRegion3029-9-3"><rect
           id="rect3031-9-1"
           width="2230.314"
           height="376.21677"
           x="135.21135"
           y="219.33444"
           style="text-align:center;text-anchor:middle;fill:#a72f14;fill-opacity:1" /></flowRegion><flowPara
         id="flowPara3033-3-0"
         style="font-size:12px;line-height:1.25"> </flowPara><flowPara
         style="font-style:normal;font-variant:normal;font-weight:normal;font-stretch:normal;font-size:48px;line-height:1.25;font-family:Lavi;-inkscape-font-specification:Lavi;text-align:center;text-anchor:middle;fill:#a72f14;fill-opacity:1"
         id="flowPara3067-4">https://www.patreon.com/davidrevoy</flowPara></flowRoot>    <flowRoot
       xml:space="preserve"
       id="flowRoot3027-8-8-2"
       style="font-style:normal;font-variant:normal;font-weight:normal;font-stretch:normal;line-height:0.01%;font-family:Arial;-inkscape-font-specification:Arial;text-align:center;letter-spacing:0px;word-spacing:0px;text-anchor:middle;fill:#000000;fill-opacity:1;stroke:none"
       transform="matrix(0.97308564,0,0,1.0040452,107.67958,1480.1165)"><flowRegion
         id="flowRegion3029-9-3-5"><rect
           id="rect3031-9-1-6"
           width="2230.314"
           height="376.21677"
           x="135.21135"
           y="219.33444"
           style="text-align:center;text-anchor:middle" /></flowRegion><flowPara
         style="font-style:normal;font-variant:normal;font-weight:normal;font-stretch:normal;font-size:48px;line-height:1.25;font-family:Lavi;-inkscape-font-specification:Lavi;text-align:center;text-anchor:middle"
         id="flowPara3055">Støt næste episode af Pepper&amp;Carrot,</flowPara><flowPara
         style="font-style:normal;font-variant:normal;font-weight:normal;font-stretch:normal;font-size:48px;line-height:1.25;font-family:Lavi;-inkscape-font-specification:Lavi;text-align:center;text-anchor:middle"
         id="flowPara222">hver en krone gør en forskel:</flowPara></flowRoot>    <flowRoot
       xml:space="preserve"
       id="flowRoot3027-8-8-2-8"
       style="font-style:normal;font-variant:normal;font-weight:normal;font-stretch:normal;line-height:0.01%;font-family:Arial;-inkscape-font-specification:Arial;text-align:center;letter-spacing:0px;word-spacing:0px;text-anchor:middle;fill:#000000;fill-opacity:1;stroke:none"
       transform="matrix(0.84096166,0,0,0.88977077,271.77147,2064.6459)"><flowRegion
         id="flowRegion3029-9-3-5-1"><rect
           id="rect3031-9-1-6-8"
           width="2230.314"
           height="376.21677"
           x="135.21135"
           y="219.33444"
           style="text-align:center;text-anchor:middle" /></flowRegion><flowPara
         id="flowPara3033-3-0-2-4"
         style="font-size:12px;line-height:1.25"> </flowPara><flowPara
         style="font-style:normal;font-variant:normal;font-weight:normal;font-stretch:normal;font-size:48px;line-height:1.25;font-family:Lavi;-inkscape-font-specification:Lavi;text-align:center;text-anchor:middle"
         id="flowPara3231-9">Værktøj: Denne episode er 100% designet med fri software: </flowPara><flowPara
         style="font-style:normal;font-variant:normal;font-weight:normal;font-stretch:normal;font-size:48px;line-height:1.25;font-family:Lavi;-inkscape-font-specification:Lavi;text-align:center;text-anchor:middle"
         id="flowPara3279">Krita, G'MIC, Blender, GIMP på Ubuntu Gnome (GNU/Linux)</flowPara><flowPara
         style="font-style:normal;font-variant:normal;font-weight:normal;font-stretch:normal;font-size:48px;line-height:1.25;font-family:Lavi;-inkscape-font-specification:Lavi;text-align:center;text-anchor:middle"
         id="flowPara3233-6"> </flowPara></flowRoot>    <flowRoot
       xml:space="preserve"
       id="flowRoot3027-8-8-2-8-6"
       style="font-style:normal;font-variant:normal;font-weight:normal;font-stretch:normal;line-height:0.01%;font-family:Arial;-inkscape-font-specification:Arial;text-align:center;letter-spacing:0px;word-spacing:0px;text-anchor:middle;display:inline;fill:#000000;fill-opacity:1;stroke:none"
       transform="matrix(0.84096166,0,0,0.87275229,285.21493,1941.1587)"><flowRegion
         id="flowRegion3029-9-3-5-1-2"><rect
           id="rect3031-9-1-6-8-7"
           width="2230.314"
           height="376.21677"
           x="135.21135"
           y="219.33444"
           style="text-align:center;text-anchor:middle" /></flowRegion><flowPara
         id="flowPara3033-3-0-2-4-3"
         style="font-size:12px;line-height:1.25"> </flowPara><flowPara
         style="font-style:normal;font-variant:normal;font-weight:normal;font-stretch:normal;font-size:48px;line-height:1.25;font-family:Lavi;-inkscape-font-specification:Lavi;text-align:center;text-anchor:middle"
         id="flowPara3278">Open source: al kildematerialet, skrifttyper, og lagdelte filer</flowPara><flowPara
         style="font-style:normal;font-variant:normal;font-weight:normal;font-stretch:normal;font-size:48px;line-height:1.25;font-family:Lavi;-inkscape-font-specification:Lavi;text-align:center;text-anchor:middle"
         id="flowPara218">kan downloades i høj opløsning fra den officielle hjemmeside</flowPara><flowPara
         style="font-style:normal;font-variant:normal;font-weight:normal;font-stretch:normal;font-size:48px;line-height:1.25;font-family:Lavi;-inkscape-font-specification:Lavi;text-align:center;text-anchor:middle"
         id="flowPara3233-6-14"> </flowPara></flowRoot>    <flowRoot
       xml:space="preserve"
       id="flowRoot3027-8-8-2-8-6-3"
       style="font-style:normal;font-variant:normal;font-weight:normal;font-stretch:normal;line-height:0.01%;font-family:Arial;-inkscape-font-specification:Arial;text-align:center;letter-spacing:0px;word-spacing:0px;text-anchor:middle;display:inline;fill:#000000;fill-opacity:1;stroke:none"
       transform="matrix(0.84096166,0,0,0.88909938,295.79276,1801.7041)"><flowRegion
         id="flowRegion3029-9-3-5-1-2-8"><rect
           id="rect3031-9-1-6-8-7-4"
           width="2230.314"
           height="376.21677"
           x="135.21135"
           y="219.33444"
           style="text-align:center;text-anchor:middle" /></flowRegion><flowPara
         id="flowPara3033-3-0-2-4-3-2"
         style="font-size:12px;line-height:1.25"> </flowPara><flowPara
         style="font-style:normal;font-variant:normal;font-weight:normal;font-stretch:normal;font-size:48px;line-height:1.25;font-family:Lavi;-inkscape-font-specification:Lavi;text-align:center;text-anchor:middle"
         id="flowPara3278-7">Licens: Creative Commons Kreditering til 'David Revoy'</flowPara><flowPara
         style="font-style:normal;font-variant:normal;font-weight:normal;font-stretch:normal;font-size:48px;line-height:1.25;font-family:Lavi;-inkscape-font-specification:Lavi;text-align:center;text-anchor:middle"
         id="flowPara3318">Du kan dele og tilpasse materialet til alle formål, også kommercielle</flowPara><flowPara
         style="font-style:normal;font-variant:normal;font-weight:normal;font-stretch:normal;font-size:48px;line-height:1.25;font-family:Lavi;-inkscape-font-specification:Lavi;text-align:center;text-anchor:middle"
         id="flowPara3233-6-14-6"> </flowPara></flowRoot>    <flowRoot
       xml:space="preserve"
       id="flowRoot3027-8-8-2-3"
       style="font-style:normal;font-variant:normal;font-weight:normal;font-stretch:normal;line-height:0.01%;font-family:Arial;-inkscape-font-specification:Arial;text-align:center;letter-spacing:0px;word-spacing:0px;text-anchor:middle;display:inline;fill:#000000;fill-opacity:1;stroke:none"
       transform="matrix(0.97308564,0.32689123,0,1.0040452,1615.7556,1292.4551)"><flowRegion
         id="flowRegion3029-9-3-5-4"><rect
           id="rect3031-9-1-6-3"
           width="820.92859"
           height="65.422607"
           x="135.21135"
           y="219.33444"
           style="text-align:center;text-anchor:middle" /></flowRegion><flowPara
         style="font-style:normal;font-variant:normal;font-weight:normal;font-stretch:normal;font-size:48px;line-height:1.25;font-family:Lavi;-inkscape-font-specification:Lavi;text-align:center;text-anchor:middle"
         id="flowPara3340-6">Tak !</flowPara></flowRoot>    <flowRoot
       xml:space="preserve"
       id="flowRoot78"
       style="fill:black;fill-opacity:1;stroke:none;font-family:sans-serif;font-style:normal;font-weight:normal;font-size:40px;line-height:1.25;letter-spacing:0px;word-spacing:0px"><flowRegion
         id="flowRegion80"><rect
           id="rect82"
           width="1894.188"
           height="81.987244"
           x="472.13342"
           y="184.64935" /></flowRegion><flowPara
         id="flowPara84" /></flowRoot>    <text
       xml:space="preserve"
       style="font-style:normal;font-weight:normal;font-size:40px;line-height:1.25;font-family:sans-serif;letter-spacing:0px;word-spacing:0px;fill:#000000;fill-opacity:1;stroke:none"
       x="1719.2211"
       y="1730.6805"
       id="text83"><tspan
         sodipodi:role="line"
         id="tspan81"
         x="1719.2211"
         y="1767.1737" /></text>
  </g>
</svg>
