<?xml version="1.0" encoding="UTF-8" standalone="no"?>
<svg
   xmlns:dc="http://purl.org/dc/elements/1.1/"
   xmlns:cc="http://creativecommons.org/ns#"
   xmlns:rdf="http://www.w3.org/1999/02/22-rdf-syntax-ns#"
   xmlns:svg="http://www.w3.org/2000/svg"
   xmlns="http://www.w3.org/2000/svg"
   xmlns:xlink="http://www.w3.org/1999/xlink"
   xmlns:sodipodi="http://sodipodi.sourceforge.net/DTD/sodipodi-0.dtd"
   xmlns:inkscape="http://www.inkscape.org/namespaces/inkscape"
   id="svg2"
   version="1.1"
   inkscape:version="1.0 (4035a4fb49, 2020-05-01)"
   width="2481"
   height="3503"
   sodipodi:docname="E35P04.svg">
  <metadata
     id="metadata8">
    <rdf:RDF>
      <cc:Work
         rdf:about="">
        <dc:format>image/svg+xml</dc:format>
        <dc:type
           rdf:resource="http://purl.org/dc/dcmitype/StillImage" />
        <dc:title />
      </cc:Work>
    </rdf:RDF>
  </metadata>
  <defs
     id="defs6">
    <filter
       style="color-interpolation-filters:sRGB"
       id="filter4375-4-1-1-1-9-5-8-8-5-5-3-3"
       inkscape:label="soundFX1"
       x="-0.10000000000000001"
       y="-0.10000000000000001"
       width="1.5"
       height="1.5"
       inkscape:auto-region="false">
      <feFlood
         id="feFlood4377-7-9-0-8-1-7-3-1-2-7-6-6"
         flood-opacity="1"
         flood-color="rgb(52,52,52)"
         result="flood" />
      <feComposite
         id="feComposite4379-3-8-8-2-77-4-1-0-6-4-7-7"
         in2="SourceGraphic"
         in="flood"
         operator="in"
         result="composite1"
         baseFrequency="0.053999999999999999 0.053999999999999999" />
      <feMorphology
         id="feMorphology4393-1-0-49-8-9-3-0-1-9-9-5-5"
         operator="dilate"
         radius="9.350875432312252"
         result="result3" />
      <feComposite
         id="feComposite4385-9-5-7-0-8-8-7-5-4-9-3-3"
         in2="result3"
         in="SourceGraphic"
         operator="over"
         result="fbSourceGraphic" />
      <feColorMatrix
         result="fbSourceGraphicAlpha"
         in="fbSourceGraphic"
         values="0 0 0 -1 0 0 0 0 -1 0 0 0 0 -1 0 0 0 0 1 0"
         id="feColorMatrix4544-9-4-4-5-5" />
      <feTurbulence
         id="feTurbulence4546-3-6-5-6-6"
         type="fractalNoise"
         numOctaves="4"
         seed="147"
         baseFrequency="0.053999999999999999 0.054054054054054057"
         result="turbulence" />
      <feDisplacementMap
         id="feDisplacementMap4548-8-0-9-2-2"
         in2="turbulence"
         in="fbSourceGraphic"
         scale="10.561763"
         yChannelSelector="G"
         xChannelSelector="R"
         result="fbSourceGraphic" />
      <feColorMatrix
         result="fbSourceGraphicAlpha"
         in="fbSourceGraphic"
         values="0 0 0 -1 0 0 0 0 -1 0 0 0 0 -1 0 0 0 0 1 0"
         id="feColorMatrix4670-7-7-3-9-9" />
      <feFlood
         id="feFlood4672-4-4-5-1-1"
         flood-opacity="1"
         flood-color="rgb(28,28,28)"
         result="flood"
         in="fbSourceGraphic" />
      <feComposite
         id="feComposite4674-8-3-7-2-2"
         in2="fbSourceGraphic"
         in="flood"
         operator="in"
         result="composite1" />
      <feGaussianBlur
         id="feGaussianBlur4676-3-7-08-7-7"
         in="composite1"
         stdDeviation="0"
         result="blur" />
      <feOffset
         id="feOffset4678-6-9-1-0-0"
         dx="-10.48377497279229"
         dy="0.39217365321829334"
         result="offset" />
      <feComposite
         id="feComposite4680-4-0-9-9-9"
         in2="offset"
         in="fbSourceGraphic"
         operator="over"
         result="composite2" />
    </filter>
    <filter
       style="color-interpolation-filters:sRGB"
       id="filter4375-4-1-1-1-9-5-8-8-5-5-3-3-3"
       inkscape:label="soundFX1"
       x="-0.024770067"
       y="-0.0044205808"
       width="1.0255357"
       height="1.0140257">
      <feFlood
         id="feFlood4377-7-9-0-8-1-7-3-1-2-7-6-6-5"
         flood-opacity="1"
         flood-color="rgb(52,52,52)"
         result="flood" />
      <feComposite
         id="feComposite4379-3-8-8-2-77-4-1-0-6-4-7-7-6"
         in2="SourceGraphic"
         in="flood"
         operator="in"
         result="composite1"
         baseFrequency="0.053999999999999999 0.053999999999999999" />
      <feMorphology
         id="feMorphology4393-1-0-49-8-9-3-0-1-9-9-5-5-2"
         operator="dilate"
         radius="4.0330969769021738"
         result="result3" />
      <feComposite
         id="feComposite4385-9-5-7-0-8-8-7-5-4-9-3-3-9"
         in2="result3"
         in="SourceGraphic"
         operator="over"
         result="fbSourceGraphic" />
      <feColorMatrix
         result="fbSourceGraphicAlpha"
         in="fbSourceGraphic"
         values="0 0 0 -1 0 0 0 0 -1 0 0 0 0 -1 0 0 0 0 1 0"
         id="feColorMatrix4544-9-4-4-5-5-1" />
      <feTurbulence
         id="feTurbulence4546-3-6-5-6-6-2"
         type="fractalNoise"
         numOctaves="4"
         seed="147"
         baseFrequency="0.046080819231719368"
         result="turbulence" />
      <feDisplacementMap
         id="feDisplacementMap4548-8-0-9-2-2-7"
         in2="turbulence"
         in="fbSourceGraphic"
         scale="13.20326"
         yChannelSelector="G"
         xChannelSelector="R"
         result="fbSourceGraphic" />
      <feColorMatrix
         result="fbSourceGraphicAlpha"
         in="fbSourceGraphic"
         values="0 0 0 -1 0 0 0 0 -1 0 0 0 0 -1 0 0 0 0 1 0"
         id="feColorMatrix4670-7-7-3-9-9-0" />
      <feFlood
         id="feFlood4672-4-4-5-1-1-9"
         flood-opacity="1"
         flood-color="rgb(28,28,28)"
         result="flood"
         in="fbSourceGraphic" />
      <feComposite
         id="feComposite4674-8-3-7-2-2-3"
         in2="fbSourceGraphic"
         in="flood"
         operator="in"
         result="composite1" />
      <feGaussianBlur
         id="feGaussianBlur4676-3-7-08-7-7-6"
         in="composite1"
         stdDeviation="0"
         result="blur" />
      <feOffset
         id="feOffset4678-6-9-1-0-0-0"
         dx="-10.48377497279229"
         dy="0.39217365321829334"
         result="offset" />
      <feComposite
         id="feComposite4680-4-0-9-9-9-6"
         in2="offset"
         in="fbSourceGraphic"
         operator="over"
         result="composite2" />
    </filter>
  </defs>
  <sodipodi:namedview
     pagecolor="#ffffff"
     bordercolor="#666666"
     borderopacity="1"
     objecttolerance="10"
     gridtolerance="10"
     guidetolerance="10"
     inkscape:pageopacity="0"
     inkscape:pageshadow="2"
     inkscape:window-width="1366"
     inkscape:window-height="715"
     id="namedview4"
     showgrid="false"
     inkscape:window-x="-8"
     inkscape:window-y="-8"
     inkscape:window-maximized="1"
     inkscape:document-rotation="0"
     inkscape:snap-global="false"
     inkscape:pagecheckerboard="0"
     inkscape:zoom="0.45"
     inkscape:cx="1303.2122"
     inkscape:cy="2795.2336"
     inkscape:current-layer="layer3" />
  <g
     inkscape:groupmode="layer"
     id="layer2"
     inkscape:label="artwork"
     sodipodi:insensitive="true">
    <image
       sodipodi:absref="D:\Pepper&amp;Carrot translation\ep35_The-Reflection_lang-pack\lang\gfx_Pepper-and-Carrot_by-David-Revoy_E35P04.png"
       xlink:href="../gfx_Pepper-and-Carrot_by-David-Revoy_E35P04.png"
       y="0"
       x="0"
       id="image10"
       height="3503"
       width="2481" />
  </g>
  <g
     inkscape:groupmode="layer"
     id="layer3"
     inkscape:label="speechbubbles">
    <path
       style="fill:#ffffff;fill-rule:evenodd;stroke:none;stroke-width:1.3117px;stroke-linecap:butt;stroke-linejoin:miter;stroke-opacity:1"
       d="m 1990.6841,61.137224 40.8894,-52.5267047 10.7703,65.2645867 16.0195,-9.750831 -1.1205,11.220555 77.5078,-79.3523596 -17.3836,93.3898316 28.6218,-10.396672 -26.2092,27.4978 71.5505,-10.766887 -52.0274,32.581777 109.7994,-18.22815 -86.5737,43.66437 68.7817,14.3403 -76.9714,19.25166 82.325,31.19096 -128.9502,0.0302 23.8906,12.90668 -47.765,-3.18208 4.7183,28.64604 -28.459,-20.35902 -2.5496,17.8261 -12.2434,-12.41521 -45.6264,64.59201 -14.9509,-60.15664 -34.159,22.80022 9.0138,-31.08196 -80.516,11.8724 59.4356,-32.16453 -52.3321,-11.14044 13.2762,-22.7963 -19.2203,-3.28488 19.8777,-36.3143 -5.8639,-26.93675 6.0608,-39.296524 14.6237,-5.550325 16.6659,2.141464 -14.9767,-16.141324 43.9064,19.624486 12.0993,-3.792083 z"
       id="path1311"
       inkscape:connector-curvature="0"
       sodipodi:nodetypes="ccccccccccccccccccccccccccccccccccccccccc" />
    <path
       style="display:inline;fill:#ffffff;fill-rule:evenodd;stroke:none;stroke-width:0.943229px;stroke-linecap:butt;stroke-linejoin:miter;stroke-opacity:1"
       d="m 1923.6632,1007.7419 c 26.2432,18.9995 25.5263,30.3101 -0.5282,21.4228 23.4498,13.0038 16.6519,14.7624 -5.9203,17.4271 44.1057,30.2828 21.746,48.0769 -2.1768,65.5774 62.1035,-6.5945 58.3915,9.4195 69.0925,20.4828 21.342,-20.8253 22.5062,-7.0369 18.0404,16.4096 24.0779,-27.0041 34.1916,-28.9071 31.5748,-7.921 19.4655,-16.9593 38.4705,-23.1305 56.9458,-16.902 45.4321,-14.9991 51.4077,7.5699 70.1361,17.9966 6.9361,-21.2416 25.6022,-26.3661 56.0153,-4.4256 4.5528,-12.8318 31.9691,-11.8246 53.686,7.2081 -25.873,-36.9907 22.2874,-3.1016 30.6433,-0.7521 -12.1276,-19.0063 25.9044,-18.9904 77.3271,-4.0891 -17.2143,-8.7507 -30.9123,-27.0453 6.2487,-33.5706 -34.2682,-8.9575 -29.8354,-18.1692 -5.0711,-27.5145 -36.5557,-16.1034 -1.3545,-29.5091 26.6337,-43.3216 -46.7607,5.6052 -67.3644,4.773 -65.5873,-17.3025 -73.9509,15.1223 -59.9182,6.072 -49.8969,-1.8764 -50.2982,19.3255 -49.4755,0.3739 -47.5567,-5.4726 -67.0549,20.7283 -108.6256,-3.6508 -125.7278,-18.18244 -22.563,29.32174 -41.2279,17.28424 -59.8772,5.07619 8.1927,22.14095 -12.5169,19.91955 -32.6176,10.40725 3.7156,14.8408 -17.1809,27.0959 -49.2773,5.5573 10.3378,10.5403 -12.6523,14.9852 -52.1065,-6.2347 z"
       id="path4289-9-3"
       inkscape:connector-curvature="0"
       sodipodi:nodetypes="cccccccccccccccccccccccc" />
    <path
       style="color:#000000;display:inline;overflow:visible;visibility:visible;fill:#ffffff;fill-opacity:1;fill-rule:nonzero;stroke:none;stroke-width:0.770816px;marker:none;enable-background:accumulate"
       d="m 1939.1741,1934.971 c 9.8826,-14.9726 20.1591,-35.7858 23.8355,-5.3013 27.0685,-40.8191 60.473,-26.4356 67.8775,-20.4876 -3.4169,-12.0842 3.4721,-33.8053 23.1477,-28.4646 -3.7385,-11.6741 1.906,-20.4399 15.9223,-26.6098 -19.8636,-5.4615 -24.0618,-12.5657 10.8853,-23.7804 -27.2137,1.6813 -52.6866,2.3839 -23.3108,-27.7406 -10.0505,0.2441 -31.693,25.1224 -26.6716,-42.41 -15.2491,22.8526 -32.5067,36.2631 -59.537,-6.2759 -5.4681,18.2557 -14.9492,31.1057 -37.4502,8.9055 3.3969,46.8177 -26.7148,23.6021 -36.4997,18.8055 24.5248,24.178 36.1626,51.7113 -4.087,34.244 44.6161,31.5109 12.6873,38.46 6.8212,48.0033 33.6239,9.2096 39.3039,22.9789 20.1474,41.0257 37.4287,-2.8622 20.7777,21.5037 18.9194,30.0862 z"
       id="path3549-3-8"
       inkscape:connector-curvature="0"
       sodipodi:nodetypes="ccccccccccccccc" />
    <path
       style="color:#000000;display:inline;overflow:visible;visibility:visible;fill:#ffffff;fill-opacity:1;fill-rule:nonzero;stroke:none;stroke-width:0.953405px;marker:none;enable-background:accumulate"
       d="m 1926.248,1843.0789 c -20.822,12.3713 -43.9112,29.9401 -49.0115,34.7313 7.6441,4.8958 13.7298,10.7762 18.5416,15.2652 -10.1989,7.8557 -59.6343,40.9724 -74.2202,42.5016 36.2511,-2.0413 75.4853,-23.85 91.2102,-38.3345 -5.5183,-7.1796 -9.6233,-10.7039 -12.4531,-14.5629 7.5084,-7.7245 36.8287,-25.7792 36.8287,-25.7792 z"
       id="path5066-8"
       inkscape:connector-curvature="0"
       inkscape:transform-center-x="-57.216036"
       inkscape:transform-center-y="-43.686552" />
    <path
       style="display:inline;fill:#ffffff;fill-rule:evenodd;stroke:none;stroke-width:0.757251px;stroke-linecap:butt;stroke-linejoin:miter;stroke-opacity:1"
       d="m 1627.2335,2705.2373 c -23.1037,-13.8585 -36.5299,-36.912 -34.9094,-59.863 0.021,-3.5135 -0.4441,-8.0219 1.7675,-2.246 2.0614,4.0298 8.3884,13.6182 10.9735,12.5222 -1.4798,-8.8501 -0.3232,-17.6718 1.2074,-26.4179 1.0016,-9.1477 8.8287,10.9922 13.4853,3.0445 -2.5178,-3.3793 -1.4443,-11.9763 3.1404,-4.5199 6.2141,6.2476 7.8286,0.1269 9.2363,-3.1599 6.2642,4.3437 7.7826,0.9638 10.2781,-2.1934 5.2,2.8325 9.3716,2.6051 11.5761,-1.8567 8.0067,0.054 18.5192,4.6724 20.0622,-5.2373 3.8657,-4.6515 7.5525,5.8393 14.149,2.8279 13.2978,-1.1697 26.4936,1.5185 39.7605,1.9774 11.1466,1.1427 19.7935,7.5219 28.5211,12.1511 -0.8513,-3.4387 -1.5562,-6.9813 4.245,-3.573 5.1328,-0.083 -6.9949,-13.324 1.9604,-5.6321 11.3875,9.143 18.7251,20.825 28.1567,31.1801 8.4588,10.8464 19.5201,20.4605 25.6892,32.4118 5.303,9.259 9.5979,19.2126 11.6765,29.1222 -1.977,-3.6809 -9.9563,-11.6388 -9.1101,-2.7516 0.5484,3.9719 -2.226,16.6007 -6.7939,8.7104 -4.5624,-2.1273 -6.8154,3.3442 -8.1965,-2.5626 -2.2232,-3.8578 -10.9709,-16.3625 -9.7892,-5.2596 -0.2047,4.4625 -0.3337,15.7557 -7.2454,15.2981 -0.605,-4.3369 -3.6967,-4.5846 -6.3515,-1.9329 -2.9555,-2.7725 -5.6694,-4.3471 -8.9552,-2.5997 -7.2138,-4.1244 -16.9121,-4.5374 -24.2207,-0.3415 -8.1262,2.9169 -10.6334,12.2104 -21.0337,10.295 -7.7629,1.0738 -13.8353,5.2852 -21.9309,1.7588 -7.2919,2.5269 -16.3312,1.4423 -23.8805,-0.7309 -2.8033,-0.9719 -9.8751,-5.9972 -9.6676,-0.5102 -5.4697,1.613 -16.751,-5.5606 -17.0508,-3.6972 1.5499,7.42 -9.1456,-4.0575 -11.2929,-6.1815 -5.6254,-6.3934 -12.6142,-12.4102 -15.4569,-20.0326 z"
       id="path4197"
       inkscape:connector-curvature="0" />
    <path
       style="display:inline;fill:#ffffff;fill-rule:evenodd;stroke:none;stroke-width:0.547278px;stroke-linecap:butt;stroke-linejoin:miter;stroke-opacity:1"
       d="m 1780.268,2665.8758 c -9.1519,12.0584 -4.0223,29.2333 -2.0534,43.214 -0.4027,9.5398 8.9616,23.2873 7.9399,27.7617 -3.6781,-3.6308 -9.1711,-7.4072 -5.15,1.4199 5.1143,25.0404 20.4695,45.0994 36.5036,62.02 4.9151,3.7476 20.0079,15.4095 18.9486,7.2098 9.2022,6.5911 20.1873,9.3623 30.652,11.905 11.8346,-0.4207 23.361,2.6291 34.1712,8.1528 10.7984,3.5837 22.6411,8.7977 33.7739,4.0031 -4.3723,-17.0973 14.4188,-1.0951 21.4418,-7.1827 6.2815,2.4651 22.0638,-1.9658 32.6542,-4.6829 10.5968,-2.8295 21.1265,-6.8221 30.8624,-12.4557 6.8028,0.4718 18.2073,-3.5214 25.5016,-13.0735 6.3626,2.3036 14.1247,-30.7262 11.9608,-37.8391 -1.7152,-11.8704 -0.9512,-25.015 -3.0106,-34.3533 -1.018,-11.1091 -9.564,-17.0434 -12.5607,-27.5766 -7.0751,-18.6614 -19.9197,-33.5751 -35.2869,-43.3921 -12.803,-8.1804 -26.3312,-16.3408 -40.8598,-19.1618 -9.4759,-0.3067 8.1214,11.945 -3.6292,5.3985 -8.8847,-6.9478 1.2007,8.9211 -5.6448,2.3264 -3.8462,-5.187 -11.7084,-9.5039 -8.7695,1.8219 -0.4721,4.5202 -3.7437,0.806 -5.7738,4.7945 -10.1614,-7.1592 -21.5752,-1.8024 -32.7665,-1.7096 -6.1682,-0.8454 -15.7272,4.2876 -18.5595,-4.9449 0.056,11.1871 -9.7101,0.3865 -10.7422,11.2764 -4.6616,-2.8135 -12.3617,-9.2314 -13.1779,1.011 -7.7939,8.7256 -18.5941,-7.5828 -23.5099,-4.0596 2.7555,17.2919 -10.7309,2.5498 -15.6889,-1.4893 -1.067,19.1789 -17.2769,-3.6906 -24.3224,-0.8195 7.5053,10.9733 -2.5155,21.1581 -12.193,13.842 4.5862,17.5446 -4.798,4.0414 -10.711,6.5836 z"
       id="path4236"
       inkscape:connector-curvature="0"
       sodipodi:nodetypes="ccccccccccccccccccccccccccccccc" />
    <path
       style="display:inline;fill:#ffffff;fill-rule:evenodd;stroke:none;stroke-width:1px;stroke-linecap:butt;stroke-linejoin:miter;stroke-opacity:1"
       d="m 2040.4712,2973.7641 c 16.3129,-104.9146 -18.3515,-177.7317 -52.9957,-199.8323 -34.6434,-22.0999 -57.1191,-12.3122 -34.9033,9.9761 22.215,22.2877 85.0927,37.2478 87.899,189.8562 z"
       id="path4293"
       inkscape:connector-curvature="0" />
  </g>
  <g
     inkscape:groupmode="layer"
     id="layer1"
     inkscape:label="txt">
    <text
       xml:space="preserve"
       style="font-style:normal;font-variant:normal;font-weight:normal;font-stretch:normal;font-size:179.149px;line-height:1.25;font-family:'Xiaolai SC';-inkscape-font-specification:'Xiaolai SC';letter-spacing:0px;word-spacing:0px;display:inline;fill:#ffffff;fill-opacity:1;stroke:#ffffff;stroke-width:0.741719;stroke-miterlimit:4;stroke-dasharray:none;stroke-opacity:1;filter:url(#filter4375-4-1-1-1-9-5-8-8-5-5-3-3)"
       id="text4580-6-0-0-0-9-3-3"
       transform="matrix(0.72171902,-0.19475033,-0.09884871,0.93569498,1272.6817,455.79978)"
       x="181.50571"
       y="435.11505"><textPath
         xlink:href="#path974"
         id="textPath2837"
         style="font-style:normal;font-variant:normal;font-weight:normal;font-stretch:normal;font-size:179.149px;font-family:'Xiaolai SC';-inkscape-font-specification:'Xiaolai SC';stroke-width:0.741719"><tspan
           style="font-style:normal;font-variant:normal;font-weight:normal;font-stretch:normal;font-size:228.21px;font-family:'Xiaolai SC';-inkscape-font-specification:'Xiaolai SC'"
           id="tspan936">砰！</tspan><tspan
           id="tspan884"
           style="font-style:normal;font-variant:normal;font-weight:normal;font-stretch:normal;font-size:222.316px;font-family:'Xiaolai SC';-inkscape-font-specification:'Xiaolai SC'" /></textPath></text>
    <text
       xml:space="preserve"
       style="font-style:normal;font-variant:normal;font-weight:normal;font-stretch:normal;font-size:50.1752px;line-height:1.25;font-family:'Xiaolai SC';-inkscape-font-specification:'Xiaolai SC';text-align:center;letter-spacing:0px;word-spacing:0px;text-anchor:middle;fill:#000000;fill-opacity:1;stroke:none;stroke-width:1.115"
       x="2030.8015"
       y="190.17723"
       id="text4246-3-2-2"
       transform="scale(1.0052596,0.99476792)"><tspan
         style="font-style:normal;font-variant:normal;font-weight:normal;font-stretch:normal;font-size:50.1752px;font-family:'Xiaolai SC';-inkscape-font-specification:'Xiaolai SC';stroke-width:1.115"
         sodipodi:role="line"
         x="2030.8015"
         y="190.17723"
         id="tspan905">不会吧？！</tspan></text>
    <text
       xml:space="preserve"
       style="font-style:normal;font-variant:normal;font-weight:normal;font-stretch:normal;font-size:45px;line-height:1.25;font-family:'Xiaolai SC';-inkscape-font-specification:'Xiaolai SC';text-align:center;letter-spacing:0px;word-spacing:0px;text-anchor:middle;fill:#000000;fill-opacity:1;stroke:none"
       x="2161.5876"
       y="1087.0594"
       id="text4246-3-2-2-3"><tspan
         style="font-style:normal;font-variant:normal;font-weight:normal;font-stretch:normal;font-size:45px;font-family:'Xiaolai SC';-inkscape-font-specification:'Xiaolai SC'"
         sodipodi:role="line"
         x="2161.5876"
         y="1087.0594"
         id="tspan900">他们突破了音障？！</tspan></text>
    <text
       xml:space="preserve"
       style="font-style:normal;font-variant:normal;font-weight:normal;font-stretch:normal;font-size:69.6081px;line-height:1.25;font-family:'Xiaolai SC';-inkscape-font-specification:'Xiaolai SC';text-align:center;letter-spacing:0px;word-spacing:0px;text-anchor:middle;fill:#000000;fill-opacity:1;stroke:none;stroke-width:1.54685;"
       x="1899.1366"
       y="1946.7604"
       id="text4246-3-2-2-3-5"
       transform="scale(1.0399735,0.96156296)"><tspan
         style="font-style:normal;font-variant:normal;font-weight:normal;font-stretch:normal;font-size:69.6081px;font-family:'Xiaolai SC';-inkscape-font-specification:'Xiaolai SC';stroke-width:1.54685;"
         sodipodi:role="line"
         x="1899.1366"
         y="1946.7604"
         id="tspan905-3-1">!<tspan
   style="font-size:79.6081px;-inkscape-font-specification:'Xiaolai SC';font-family:'Xiaolai SC';font-weight:normal;font-style:normal;font-stretch:normal;font-variant:normal;"
   id="tspan1014">!</tspan><tspan
   id="tspan1018"
   style="font-size:89.6081px;-inkscape-font-specification:'Xiaolai SC';font-family:'Xiaolai SC';font-weight:normal;font-style:normal;font-stretch:normal;font-variant:normal;">!</tspan></tspan></text>
    <text
       xml:space="preserve"
       style="font-style:normal;font-variant:normal;font-weight:normal;font-stretch:normal;font-size:80px;line-height:1.25;font-family:'Xiaolai SC';-inkscape-font-specification:'Xiaolai SC';letter-spacing:0px;word-spacing:0px;display:inline;fill:#ffffff;fill-opacity:1;stroke:#ffffff;stroke-width:0.668774;stroke-miterlimit:4;stroke-dasharray:none;stroke-opacity:1;filter:url(#filter4375-4-1-1-1-9-5-8-8-5-5-3-3-3)"
       id="text4580-6-0-0-0-9-3-3-2"
       transform="matrix(0.80003598,-0.79061533,0.21633545,1.1521123,363.87713,1065.1365)"
       x="-607.91235"
       y="1245.0809"><tspan
         id="tspan1510"
         style="font-style:normal;font-variant:normal;font-weight:normal;font-stretch:normal;font-size:99.052px;font-family:'Xiaolai SC';-inkscape-font-specification:'Xiaolai SC'">抓！！！</tspan><tspan
         id="tspan1534"
         style="font-style:normal;font-variant:normal;font-weight:normal;font-stretch:normal;font-size:61.3371px;font-family:'Xiaolai SC';-inkscape-font-specification:'Xiaolai SC'" /></text>
    <text
       xml:space="preserve"
       style="font-style:normal;font-variant:normal;font-weight:normal;font-stretch:normal;font-size:45px;line-height:1.25;font-family:'Xiaolai SC';-inkscape-font-specification:'Xiaolai SC';text-align:center;letter-spacing:0px;word-spacing:0px;text-anchor:middle;fill:#000000;fill-opacity:1;stroke:none"
       x="1703.0199"
       y="2692.6509"
       id="text4246-3-2-2-3-2"><tspan
         style="font-style:normal;font-variant:normal;font-weight:normal;font-stretch:normal;font-size:45px;font-family:'Xiaolai SC';-inkscape-font-specification:'Xiaolai SC'"
         sodipodi:role="line"
         x="1703.0199"
         y="2692.6509"
         id="tspan905-3-3">哼！</tspan></text>
    <text
       xml:space="preserve"
       style="font-style:normal;font-variant:normal;font-weight:normal;font-stretch:normal;font-size:45px;line-height:1.25;font-family:'Xiaolai SC';-inkscape-font-specification:'Xiaolai SC';text-align:center;letter-spacing:0px;word-spacing:0px;text-anchor:middle;fill:#000000;fill-opacity:1;stroke:none"
       x="1932.2036"
       y="2719.498"
       id="text4246-3-2-2-3-2-6"><tspan
         style="font-style:normal;font-variant:normal;font-weight:normal;font-stretch:normal;font-size:45px;font-family:'Xiaolai SC';-inkscape-font-specification:'Xiaolai SC'"
         sodipodi:role="line"
         x="1932.2036"
         y="2719.498"
         id="tspan904">萝卜头，</tspan><tspan
         id="tspan75"
         style="font-style:normal;font-variant:normal;font-weight:normal;font-stretch:normal;font-size:45px;font-family:'Xiaolai SC';-inkscape-font-specification:'Xiaolai SC'"
         sodipodi:role="line"
         x="1932.2036"
         y="2775.748">抓紧了！</tspan></text>
    <path
       style="color:#000000;display:inline;overflow:visible;visibility:visible;fill:#ffffff;fill-opacity:1;fill-rule:nonzero;stroke:none;stroke-width:0.721774px;marker:none;enable-background:accumulate"
       d="m 2039.7365,1002.7266 c 9.861,-32.35369 17.4578,-71.3509 18.3464,-80.70229 -11.8043,4.23219 -24.3456,2.67351 -32.9969,4.198 3.2732,-17.30307 13.3579,-99.34384 26.4548,-116.22599 -34.0773,40.53356 -42.4573,105.79489 -45.4461,134.39433 11.6836,-0.10269 18.7989,-1.64982 24.9438,-1.55895 -0.7263,14.31116 -14.0636,60.3846 -14.0636,60.3846 z"
       id="path5066-7"
       inkscape:connector-curvature="0"
       sodipodi:nodetypes="cccccccc" />
  </g>
</svg>
