<?xml version="1.0" encoding="UTF-8" standalone="no"?>
<svg
   xmlns:dc="http://purl.org/dc/elements/1.1/"
   xmlns:cc="http://creativecommons.org/ns#"
   xmlns:rdf="http://www.w3.org/1999/02/22-rdf-syntax-ns#"
   xmlns:svg="http://www.w3.org/2000/svg"
   xmlns="http://www.w3.org/2000/svg"
   xmlns:xlink="http://www.w3.org/1999/xlink"
   xmlns:sodipodi="http://sodipodi.sourceforge.net/DTD/sodipodi-0.dtd"
   xmlns:inkscape="http://www.inkscape.org/namespaces/inkscape"
   sodipodi:docname="E35P06.svg"
   height="3503"
   width="2481"
   inkscape:version="1.0 (4035a4fb49, 2020-05-01)"
   version="1.1"
   id="svg2">
  <metadata
     id="metadata8">
    <rdf:RDF>
      <cc:Work
         rdf:about="">
        <dc:format>image/svg+xml</dc:format>
        <dc:type
           rdf:resource="http://purl.org/dc/dcmitype/StillImage" />
        <dc:title />
      </cc:Work>
    </rdf:RDF>
  </metadata>
  <defs
     id="defs6" />
  <sodipodi:namedview
     inkscape:pagecheckerboard="0"
     inkscape:snap-global="false"
     inkscape:document-rotation="0"
     inkscape:current-layer="layer1"
     inkscape:window-maximized="1"
     inkscape:window-y="-8"
     inkscape:window-x="-8"
     inkscape:cy="2829.6949"
     inkscape:cx="1177.7878"
     inkscape:zoom="0.45"
     showgrid="false"
     id="namedview4"
     inkscape:window-height="715"
     inkscape:window-width="1366"
     inkscape:pageshadow="2"
     inkscape:pageopacity="0"
     guidetolerance="10"
     gridtolerance="10"
     objecttolerance="10"
     borderopacity="1"
     bordercolor="#666666"
     pagecolor="#ffffff" />
  <g
     sodipodi:insensitive="true"
     inkscape:label="artwork"
     id="layer2"
     inkscape:groupmode="layer">
    <image
       sodipodi:absref="D:\Pepper&amp;Carrot translation\ep35_The-Reflection_lang-pack\lang\gfx_Pepper-and-Carrot_by-David-Revoy_E35P06.png"
       xlink:href="../gfx_Pepper-and-Carrot_by-David-Revoy_E35P06.png"
       width="2481"
       height="3503"
       id="image10"
       x="0"
       y="0" />
  </g>
  <g
     style="display:inline"
     inkscape:label="speechbubbles"
     id="layer3"
     inkscape:groupmode="layer">
    <path
       sodipodi:nodetypes="csssssssc"
       inkscape:connector-curvature="0"
       id="path3286-6"
       d="m 599.00921,150.09323 c -16.31997,0.16095 -32.60831,0.7097 -48.8326,1.42977 -25.05411,1.20178 -50.10306,3.19041 -73.60065,7.05748 -27.89893,5.00273 -48.71638,15.88107 -55.34376,28.11235 -10.55187,14.60266 -11.41871,30.63043 0.67054,45.14608 7.94366,8.95191 25.6983,15.98544 46.16857,20.10284 33.14617,6.87439 70.19372,10.55473 107.2628,10.37094 22.5091,0.0329 45.03191,-0.31811 67.45012,-1.13763 27.47213,-1.12737 55.11566,-3.9609 78.69349,-10.07505 15.67336,-4.09613 28.37196,-10.24205 34.64698,-17.50402 5.5581,-6.12939 6.59238,-12.77262 5.95454,-19.26624 -0.42844,-11.01646 -1.45986,-22.23787 -9.87603,-32.79657 -5.6571,-6.82175 -17.90086,-12.44051 -32.19149,-16.4284 -9.82269,-2.74091 -20.79035,-4.65974 -31.63283,-6.58389 -25.82484,-4.38086 -53.18733,-7.315 -81.01435,-8.26688 -2.78074,-0.0873 -5.56756,-0.13945 -8.35533,-0.16078 z"
       style="fill:#ffffff;stroke:none;stroke-width:0.640942" />
    <path
       sodipodi:nodetypes="cccccccccccccccccccccccc"
       id="path961"
       d="m -11.698607,1477.1999 c 57.255643,0.7612 49.669799,14.8344 29.050667,31.5835 15.862049,-1.1266 52.959999,-16.6417 30.962517,7.8839 48.031531,-8.9103 68.317483,12.2221 64.414523,21.2873 23.59279,-3.1207 47.7869,-0.4999 23.17166,31.5751 23.77889,-7.1873 44.60981,-28.9029 41.9018,5.6642 19.25046,-4.2906 44.54313,-20.8225 47.75311,7.3835 25.44702,-13.9246 50.72863,-25.8044 73.46502,-6.2092 23.64818,-28.3623 47.52018,-18.3108 63.69373,9.7826 7.59891,-34.0504 52.70418,-20.3147 81.01483,15.3497 -8.98906,-29.5061 -47.15895,-70.2848 66.19867,-10.6024 -48.10552,-43.8416 -54.01099,-60.7118 87.77271,-12.3765 -18.09287,-17.7587 -47.46433,-60.4541 68.19784,-14.4661 -78.50081,-52.7695 -32.18485,-58.3334 24.26356,-67.8684 -68.5479,-1.4079 -88.75473,-15.2185 -15.59676,-21.0744 -112.09869,-6.8527 -84.95838,-23.8505 -49.27696,-52.3053 -57.36354,21.7112 -49.13465,9.0767 -35.38224,-2.4707 -101.9548,22.8158 -59.43266,-13.2957 -50.01836,-27.3722 -50.07754,14.9078 -65.59727,13.2044 -60.89247,-9.2904 -27.7988,19.268 -57.20436,18.7772 -54.55737,11.1989 l -70.06057,-6.4493 -333.352907,4.246 -14.6077257,69.1894 c 87.9370907,-3.2844 34.4673887,11.5221 -18.1152743,15.3408 z"
       style="display:inline;fill:#ffffff;fill-rule:evenodd;stroke:none;stroke-width:1.32752px;stroke-linecap:butt;stroke-linejoin:miter;stroke-opacity:1" />
    <path
       inkscape:connector-curvature="0"
       id="path3525-0"
       d="m 636.91226,2285.3556 c -6.14462,-35.9524 10.24132,-131.4529 136.2082,-123.5877 125.96687,7.8642 146.44933,52.8058 149.52165,66.2874 3.0723,13.4827 29.69948,89.8831 -68.61607,110.1061 -98.31575,20.2239 -186.39007,-1.1239 -217.11378,-52.8058 z"
       style="color:#000000;display:inline;overflow:visible;visibility:visible;fill:#ffffff;fill-opacity:1;fill-rule:nonzero;stroke:none;stroke-width:0.906224px;marker:none;enable-background:accumulate" />
    <path
       inkscape:connector-curvature="0"
       id="path3072-56"
       d="m 777.45911,2075.5812 c 24.221,32.672 31.0089,45.658 8.1243,87.146 -22.8847,41.487 -7.3195,49.577 -7.3195,49.577 l 28.2503,-15.376 c 0,0 42.659,-91.848 -29.0551,-121.347 z"
       style="color:#000000;display:inline;overflow:visible;visibility:visible;fill:#ffffff;fill-opacity:1;fill-rule:nonzero;stroke:none;stroke-width:1px;marker:none;enable-background:accumulate" />
    <path
       sodipodi:nodetypes="ccccc"
       inkscape:connector-curvature="0"
       id="path3072-5-5"
       d="m 811.84174,370.81506 c -47.0829,-20.24287 -67.22496,-54.55991 -84.15983,-115.70701 -17.59681,-45.717 -36.07245,-33.52653 -36.07245,-33.52653 l 6.37734,17.91035 c 0,0 -3.04742,117.01808 113.85494,131.32319 z"
       style="color:#000000;display:inline;overflow:visible;visibility:visible;fill:#ffffff;fill-opacity:1;fill-rule:nonzero;stroke:none;stroke-width:1px;marker:none;enable-background:accumulate" />
    <path
       sodipodi:nodetypes="csccssscc"
       inkscape:connector-curvature="0"
       id="path3282-7"
       d="m 424.67788,1539.7004 c 21.51156,33.7205 38.79051,39.1501 50.26035,53.0664 11.46981,13.9172 -2.88402,43.4737 0.19353,53.5399 3.70439,9.4958 0.69509,16.2497 29.83986,39.4536 -46.26,-20.9908 -40.86354,-33.0957 -44.26871,-41.9175 -4.68096,-12.128 3.84885,-26.4644 -8.51834,-37.4754 -11.9791,-10.667 -55.59571,-40.8524 -64.07404,-63.4543 -8.47865,-22.6019 -12.84256,-23.9886 -12.84256,-23.9886 z"
       style="display:inline;fill:#ffffff;fill-opacity:1;stroke:none;stroke-width:1.10947" />
  </g>
  <g
     inkscape:label="txt"
     id="layer1"
     inkscape:groupmode="layer">
    <text
       id="text4246-3-2-2"
       y="222.49182"
       x="596.401"
       style="font-style:normal;font-variant:normal;font-weight:normal;font-stretch:normal;font-size:45px;line-height:1.25;font-family:'Xiaolai SC';-inkscape-font-specification:'Xiaolai SC';text-align:center;letter-spacing:0px;word-spacing:0px;text-anchor:middle;fill:#000000;fill-opacity:1;stroke:none"
       xml:space="preserve"><tspan
         id="tspan905"
         y="222.49182"
         x="596.401"
         sodipodi:role="line"
         style="font-style:normal;font-variant:normal;font-weight:normal;font-stretch:normal;font-size:45px;font-family:'Xiaolai SC';-inkscape-font-specification:'Xiaolai SC'">角湖的洞穴！</tspan></text>
    <text
       id="text4246-3-2-2-3"
       y="1460.1891"
       x="369.78314"
       style="font-style:normal;font-variant:normal;font-weight:normal;font-stretch:normal;font-size:45px;line-height:1.25;font-family:'Xiaolai SC';-inkscape-font-specification:'Xiaolai SC';text-align:center;letter-spacing:0px;word-spacing:0px;text-anchor:middle;fill:#000000;fill-opacity:1;stroke:none"
       xml:space="preserve"><tspan
         id="tspan880"
         y="1460.1891"
         x="369.78314"
         sodipodi:role="line"
         style="font-style:normal;font-variant:normal;font-weight:normal;font-stretch:normal;font-size:45px;font-family:'Xiaolai SC';-inkscape-font-specification:'Xiaolai SC'">萝卜头，</tspan><tspan
         y="1516.4391"
         x="369.78314"
         sodipodi:role="line"
         style="font-style:normal;font-variant:normal;font-weight:normal;font-stretch:normal;font-size:45px;font-family:'Xiaolai SC';-inkscape-font-specification:'Xiaolai SC'"
         id="tspan73">这是我们最后的机会了！</tspan></text>
    <text
       id="text4246-3-2-2-3-5"
       y="2235.9109"
       x="781.18762"
       style="font-style:normal;font-variant:normal;font-weight:normal;font-stretch:normal;font-size:45px;line-height:1.25;font-family:'Xiaolai SC';-inkscape-font-specification:'Xiaolai SC';text-align:center;letter-spacing:0px;word-spacing:0px;text-anchor:middle;fill:#000000;fill-opacity:1;stroke:none"
       xml:space="preserve"><tspan
         id="tspan884"
         y="2235.9109"
         x="781.18762"
         sodipodi:role="line"
         style="font-style:normal;font-variant:normal;font-weight:normal;font-stretch:normal;font-size:45px;font-family:'Xiaolai SC';-inkscape-font-specification:'Xiaolai SC'">我很熟悉</tspan><tspan
         y="2292.1609"
         x="781.18762"
         sodipodi:role="line"
         style="font-style:normal;font-variant:normal;font-weight:normal;font-stretch:normal;font-size:45px;font-family:'Xiaolai SC';-inkscape-font-specification:'Xiaolai SC'"
         id="tspan51">这个洞穴。</tspan></text>
    <text
       id="text4246-3-2-2-3-5-9"
       y="2549.3845"
       x="201.94211"
       style="font-style:normal;font-variant:normal;font-weight:normal;font-stretch:normal;font-size:45px;line-height:1.25;font-family:'Xiaolai SC';-inkscape-font-specification:'Xiaolai SC';text-align:center;letter-spacing:0px;word-spacing:0px;text-anchor:middle;fill:#ffffff;fill-opacity:1;stroke:none"
       xml:space="preserve"><tspan
         id="tspan889"
         y="2549.3845"
         x="201.94211"
         sodipodi:role="line"
         style="font-style:normal;font-variant:normal;font-weight:normal;font-stretch:normal;font-size:45px;font-family:'Xiaolai SC';-inkscape-font-specification:'Xiaolai SC';text-align:start;text-anchor:start;fill:#ffffff">这是一个狭长的隧道，隧道尽头已经塌方。</tspan></text>
    <text
       id="text4246-3-2-2-3-5-9-7"
       y="3059.7258"
       x="1335.3069"
       style="font-style:normal;font-variant:normal;font-weight:normal;font-stretch:normal;font-size:45px;line-height:1.25;font-family:'Xiaolai SC';-inkscape-font-specification:'Xiaolai SC';text-align:center;letter-spacing:0px;word-spacing:0px;text-anchor:middle;fill:#ffffff;fill-opacity:1;stroke:none"
       xml:space="preserve"><tspan
         id="tspan899"
         y="3059.7258"
         x="1335.3069"
         sodipodi:role="line"
         style="font-style:normal;font-variant:normal;font-weight:normal;font-stretch:normal;font-size:45px;font-family:'Xiaolai SC';-inkscape-font-specification:'Xiaolai SC';text-align:end;text-anchor:end;fill:#ffffff">塌方以后的钟乳石自然形成了一堵尖墙，</tspan><tspan
         y="3115.9758"
         x="1335.3069"
         sodipodi:role="line"
         style="font-style:normal;font-variant:normal;font-weight:normal;font-stretch:normal;font-size:45px;font-family:'Xiaolai SC';-inkscape-font-specification:'Xiaolai SC';text-align:end;text-anchor:end;fill:#ffffff"
         id="tspan57">是个死亡陷阱。</tspan></text>
    <text
       id="text4246-3-2-2-3-5-9-7-3"
       y="2753.425"
       x="1482.9749"
       style="font-style:normal;font-variant:normal;font-weight:normal;font-stretch:normal;font-size:45px;line-height:1.25;font-family:'Xiaolai SC';-inkscape-font-specification:'Xiaolai SC';text-align:center;letter-spacing:0px;word-spacing:0px;text-anchor:middle;fill:#000000;fill-opacity:1;stroke:none"
       xml:space="preserve"><tspan
         id="tspan908"
         y="2753.425"
         x="1482.9749"
         sodipodi:role="line"
         style="font-style:normal;font-variant:normal;font-weight:normal;font-stretch:normal;font-size:45px;font-family:'Xiaolai SC';-inkscape-font-specification:'Xiaolai SC';text-align:start;text-anchor:start;fill:#ffffff">在塌方的顶端有一个大小刚好足够</tspan><tspan
         y="2809.675"
         x="1482.9749"
         sodipodi:role="line"
         style="font-style:normal;font-variant:normal;font-weight:normal;font-stretch:normal;font-size:45px;font-family:'Xiaolai SC';-inkscape-font-specification:'Xiaolai SC';text-align:start;text-anchor:start;fill:#ffffff"
         id="tspan63">咱们脱身的裂缝</tspan></text>
    <text
       id="text4246-3-2-2-3-5-9-7-3-3"
       y="3230.1255"
       x="2341.0408"
       style="font-style:normal;font-variant:normal;font-weight:normal;font-stretch:normal;font-size:45px;line-height:1.25;font-family:'Xiaolai SC';-inkscape-font-specification:'Xiaolai SC';text-align:center;letter-spacing:0px;word-spacing:0px;text-anchor:middle;fill:#000000;fill-opacity:1;stroke:none;stroke-width:1.25015"
       xml:space="preserve"><tspan
         id="tspan927"
         y="3230.1255"
         x="2341.0408"
         sodipodi:role="line"
         style="font-style:normal;font-variant:normal;font-weight:normal;font-stretch:normal;font-size:45px;font-family:'Xiaolai SC';-inkscape-font-specification:'Xiaolai SC';text-align:end;text-anchor:end;fill:#ffffff;stroke-width:1.25015">但是那条超了音速的龙肯定不能及时减速，</tspan><tspan
         y="3286.3755"
         x="2341.0408"
         sodipodi:role="line"
         style="font-style:normal;font-variant:normal;font-weight:normal;font-stretch:normal;font-size:45px;font-family:'Xiaolai SC';-inkscape-font-specification:'Xiaolai SC';text-align:end;text-anchor:end;fill:#ffffff;stroke-width:1.25015"
         id="tspan69">到时候它就会全速撞到墙上！</tspan><tspan
         y="3342.6255"
         x="2341.0408"
         sodipodi:role="line"
         style="font-style:normal;font-variant:normal;font-weight:normal;font-stretch:normal;font-size:45px;font-family:'Xiaolai SC';-inkscape-font-specification:'Xiaolai SC';text-align:end;text-anchor:end;fill:#ffffff;stroke-width:1.25015"
         id="tspan71">结果嘛……哇哈哈哈哈哈！</tspan></text>
  </g>
</svg>
