<?xml version="1.0" encoding="UTF-8" standalone="no"?>
<!-- Created with Inkscape (http://www.inkscape.org/) -->

<svg
   xmlns:dc="http://purl.org/dc/elements/1.1/"
   xmlns:cc="http://creativecommons.org/ns#"
   xmlns:rdf="http://www.w3.org/1999/02/22-rdf-syntax-ns#"
   xmlns:svg="http://www.w3.org/2000/svg"
   xmlns="http://www.w3.org/2000/svg"
   xmlns:xlink="http://www.w3.org/1999/xlink"
   xmlns:sodipodi="http://sodipodi.sourceforge.net/DTD/sodipodi-0.dtd"
   xmlns:inkscape="http://www.inkscape.org/namespaces/inkscape"
   id="svg2"
   version="1.1"
   inkscape:version="0.92.2 2405546, 2018-03-11"
   width="2481"
   height="3503"
   sodipodi:docname="E27P02.svg"
   inkscape:export-filename="C:\Users\ruden\Desktop\E27P02.png"
   inkscape:export-xdpi="96"
   inkscape:export-ydpi="96">
  <metadata
     id="metadata8">
    <rdf:RDF>
      <cc:Work
         rdf:about="">
        <dc:format>image/svg+xml</dc:format>
        <dc:type
           rdf:resource="http://purl.org/dc/dcmitype/StillImage" />
        <dc:title />
      </cc:Work>
    </rdf:RDF>
  </metadata>
  <defs
     id="defs6" />
  <sodipodi:namedview
     pagecolor="#ffffff"
     bordercolor="#666666"
     borderopacity="1"
     objecttolerance="10"
     gridtolerance="10"
     guidetolerance="10"
     inkscape:pageopacity="0"
     inkscape:pageshadow="2"
     inkscape:window-width="1280"
     inkscape:window-height="972"
     id="namedview4"
     showgrid="false"
     inkscape:zoom="0.4574026"
     inkscape:cx="1490.21"
     inkscape:cy="1015.5497"
     inkscape:window-x="0"
     inkscape:window-y="26"
     inkscape:window-maximized="1"
     inkscape:current-layer="layer3"
     inkscape:snap-global="false" />
  <g
     inkscape:groupmode="layer"
     id="layer2"
     inkscape:label="artwork"
     sodipodi:insensitive="true">
    <image
       sodipodi:absref="/home/zveryok/Downloads/webcomics-master/ep27_Coriander-s-Invention/lang/ru-mv/../gfx_Pepper-and-Carrot_by-David-Revoy_E27P02.png"
       xlink:href="../gfx_Pepper-and-Carrot_by-David-Revoy_E27P02.png"
       y="0"
       x="0"
       id="image10"
       height="3503"
       width="2481" />
  </g>
  <g
     inkscape:groupmode="layer"
     id="layer3"
     inkscape:label="speechbubbles">
    <path
       style="fill:#ffffff;fill-rule:evenodd;stroke:none;stroke-width:0.94833207px;stroke-linecap:butt;stroke-linejoin:miter;stroke-opacity:1"
       d="m 469.37143,195.57139 c 5.16656,1.63451 53.87986,0 58.30833,-0.81725 4.42849,-0.81726 37.6421,-7.35529 45.76098,-5.72078 8.11889,1.63451 64.21298,10.6243 74.54611,11.44156 10.33311,0.81725 59.78449,2.45176 68.64145,7.35529 8.85697,4.90352 20.66625,9.80705 27.30899,17.9796 6.64272,8.17254 16.23775,33.50743 15.49967,39.22821 -0.73808,5.72078 -11.07121,44.94899 -16.97584,50.66977 -5.90464,5.72078 -26.57089,24.51763 -32.47553,26.9694 -5.90465,2.45176 -19.19009,8.98979 -25.83281,11.44156 -6.64273,2.45176 -157.21109,4.90352 -175.6631,5.72078 -18.45201,0.81725 -90.0458,-4.90353 -102.59316,-5.72078 -12.54736,-0.81726 -42.07058,1.63451 -61.26066,-6.53804 -19.19009,-8.17254 -32.47553,-38.41095 -38.38018,-44.13174 -5.90464,-5.72078 -16.23776,-30.23841 -15.49967,-39.22821 0.73807,-8.9898 15.49967,-30.23841 22.88047,-32.69017 7.3808,-2.45177 37.6421,-22.88313 55.35602,-26.9694 17.71394,-4.08627 60.52259,-13.89332 68.64147,-13.07607 11.11317,1.64213 9.94564,0.16304 31.73746,4.08627 z"
       id="path1323"
       inkscape:connector-curvature="0"
       sodipodi:nodetypes="ccsscscsscsssccsscc" />
    <path
       style="fill:#ffffff;fill-rule:evenodd;stroke:none;stroke-width:0.99999994px;stroke-linecap:butt;stroke-linejoin:miter;stroke-opacity:1"
       d="m 172.66645,163.77351 c 10.53318,-19.15682 29.62457,-29.0442 39.49941,-31.51605 9.87486,-2.47185 26.33295,3.08981 35.54949,1.85389 9.21652,-1.23593 44.10767,-12.35924 57.27415,-11.74128 13.16646,0.61796 52.00756,4.32573 64.51571,4.9437 12.50814,0.61796 43.44936,3.0898 54.64086,9.88738 11.19151,6.79758 23.69965,14.21312 25.67462,21.0107 1.97497,6.79758 6.58324,19.77478 1.97497,30.89809 -4.60826,11.12331 -15.79976,30.28013 -30.28288,32.13401 -14.48312,1.85389 -86.2404,8.65147 -102.04016,8.0335 -15.79977,-0.61796 -59.24913,0 -69.78231,0 -10.53318,0 -48.71595,-4.32573 -59.90745,-12.35923 -11.1915,-8.0335 -19.7497,-24.10051 -21.06635,-33.9879 -1.31665,-9.88738 3.94994,-19.15681 3.94994,-19.15681 z"
       id="path1325"
       inkscape:connector-curvature="0" />
    <path
       style="fill:#ffffff;fill-rule:evenodd;stroke:none;stroke-width:1px;stroke-linecap:butt;stroke-linejoin:miter;stroke-opacity:1"
       d="m 544.4243,343.97954 c 6.17962,25.33643 -4.94369,76.0093 4.32573,89.60445 9.26943,13.59516 11.12331,11.74128 19.15682,18.53886 -12.35924,15.44904 -17.92089,33.36993 -16.68497,42.63936 1.23592,9.26942 4.32573,33.36993 35.84178,44.49324 -27.19032,-19.15681 -24.71847,-38.31363 -23.48255,-43.87528 1.23593,-5.56166 6.17962,-34.60586 21.62867,-42.0214 -15.44905,-11.74127 -23.48255,-24.71847 -23.48255,-32.13401 0,-7.41554 8.65146,-82.80688 8.65146,-82.80688 z"
       id="path1327"
       inkscape:connector-curvature="0" />
    <path
       style="fill:#ffffff;fill-rule:evenodd;stroke:none;stroke-width:0.91136819px;stroke-linecap:butt;stroke-linejoin:miter;stroke-opacity:1"
       d="m 1032.434,111.12654 c -32.1483,14.2675 -61.85471,25.94487 -66.14116,46.87053 -4.28643,20.92565 -16.07414,38.04666 -17.14575,52.31414 -1.07161,14.2675 7.20259,66.31827 14.70386,85.3416 7.50126,19.02333 48.22245,62.77698 53.58045,66.58165 5.3581,3.80465 40.7213,16.16982 57.867,21.87682 17.1458,5.707 154.3118,9.51166 178.9588,12.36516 24.6471,2.8535 91.0868,-13.31632 108.2327,-19.97449 17.1458,-6.65817 40.7212,-9.51167 51.4373,-20.92566 10.7161,-11.41399 35.3631,-41.85132 39.6495,-55.16764 4.2864,-13.31634 4.2864,-58.97232 4.2864,-68.48398 0,-9.51167 -1.0716,-51.36299 -21.4321,-69.43515 -20.3606,-18.07215 -54.6522,-42.80249 -81.4424,-50.41181 -26.7903,-7.60933 -188.6034,-19.023329 -206.8207,-19.974496 -18.2174,-0.951166 -115.7339,19.023326 -115.7339,19.023326 z"
       id="path1329"
       inkscape:connector-curvature="0"
       sodipodi:nodetypes="cssscsscscscssc" />
    <path
       style="fill:#ffffff;fill-rule:evenodd;stroke:none;stroke-width:0.83407217px;stroke-linecap:butt;stroke-linejoin:miter;stroke-opacity:1"
       d="m 1059.6078,377.61737 c -23.5293,14.36798 -49.7736,27.83798 -55.2035,37.71597 -5.42976,9.87799 -12.66962,36.81796 -9.04978,49.38996 3.62002,12.57199 15.38468,64.65595 28.95928,74.53394 13.5746,9.87799 57.0136,40.40997 78.733,40.40997 21.7194,0 91.4025,11.67399 103.1673,10.77599 11.7646,-0.898 87.7826,9.87799 107.6922,0.898 19.9094,-8.98 45.2487,-25.14398 60.6334,-30.53198 15.3844,-5.38799 52.4885,-8.08199 63.3482,-27.83798 10.8598,-19.75598 15.7192,-55.03303 7.2399,-80.81994 -8.2009,-24.93996 -25.3393,-46.69595 -52.4887,-60.16595 -27.1492,-13.46998 -114.027,-43.10396 -114.027,-43.10396 L 1148.2956,337.2074 c 0,0 -20.8145,8.08199 -42.534,19.75598 -21.7194,11.67399 -46.1538,20.65399 -46.1538,20.65399 z"
       id="path1331"
       inkscape:connector-curvature="0"
       sodipodi:nodetypes="csccsccccasccsc" />
    <path
       style="fill:#ffffff;fill-rule:evenodd;stroke:none;stroke-width:1px;stroke-linecap:butt;stroke-linejoin:miter;stroke-opacity:1"
       d="m 1349.7951,569.33728 c 0,0 27.0205,22.6972 35.667,37.82867 8.6466,15.13146 27.0205,36.74784 22.6972,76.73814 10.8082,-51.87931 10.8082,-67.01077 -20.5355,-116.72844 -31.3438,-49.71768 -37.8287,2.16163 -37.8287,2.16163 z"
       id="path1333"
       inkscape:connector-curvature="0" />
    <path
       style="fill:#ffffff;fill-rule:evenodd;stroke:none;stroke-width:1.04007399px;stroke-linecap:butt;stroke-linejoin:miter;stroke-opacity:1"
       d="m 1604.7755,231.8935 c 12.1011,-46.74643 16.1347,-74.01519 44.3704,-90.89585 28.2357,-16.88066 143.8676,-31.16429 160.0023,-32.4628 16.1347,-1.29851 64.5387,3.89554 87.3962,3.89554 22.8575,0 141.1785,-2.59703 160.0023,-2.59703 18.8238,0 95.4636,0 115.632,2.59703 20.1683,2.59702 91.4298,18.17916 103.5309,29.86578 12.101,11.6866 47.0594,61.03006 48.404,93.49287 1.3446,32.4628 -1.3446,85.7018 -25.5466,106.47799 -24.202,20.77619 -80.6735,46.74643 -118.3211,54.53751 -37.6475,7.79107 -221.8519,16.88065 -243.3647,16.88065 -21.513,0 -112.9428,3.89554 -157.3132,-2.59702 -44.3704,-6.49256 -92.7745,-25.97024 -115.6319,-44.14941 -22.8575,-18.17918 -51.0933,-31.16429 -59.1606,-66.22412 -8.0673,-35.05983 0,-68.82114 0,-68.82114 z"
       id="path1335"
       inkscape:connector-curvature="0" />
    <path
       style="fill:#ffffff;fill-rule:evenodd;stroke:none;stroke-width:1px;stroke-linecap:butt;stroke-linejoin:miter;stroke-opacity:1"
       d="m 1746.5526,423.03907 c 27.5116,26.61792 42.8588,47.56076 -11.4058,80.71719 49.1355,-0.72812 43.5728,20.05383 34.2174,45.56614 66.8976,-20.5973 113.7421,-7.40942 120.3948,32.54725 43.9171,-32.2476 50.5645,-26.46532 83.6426,-1.30189 39.6321,-49.89404 62.6056,-15.54139 91.2465,-10.41512 -5.8821,-23.03081 13.5288,-43.92498 62.4748,-10.21797 -17.5693,-18.88765 -10.6126,-65.99877 56.6527,-69.19731 -30.151,-10.89059 -73.1985,-22.51429 -22.8117,-69.00017 -77.6206,-8.98442 -39.9485,-27.33589 -51.9598,-41.66048 l -112.7909,-13.0189 -114.0581,7.81134 -58.2964,5.20756 c -1.4105,20.45876 4.4806,42.79545 -77.3061,42.96236 z"
       id="path1337"
       inkscape:connector-curvature="0"
       sodipodi:nodetypes="cccccccccccccc" />
    <path
       style="fill:#ffffff;fill-rule:evenodd;stroke:none;stroke-width:1px;stroke-linecap:butt;stroke-linejoin:miter;stroke-opacity:1"
       d="m 2083.819,528.58622 c 24.8588,19.45474 57.2834,63.76832 55.1217,92.95043 10.8082,-38.90948 -17.2931,-97.27371 -31.3437,-112.40517 -14.0507,-15.13147 -23.778,19.45474 -23.778,19.45474 z"
       id="path1339"
       inkscape:connector-curvature="0" />
    <path
       style="fill:#ffffff;fill-rule:evenodd;stroke:none;stroke-width:1px;stroke-linecap:butt;stroke-linejoin:miter;stroke-opacity:1"
       d="m 890.21141,1438.6648 c 10.99475,-34.2595 32.98428,-50.6446 62.82721,-59.5818 29.84293,-8.9372 108.37698,1.4895 128.79578,1.4895 20.4188,0 102.0943,7.4477 113.089,19.3641 10.9948,11.9164 37.6963,37.2387 29.8429,64.0505 -7.8534,26.8118 -17.2775,53.6236 -59.6858,68.519 -42.4084,14.8954 -81.6754,0 -97.3823,1.4896 -15.7068,1.4895 -36.1256,8.9372 -80.10461,1.4895 -43.97905,-7.4477 -100.52356,-46.1759 -97.38218,-96.8204 z"
       id="path1341"
       inkscape:connector-curvature="0" />
    <path
       style="fill:#ffffff;fill-rule:evenodd;stroke:none;stroke-width:1px;stroke-linecap:butt;stroke-linejoin:miter;stroke-opacity:1"
       d="m 1321.8416,1549.9601 c -25.1103,-26.3097 -29.3743,-46.7563 -36.94,-53.2412 -7.5658,-6.4849 -52.768,-40.79 -87.3542,-44.0325 -34.5862,-3.2424 -28.1013,24.8589 -28.1013,24.8589 0,0 36.7479,1.0808 51.8793,5.4041 15.1315,4.3232 48.6369,20.5355 54.041,24.8588 5.4041,4.3233 19.4547,27.0205 46.4752,42.1519 z"
       id="path1343"
       inkscape:connector-curvature="0"
       sodipodi:nodetypes="cccccsc" />
    <path
       style="fill:#ffffff;fill-rule:evenodd;stroke:none;stroke-width:1px;stroke-linecap:butt;stroke-linejoin:miter;stroke-opacity:1"
       d="m 1847.0115,1634.8585 c 65.8759,-41.0171 79.5483,-53.4465 129.266,-55.9324 49.7176,-2.4859 59.6612,-29.8306 59.6612,-29.8306 0,0 -34.8024,-1.243 -72.0906,6.2147 -37.2883,7.4576 -95.7066,37.2882 -116.8366,79.5483 z"
       id="path1345"
       inkscape:connector-curvature="0" />
    <path
       style="fill:#ffffff;fill-rule:evenodd;stroke:none;stroke-width:0.99999988px;stroke-linecap:butt;stroke-linejoin:miter;stroke-opacity:1"
       d="m 1980.1886,1519.225 c 17.7997,-20.9727 63.5703,-43.2562 91.5412,-47.1886 27.9708,-3.9323 116.9692,5.2432 136.0403,17.0403 19.071,11.7972 58.4846,20.9728 57.2132,58.9858 -1.2715,38.013 5.0856,55.0534 -24.1567,76.026 -29.2423,20.9728 -132.2261,15.7296 -155.1113,14.4188 -22.8854,-1.3107 -66.1131,-6.5539 -88.9984,-30.1483 -22.8853,-23.5942 -33.0565,-48.4993 -16.5283,-89.134 z"
       id="path1347"
       inkscape:connector-curvature="0" />
    <path
       style="fill:#ffffff;fill-rule:evenodd;stroke:none;stroke-width:0.9563992px;stroke-linecap:butt;stroke-linejoin:miter;stroke-opacity:1"
       d="m 1975.5915,1647.7711 c 22.0221,-28.7475 75.7009,-39.0144 88.0884,-39.0144 12.3874,0 108.734,6.1601 126.6269,6.1601 17.893,0 55.0553,-6.1601 75.701,-4.1067 20.6458,2.0534 59.1843,0 75.7009,20.5339 16.5166,20.5338 28.904,65.7085 24.7749,85.2157 -4.1291,19.5072 5.5056,45.1745 -12.3874,74.9487 -17.8929,29.7741 -24.7748,41.0678 -50.9261,50.3081 -26.1512,9.2403 -150.0255,5.1335 -177.5531,2.0534 -27.5277,-3.0802 -81.2065,0 -104.6049,-5.1335 -23.3985,-5.1335 -60.5607,-22.5873 -55.0553,-44.1479 5.5056,-21.5606 -9.6347,-41.0678 -2.7528,-78.0288 6.882,-36.961 12.3875,-68.7886 12.3875,-68.7886 z"
       id="path1349"
       inkscape:connector-curvature="0" />
    <path
       style="fill:#ffffff;fill-rule:evenodd;stroke:none;stroke-width:0.99999994px;stroke-linecap:butt;stroke-linejoin:miter;stroke-opacity:1"
       d="m 110.76633,2399.1151 c 0,-35.8207 25.87264,-41.7908 42.74609,-41.7908 16.87346,0 71.9934,-4.7762 79.86769,-4.7762 7.87428,0 66.36892,7.1642 76.493,13.1343 10.12407,5.9701 25.87262,10.7462 23.62284,32.2386 -2.2498,21.4925 0,33.4327 -22.49794,39.4028 -22.49795,5.9702 -110.23992,8.3582 -125.98848,7.1642 -15.74855,-1.194 -39.37139,-10.7463 -50.62036,-17.9104 -11.24897,-7.1641 -25.87264,-9.5522 -23.62284,-27.4625 z"
       id="path1351"
       inkscape:connector-curvature="0" />
    <path
       style="fill:#ffffff;fill-rule:evenodd;stroke:none;stroke-width:1px;stroke-linecap:butt;stroke-linejoin:miter;stroke-opacity:1"
       d="m 309.11422,2418.5725 c 48.15781,-13.3735 82.20391,-10.201 96.44438,-8.217 14.9867,2.088 52.96013,14.4208 64.84914,25.229 11.889,10.8082 27.05014,32.7057 25.96932,45.6755 -1.08082,12.9699 6.91442,48.6073 5.8336,65.9004 -1.08082,17.2931 -12.59967,76.7677 -20.1654,101.6266 -7.56574,24.8588 -25.93966,54.0409 -107.00108,59.445 -81.06142,5.4041 -130.77909,3.2425 -162.12284,-5.4041 -31.34375,-8.6465 -71.33406,-14.0506 -82.14225,-55.1217 -10.80819,-41.0712 -14.05064,-87.5464 -10.80819,-107.0011 3.24246,-19.4548 6.48492,-62.6875 10.80819,-70.2533 4.32328,-7.5657 17.38212,-37.0289 27.10949,-43.5138 9.72737,-6.4849 151.22564,-8.3655 151.22564,-8.3655 z"
       id="path1353"
       inkscape:connector-curvature="0"
       sodipodi:nodetypes="csssscscsscsc" />
    <path
       style="fill:#ffffff;fill-rule:evenodd;stroke:none;stroke-width:1px;stroke-linecap:butt;stroke-linejoin:miter;stroke-opacity:1"
       d="m 532.84375,2533.5054 c 1.08082,-19.4547 14.05064,-55.1218 33.50539,-61.6067 19.45474,-6.4849 73.49568,-6.4849 84.30387,-3.2424 10.80819,3.2424 28.1013,27.0204 32.42457,36.7478 4.32328,9.7274 16.21229,44.3136 -3.24245,58.3642 -19.45474,14.0507 -38.90949,24.8589 -59.44505,23.778 -20.53556,-1.0808 -61.60668,-8.6465 -71.33405,-21.6163 -9.72737,-12.9699 -16.21228,-32.4246 -16.21228,-32.4246 z"
       id="path1355"
       inkscape:connector-curvature="0" />
    <path
       style="fill:#ffffff;fill-rule:evenodd;stroke:none;stroke-width:1px;stroke-linecap:butt;stroke-linejoin:miter;stroke-opacity:1"
       d="m 371.0335,2696.1612 c 0,0 10.62431,7.3553 12.25882,23.7003 1.63451,16.3451 -0.81725,35.142 -13.89333,54.7561 28.60391,-32.6902 43.31449,-55.5733 34.32469,-83.36 -8.9898,-27.7866 -32.69018,4.9036 -32.69018,4.9036 z"
       id="path1357"
       inkscape:connector-curvature="0" />
    <path
       style="fill:#ffffff;fill-rule:evenodd;stroke:none;stroke-width:1px;stroke-linecap:butt;stroke-linejoin:miter;stroke-opacity:1"
       d="m 609.41023,2578.6689 c 0,0 17.16235,24.5177 9.80706,38.411 -7.35529,13.8933 -8.9898,18.7968 -25.33489,35.1419 26.9694,-17.9796 37.5937,-31.0556 40.86272,-43.3145 3.26902,-12.2588 5.72078,-35.9592 5.72078,-42.4972 0,-6.538 -31.05567,12.2588 -31.05567,12.2588 z"
       id="path1359"
       inkscape:connector-curvature="0" />
    <path
       style="fill:#ffffff;fill-rule:evenodd;stroke:none;stroke-width:1.03840244px;stroke-linecap:butt;stroke-linejoin:miter;stroke-opacity:1"
       d="m 721.7991,2510.6937 c -9.39843,-42.5634 -7.51874,-84.1134 4.69921,-95.2608 4.75927,-26.065 60.0674,-65.3013 81.7663,-59.7915 16.91717,-4.0536 108.0819,-25.3353 125.93891,-23.3084 17.85701,2.0267 118.32618,4.6109 137.12298,22.8524 18.7969,18.2414 34.2573,28.5276 45.5355,47.7825 11.2781,19.2548 17.716,57.2071 23.3551,63.2875 5.639,6.0806 3.5713,36.3309 -1.1279,53.5589 -4.6992,17.2281 -21.6164,31.4159 -46.0523,37.4963 -24.4359,6.0806 -57.3304,14.1878 -78.9468,15.2013 -21.61634,1.0134 -71.428,1.0134 -109.0217,-2.0268 -44.76237,-9.5027 -72.61993,-9.7453 -117.26947,-14.0847 -8.45859,-1.0133 -64.12015,-18.3446 -65.99983,-45.7067 z"
       id="path1361"
       inkscape:connector-curvature="0"
       sodipodi:nodetypes="ccccccccccccc" />
    <path
       style="fill:#ffffff;fill-rule:evenodd;stroke:none;stroke-width:1px;stroke-linecap:butt;stroke-linejoin:miter;stroke-opacity:1"
       d="m 1048.8643,2539.6614 c 40.4132,37.5937 65.789,69.5483 47.932,102.4428 29.1351,-35.714 14.0976,-69.5483 -24.4359,-117.4803 -38.5336,-47.932 -23.4961,15.0375 -23.4961,15.0375 z"
       id="path1363"
       inkscape:connector-curvature="0" />
    <path
       style="fill:#ffffff;fill-rule:evenodd;stroke:none;stroke-width:1px;stroke-linecap:butt;stroke-linejoin:miter;stroke-opacity:1"
       d="m 1362.7766,2499.8218 c -0.8172,-27.7867 20.4314,-32.6902 31.8729,-34.3247 11.4416,-1.6345 58.8423,-9.807 76.8219,3.269 17.9796,13.0761 22.8832,35.142 14.7106,43.3145 -8.1725,8.1726 -34.3247,20.4314 -50.6698,21.2486 -16.345,0.8173 -51.487,-4.0862 -62.9285,-15.5278 -11.4416,-11.4416 -9.8071,-17.9796 -9.8071,-17.9796 z"
       id="path1365"
       inkscape:connector-curvature="0" />
    <path
       style="fill:#ffffff;fill-rule:evenodd;stroke:none;stroke-width:1px;stroke-linecap:butt;stroke-linejoin:miter;stroke-opacity:1"
       d="m 1445.7231,2523.112 c 0,0 19.6141,10.6243 24.5176,19.6141 4.9035,8.9898 13.0761,31.0556 8.9898,45.7662 13.0761,-26.1521 8.1725,-42.4972 4.9035,-49.8525 -3.269,-7.3553 -23.7004,-34.3247 -23.7004,-34.3247 z"
       id="path1367"
       inkscape:connector-curvature="0" />
    <path
       style="fill:#ffffff;fill-rule:evenodd;stroke:none;stroke-width:1.01357746px;stroke-linecap:butt;stroke-linejoin:miter;stroke-opacity:1"
       d="m 1811.2557,2452.444 c 4.6447,-52.9602 33.6736,-69.1724 53.4134,-76.7382 19.7397,-7.5657 101.021,-18.3739 128.8888,-17.2931 27.8678,1.0808 131.2111,11.889 148.6285,12.9698 17.4175,1.0809 61.5415,25.9397 65.025,32.4246 3.4835,6.4849 18.5786,23.778 13.9339,43.2328 -4.6446,19.4547 -31.3513,45.3944 -56.8969,55.1217 -25.5456,9.7274 -127.7275,17.2931 -147.4673,15.1315 -19.7397,-2.1616 -53.4133,-5.4041 -73.1531,-5.4041 -19.7398,0 -82.4424,-1.0808 -98.6987,-12.9698 -16.2562,-11.889 -33.6736,-46.4752 -33.6736,-46.4752 z"
       id="path1369"
       inkscape:connector-curvature="0" />
    <path
       style="fill:#ffffff;fill-rule:evenodd;stroke:none;stroke-width:1px;stroke-linecap:butt;stroke-linejoin:miter;stroke-opacity:1"
       d="m 1988.5393,2507.5657 c 15.6768,24.1512 6.1632,34.5534 -20.368,35.6671 20.5199,9.9586 46.1337,15.5923 40.7359,47.556 22.7818,-0.375 37.1938,-19.937 73.551,10.8082 21.4995,-25.3561 42.999,-13.281 64.4986,-2.1617 10.3119,-11.3113 29.2981,-12.0311 69.0248,-6.4849 -3.0677,-25.0109 21.8624,-36.1565 45.2622,-44.3136 -19.8128,-13.1763 -37.659,-27.5479 -24.8943,-60.5258 -28.7916,7.2773 -53.0033,6.6803 -66.7616,-11.889 -28.5646,4.157 -50.0209,21.8927 -89.3928,5.4041 -21.2019,19.9279 -44.8336,21.2885 -69.0248,18.3739 5.5129,17.7643 -0.9947,21.4958 -22.631,7.5657 z"
       id="path1371"
       inkscape:connector-curvature="0"
       sodipodi:nodetypes="cccccccccccc" />
    <path
       style="fill:#ffffff;fill-rule:evenodd;stroke:none;stroke-width:1px;stroke-linecap:butt;stroke-linejoin:miter;stroke-opacity:1"
       d="m 2142.1832,2571.3341 c -3.2425,28.1012 8.6465,79.9806 34.5862,113.4859 -3.2425,16.2123 1.0808,33.5054 15.1315,47.5561 -12.9699,-29.1821 -7.5658,-36.7479 -1.0809,-50.7985 -12.9698,-20.5356 -31.3437,-69.1724 -34.5862,-109.1627 -3.2424,-39.9903 -14.0506,-1.0808 -14.0506,-1.0808 z"
       id="path1373"
       inkscape:connector-curvature="0" />
  </g>
  <g
     inkscape:groupmode="layer"
     id="layer1"
     inkscape:label="txt">
    <text
       xml:space="preserve"
       style="font-style:normal;font-variant:normal;font-weight:normal;font-stretch:normal;line-height:0%;font-family:Lavi;-inkscape-font-specification:Lavi;text-align:center;letter-spacing:0px;word-spacing:0px;text-anchor:middle;fill:#000000;fill-opacity:1;stroke:none"
       x="320.61392"
       y="193.67375"
       id="text4246"><tspan
         sodipodi:role="line"
         style="font-size:45px;line-height:1.20000005"
         x="320.61392"
         y="193.67375"
         id="tspan4252">Знаете...</tspan></text>
    <text
       xml:space="preserve"
       style="font-style:normal;font-variant:normal;font-weight:normal;font-stretch:normal;line-height:0%;font-family:Lavi;-inkscape-font-specification:Lavi;text-align:center;letter-spacing:0px;word-spacing:0px;text-anchor:middle;fill:#000000;fill-opacity:1;stroke:none"
       x="528.04688"
       y="265.45801"
       id="text4246-3"><tspan
         sodipodi:role="line"
         style="font-size:45px;line-height:1.20000005"
         x="528.04688"
         y="265.45801"
         id="tspan841">Я опять думала</tspan><tspan
         sodipodi:role="line"
         style="font-size:45px;line-height:1.20000005"
         x="528.04688"
         y="319.45801"
         id="tspan94">о безопасности...</tspan></text>
    <text
       xml:space="preserve"
       style="font-style:normal;font-variant:normal;font-weight:normal;font-stretch:normal;line-height:0%;font-family:Lavi;-inkscape-font-specification:Lavi;text-align:center;letter-spacing:0px;word-spacing:0px;text-anchor:middle;fill:#000000;fill-opacity:1;stroke:none"
       x="1216.2142"
       y="169.41882"
       id="text4246-3-7"><tspan
         sodipodi:role="line"
         style="font-size:45px;line-height:1.20000005"
         x="1216.2142"
         y="169.41882"
         id="tspan872">Так много юных</tspan><tspan
         sodipodi:role="line"
         style="font-size:45px;line-height:1.20000005"
         x="1216.2142"
         y="223.41882"
         id="tspan110">королей и королев</tspan><tspan
         sodipodi:role="line"
         style="font-size:45px;line-height:1.20000005"
         x="1216.2142"
         y="277.41882"
         id="tspan112">были убиты</tspan><tspan
         sodipodi:role="line"
         style="font-size:45px;line-height:1.20000005"
         x="1216.2142"
         y="331.41882"
         id="tspan114">во время коронации.</tspan></text>
    <text
       xml:space="preserve"
       style="font-style:normal;font-variant:normal;font-weight:normal;font-stretch:normal;line-height:0%;font-family:Lavi;-inkscape-font-specification:Lavi;text-align:center;letter-spacing:0px;word-spacing:0px;text-anchor:middle;fill:#000000;fill-opacity:1;stroke:none"
       x="1218.0764"
       y="432.03543"
       id="text4246-3-7-7"><tspan
         sodipodi:role="line"
         style="font-size:45px;line-height:1.20000005"
         x="1218.0764"
         y="432.03543"
         id="tspan746">Это уже стало</tspan><tspan
         sodipodi:role="line"
         style="font-size:45px;line-height:1.20000005"
         x="1218.0764"
         y="486.03543"
         id="tspan121">частью истории</tspan><tspan
         sodipodi:role="line"
         style="font-size:45px;line-height:1.20000005"
         x="1218.0764"
         y="540.03546"
         id="tspan123">моей семьи.</tspan></text>
    <text
       xml:space="preserve"
       style="font-style:normal;font-variant:normal;font-weight:normal;font-stretch:normal;line-height:0%;font-family:Lavi;-inkscape-font-specification:Lavi;text-align:center;letter-spacing:0px;word-spacing:0px;text-anchor:middle;fill:#000000;fill-opacity:1;stroke:none"
       x="1961.5282"
       y="176.76515"
       id="text4246-3-7-7-6"><tspan
         sodipodi:role="line"
         style="font-size:45px;line-height:1.20000005"
         x="1961.5282"
         y="176.76515"
         id="tspan996">А теперь, через какую-то</tspan><tspan
         sodipodi:role="line"
         style="font-size:45px;line-height:1.20000005"
         x="1961.5282"
         y="230.76515"
         id="tspan139">пару часов, к нам придут</tspan><tspan
         sodipodi:role="line"
         style="font-size:45px;line-height:1.20000005"
         x="1961.5282"
         y="284.76517"
         id="tspan141">тысячи гостей со всего мира</tspan><tspan
         sodipodi:role="line"
         style="font-size:45px;line-height:1.20000005"
         x="1961.5282"
         y="338.76517"
         id="tspan143"> и я буду в центре внимания.</tspan></text>
    <text
       xml:space="preserve"
       style="font-style:normal;font-variant:normal;font-weight:normal;font-stretch:normal;line-height:0%;font-family:Lavi;-inkscape-font-specification:Lavi;text-align:center;letter-spacing:0px;word-spacing:0px;text-anchor:middle;fill:#000000;fill-opacity:1;stroke:none"
       x="1059.3418"
       y="1445.7167"
       id="text4246-3-7-7-6-7"><tspan
         sodipodi:role="line"
         style="font-size:45px;line-height:1.20000005"
         x="1059.3418"
         y="1445.7167"
         id="tspan1067">Не волнуйся,</tspan><tspan
         sodipodi:role="line"
         style="font-size:45px;line-height:1.20000005"
         x="1059.3418"
         y="1499.7167"
         id="tspan151">Кориандра.</tspan></text>
    <text
       xml:space="preserve"
       style="font-style:normal;font-variant:normal;font-weight:normal;font-stretch:normal;line-height:0%;font-family:Lavi;-inkscape-font-specification:Lavi;text-align:center;letter-spacing:0px;word-spacing:0px;text-anchor:middle;fill:#000000;fill-opacity:1;stroke:none"
       x="1957.3252"
       y="459.72366"
       id="text4246-3-7-7-6-7-7"><tspan
         sodipodi:role="line"
         style="font-size:45px;line-height:1.20000005"
         x="1957.3252"
         y="459.72366"
         id="tspan1042-9">Я очень,</tspan><tspan
         sodipodi:role="line"
         style="font-size:45px;line-height:1.20000005"
         x="1957.3252"
         y="513.72369"
         id="tspan147">очень боюсь!</tspan></text>
    <text
       xml:space="preserve"
       style="font-style:normal;font-variant:normal;font-weight:normal;font-stretch:normal;line-height:0%;font-family:Lavi;-inkscape-font-specification:Lavi;text-align:center;letter-spacing:0px;word-spacing:0px;text-anchor:middle;fill:#000000;fill-opacity:1;stroke:none"
       x="2121.4336"
       y="1547.2563"
       id="text4246-3-7-7-6-7-2"><tspan
         sodipodi:role="line"
         style="font-size:45px;line-height:1.20000005"
         x="2121.4336"
         y="1547.2563"
         id="tspan1092">Всё пойдёт</tspan><tspan
         sodipodi:role="line"
         style="font-size:45px;line-height:1.20000005"
         x="2121.4336"
         y="1601.2563"
         id="tspan161">по плану.</tspan></text>
    <text
       xml:space="preserve"
       style="font-style:normal;font-variant:normal;font-weight:normal;font-stretch:normal;line-height:0%;font-family:Lavi;-inkscape-font-specification:Lavi;text-align:center;letter-spacing:0px;word-spacing:0px;text-anchor:middle;fill:#000000;fill-opacity:1;stroke:none"
       x="2164.7778"
       y="1689.3052"
       id="text4246-3-7-7-6-7-2-9"><tspan
         sodipodi:role="line"
         style="font-size:45px;line-height:1.20000005"
         x="2164.7778"
         y="1689.3052"
         id="tspan1121">Помнишь? Ситими</tspan><tspan
         sodipodi:role="line"
         style="font-size:45px;line-height:1.20000005"
         x="2164.7778"
         y="1743.3052"
         id="tspan172">и я будем твоими</tspan><tspan
         sodipodi:role="line"
         style="font-size:45px;line-height:1.20000005"
         x="2164.7778"
         y="1797.3052"
         id="tspan174">телохранителями.</tspan></text>
    <text
       xml:space="preserve"
       style="font-style:normal;font-variant:normal;font-weight:normal;font-stretch:normal;line-height:0%;font-family:Lavi;-inkscape-font-specification:Lavi;text-align:center;letter-spacing:0px;word-spacing:0px;text-anchor:middle;fill:#000000;fill-opacity:1;stroke:none"
       x="224.1396"
       y="2409.7466"
       id="text4246-3-7-7-6-7-2-9-6"><tspan
         sodipodi:role="line"
         style="font-size:45px;line-height:1.20000005"
         x="224.1396"
         y="2409.7466"
         id="tspan1121-3">Точно.</tspan></text>
    <text
       xml:space="preserve"
       style="font-style:normal;font-variant:normal;font-weight:normal;font-stretch:normal;line-height:0%;font-family:Lavi;-inkscape-font-specification:Lavi;text-align:center;letter-spacing:0px;word-spacing:0px;text-anchor:middle;fill:#000000;fill-opacity:1;stroke:none"
       x="298.04773"
       y="2462.8401"
       id="text4246-3-7-7-6-7-2-9-6-1"><tspan
         sodipodi:role="line"
         style="font-size:45px;line-height:1.20000005"
         x="298.04773"
         y="2462.8401"
         id="tspan1183">Просто</tspan><tspan
         sodipodi:role="line"
         style="font-size:45px;line-height:1.20000005"
         x="298.04773"
         y="2516.8401"
         id="tspan198">расслабься</tspan><tspan
         sodipodi:role="line"
         style="font-size:45px;line-height:1.20000005"
         x="298.04773"
         y="2570.8401"
         id="tspan192"> сейчас и подумай</tspan><tspan
         sodipodi:role="line"
         style="font-size:45px;line-height:1.20000005"
         x="298.04773"
         y="2624.8401"
         id="tspan194">о чём-нибудь</tspan><tspan
         sodipodi:role="line"
         style="font-size:45px;line-height:1.20000005"
         x="298.04773"
         y="2678.8401"
         id="tspan196"> другом.</tspan></text>
    <text
       xml:space="preserve"
       style="font-style:normal;font-variant:normal;font-weight:normal;font-stretch:normal;line-height:0%;font-family:Lavi;-inkscape-font-specification:Lavi;text-align:center;letter-spacing:0px;word-spacing:0px;text-anchor:middle;fill:#000000;fill-opacity:1;stroke:none"
       x="618.41107"
       y="2544.4858"
       id="text4246-3-7-7-6-7-2-9-6-1-4"><tspan
         sodipodi:role="line"
         style="font-size:45px;line-height:1.20000005"
         x="618.41107"
         y="2544.4858"
         id="tspan1183-0">OK.</tspan></text>
    <text
       xml:space="preserve"
       style="font-style:normal;font-variant:normal;font-weight:normal;font-stretch:normal;line-height:0%;font-family:Lavi;-inkscape-font-specification:Lavi;text-align:center;letter-spacing:0px;word-spacing:0px;text-anchor:middle;fill:#000000;fill-opacity:1;stroke:none"
       x="930.65936"
       y="2408.6426"
       id="text4246-3-7-7-6-7-2-9-6-1-4-3"><tspan
         sodipodi:role="line"
         style="font-size:45px;line-height:1.20000005"
         x="930.65936"
         y="2408.6426"
         id="tspan1249">Эй! Давайте</tspan><tspan
         sodipodi:role="line"
         style="font-size:45px;line-height:1.20000005"
         x="930.65936"
         y="2462.6426"
         id="tspan205">покажу моё</tspan><tspan
         sodipodi:role="line"
         style="font-size:45px;line-height:1.20000005"
         x="930.65936"
         y="2516.6426"
         id="tspan213">новое изобретение.</tspan></text>
    <text
       xml:space="preserve"
       style="font-style:normal;font-variant:normal;font-weight:normal;font-stretch:normal;line-height:0%;font-family:Lavi;-inkscape-font-specification:Lavi;text-align:center;letter-spacing:0px;word-spacing:0px;text-anchor:middle;fill:#000000;fill-opacity:1;stroke:none"
       x="1429.6105"
       y="2501.0703"
       id="text4246-3-7-7-6-7-2-9-6-1-4-3-1"><tspan
         sodipodi:role="line"
         style="font-size:45px;line-height:1.20000005"
         x="1429.6105"
         y="2501.0703"
         id="tspan1249-3">...</tspan></text>
    <text
       xml:space="preserve"
       style="font-style:normal;font-variant:normal;font-weight:normal;font-stretch:normal;line-height:0%;font-family:Lavi;-inkscape-font-specification:Lavi;text-align:center;letter-spacing:0px;word-spacing:0px;text-anchor:middle;fill:#000000;fill-opacity:1;stroke:none"
       x="2008.2061"
       y="2425.7151"
       id="text4246-3-7-7-6-7-2-9-6-1-4-3-1-2"><tspan
         sodipodi:role="line"
         style="font-size:45px;line-height:1.20000005"
         x="2008.2061"
         y="2425.7151"
         id="tspan1298">Оно внизу в моей</tspan><tspan
         sodipodi:role="line"
         style="font-size:45px;line-height:1.20000005"
         x="2008.2061"
         y="2479.7151"
         id="tspan217">мастерской.</tspan></text>
    <text
       xml:space="preserve"
       style="font-style:normal;font-variant:normal;font-weight:normal;font-stretch:normal;line-height:0%;font-family:Lavi;-inkscape-font-specification:Lavi;text-align:center;letter-spacing:0px;word-spacing:0px;text-anchor:middle;fill:#000000;fill-opacity:1;stroke:none"
       x="2118.0996"
       y="2553.5225"
       id="text4246-3-7-7-6-7-2-9-6-1-4-3-1-2-6"><tspan
         sodipodi:role="line"
         style="font-size:45px;line-height:1.20000005"
         x="2118.0996"
         y="2553.5225"
         id="tspan1298-5">Идёмте.</tspan></text>
    <text
       xml:space="preserve"
       style="font-style:normal;font-weight:normal;font-size:40px;line-height:1.25;font-family:sans-serif;letter-spacing:0px;word-spacing:0px;fill:#000000;fill-opacity:1;stroke:none"
       x="839.52301"
       y="2477.645"
       id="text209"><tspan
         sodipodi:role="line"
         id="tspan207"
         x="839.52301"
         y="2513.0356" /><tspan
         sodipodi:role="line"
         x="839.52301"
         y="2563.0356"
         id="tspan211" /></text>
  </g>
</svg>
