<?xml version="1.0" encoding="UTF-8" standalone="no"?>
<!-- Created with Inkscape (http://www.inkscape.org/) -->

<svg
   xmlns:dc="http://purl.org/dc/elements/1.1/"
   xmlns:cc="http://creativecommons.org/ns#"
   xmlns:rdf="http://www.w3.org/1999/02/22-rdf-syntax-ns#"
   xmlns:svg="http://www.w3.org/2000/svg"
   xmlns="http://www.w3.org/2000/svg"
   xmlns:xlink="http://www.w3.org/1999/xlink"
   xmlns:sodipodi="http://sodipodi.sourceforge.net/DTD/sodipodi-0.dtd"
   xmlns:inkscape="http://www.inkscape.org/namespaces/inkscape"
   id="svg2"
   version="1.1"
   inkscape:version="0.92.2 (5c3e80d, 2017-08-06)"
   width="2481"
   height="3503"
   sodipodi:docname="E24P02.svg">
  <metadata
     id="metadata8">
    <rdf:RDF>
      <cc:Work
         rdf:about="">
        <dc:format>image/svg+xml</dc:format>
        <dc:type
           rdf:resource="http://purl.org/dc/dcmitype/StillImage" />
        <dc:title />
      </cc:Work>
    </rdf:RDF>
  </metadata>
  <defs
     id="defs6">
    <filter
       style="color-interpolation-filters:sRGB"
       id="filter4375-4-1-1-1-9"
       inkscape:label="deevad outline effect">
      <feFlood
         id="feFlood4377-7-9-0-8-1"
         flood-opacity="1"
         flood-color="rgb(0,0,0)"
         result="flood" />
      <feComposite
         id="feComposite4379-3-8-8-2-77"
         in2="SourceGraphic"
         in="flood"
         operator="in"
         result="composite1" />
      <feMorphology
         id="feMorphology4393-1-0-49-8-9"
         operator="dilate"
         radius="4"
         result="result3" />
      <feComposite
         id="feComposite4385-9-5-7-0-8"
         in2="result3"
         in="SourceGraphic"
         operator="over"
         result="composite2" />
    </filter>
  </defs>
  <sodipodi:namedview
     pagecolor="#ffffff"
     bordercolor="#666666"
     borderopacity="1"
     objecttolerance="10"
     gridtolerance="10"
     guidetolerance="10"
     inkscape:pageopacity="0"
     inkscape:pageshadow="2"
     inkscape:window-width="1920"
     inkscape:window-height="1043"
     id="namedview4"
     showgrid="false"
     inkscape:zoom="0.3560766"
     inkscape:cx="931.28106"
     inkscape:cy="1019.5521"
     inkscape:window-x="0"
     inkscape:window-y="0"
     inkscape:window-maximized="1"
     inkscape:current-layer="layer1"
     inkscape:snap-global="false"
     showguides="true" />
  <g
     inkscape:groupmode="layer"
     id="layer2"
     inkscape:label="artwork"
     sodipodi:insensitive="true">
    <image
       sodipodi:absref="/home/willem/Git/webcomics/ep24_The-Unity-Tree/lang/nl/../gfx_Pepper-and-Carrot_by-David-Revoy_E24P02.png"
       xlink:href="../gfx_Pepper-and-Carrot_by-David-Revoy_E24P02.png"
       y="0"
       x="0"
       id="image10"
       height="3503"
       width="2481" />
  </g>
  <g
     inkscape:groupmode="layer"
     id="layer3"
     inkscape:label="speechbubbles">
    <path
       style="fill:#ffffff;stroke:none;stroke-width:1"
       d="m 986.62894,1153.4264 c 92.45806,-6.2474 172.51156,1.9771 193.65356,8.0718 21.1422,6.0946 42.1764,17.8651 54.1192,22.4348 39.8675,15.2547 27.1006,96.4648 10.0661,104.8644 -13.3671,6.5912 -22.5333,27.0995 -78.9371,33.9441 -56.4039,6.8446 -160.1752,10.0633 -194.84794,3.7073 -34.67277,-6.356 -108.2945,-1.7364 -128.65644,-42.4953 -20.36196,-40.7589 -2.49269,-105.1206 62.72571,-118.5214 36.76659,-7.5546 81.87691,-12.0057 81.87691,-12.0057 z"
       id="path3286"
       inkscape:connector-curvature="0"
       sodipodi:nodetypes="csssssssc" />
    <path
       style="color:#000000;display:inline;overflow:visible;visibility:visible;fill:#ffffff;fill-opacity:1;fill-rule:nonzero;stroke:none;stroke-width:1px;marker:none;enable-background:accumulate"
       d="m 2235.2039,1351.7266 c -166.3352,-2.8614 -213.7021,-12.523 -212.7392,-160.2219 0.9628,-147.6988 62.36,-185.3534 151.8783,-188.2994 86.9037,-2.9459 154.5086,15.2772 172.0646,56.1946 20.2832,43.7122 12.8475,94.0615 18.9072,133.2805 9.3188,33.6286 -0.5678,100.6725 -18.8001,119.6991 -18.1675,18.9593 -77.4171,40.1595 -111.3108,39.3471 z"
       id="path3365"
       inkscape:connector-curvature="0"
       sodipodi:nodetypes="cscccsc" />
    <path
       style="color:#000000;display:inline;overflow:visible;visibility:visible;fill:#ffffff;fill-opacity:1;fill-rule:nonzero;stroke:none;stroke-width:1px;marker:none;enable-background:accumulate"
       d="m 1198.7644,1423.4293 c -65.8868,24.7163 -113.3546,19.9171 -155.8077,-21.3296 -42.4529,-41.2466 -25.6159,-54.2435 -25.6159,-54.2435 -4.0757,1.3441 59.1253,103.7196 181.4236,75.5731 z"
       id="path5002"
       inkscape:connector-curvature="0"
       sodipodi:nodetypes="cccc" />
    <path
       style="color:#000000;display:inline;overflow:visible;visibility:visible;fill:#ffffff;fill-opacity:1;fill-rule:nonzero;stroke:none;stroke-width:1px;marker:none;enable-background:accumulate"
       d="m 2050.7762,1376.6106 c 37.4574,14.4492 67.4988,-7.5666 86.7222,-51.9063 19.2234,-44.3397 35.3495,-35.8085 35.3495,-35.8085 l 5.0926,33.3889 c 0,0 -35.4044,96.209 -127.1643,54.3259 z"
       id="path3072"
       inkscape:connector-curvature="0"
       sodipodi:nodetypes="csccc" />
    <path
       style="color:#000000;display:inline;overflow:visible;visibility:visible;fill:#ffffff;fill-opacity:1;fill-rule:nonzero;stroke:none;stroke-width:0.99999994px;marker:none;enable-background:accumulate"
       d="M 68.029053,2338.5052 C 56.596551,2221.3679 -64.841051,2146.3029 354.50525,2136.8905 c 113.13939,-2.5394 243.76913,-17.3812 261.80916,154.0797 18.03985,171.4607 -164.41203,186.3332 -201.3236,194.2979 -36.91155,7.965 -211.5397,9.8076 -269.71701,-34.3927 -32.67585,-24.8254 -72.299498,-76.2409 -77.244747,-112.3702 z"
       id="path4546"
       inkscape:connector-curvature="0"
       sodipodi:nodetypes="cssssc" />
    <path
       style="color:#000000;display:inline;overflow:visible;visibility:visible;fill:#ffffff;fill-opacity:1;fill-rule:nonzero;stroke:none;stroke-width:1px;marker:none;enable-background:accumulate"
       d="m 938.88376,2588.2317 c -82.20454,4.188 -216.80024,-6.3836 -253.84911,-59.9463 -37.04867,-53.5626 -39.85334,-125.9298 -1.22278,-165.4712 38.63039,-39.5414 111.70907,-80.0465 183.56144,-81.2548 71.85227,-1.2087 172.06299,22.0835 206.89769,72.3578 34.8349,50.2741 43.7219,168.4739 -39.8499,205.8749 -83.5721,37.4013 -95.53734,28.4396 -95.53734,28.4396 z"
       id="path3970"
       inkscape:connector-curvature="0"
       sodipodi:nodetypes="ccccccc" />
    <path
       style="color:#000000;display:inline;overflow:visible;visibility:visible;fill:#ffffff;fill-opacity:1;fill-rule:nonzero;stroke:none;stroke-width:0.99999994px;marker:none;enable-background:accumulate"
       d="m 973.61573,2947.6406 c -51.74784,3.1643 -130.28832,-4.8231 -153.6106,-45.2931 -23.32216,-40.4698 -31.27528,-95.1476 -6.95732,-125.0235 24.31785,-29.8759 70.32092,-60.48 115.55202,-61.393 45.23103,-0.9132 108.31387,16.6854 130.24227,54.6708 21.9286,37.9851 27.5229,127.2922 -25.0856,155.551 -52.60867,28.2589 -60.14077,21.4878 -60.14077,21.4878 z"
       id="path3970-4"
       inkscape:connector-curvature="0" />
    <path
       style="fill:#ffffff;fill-rule:evenodd;stroke:none;stroke-width:1px;stroke-linecap:butt;stroke-linejoin:miter;stroke-opacity:1"
       d="m 336.74184,2585.6571 c -63.2798,-44.5839 -68.79168,-98.8369 -22.99541,-144.2951 18.90772,-28.5006 -29.49137,-44.6932 -49.46806,0.8803 2.52314,18.0735 -60.406,94.8559 72.46347,143.4148 z"
       id="path4278"
       inkscape:connector-curvature="0"
       sodipodi:nodetypes="cccc" />
    <path
       style="color:#000000;display:inline;overflow:visible;visibility:visible;fill:#ffffff;fill-opacity:1;fill-rule:nonzero;stroke:none;stroke-width:1px;marker:none;enable-background:accumulate"
       d="m 761.38933,2644.6617 c 40.56205,-7.5931 54.44696,-12.612 63.67875,-60.0495 9.2317,-47.4376 26.81589,-42.5763 26.81589,-42.5763 l 12.15811,31.5107 c 0,0 -26.74612,99.3801 -102.65275,71.1151 z"
       id="path3072-5"
       inkscape:connector-curvature="0" />
    <path
       style="color:#000000;display:inline;overflow:visible;visibility:visible;fill:#ffffff;fill-opacity:1;fill-rule:nonzero;stroke:none;stroke-width:1px;marker:none;enable-background:accumulate"
       d="m 744.70486,2777.2739 c 21.8597,19.4259 25.84476,19.8547 38.08065,11.9234 12.23579,-7.9313 27.1542,-23.1621 53.13132,-17.7581 84.05943,-18.1201 113.76084,72.1324 -3.48563,23.5751 -17.33625,-6.3711 -39.16416,13.5701 -53.85665,11.2775 -14.69258,-2.2926 -25.60297,-17.6945 -33.86969,-29.0179 z"
       id="path4538"
       inkscape:connector-curvature="0"
       sodipodi:nodetypes="cccccc" />
    <path
       style="fill:#ffffff;fill-rule:evenodd;stroke:none;stroke-width:1px;stroke-linecap:butt;stroke-linejoin:miter;stroke-opacity:1"
       d="m 1300.0089,3127.8607 c 0.532,10.4744 -0.1057,23.6329 -9.2869,30.0553 -11.1875,5.1653 -22.6476,-3.1255 -31.6182,-9.3933 -2.9409,-2.7404 0.519,3.3653 0.2815,4.9057 2.1741,9.271 3.3887,21.7394 -4.6462,28.3296 -9.912,6.3827 -22.416,0.906 -31.78,-3.162 3.8741,10.5219 8.5914,23.7411 1.9962,34.1459 -4.3383,4.8605 -11.7008,4.7389 -17.191,3.7188 4.3174,7.7867 4.855,20.5116 -4.0831,24.9576 -4.048,2.4985 -10.2471,1.9958 -13.7135,2.1307 7.5765,8.223 14.5249,21.3496 8.4749,32.4552 -3.318,5.6104 -8.9028,9.2526 -14.5891,11.8075 8.8708,1.4638 20.0852,6.897 20.1535,17.699 0.292,6.2044 -4.662,12.6724 -7.2134,16.3021 10.334,-3.657 22.9661,-8.0578 33.08,-1.6865 4.5872,4.3376 5.7272,11.3206 4.9299,17.4659 10.6051,-6.7451 21.6731,-3.1032 34.4383,1.8665 7.7939,4.2687 11.8861,13.1731 13.8349,21.7415 13.8333,-10.3056 30.472,-22.2696 48.377,-17.5322 12.6827,3.8127 20.5212,15.884 28.5072,25.9104 3.883,-10.9197 11.0966,-23.586 23.3784,-24.7084 12.1923,0.893 17.9349,14.1398 23.7024,23.4681 1.1202,4.7372 4.0781,8.3689 5.215,6.2627 5.1246,-11.4025 12.0846,-24.5647 24.6842,-27.8824 13.1649,-0.713 22.092,11.7618 29.2246,21.4821 2.9849,-11.9549 1.2034,-28.2728 14.0709,-30.9796 12.8001,-0.3696 15.614,8.0289 21.5475,18.1037 2.7097,4.0011 4.9209,8.3384 7.5742,12.3783 2.0929,-10.476 6.8562,-31.4008 18.3563,-31.6483 10.7497,0.042 19.1824,8.1687 27.0488,14.7361 0.092,-11.7615 11.7197,-22.7171 23.0274,-18.7604 14.4713,3.1866 27.9029,1.9502 40.1545,9.7419 -3.5809,-8.8412 -6.5989,-21.9949 2.0271,-28.7949 4.853,-3.1806 10.9715,-2.7263 16.3153,-1.4012 -5.0605,-9.4286 8.6889,-17.4346 18.5989,-23.1312 5.392,-3.7818 11.9376,-4.9573 18.0494,-6.8545 -10.9982,-8.1121 -28.1323,-18.531 -24.9752,-33.6239 1.0766,-6.7661 12.5481,-16.0495 15.2291,-20.6553 -29.0304,10.0843 -27.584,-4.7448 -9.582,-20.9795 2.1938,-4.0947 1.2284,-4.0272 -2.4308,-1.2676 -9.9456,5.9221 -15.8623,2.1796 -27.7424,2.4103 -8.9598,-3.2789 -7.8641,-24.0887 -2.4718,-31.0247 -12.9881,6.4609 -27.3722,14.2291 -42.1833,11.0728 -9.8736,-5.6013 -9.7117,-19.8033 -5.8507,-29.3839 1.3796,-3.9045 -0.6495,-1.2326 -2.5707,0.696 -7.3355,7.1626 -15.8673,15.435 -26.3298,16.0274 -9.9652,-2.4885 -12.831,-15.5924 -10.1054,-24.6915 -0.1233,-2.2125 1.8904,-8.682 -1.0284,-3.9825 -5.8136,6.9837 -15.2927,24.4992 -24.9269,23.0768 -4.7454,-1.5418 -10.4278,-22.2527 -11.8488,-27.0162 -4.539,7.596 -11.4833,31.9573 -21.0134,28.7633 -8.7973,-4.129 -10.0286,-15.5551 -10.2996,-24.3988 -3.162,8.1531 -9.2973,14.4007 -19.0724,14.8017 -10.2019,-0.9284 -14.5577,-35.0387 -16.8518,-43.9573 -0.709,-2.7677 -3.5996,-8.8656 -2.2524,4.4042 -2.8202,7.6932 -8.8975,39.4139 -17.8638,37.0392 -10.9318,-3.9107 -12.2713,-11.7297 -15.5107,-21.7233 -2.7006,8.8678 -9.328,19.6049 -19.4842,18.5393 -12.5063,-2.4059 -17.3922,-17.0643 -22.827,-26.8331 -0.923,11.3796 -3.855,25.5407 -14.7413,30.8533 -11.0511,2.7867 -19.8871,-7.4797 -25.207,-16.2296 -3.9905,-5.4437 -7.5524,-11.2099 -11.0634,-16.9956 l 0.059,1.0273 z m 166.1566,240.3398 c 0,0.015 0.012,-0.05 0,0 z"
       id="path1504"
       inkscape:connector-curvature="0"
       sodipodi:nodetypes="cccccccccccccccccccccccccccccccccccccccccccccccccccccccccccccccccc" />
    <path
       style="fill:#ffffff;stroke:none;stroke-width:0.99999994"
       d="m 1452.7195,2949.0485 c 13.6365,51.0487 1.8285,73.4399 -12.8291,87.351 -14.6575,13.9112 -29.2574,24.6287 -30.4169,39.0049 -1.1585,14.3763 4.3679,32.4449 9.991,45.1906 5.6233,12.7459 -8.7567,28.7391 -16.1641,41.0823 -7.4074,12.3434 -32.4176,87.9891 -32.4176,87.9891 0,0 45.6605,-29.3056 57.0155,-43.5686 11.3552,-14.2629 -1.5936,-24.3112 1.6003,-31.5097 3.1938,-7.1984 16.2252,-28.4819 13.3417,-43.3703 -2.8832,-14.8884 -6.8861,-37.3598 -11.1969,-47.9831 -4.3108,-10.6233 8.1814,-20.8918 17.4263,-34.2439 9.2448,-13.3519 26.0549,-36.6775 19.2727,-60.0623 -6.7821,-23.3848 -15.6229,-39.88 -15.6229,-39.88 z"
       id="path3023"
       inkscape:connector-curvature="0"
       sodipodi:nodetypes="csssscssssssc" />
    <path
       style="color:#000000;display:inline;overflow:visible;visibility:visible;fill:#ffffff;fill-opacity:1;fill-rule:nonzero;stroke:none;stroke-width:1px;marker:none;enable-background:accumulate"
       d="m 1805.1943,2322.3072 c -1.7851,-36.1907 -1.1108,-71.4972 73.8621,-95.1319 74.9731,-23.6347 206.044,-11.9684 233.8709,-10.3402 45.4203,2.6576 165.0863,9.4492 191.8623,36.0384 26.7761,26.589 30.7956,58.2054 28.085,86.8633 -3.6818,38.9265 -48.0088,64.2303 -80.1401,73.0933 -32.1314,8.8631 -228.3493,22.0396 -265.8358,16.131 -37.4865,-5.9086 -95.3203,-14.1824 -127.4513,-31.9085 -32.5747,-17.9706 -52.4681,-38.5546 -54.2531,-74.7454 z"
       id="path3373"
       inkscape:connector-curvature="0"
       sodipodi:nodetypes="zsssssssz" />
    <path
       style="color:#000000;display:inline;overflow:visible;visibility:visible;fill:#ffffff;fill-opacity:1;fill-rule:nonzero;stroke:none;stroke-width:1px;marker:none;enable-background:accumulate"
       d="m 2031.8102,2507.7263 c 30.9235,-44.7181 56.4448,-90.7801 41.0641,-127.8508 -21.7419,-52.4025 -15.1545,-27.3052 -15.1545,-27.3052 l 48.1596,27.1477 c 4.0617,-2.2231 16.5042,46.8286 -74.0692,128.0083 z"
       id="path3072-1"
       inkscape:connector-curvature="0"
       sodipodi:nodetypes="csccc" />
    <path
       style="display:inline;fill:#ffffff;stroke:none;stroke-width:1"
       d="m 1763.7119,3235.2821 c 3.9267,-80.4415 42.096,-100.3604 96.7875,-119.9877 54.6914,-19.6274 377.0832,-14.1752 442.4092,7.633 65.3256,21.8083 70.6403,63.5834 72.9847,125.3777 0.888,71.5529 -75.8971,115.9887 -113.8774,124.7119 -37.98,8.7233 -342.6557,15.6798 -424.12,-16.4252 -74.184,-29.3167 -74.184,-121.3097 -74.184,-121.3097 z"
       id="path3008"
       inkscape:connector-curvature="0"
       sodipodi:nodetypes="ccccccc" />
    <path
       style="color:#000000;display:inline;overflow:visible;visibility:visible;fill:#ffffff;fill-opacity:1;fill-rule:nonzero;stroke:none;stroke-width:1px;marker:none;enable-background:accumulate"
       d="m 2046.452,3138.2749 c 31.2021,-26.3616 74.0861,-59.4473 33.587,-95.3422 1.3128,2.6276 75.7675,26.7026 -7.7455,112.4393 -83.5133,85.7365 -101.538,90.3039 -101.538,90.3039 z"
       id="path4064"
       inkscape:connector-curvature="0"
       sodipodi:nodetypes="ccscc"
       inkscape:transform-center-x="86.439437"
       inkscape:transform-center-y="119.77252" />
    <g
       id="g5381"
       transform="matrix(-1.7423155,-0.03507888,0.01891248,-1.1694129,2537.8374,4709.8659)"
       style="display:inline;fill:#ffffff;stroke-width:0.87355614">
      <path
         inkscape:connector-curvature="0"
         id="path5263"
         d="m 1231.4261,3164.2107 c -4.7051,-6.6655 -8.3522,-20.2367 -8.3522,-21.805 0,-1.5684 0.3921,-7.4497 0.3921,-7.4497 l -3.1367,-1.1763 2.7446,-5.0971 -3.1367,0.3921 c 0,0 8.4753,-16.4011 10.0436,-19.1457 1.5684,-2.7446 4.313,-9.018 4.313,-9.018 0,0 11.2013,-0.9423 14.338,-2.1186 3.1367,-1.1762 12.5468,-11.3705 12.5468,-11.3705 0,0 11.3706,5.4892 15.6836,6.2734 4.3129,0.7842 24.3095,1.9604 27.8383,0 3.5288,-1.9605 7.0576,-4.7051 7.0576,-4.7051 0,0 9.018,-0.7841 11.3705,-1.9604 2.3526,-1.1763 6.6655,-3.9209 6.6655,-3.9209 0,0 7.4497,0.7842 10.5864,0.3921 3.1367,-0.3921 17.644,0 19.2124,0 1.5683,0 12.5468,6.6655 12.5468,6.6655 l 7.0576,6.6655 c 0,0 5.8813,-0.3921 8.626,-1.1763 2.7446,-0.7841 5.0971,3.1367 5.0971,3.1367 0,0 10.3649,28.9788 11.9333,33.6838 1.5683,4.7051 2.3525,14.1152 2.3525,14.1152 0,0 -4.313,7.4497 -6.6655,10.5864 -2.3525,3.1367 -9.018,10.5864 -12.5468,13.331 -3.5288,2.7446 -7.8418,7.0576 -12.1548,4.313 -4.313,-2.7446 -8.6259,-2.3525 -10.1943,-0.3921 -1.5684,1.9604 -12.9389,15.6836 -16.8598,14.1152 -3.9209,-1.5684 -17.2519,-3.9209 -21.1728,-7.4497 -3.9209,-3.5288 -10.1943,4.7051 -12.9389,2.3525 -2.7446,-2.3525 -6.6655,-6.6655 -9.4102,-6.6655 -2.7446,0 -40.639,11.3296 -44.5599,9.7612 -3.9209,-1.5684 -13.5936,-9.7859 -15.9461,-11.3542 -2.3526,-1.5684 -8.2339,-10.9785 -8.2339,-10.9785 z"
         style="color:#000000;display:inline;overflow:visible;visibility:visible;fill:#ffffff;fill-opacity:1;fill-rule:nonzero;stroke:none;stroke-width:0.87355614px;marker:none;enable-background:accumulate"
         sodipodi:nodetypes="cscccccccccccccssccccccsssssscssccc" />
    </g>
    <path
       style="color:#000000;display:inline;overflow:visible;visibility:visible;fill:#ffffff;fill-opacity:1;fill-rule:nonzero;stroke:none;stroke-width:1px;marker:none;enable-background:accumulate"
       d="m 214.82896,1030.4867 c 6.80442,0.878 -13.01369,58.3529 -13.01369,58.3529 0,0 37.57996,20.9895 40.57677,25.605 -3.12032,14.3994 -21.44854,49.3771 -21.44854,49.3771 l 47.969,66.5041 -32.27308,-66.6621 30.22524,-55.2358 -42.64068,-25.4823 18.48922,-41.6529 z"
       id="path4448-7"
       inkscape:connector-curvature="0"
       sodipodi:nodetypes="cccccccccc" />
    <path
       style="color:#000000;display:inline;overflow:visible;visibility:visible;fill:#ffffff;fill-opacity:1;fill-rule:nonzero;stroke:none;stroke-width:1px;marker:none;enable-background:accumulate"
       d="m 1156.0663,1395.3159 c -13.8665,-3.5055 -55.1437,-19.0159 -6.106,-17.5657 -59.3797,-25.0538 -32.5866,-43.8491 -10.6916,-63.0001 -18.1994,-6.138 -47.6034,-8.1294 -37.3738,-24.7898 -19.517,1.4993 -31.4964,-4.8263 -36.7506,-18.1339 -14.8623,16.6729 -27.349,19.2808 -33.8988,-13.2573 -5.9732,24.2527 -19.7877,28.8493 -57.79861,-1.6874 -2.7979,8.899 11.59785,29.2427 -92.86732,14.4217 31.06193,16.9622 71.33888,54.7798 -4.02112,72.0652 26.93842,7.6306 44.11746,17.9678 2.13299,34.3899 27.2039,5.1866 25.23782,27.2561 17.97888,35.0755 34.45627,-14.845 53.77794,-13.3862 52.4848,8.8739 63.60648,-34.4878 49.19912,-4.5663 62.32938,2.0745 25.1052,-28.2285 46.7116,-14.0788 69.7714,-7.7794 7.3512,-33.4408 43.8059,-20.6979 74.8104,-20.6871 z"
       id="path3549-3-78"
       inkscape:connector-curvature="0"
       sodipodi:nodetypes="ccccccccccccccc" />
  </g>
  <g
     inkscape:groupmode="layer"
     id="layer1"
     inkscape:label="txt"
     style="display:inline">
    <text
       xml:space="preserve"
       style="font-style:normal;font-variant:normal;font-weight:normal;font-stretch:normal;line-height:0%;font-family:Lavi;-inkscape-font-specification:Lavi;letter-spacing:0px;word-spacing:0px;fill:#000000;fill-opacity:1;stroke:#000000;stroke-width:1.03244162;stroke-miterlimit:4;stroke-dasharray:none;stroke-opacity:1;filter:url(#filter4375-4-1-1-1-9)"
       x="787.65729"
       y="1584.5073"
       id="text4580"
       transform="matrix(0.99628009,-0.49104872,-0.18392799,1.3011878,1393.6124,-1187.4855)"><tspan
         sodipodi:role="line"
         id="tspan4582"
         x="787.65729"
         y="1584.5073"
         style="font-size:70px;line-height:1.25;fill:#ffffff;stroke-width:1.03244162"><tspan
           style="font-size:80.40014648px;stroke-width:1.03244162"
           id="tspan4617">B<tspan
   style="font-size:67.99041748px"
   id="tspan835">a</tspan><tspan
   style="font-size:63.13396072px"
   id="tspan837">m</tspan>!</tspan></tspan></text>
    <text
       xml:space="preserve"
       style="font-style:normal;font-variant:normal;font-weight:normal;font-stretch:normal;line-height:0%;font-family:Lavi;-inkscape-font-specification:Lavi;text-align:center;letter-spacing:0px;word-spacing:0px;text-anchor:middle;fill:#000000;fill-opacity:1;stroke:none;stroke-width:1.60000002;stroke-miterlimit:4;stroke-dasharray:none"
       x="1053.0197"
       y="1232.0845"
       id="text4246-7-6-2-04"><tspan
         sodipodi:role="line"
         style="font-size:45px;line-height:1.25;stroke:none;stroke-width:1.60000002;stroke-miterlimit:4;stroke-dasharray:none;stroke-opacity:1"
         x="1053.0197"
         y="1232.0845"
         id="tspan907">Een winter zonder</tspan><tspan
         sodipodi:role="line"
         style="font-size:45px;line-height:1.25;stroke:none;stroke-width:1.60000002;stroke-miterlimit:4;stroke-dasharray:none;stroke-opacity:1"
         x="1053.0197"
         y="1288.3345"
         id="tspan1010">eenheidsboom?</tspan></text>
    <text
       xml:space="preserve"
       style="font-style:normal;font-variant:normal;font-weight:normal;font-stretch:normal;line-height:0%;font-family:Lavi;-inkscape-font-specification:Lavi;text-align:center;letter-spacing:0px;word-spacing:0px;text-anchor:middle;fill:#000000;fill-opacity:1;stroke:none;stroke-width:1.60000002;stroke-miterlimit:4;stroke-dasharray:none"
       x="2199.2532"
       y="1077.8678"
       id="text4246-7-6-2-04-3"><tspan
         sodipodi:role="line"
         style="font-size:45px;line-height:1.25;stroke:none;stroke-width:1.60000002;stroke-miterlimit:4;stroke-dasharray:none;stroke-opacity:1"
         x="2199.2532"
         y="1077.8678"
         id="tspan1014">Als ik</tspan><tspan
         sodipodi:role="line"
         style="font-size:45px;line-height:1.25;stroke:none;stroke-width:1.60000002;stroke-miterlimit:4;stroke-dasharray:none;stroke-opacity:1"
         x="2199.2532"
         y="1134.1178"
         id="tspan1016">nu eens zelf</tspan><tspan
         sodipodi:role="line"
         style="font-size:45px;line-height:1.25;stroke:none;stroke-width:1.60000002;stroke-miterlimit:4;stroke-dasharray:none;stroke-opacity:1"
         x="2199.2532"
         y="1190.3678"
         id="tspan964-5">een boom zou</tspan><tspan
         sodipodi:role="line"
         style="font-size:45px;line-height:1.25;stroke:none;stroke-width:1.60000002;stroke-miterlimit:4;stroke-dasharray:none;stroke-opacity:1"
         x="2199.2532"
         y="1246.6178"
         id="tspan1018">maken met</tspan><tspan
         sodipodi:role="line"
         style="font-size:45px;line-height:1.25;stroke:none;stroke-width:1.60000002;stroke-miterlimit:4;stroke-dasharray:none;stroke-opacity:1"
         x="2199.2532"
         y="1302.8678"
         id="tspan1525">magie?</tspan></text>
    <text
       xml:space="preserve"
       style="font-style:normal;font-variant:normal;font-weight:normal;font-stretch:normal;line-height:0%;font-family:Lavi;-inkscape-font-specification:Lavi;text-align:center;letter-spacing:0px;word-spacing:0px;text-anchor:middle;fill:#000000;fill-opacity:1;stroke:none;stroke-width:1.60000002;stroke-miterlimit:4;stroke-dasharray:none"
       x="341.8045"
       y="2256.5608"
       id="text4246-7-6-2-04-3-5"><tspan
         sodipodi:role="line"
         style="font-size:45px;line-height:1.25;stroke:none;stroke-width:1.60000002;stroke-miterlimit:4;stroke-dasharray:none;stroke-opacity:1"
         x="341.8045"
         y="2256.5608"
         id="tspan1135">Hé! Ik zou zelfs voor</tspan><tspan
         sodipodi:role="line"
         style="font-size:45px;line-height:1.25;stroke:none;stroke-width:1.60000002;stroke-miterlimit:4;stroke-dasharray:none;stroke-opacity:1"
         x="341.8045"
         y="2312.8108"
         id="tspan1285">het eerst eens Hippiah-</tspan><tspan
         sodipodi:role="line"
         style="font-size:45px;line-height:1.25;stroke:none;stroke-width:1.60000002;stroke-miterlimit:4;stroke-dasharray:none;stroke-opacity:1"
         x="341.8045"
         y="2369.0608"
         id="tspan1400">en Chaosahmagie</tspan><tspan
         sodipodi:role="line"
         style="font-size:45px;line-height:1.25;stroke:none;stroke-width:1.60000002;stroke-miterlimit:4;stroke-dasharray:none;stroke-opacity:1"
         x="341.8045"
         y="2425.3108"
         id="tspan3784">kunnen combineren!</tspan><tspan
         sodipodi:role="line"
         style="font-size:45px;line-height:1.25;stroke:none;stroke-width:1.60000002;stroke-miterlimit:4;stroke-dasharray:none;stroke-opacity:1"
         x="341.8045"
         y="2443.8442"
         id="tspan1139" /></text>
    <text
       xml:space="preserve"
       style="font-style:normal;font-variant:normal;font-weight:normal;font-stretch:normal;line-height:0%;font-family:Lavi;-inkscape-font-specification:Lavi;text-align:center;letter-spacing:0px;word-spacing:0px;text-anchor:middle;fill:#000000;fill-opacity:1;stroke:none;stroke-width:1.60000002;stroke-miterlimit:4;stroke-dasharray:none"
       x="886.68591"
       y="2363.2769"
       id="text4246-7-6-2-04-3-5-0"><tspan
         sodipodi:role="line"
         style="font-size:45px;line-height:1.25;stroke:none;stroke-width:1.60000002;stroke-miterlimit:4;stroke-dasharray:none;stroke-opacity:1"
         x="886.68591"
         y="2363.2769"
         id="tspan1259">Een grote,</tspan><tspan
         sodipodi:role="line"
         style="font-size:45px;line-height:1.25;stroke:none;stroke-width:1.60000002;stroke-miterlimit:4;stroke-dasharray:none;stroke-opacity:1"
         x="886.68591"
         y="2419.5269"
         id="tspan1139-8">groene boom, met</tspan><tspan
         sodipodi:role="line"
         style="font-size:45px;line-height:1.25;stroke:none;stroke-width:1.60000002;stroke-miterlimit:4;stroke-dasharray:none;stroke-opacity:1"
         x="886.68591"
         y="2475.7769"
         id="tspan1261">sterren en sterren-</tspan><tspan
         sodipodi:role="line"
         style="font-size:45px;line-height:1.25;stroke:none;stroke-width:1.60000002;stroke-miterlimit:4;stroke-dasharray:none;stroke-opacity:1"
         x="886.68591"
         y="2532.0269"
         id="tspan1263">stelseltjes erin!</tspan></text>
    <text
       xml:space="preserve"
       style="font-style:normal;font-variant:normal;font-weight:normal;font-stretch:normal;font-size:10.77101231px;line-height:0%;font-family:Lavi;-inkscape-font-specification:Lavi;text-align:center;letter-spacing:0px;word-spacing:0px;text-anchor:middle;fill:#000000;fill-opacity:1;stroke:none;stroke-width:1.60000002;stroke-miterlimit:4;stroke-dasharray:none"
       x="927.70764"
       y="2826.0496"
       id="text4246-7-6-2-04-3-5-0-7"
       transform="scale(1.0118702,0.98826905)"><tspan
         sodipodi:role="line"
         style="font-size:40.39129639px;line-height:1.25;stroke:none;stroke-width:1.60000002;stroke-miterlimit:4;stroke-dasharray:none;stroke-opacity:1"
         x="927.70764"
         y="2826.0496"
         id="tspan1139-8-9">Aww,</tspan><tspan
         sodipodi:role="line"
         style="font-size:40.39129639px;line-height:1.25;stroke:none;stroke-width:1.60000002;stroke-miterlimit:4;stroke-dasharray:none;stroke-opacity:1"
         x="927.70764"
         y="2876.5386"
         id="tspan1255">dat wordt</tspan><tspan
         sodipodi:role="line"
         style="font-size:40.39129639px;line-height:1.25;stroke:none;stroke-width:1.60000002;stroke-miterlimit:4;stroke-dasharray:none;stroke-opacity:1"
         x="927.70764"
         y="2927.0278"
         id="tspan1257">zo mooi!</tspan></text>
    <flowRoot
       xml:space="preserve"
       id="flowRoot1245"
       style="font-style:normal;font-variant:normal;font-weight:normal;font-stretch:normal;font-size:0.66666669px;line-height:318.00000668%;font-family:Neuropolitical;-inkscape-font-specification:Neuropolitical;text-align:center;letter-spacing:0px;word-spacing:0px;writing-mode:lr-tb;text-anchor:middle;fill:#000000;fill-opacity:1;stroke:none;stroke-width:1px;stroke-linecap:butt;stroke-linejoin:miter;stroke-opacity:1"><flowRegion
         id="flowRegion1247"><rect
           id="rect1249"
           width="13.224999"
           height="3.3062499"
           x="790.19373"
           y="2848.3625" /></flowRegion><flowPara
         id="flowPara1251" /></flowRoot>    <text
       xml:space="preserve"
       style="font-style:normal;font-variant:normal;font-weight:normal;font-stretch:normal;line-height:0%;font-family:Lavi;-inkscape-font-specification:Lavi;text-align:center;letter-spacing:0px;word-spacing:0px;text-anchor:middle;fill:#000000;fill-opacity:1;stroke:none"
       x="1418.1737"
       y="3233.3367"
       id="text4246"><tspan
         sodipodi:role="line"
         style="font-size:45px;line-height:1.25"
         x="1418.1737"
         y="3233.3367"
         id="tspan4252">En het wordt ook</tspan></text>
    <text
       xml:space="preserve"
       style="font-style:normal;font-variant:normal;font-weight:normal;font-stretch:normal;line-height:0%;font-family:Lavi;-inkscape-font-specification:Lavi;text-align:center;letter-spacing:0px;word-spacing:0px;text-anchor:middle;fill:#000000;fill-opacity:1;stroke:none"
       x="2289.9678"
       y="3303.178"
       id="text4246-6"
       transform="skewX(-14.861122)"><tspan
         sodipodi:role="line"
         style="font-size:74.66666412px;line-height:1.25"
         x="2289.9678"
         y="3303.178"
         id="tspan4252-1">creatief!</tspan></text>
    <text
       xml:space="preserve"
       style="font-style:normal;font-variant:normal;font-weight:normal;font-stretch:normal;line-height:0%;font-family:Lavi;-inkscape-font-specification:Lavi;text-align:center;letter-spacing:0px;word-spacing:0px;text-anchor:middle;fill:#000000;fill-opacity:1;stroke:none"
       x="2063.5322"
       y="2282.3386"
       id="text4246-2"><tspan
         sodipodi:role="line"
         style="font-size:45px;line-height:1.25"
         x="2063.5322"
         y="2282.3386"
         id="tspan1351">Maar ik kan dat</tspan><tspan
         sodipodi:role="line"
         style="font-size:45px;line-height:1.25"
         x="2063.5322"
         y="2338.5886"
         id="tspan1357">soort magie echt niet</tspan><tspan
         sodipodi:role="line"
         style="font-size:45px;line-height:1.25"
         x="2063.5322"
         y="2394.8386"
         id="tspan1426">hier doen …</tspan></text>
    <text
       xml:space="preserve"
       style="font-style:normal;font-variant:normal;font-weight:normal;font-stretch:normal;line-height:0%;font-family:Lavi;-inkscape-font-specification:Lavi;text-align:center;letter-spacing:0px;word-spacing:0px;text-anchor:middle;fill:#000000;fill-opacity:1;stroke:none"
       x="2072.7913"
       y="3179.5769"
       id="text4246-2-3"><tspan
         sodipodi:role="line"
         style="font-size:45px;line-height:1.25"
         x="2072.7913"
         y="3179.5769"
         id="tspan1434">… mijn peettantes merken</tspan><tspan
         sodipodi:role="line"
         style="font-size:45px;line-height:1.25"
         x="2072.7913"
         y="3235.8269"
         id="tspan955">het meteen als ik niet bezig</tspan><tspan
         sodipodi:role="line"
         style="font-size:45px;line-height:1.25"
         x="2072.7913"
         y="3292.0769"
         id="tspan1436">ben met mijn “Spreuken</tspan><tspan
         sodipodi:role="line"
         style="font-size:45px;line-height:1.25"
         x="2072.7913"
         y="3348.3269"
         id="tspan963">der Destructie”.</tspan></text>
    <text
       xml:space="preserve"
       style="font-style:normal;font-variant:normal;font-weight:normal;font-stretch:normal;font-size:9.86460209px;line-height:0%;font-family:Lavi;-inkscape-font-specification:Lavi;text-align:center;letter-spacing:0px;word-spacing:0px;text-anchor:middle;opacity:0.553;fill:#ffffff;fill-opacity:1;stroke:#ffffff;stroke-width:0.41015577;stroke-miterlimit:4;stroke-dasharray:none;stroke-opacity:1"
       x="1723.8367"
       y="993.6333"
       id="text4246-8"
       transform="matrix(1.0148684,-0.23351779,-0.23771225,1.0400462,0,0)"><tspan
         sodipodi:role="line"
         style="font-size:25.28764343px;line-height:1.25;fill:#ffffff;stroke:#ffffff;stroke-width:0.41015577;stroke-miterlimit:4;stroke-dasharray:none;stroke-opacity:1"
         x="1723.8367"
         y="993.6333"
         id="tspan4150-8">tap</tspan></text>
    <text
       xml:space="preserve"
       style="font-style:normal;font-variant:normal;font-weight:normal;font-stretch:normal;font-size:9.86460209px;line-height:0%;font-family:Lavi;-inkscape-font-specification:Lavi;text-align:center;letter-spacing:0px;word-spacing:0px;text-anchor:middle;opacity:0.553;fill:#ffffff;fill-opacity:1;stroke:#ffffff;stroke-width:0.41015577;stroke-miterlimit:4;stroke-dasharray:none;stroke-opacity:1"
       x="659.43341"
       y="516.69019"
       id="text4246-8-3"
       transform="matrix(1.0294788,0.15704104,-0.60436617,0.87917276,0,0)"><tspan
         sodipodi:role="line"
         style="font-size:25.28764343px;line-height:1.25;fill:#ffffff;stroke:#ffffff;stroke-width:0.41015577;stroke-miterlimit:4;stroke-dasharray:none;stroke-opacity:1"
         x="659.43341"
         y="516.69019"
         id="tspan4150-8-6">Ffff</tspan></text>
    <text
       xml:space="preserve"
       style="font-style:normal;font-variant:normal;font-weight:normal;font-stretch:normal;font-size:13.87211895px;line-height:0%;font-family:Lavi;-inkscape-font-specification:Lavi;text-align:center;letter-spacing:0px;word-spacing:0px;text-anchor:middle;fill:#000000;fill-opacity:1;stroke:#000000;stroke-width:1.60000002;stroke-miterlimit:4;stroke-dasharray:none;stroke-opacity:1"
       x="1264.061"
       y="1328.2952"
       id="text4246-7-6-2-04-7"
       transform="skewX(-10.479117)"><tspan
         sodipodi:role="line"
         style="font-size:52.02044678px;line-height:1.25;stroke:#000000;stroke-width:1.60000002;stroke-miterlimit:4;stroke-dasharray:none;stroke-opacity:1"
         x="1264.061"
         y="1332.3271"
         id="tspan1006-5" /><tspan
         sodipodi:role="line"
         style="font-size:52.02044678px;line-height:1.25;stroke:#000000;stroke-width:1.60000002;stroke-miterlimit:4;stroke-dasharray:none;stroke-opacity:1"
         x="1264.061"
         y="1332.3271"
         id="tspan1008-6" /><tspan
         sodipodi:role="line"
         style="font-size:52.02044678px;line-height:1.25;stroke:#000000;stroke-width:1.60000002;stroke-miterlimit:4;stroke-dasharray:none;stroke-opacity:1"
         x="1264.061"
         y="1375.9277"
         id="tspan1010-2">Nooit!</tspan></text>
    <text
       xml:space="preserve"
       style="font-style:normal;font-variant:normal;font-weight:normal;font-stretch:normal;line-height:0%;font-family:Lavi;-inkscape-font-specification:Lavi;text-align:center;letter-spacing:0px;word-spacing:0px;text-anchor:middle;display:inline;fill:#000000;fill-opacity:1;stroke:#000000;stroke-width:1.10000002;stroke-miterlimit:4;stroke-dasharray:none;stroke-opacity:1"
       x="797.54419"
       y="1010.7184"
       id="text4246-7-6-2"
       transform="skewX(-26.235822)"><tspan
         sodipodi:role="line"
         style="font-size:45px;line-height:1.25;stroke:#000000;stroke-width:1.10000002;stroke-miterlimit:4;stroke-dasharray:none;stroke-opacity:1"
         x="797.54419"
         y="1010.7184"
         id="tspan1069-6">Grrrrr…!!!</tspan></text>
    <text
       xml:space="preserve"
       style="font-style:normal;font-weight:normal;font-size:40px;line-height:125%;font-family:sans-serif;letter-spacing:0px;word-spacing:0px;fill:#000000;fill-opacity:1;stroke:none;stroke-width:1px;stroke-linecap:butt;stroke-linejoin:miter;stroke-opacity:1"
       x="1882.5647"
       y="1715.7551"
       id="text93"><tspan
         sodipodi:role="line"
         id="tspan91"
         x="1882.5647"
         y="1751.1458" /></text>
    <flowRoot
       xml:space="preserve"
       id="flowRoot95"
       style="fill:black;stroke:none;stroke-opacity:1;stroke-width:1px;stroke-linejoin:miter;stroke-linecap:butt;fill-opacity:1;font-family:sans-serif;font-style:normal;font-weight:normal;font-size:40px;line-height:125%;letter-spacing:0px;word-spacing:0px"><flowRegion
         id="flowRegion97"><rect
           id="rect99"
           width="275.22168"
           height="1011.0184"
           x="-415.6409"
           y="2006.1311" /></flowRegion><flowPara
         id="flowPara101"></flowPara></flowRoot>  </g>
</svg>
