<?xml version="1.0" encoding="UTF-8" standalone="no"?>
<!-- Created with Inkscape (http://www.inkscape.org/) -->

<svg
   xmlns:dc="http://purl.org/dc/elements/1.1/"
   xmlns:cc="http://creativecommons.org/ns#"
   xmlns:rdf="http://www.w3.org/1999/02/22-rdf-syntax-ns#"
   xmlns:svg="http://www.w3.org/2000/svg"
   xmlns="http://www.w3.org/2000/svg"
   xmlns:xlink="http://www.w3.org/1999/xlink"
   xmlns:sodipodi="http://sodipodi.sourceforge.net/DTD/sodipodi-0.dtd"
   xmlns:inkscape="http://www.inkscape.org/namespaces/inkscape"
   id="svg2"
   version="1.1"
   inkscape:version="0.92.4 (5da689c313, 2019-01-14)"
   width="2481"
   height="663"
   sodipodi:docname="E27P00.svg">
  <metadata
     id="metadata8">
    <rdf:RDF>
      <cc:Work
         rdf:about="">
        <dc:format>image/svg+xml</dc:format>
        <dc:type
           rdf:resource="http://purl.org/dc/dcmitype/StillImage" />
        <dc:title />
      </cc:Work>
    </rdf:RDF>
  </metadata>
  <defs
     id="defs6" />
  <sodipodi:namedview
     pagecolor="#ffffff"
     bordercolor="#666666"
     borderopacity="1"
     objecttolerance="10"
     gridtolerance="10"
     guidetolerance="10"
     inkscape:pageopacity="0"
     inkscape:pageshadow="2"
     inkscape:window-width="1920"
     inkscape:window-height="1025"
     id="namedview4"
     showgrid="false"
     inkscape:zoom="0.34845081"
     inkscape:cx="1635.0696"
     inkscape:cy="59.446437"
     inkscape:window-x="0"
     inkscape:window-y="26"
     inkscape:window-maximized="1"
     inkscape:current-layer="layer1" />
  <g
     inkscape:groupmode="layer"
     id="layer2"
     inkscape:label="artwork"
     sodipodi:insensitive="true">
    <image
       sodipodi:absref="/felles/omsetting/pepper-carrot/webcomics/ep27_Coriander-s-Invention/lang/nn/../gfx_Pepper-and-Carrot_by-David-Revoy_E27P00.png"
       xlink:href="../gfx_Pepper-and-Carrot_by-David-Revoy_E27P00.png"
       width="2481"
       height="663"
       id="image10"
       x="0"
       y="0" />
  </g>
  <g
     inkscape:groupmode="layer"
     id="layer1"
     inkscape:label="txt"
     style="display:inline">
    <text
       xml:space="preserve"
       style="font-style:normal;font-variant:normal;font-weight:normal;font-stretch:normal;line-height:0%;font-family:Arial;-inkscape-font-specification:Arial;letter-spacing:0px;word-spacing:0px;display:inline;fill:#2b1100;fill-opacity:1;stroke:#000000;stroke-width:2;stroke-miterlimit:4;stroke-dasharray:none;stroke-opacity:1"
       x="1239.1371"
       y="588.40344"
       id="episode-title"><tspan
         sodipodi:role="line"
         id="tspan4180"
         style="font-style:normal;font-variant:normal;font-weight:normal;font-stretch:normal;font-size:72.5px;line-height:1.25;font-family:Lavi;-inkscape-font-specification:Lavi;text-align:center;text-anchor:middle;fill:#2b1100;stroke:none"
         x="1239.1371"
         y="588.40344">Episode 27: Oppfinninga til Koriander</tspan></text>
    <path
       style="display:inline;opacity:1;fill:#301b0b;fill-opacity:1;stroke-width:1.06920087;enable-background:new"
       d="m 744.66126,498.70915 c -5.40516,-5.4052 -5.77879,-6.11181 -5.77879,-10.92817 0,-6.45698 2.06994,-9.49219 7.46396,-10.94466 2.39235,-0.6442 4.77097,-2.14289 5.53315,-3.48627 0.95899,-1.69026 1.44211,-10.79368 1.70913,-32.20413 l 0.37234,-29.84783 -6.2102,-1.35804 c -8.5576,-1.87135 -15.24823,-4.93046 -15.24823,-6.97181 0,-0.92847 -0.71783,-1.96357 -1.59497,-2.30017 -0.87724,-0.33664 -1.59496,-1.30028 -1.59496,-2.14145 0,-1.19982 0.85924,-1.35798 3.98741,-0.73399 5.80057,1.15704 8.0336,0.87378 14.61444,-1.85385 l 5.9037,-2.44693 -0.38547,-39.40242 c -0.21192,-21.67134 -0.75412,-40.9457 -1.20482,-42.83193 -0.97063,-4.06201 -3.76057,-4.89342 -16.79845,-5.0059 -10.24982,-0.0884 -10.71544,-1.54604 -2.66106,-8.33045 6.3362,-5.3372 8.13186,-6.36548 21.7903,-12.47811 6.84985,-3.06556 10.55533,-4.17784 12.22806,-3.67051 3.42622,1.03918 7.13657,4.70983 8.81845,8.72415 l 1.44788,3.45575 h 12.22737 c 18.72288,0 31.85783,4.60901 48.17484,16.90429 13.0516,9.83462 17.32791,17.58805 17.32791,31.41706 0,9.13392 -2.03711,16.5943 -7.2748,26.6421 -5.01373,9.61808 -20.07977,25.00394 -30.53834,31.18659 -7.6178,4.50326 -31.6634,14.00412 -35.44286,14.00412 -5.5067,0 -5.42893,-0.34536 -5.42893,24.10815 0,13.6161 0.44145,23.64227 1.09484,24.86305 1.27364,2.37981 6.39437,5.25765 9.35527,5.25765 1.12706,0 2.62337,0.69181 3.32508,1.53734 0.91523,1.10274 1.97486,1.27157 3.74854,0.59724 1.45295,-0.55241 5.40188,-0.52529 9.57546,0.0657 5.86849,0.83107 7.74241,0.70231 10.78406,-0.74105 2.68025,-1.27188 5.28731,-1.5812 9.5863,-1.13749 3.24771,0.33519 7.12045,0.14727 8.60612,-0.41758 3.31146,-1.25901 3.98423,-0.72577 2.52472,2.00122 -1.17489,2.19536 -6.49821,3.87867 -6.49821,2.05485 0,-0.58373 -2.37196,1.15731 -5.271,3.86906 -2.89904,2.71171 -5.975,4.93039 -6.83553,4.93039 -0.86054,0 -2.29976,0.73514 -3.19829,1.63363 -2.093,2.09314 -7.60885,4.39153 -13.94813,5.81222 -2.7448,0.61513 -6.50984,2.27717 -8.36656,3.69339 -3.96603,3.02506 -12.07172,6.07918 -22.45749,8.46181 -4.09383,0.93915 -7.60269,2.1765 -7.79761,2.74966 -0.19492,0.57318 -2.49896,1.04214 -5.12014,1.04214 -4.35179,0 -5.26732,-0.50177 -10.54449,-5.77886 z m 46.13962,-111.70041 c 17.45043,-8.36287 34.63106,-23.89077 41.2486,-37.28063 3.43776,-6.95589 3.81,-8.50009 3.3591,-13.9372 -0.4696,-5.66225 -0.87148,-6.44449 -5.43311,-10.57443 -6.09822,-5.52103 -12.58349,-7.35726 -25.69944,-7.27642 -10.30929,0.0635 -22.06209,2.60574 -25.20786,5.45263 -1.7515,1.58506 -1.90654,4.28876 -1.90654,33.24725 0,32.3998 0.20785,34.07382 4.23007,34.07382 0.92299,0 5.15713,-1.66728 9.40918,-3.70502 z m 365.43102,83.04944 c -15.2171,-4.97185 -22.0017,-9.95863 -27.3389,-20.0944 -1.8197,-3.45597 -2.3722,-6.32543 -2.399,-12.46435 -0.049,-11.25246 4.0357,-19.65449 15.0674,-30.99055 l 8.1859,-8.41175 -3.4163,-6.92764 c -2.648,-5.37009 -3.1741,-7.37976 -2.34,-8.93835 1.6298,-3.04538 1.305,-4.27711 -1.1278,-4.27711 h -2.2038 l 2.2038,-2.8017 c 2.8605,-3.63646 2.8374,-6.80151 -0.055,-7.55795 -2.0475,-0.53544 -2.2041,-1.12381 -1.6715,-6.28349 1.6693,-16.1735 16.3035,-31.90754 31.5766,-33.94992 5.6079,-0.74989 13.8584,1.95936 21.617,7.09846 7.0199,4.64977 12.7847,14.39799 12.781,21.61268 -0.01,9.93057 -3.0692,17.20034 -11.5635,27.4341 -3.202,3.85742 -5.8216,7.7376 -5.8216,8.62262 0,0.88503 -1.9844,3.30779 -4.41,5.38398 l -4.41,3.77485 7.334,8.14224 c 4.0339,4.47826 8.6848,9.75496 10.3357,11.72605 1.6509,1.97105 3.3984,3.58375 3.8835,3.58375 0.9433,0 3.2165,-5.74824 3.2165,-8.13351 0,-0.97881 -1.4395,-1.44048 -4.5191,-1.44945 -4.0065,-0.0117 -4.7978,-0.44343 -6.9774,-3.80698 -3.523,-5.43743 -2.4747,-9.28727 3.1408,-11.53416 10.906,-4.36373 24.8733,-7.12415 38.1283,-7.53551 7.3104,-0.22686 16.1624,-0.72483 19.6714,-1.10656 l 6.3797,-0.69411 -7.443,7.85732 c -4.0939,4.32153 -8.3612,8.3218 -9.483,8.88949 -1.1217,0.56767 -2.5571,1.98911 -3.1899,3.15878 -0.6326,1.16964 -1.2693,2.32534 -1.4147,2.56825 -0.1454,0.24292 -3.4947,0.97075 -7.4431,1.61743 l -7.1787,1.17581 -0.7154,7.2133 c -0.3934,3.96734 -1.6577,9.11816 -2.8095,11.44629 l -2.0944,4.23296 6.5313,4.3709 c 10.7285,7.18 10.4806,6.83176 8.0679,11.3331 -1.1377,2.1227 -2.0685,4.44812 -2.0685,5.16767 0,0.71951 -1.4193,2.7602 -3.154,4.5348 -3.6618,3.74595 -7.4287,4.15134 -11.5681,1.245 -1.5523,-1.08988 -5.0336,-2.94962 -7.736,-4.13274 -2.7023,-1.18313 -5.2576,-2.70782 -5.678,-3.3882 -0.5367,-0.86814 -1.7666,-0.47415 -4.1247,1.32107 -5.0256,3.82612 -10.9109,6.57571 -20.373,9.51802 -13.0238,4.04987 -15.0499,4.1754 -23.3928,1.44951 z m 25.6261,-27.24178 c 2.2807,-1.37299 4.3222,-2.62874 4.5368,-2.79059 0.2147,-0.16186 -5.0327,-5.56749 -11.6607,-12.01253 l -12.0512,-11.71829 -2.4945,2.34341 c -1.3718,1.28888 -3.4605,3.90667 -4.6415,5.81732 -1.1806,1.91065 -2.7514,3.47391 -3.4902,3.47391 -2.1666,0 -5.1858,4.00513 -4.4549,5.90953 0.3662,0.95457 1.5612,1.96967 2.6553,2.2558 1.0944,0.28614 2.6108,1.68083 3.3699,3.09924 0.7591,1.41847 2.852,3.52286 4.6507,4.67644 4.7435,3.04206 17.7414,2.46092 23.5803,-1.05424 z m -7.64,-64.42377 c 13.1883,-11.25285 15.3917,-17.25224 8.8624,-24.1307 -4.0869,-4.3055 -9.9648,-5.83992 -14.3233,-3.73913 -4.282,2.06391 -8.9491,9.39035 -9.5869,15.05001 -0.8284,7.34863 2.9236,19.82439 5.962,19.82439 0.4821,0 4.5707,-3.15208 9.0858,-7.00457 z m 195.2076,62.69244 c -9.4959,-1.87956 -19.5732,-5.3926 -25.5842,-8.91889 -17.0567,-10.00618 -28.7457,-21.72898 -36.0314,-36.13587 -4.695,-9.28387 -6.4325,-14.93926 -9.9885,-32.51353 -2.4534,-12.12391 -2.5196,-13.37294 -1.1842,-22.32954 3.4109,-22.87794 11.3885,-51.78656 18.4795,-66.96537 8.848,-18.93971 27.7984,-46.22283 42.0806,-60.58418 11.2485,-11.31069 19.196,-17.24681 31.0807,-23.21472 l 9.8144,-4.92829 11.4518,0.006 c 10.817,0.005 12.0581,0.24135 22.3868,4.25324 14.7079,5.71266 14.7377,5.7086 15.6464,-2.12002 0.4468,-3.85086 1.588,-7.44695 2.8876,-9.09902 2.004,-2.54754 2.5526,-2.68236 8.1378,-1.9999 6.9806,0.85294 17.2684,5.64456 22.2046,10.34173 2.9334,2.79148 3.4488,4.02028 3.4094,8.13061 -0.086,9.01794 -1.605,13.8355 -5.676,18.00454 -4.4427,4.5499 -5.0196,7.56058 -1.4549,7.59581 1.3158,0.013 3.5392,0.90543 4.941,1.98316 l 2.5485,1.95952 -1.7548,19.03188 c -3.1127,33.76016 -13.8612,80.14294 -18.5716,80.14294 -1.2827,0 -2.3156,-5.29194 -2.3156,-11.86347 0,-2.86979 -0.6715,-6.82486 -1.4921,-8.78903 -0.8382,-2.00596 -1.8333,-9.79741 -2.2705,-17.77633 -0.7096,-12.94672 -1.1964,-15.42746 -5.4971,-28.00449 -9.0952,-26.59818 -19.0771,-42.03837 -27.1616,-42.01404 -8.5295,0.0258 -23,9.54114 -37.6565,24.76199 -8.4347,8.75933 -11.2846,11.1033 -12.9656,10.66369 -1.42,-0.37138 -3.0814,0.36327 -4.8729,2.15482 -2.9177,2.91774 -3.3396,4.98377 -1.6587,8.12435 1.4289,2.66996 0.3267,5.12777 -2.4786,5.52739 -1.7392,0.24776 -2.3349,1.10833 -2.4352,3.51792 -0.073,1.75446 -4.0872,11.5635 -8.9208,21.79788 -11.0481,23.39248 -19.7103,49.09066 -20.7882,61.67206 -0.6128,7.15109 -1.311,9.7435 -3.3441,12.41662 -2.4233,3.18596 -2.4772,3.55743 -0.9457,6.51905 0.8933,1.72729 3.0013,4.29934 4.6844,5.71563 1.6832,1.41629 4.4074,4.94232 6.0538,7.83565 4.1682,7.32549 11.7932,15.04206 18.0113,18.22743 4.99,2.55632 5.9155,2.66572 18.6079,2.19996 12.2318,-0.44883 14.3868,-0.85322 25.5849,-4.8008 6.7254,-2.37087 14.0071,-5.07504 16.1814,-6.00922 2.1742,-0.93418 5.2616,-1.69851 6.8608,-1.69851 1.7156,0 4.2363,-1.23023 6.1483,-3.00092 1.7822,-1.65052 6.6538,-4.30265 10.8259,-5.89368 4.1718,-1.59098 8.4771,-3.87823 9.5671,-5.08276 1.0902,-1.20449 3.2567,-2.84921 4.8148,-3.65483 3.3188,-1.71624 3.0893,-4.22862 -0.7665,-8.38905 -2.345,-2.53013 -3.1165,-2.68816 -13.1269,-2.68816 -8.9157,0 -11.8039,-0.44938 -17.8612,-2.77899 -17.8069,-6.84848 -21.1731,-7.79975 -27.6944,-7.82666 -3.6552,-0.015 -6.6292,-0.38634 -6.6088,-0.82497 0.02,-0.4386 4.5791,-3.83818 10.1312,-7.55462 5.8934,-3.94506 12.5945,-9.58711 16.1017,-13.55722 3.3039,-3.74002 6.5876,-6.80006 7.2969,-6.80006 0.7093,0 5.759,2.93475 11.2217,6.52165 l 9.9319,6.52163 9.0583,-0.69536 c 4.982,-0.38246 12.105,-1.35563 15.8287,-2.16263 6.3911,-1.38503 7.1771,-1.32893 14.0285,1.00145 3.9923,1.35778 8.2368,2.21285 9.4323,1.9002 3.1934,-0.83508 3.7449,1.92665 1.6465,8.24421 -1.4783,4.4512 -2.4793,5.73871 -5.415,6.96531 -4.0906,1.70921 -4.3127,2.90978 -1.8304,9.89884 l 1.7708,4.98642 -5.9489,10.59924 c -8.1942,14.59962 -21.2494,27.03068 -28.388,27.03068 -1.601,0 -2.9688,1.58596 -5.0801,5.89084 -2.6845,5.4738 -3.7402,6.41431 -14.9103,13.28413 -8.311,5.11139 -15.5383,8.57437 -23.4162,11.21997 -10.4323,3.50333 -12.6081,3.85739 -25.7498,4.18981 -7.8951,0.19969 -15.5509,0.12631 -17.0129,-0.16309 z M 486.49213,422.1967 c -8.03668,-3.01736 -14.09572,-11.26826 -15.21502,-20.71912 -0.50709,-4.28144 -0.21511,-5.48435 1.93936,-7.98901 2.06456,-2.40022 3.77558,-3.09477 9.19914,-3.73428 9.40093,-1.10843 10.22993,-2.23329 10.67865,-14.48933 0.35702,-9.75195 0.43976,-10.04182 2.70481,-9.47333 1.56543,0.3929 3.00824,-0.15583 4.37189,-1.66267 2.42387,-2.67833 1.46757,-4.85901 -3.286,-7.49298 l -3.09565,-1.71532 -0.28085,-32.39898 -0.28094,-32.39897 3.60563,0.42093 c 2.85399,0.33319 3.97219,-0.0988 5.36438,-2.07254 1.64718,-2.33532 1.63693,-2.59467 -0.16111,-4.08847 -1.05595,-0.87722 -3.5373,-3.85815 -5.51415,-6.62427 l -3.59439,-5.02931 0.89892,-17.30024 c 0.49436,-9.51514 0.92736,-21.68863 0.96237,-27.0522 0.0577,-8.82648 -0.17424,-10.00479 -2.44108,-12.41589 -1.37747,-1.46517 -5.20536,-3.73141 -8.50648,-5.03612 -3.30111,-1.30471 -7.0399,-3.30085 -8.30847,-4.43587 -3.64919,-3.26499 -6.81505,-11.85794 -7.01405,-19.038 -0.16618,-5.99528 0.0567,-6.65704 3.18088,-9.44854 7.26754,-6.49359 40.85638,-14.34311 66.60962,-15.56629 14.22232,-0.6755 32.36422,0.69972 45.86116,3.47644 9.89508,2.03574 27.21176,10.70891 34.69163,17.3756 9.72194,8.66502 21.96174,27.94712 28.11167,44.28591 12.14712,32.27205 -2.63391,64.34655 -41.65744,90.39526 -14.20491,9.48196 -47.44777,24.02318 -64.25566,28.10695 -12.34402,2.9992 -14.76541,4.09359 -15.49576,7.00343 -1.00434,4.00182 0.0129,28.91225 1.23058,30.12913 0.60893,0.60859 3.37749,1.53067 6.15232,2.0491 2.77493,0.51839 5.903,1.71882 6.95149,2.66762 1.32059,1.19517 3.90259,1.7251 8.40534,1.7251 3.5746,0 6.73141,0.37557 7.01514,0.83464 0.64503,1.04371 32.77515,0.88591 34.48259,-0.16935 0.68809,-0.42523 2.92838,-0.31 4.97852,0.25606 2.13856,0.59051 3.97528,0.62833 4.30873,0.0887 0.5062,-0.81899 6.68259,-0.25727 7.82764,0.71188 1.1378,0.96294 -2.67906,3.62182 -6.10657,4.25386 -2.13428,0.39361 -5.51236,1.5833 -7.50682,2.64379 -1.99445,1.0605 -3.99497,1.7003 -4.44557,1.42181 -0.4506,-0.2785 -2.01017,0.59735 -3.4658,1.94628 -1.51939,1.40815 -6.41865,3.48676 -11.50408,4.8808 -4.87161,1.3355 -10.42893,3.11056 -12.34939,3.94458 -1.92056,0.83402 -4.96231,1.51641 -6.75955,1.51641 -1.79715,0 -6.20702,1.38212 -9.79952,3.07137 -13.60961,6.39942 -48.96924,10.71923 -58.48811,7.14535 z m 71.62752,-115.45199 c 2.63163,-0.72517 7.81899,-2.69363 11.52735,-4.37432 6.08201,-2.75645 7.01962,-2.91434 9.56989,-1.61166 5.24296,2.67817 9.61384,-1.10198 8.12648,-7.02821 -0.92895,-3.70126 2.9967,-7.13297 6.00832,-5.25221 3.13304,1.95664 5.5606,-0.3005 4.73935,-4.40674 -0.53136,-2.65669 0.21411,-4.0029 5.33196,-9.62935 7.19763,-7.91285 14.7667,-20.43587 17.04518,-28.20126 2.34262,-7.98427 1.58025,-18.19991 -1.92444,-25.78463 -8.38992,-18.15754 -25.8684,-25.35781 -53.03541,-21.84795 -12.21524,1.57816 -15.89525,1.15989 -15.89525,-1.80667 0,-0.75784 -1.24759,-2.04558 -2.77245,-2.86167 -2.55584,-1.36787 -2.93653,-1.28117 -4.87241,1.10954 -1.32148,1.63195 -1.94134,3.67366 -1.67223,5.50764 0.34678,2.36248 -0.11636,3.13974 -2.44585,4.10463 -4.60151,1.90604 -8.61866,6.86541 -9.60848,11.86222 -1.15381,5.82495 -2.60716,87.70928 -1.62609,91.61808 0.40237,1.60344 1.715,3.27909 2.91684,3.72366 2.04189,0.75537 16.95896,-1.91685 28.58724,-5.1211 z m 107.92596,113.00002 c -15.6152,-2.07109 -21.41746,-7.18093 -28.15564,-24.79585 -4.52234,-11.8225 -4.68465,-12.66418 -5.11437,-26.52296 -0.82691,-26.67093 4.477,-44.75784 18.721,-63.84036 9.3874,-12.57627 15.08991,-17.66854 25.24028,-22.53901 15.48652,-7.43094 20.67064,-6.843 33.58441,3.80883 7.63799,6.30017 12.67031,14.50238 14.6225,23.83323 1.48925,7.11819 1.52694,31.34866 0.0567,36.64195 -1.44708,5.21083 -4.08805,6.80266 -13.76634,8.29779 -11.28996,1.74409 -53.24867,12.6925 -55.83564,14.56937 -2.58966,1.87883 -3.23896,7.05321 -1.49661,11.92717 2.69467,7.53778 3.34845,8.81678 6.06609,11.86682 6.38334,7.16422 15.25769,6.83718 31.34497,-1.15514 16.50581,-8.20032 21.85896,-11.20588 24.68232,-13.85833 1.56065,-1.46611 3.25914,-2.15767 4.30962,-1.75459 2.06228,0.79138 1.47513,4.73662 -1.88346,12.65577 -1.6614,3.91715 -2.57882,4.94217 -4.01546,4.48621 -2.3115,-0.73363 -7.7092,5.30134 -7.00897,7.83645 0.26423,0.95687 0.79131,2.82069 1.17121,4.14188 0.62474,2.17246 -0.25678,2.85939 -9.21953,7.18466 -13.10425,6.32378 -23.32832,8.53911 -33.30326,7.21611 z m 7.97482,-77.98953 c 18.8658,-4.21618 27.28301,-7.05062 29.24166,-9.84704 1.20154,-1.71552 1.58184,-5.29613 1.54335,-14.53365 -0.0617,-14.79405 -1.69282,-19.50635 -6.92971,-20.01879 -7.84449,-0.76758 -27.98254,17.9037 -36.86294,34.17789 -2.76797,5.07276 -5.35056,10.48944 -5.73901,12.03711 -0.64553,2.57201 -0.4871,2.75282 1.84289,2.10322 1.40193,-0.39089 9.0087,-2.15434 16.90376,-3.91874 z m 267.95433,75.87426 c -3.13991,-1.20171 -5.3432,-3.92607 -6.42531,-7.94497 -0.60494,-2.24641 -1.69401,-4.08439 -2.42019,-4.08439 -0.72638,0 -5.37323,1.70988 -10.3264,3.79976 -37.34692,15.75743 -63.45589,6.95642 -61.37581,-20.68916 1.00931,-13.4146 9.08298,-26.75728 20.97451,-34.66277 10.38726,-6.9054 27.8011,-14.92656 38.01164,-17.50881 4.80856,-1.2161 10.01313,-2.69405 11.56573,-3.28435 l 2.82287,-1.07325 -0.71753,-8.74725 c -0.84223,-10.26627 -3.11773,-19.08042 -5.41898,-20.99029 -0.89892,-0.74606 -2.93733,-1.32314 -4.52981,-1.28237 -1.59238,0.0408 -5.20119,0.12689 -8.01958,0.19141 -6.4978,0.1487 -17.92619,5.59318 -28.24861,13.45764 -4.13251,3.1485 -7.95872,5.72455 -8.5027,5.72455 -0.54399,0 -2.76479,2.47178 -4.93527,5.49287 -3.38624,4.71346 -4.09183,5.23263 -4.97255,3.65885 -1.17459,-2.09885 2.53177,-12.35431 7.82257,-21.64488 6.29811,-11.05954 23.27248,-22.56701 36.45197,-24.71204 14.15271,-2.30341 28.84044,4.79144 35.14055,16.97457 3.8803,7.50342 6.8412,32.02724 6.90405,57.1807 0.0219,8.72925 0.68809,10.21823 3.21181,7.17737 0.72797,-0.87725 2.04398,-1.59496 2.9243,-1.59496 2.40985,0 0.91384,7.70646 -2.94459,15.1677 -2.86274,5.53623 -4.1691,11.41505 -2.53635,11.41505 0.34847,0 1.90346,-0.89445 3.45576,-1.98767 1.5523,-1.0932 5.69336,-3.27883 9.20232,-4.85696 3.50887,-1.57811 7.64993,-3.55461 9.20213,-4.3922 1.5523,-0.83759 3.10739,-1.52289 3.45586,-1.52289 1.62261,0 0.27835,3.57503 -3.46978,9.22878 -4.4953,6.78075 -5.67198,9.72317 -5.99301,14.98602 -0.28631,4.69444 -3.58076,7.90725 -12.62297,12.3104 -7.56022,3.68144 -14.6585,5.37248 -17.68663,4.21354 z M 904.53784,393.3081 c 13.69116,-2.7712 27.26348,-10.10959 30.58806,-16.53862 3.61179,-6.98447 0.35314,-16.89173 -5.55602,-16.89173 -1.78641,0 -2.86613,-0.70945 -3.23677,-2.12665 -0.66949,-2.56035 -2.15984,-2.70496 -4.65014,-0.45125 -1.01816,0.92145 -2.4913,1.7889 -3.27367,1.92767 -6.01309,1.06659 -13.64929,4.23672 -15.82633,6.57017 -1.43495,1.53812 -5.3619,4.73368 -8.72646,7.10128 -7.74022,5.44652 -12.88015,12.81919 -12.01236,17.23025 0.33952,1.72542 1.20811,3.51241 1.93031,3.97114 2.14153,1.36026 11.98421,0.98467 20.76338,-0.79226 z m 609.37166,23.05924 c -2.7011,-0.951 -7.0077,-3.46627 -9.5698,-5.58951 -3.7842,-3.13602 -5.0077,-5.07271 -6.5192,-10.32123 -2.2562,-7.83356 -2.3681,-13.91355 -0.3453,-18.75472 0.8333,-1.99488 2.0632,-7.36251 2.7327,-11.9281 0.6694,-4.56558 1.8729,-12.36825 2.6744,-17.33925 1.4097,-8.74425 1.9512,-14.88107 3.3561,-38.04601 0.3649,-6.01238 1.0621,-11.17826 1.55,-11.47975 0.4879,-0.30151 1.877,-0.0183 3.0871,0.62926 1.8534,0.99184 2.7855,0.66348 5.9136,-2.08308 3.2671,-2.86858 4.2514,-3.18528 8.1891,-2.63459 2.4618,0.34428 5.0739,0.81027 5.8049,1.03558 2.2527,0.69425 1.511,9.15508 -1.7776,20.27518 -1.7087,5.77805 -3.4334,14.5727 -3.8327,19.54369 -0.3991,4.97099 -1.8553,14.54078 -3.2358,21.26621 -2.9446,14.34398 -4.1858,25.35783 -3.2694,29.00923 1.8453,7.35279 22.9602,5.68042 40.2863,-3.1909 5.1133,-2.61811 10.4224,-6.09774 11.798,-7.73251 2.5504,-3.03101 4.1318,-10.2856 5.623,-25.79482 0.3793,-3.94754 1.1025,-7.17735 1.6066,-7.17735 1.3618,0 1.1104,-6.13441 -0.2867,-6.99784 -1.5041,-0.92957 -0.5869,-29.95512 1.1265,-35.64424 l 1.1536,-3.83127 11.309,-0.73116 c 10.731,-0.69376 11.4374,-0.61073 13.8162,1.62415 3.0529,2.86791 3.1965,6.13811 0.4245,9.66212 -1.7019,2.1638 -2.1953,4.95952 -2.6978,15.29558 -0.3383,6.95632 -1.0379,15.51877 -1.5546,19.0277 -0.5167,3.50892 -1.2679,11.64324 -1.669,18.0763 -0.453,7.26571 -1.4917,13.71038 -2.742,17.01299 -2.4391,6.443 -2.5127,7.97481 -0.3835,7.97481 1.8688,0 11.3609,-4.62764 15.5469,-7.57953 1.5524,-1.09464 4.0646,-1.99025 5.5824,-1.99025 3.8345,0 3.6357,3.23395 -0.6044,9.84166 -1.8504,2.88365 -3.7299,7.555 -4.1767,10.3808 -0.4465,2.8258 -1.6155,6.36404 -2.5976,7.86279 -3.539,5.40132 -18.7983,12.28418 -27.289,12.30906 -3.2173,0.01 -4.4267,-0.63559 -6.6456,-3.54465 -1.4918,-1.95586 -2.7124,-4.28972 -2.7124,-5.18634 0,-3.84948 -2.6685,-4.11158 -10.2139,-1.0032 -14.6928,6.05275 -23.9919,8.47965 -34.445,8.98953 -7.6178,0.3716 -11.3092,0.0676 -15.0129,-1.23634 z m -527.09284,-3.26263 c -2.38926,-2.46196 -4.66058,-5.51655 -5.04754,-6.78795 -0.38695,-1.2714 -1.30039,-3.02938 -2.02985,-3.90659 -2.25799,-2.71528 -2.82694,-7.13956 -1.13561,-8.83086 1.20512,-1.20528 3.61358,-1.42332 11.04253,-0.99974 l 9.50132,0.54173 0.40555,-22.43346 c 0.28751,-15.90514 0.78744,-22.81544 1.71794,-23.74598 0.9298,-0.92984 1.3126,-6.18705 1.3126,-18.03122 0,-16.10292 -0.095,-16.83062 -2.5557,-19.75594 -1.77315,-2.10722 -2.39361,-3.8847 -2.02644,-5.80514 0.69902,-3.65705 -1.24078,-4.6901 -4.63319,-2.46732 -2.09012,1.3695 -3.27973,1.53525 -5.00408,0.69739 -1.24411,-0.60454 -4.05643,-1.64808 -6.24948,-2.31902 -4.69131,-1.43522 -4.97942,-2.96293 -1.25942,-6.68278 3.13801,-3.13796 18.92193,-9.17154 25.98141,-9.93167 9.8676,-1.06251 15.945,5.37329 15.9481,16.88865 8e-4,3.36274 0.3952,6.11405 0.8761,6.11405 0.481,0 3.6183,-3.10592 6.9718,-6.90201 7.5027,-8.49305 13.8321,-12.40383 20.231,-12.50055 6.6266,-0.10017 11.183,1.94246 10.4642,4.69118 -0.4846,1.8527 -0.1169,2.09666 2.7123,1.79991 4.6778,-0.4907 8.02,3.10884 13.5977,14.64489 5.2457,10.84938 5.3384,11.35035 3.0989,16.71052 -0.8773,2.09951 -1.595,5.74663 -1.595,8.10468 0,3.16321 -0.4321,4.28739 -1.6478,4.28739 -2.3572,0 -8.001,3.01012 -11.1418,5.94248 -2.4721,2.30806 -3.0276,2.40857 -6.9115,1.2504 -2.3228,-0.69267 -4.4627,-1.51781 -4.7549,-1.8337 -0.2925,-0.31585 -1.4888,-1.09973 -2.6584,-1.74195 -3.146,-1.72743 -4.8819,-5.70249 -3.5648,-8.16346 0.9907,-1.85115 1.2328,-1.72188 2.8553,1.52451 1.8784,3.75855 4.0103,4.68807 8.2889,3.61422 2.8668,-0.71953 6.7754,-8.20647 6.7754,-12.97862 0,-3.71098 -1.9931,-7.03225 -3.8033,-6.33765 -0.9809,0.37647 -1.5134,-0.1284 -1.5134,-1.43532 0,-3.37859 -4.9966,-6.42548 -10.5107,-6.40915 -2.699,0.009 -6.0071,0.30913 -7.3514,0.66921 -2.6387,0.70678 -6.2024,6.87689 -10.3308,17.88654 -3.0592,8.15815 -7.9656,37.2213 -8.0748,47.82972 -0.1001,9.74269 1.4116,12.63036 8.1797,15.62416 3.24,1.43321 4.6952,2.72063 4.6952,4.15378 0,2.4934 2.3927,2.72369 4.3089,0.4147 1.2512,-1.5073 1.4663,-1.5073 2.3097,0 1.1594,2.07153 4.4078,2.15575 6.0664,0.15733 1.4975,-1.80446 7.3483,-0.51603 9.2302,2.03263 0.6492,0.87937 2.2043,1.59885 3.4558,1.59885 2.6948,0 2.9853,2.34012 0.5421,4.36784 -2.2506,1.86777 -12.8406,5.16617 -16.6514,5.1863 -1.6316,0.009 -4.981,1.06043 -7.4433,2.33738 -3.4514,1.78999 -7.2772,2.49763 -16.7047,3.08973 -6.7255,0.42243 -16.5925,1.11636 -21.9268,1.54212 l -9.6989,0.77407 z m 713.69484,2.30583 c -3.5813,-2.90624 -8.9027,-10.97123 -8.9027,-13.49263 0,-3.32716 5.1715,-7.72853 10.1015,-8.59735 8.3955,-1.47955 7.9748,0.79493 7.9748,-43.1251 0,-24.02279 -0.4437,-41.19413 -1.1496,-44.4848 -1.2915,-6.02328 -4.1167,-8.89401 -10.6909,-10.86367 -4.1863,-1.25428 -5.1655,-2.97655 -2.78,-4.89056 1.3266,-1.06454 19.7366,-4.51048 24.0973,-4.51048 3.4539,0 10.7561,7.3398 11.6498,11.70992 1.1347,5.54762 3.3755,5.03361 8.678,-1.99054 3.6221,-4.79801 6.3199,-7.07351 11.3387,-9.56322 6.4321,-3.1909 6.7051,-3.23163 11.7048,-1.74687 6.4977,1.92962 13.1898,6.82734 15.7017,11.49139 1.8531,3.44106 1.8704,4.34264 0.3418,17.86205 -1.5999,14.14955 -1.6429,14.29093 -6.9215,22.74454 -2.9215,4.67859 -5.9779,8.50649 -6.7921,8.50649 -1.129,0 -1.6157,-2.52685 -2.0481,-10.63312 -0.6557,-12.29212 -2.2507,-16.17411 -8.0526,-19.59729 -6.3569,-3.75068 -7.9209,-2.8488 -11.779,6.79249 -5.4937,13.72923 -11.8571,54.25529 -9.5139,60.59028 2.7526,7.44175 2.2991,7.2571 14.5799,5.93578 6.0939,-0.65567 12.885,-1.58348 15.0914,-2.06187 2.4339,-0.5276 4.2629,-0.46393 4.6496,0.1619 0.3507,0.56741 -2.7308,4.45143 -6.8482,8.63114 -4.1168,4.17971 -8.1878,9.32085 -9.0464,11.42478 -2.7199,6.66579 -6.4292,8.01943 -25.7295,9.39003 -9.3571,0.66452 -18.4484,1.42063 -20.2028,1.6803 -2.0271,0.3 -4.0145,-0.19702 -5.452,-1.36359 z m 261.1781,0.82235 c -14.5929,-1.25016 -23.5099,-10.17391 -26.9921,-27.01318 -1.3362,-6.46048 -1.7172,-14.7482 -1.7172,-37.34359 0,-15.97219 -0.2905,-29.79723 -0.6455,-30.72228 -0.5117,-1.33389 -2.354,-1.68195 -8.9027,-1.68195 h -8.2572 l -4.4755,-4.85524 c -2.7252,-2.95653 -4.2364,-5.47785 -3.8645,-6.44723 0.336,-0.87557 -0.1,-2.9668 -0.9691,-4.64718 -0.8688,-1.68036 -1.3325,-3.69958 -1.0304,-4.48716 0.8184,-2.13248 15.2269,-9.07752 20.5485,-9.90442 8.6343,-1.34171 8.7514,-1.71023 8.6175,-27.08194 -0.071,-13.47289 -0.585,-23.49728 -1.3018,-25.39663 -1.3313,-3.52642 0.2185,-6.52842 3.3349,-6.46081 2.7157,0.0589 14.6897,7.75956 17.3757,11.1744 2.2162,2.81719 2.481,4.5337 3.0669,19.86661 0.5386,14.09891 0.948,17.12214 2.5598,18.90338 2.4601,2.71822 4.1127,2.65767 10.6584,-0.39051 3.4576,-1.61004 8.5193,-2.76679 14.3224,-3.27298 4.9361,-0.43061 10.1858,-1.39707 11.6655,-2.14772 1.4798,-0.75062 5.7024,-1.64964 9.3834,-1.99777 5.5739,-0.52719 6.8031,-0.34465 7.3545,1.09192 0.4552,1.18633 -0.6342,2.75234 -3.4894,5.01534 -2.2831,1.80972 -9.6769,8.12217 -16.4307,14.02767 -9.0772,7.93757 -13.8693,11.33224 -18.3779,13.01908 -3.3542,1.25499 -8.4092,3.45275 -11.2335,4.88386 l -5.1349,2.60205 -0.6988,31.16456 c -0.789,35.1747 -0.2107,42.22143 3.7928,46.22499 2.5377,2.53749 2.8532,2.59763 5.7504,1.09527 1.6861,-0.87432 9.4213,-7.61837 17.1897,-14.98673 14.9399,-14.17061 19.1365,-16.52155 17.745,-9.94127 -1.7031,8.05547 -4.7011,14.60245 -8.0617,17.60507 -3.1216,2.78925 -3.3913,3.44592 -2.3521,5.72709 1.8999,4.16951 -2.659,12.38779 -10.5113,18.94907 -8.8601,7.40336 -10.7138,8.13116 -18.9191,7.42823 z m -137.9433,-1.62617 c -5.4734,-1.72333 -14.4482,-8.03805 -19.6011,-13.79152 -4.8313,-5.39424 -10.8984,-17.46613 -12.4513,-24.7743 -1.6205,-7.62676 -1.4482,-26.60738 0.3301,-36.36609 1.4176,-7.77744 6.2683,-22.19429 9.7022,-28.83478 4.1374,-8.00043 15.2842,-17.35648 28.6446,-24.04248 15.5126,-7.76296 41.257,-3.4458 50.6533,8.49419 1.5425,1.95993 4.2315,6.40792 5.9756,9.88443 9.8754,19.68391 12.169,38.51428 7.3099,60.01812 -1.8129,8.02294 -3.3703,12.59374 -4.5287,13.2914 -0.9712,0.5848 -2.8872,2.02028 -4.2574,3.18993 -2.3849,2.03539 -2.4205,2.27018 -0.8294,5.47528 1.5918,3.2062 1.5404,3.54197 -1.2062,7.89294 -4.4409,7.03459 -11.9349,14.51337 -18.0474,18.01064 -5.5149,3.15533 -5.6723,3.17796 -21.3761,3.07359 -9.9265,-0.0659 -17.4958,-0.63272 -20.3181,-1.52135 z m 30.7665,-22.97344 c 9.7839,-2.16795 17.0181,-13.88799 18.4714,-29.92454 0.3961,-4.37046 0.3477,-16.73826 -0.1074,-27.48401 l -0.8276,-19.53773 -8.8693,-6.64568 c -9.8713,-7.39664 -11.8368,-7.84533 -21.7171,-4.95792 -9.5002,2.77632 -19.1083,13.98188 -21.7566,25.3737 -0.8039,3.45856 -3.0146,7.95631 -5.6921,11.58077 -4.9405,6.68764 -5.2141,8.09989 -2.3583,12.1739 1.1107,1.58457 2.2833,5.38468 2.606,8.44468 0.7393,7.01342 9.6108,25.4452 13.629,28.31537 6.3796,4.55734 14.4328,5.36244 26.622,2.66146 z m -222.4411,19.29234 c -2.3179,-2.5107 -4.5209,-5.57341 -4.8954,-6.80601 -0.3746,-1.23262 -1.2779,-2.95885 -2.0075,-3.83606 -2.3668,-2.84631 -2.8241,-7.14243 -0.9585,-9.008 1.3061,-1.30602 2.8209,-1.55332 6.3103,-1.03007 l 4.5914,0.68854 1.2602,-4.62921 c 0.6929,-2.54607 1.1791,-8.55393 1.0803,-13.35081 -0.1267,-6.16411 0.3132,-9.67474 1.5012,-11.97189 1.3028,-2.51928 1.4144,-3.74782 0.4965,-5.46289 -1.6194,-3.02586 -1.4738,-9.16421 0.508,-21.41535 0.9212,-5.6957 1.6749,-12.33807 1.6749,-14.76084 0,-2.65593 0.9108,-5.87843 2.2935,-8.11581 2.0079,-3.24865 2.1351,-4.14814 1.0235,-7.22273 -1.4542,-4.02146 -0.1386,-17.86809 2.5349,-26.6806 0.8625,-2.84313 1.5734,-7.72419 1.5797,-10.84681 0.01,-3.12264 1.4016,-11.7355 3.1002,-19.13963 1.6987,-7.40416 3.1249,-15.85458 3.1695,-18.77868 0.045,-2.9241 0.4544,-10.18046 0.9103,-16.12524 l 0.8292,-10.8087 -2.8657,1.69279 c -2.07,1.22275 -3.2541,1.37942 -4.2646,0.5642 -0.7694,-0.62073 -2.9208,-1.45385 -4.7811,-1.85139 -10.1909,-2.1778 -4.6997,-8.79956 11.8473,-14.28654 8.9647,-2.97256 11.4639,-3.39704 16.4697,-2.79712 7.5986,0.91068 17.3787,3.68321 18.3708,5.2079 1.1484,1.76459 -0.1488,5.0062 -3.5748,8.93422 -1.6757,1.92101 -3.0467,4.20886 -3.0467,5.0841 0,0.87523 -0.8371,1.90555 -1.8606,2.28955 -4.336,1.62694 -5.943,7.59581 -2.9387,10.91536 1.732,1.9138 1.7629,1.64629 -3.1967,27.6622 -1.3936,7.31027 -3.061,18.07634 -3.7053,23.92453 -2.6697,24.23233 -5.5571,45.50376 -8.0159,59.05158 -1.7903,9.86373 -2.6122,18.24804 -2.6122,26.64538 0,9.12738 -0.3981,12.77935 -1.561,14.31688 -2.2202,2.93529 -2.2003,15.68421 0.029,17.533 0.9111,0.75608 2.3059,2.92939 3.0997,4.82953 1.8952,4.53544 5.2594,6.37539 8.7494,4.78521 3.4592,-1.57616 4.5707,-0.69931 4.5707,3.60598 0,2.97082 -0.9157,4.37753 -5.4092,8.30821 -5.8925,5.15461 -6.718,5.36521 -26.555,6.77327 l -9.5354,0.67684 z m -563.8288,-6.13138 c -2.1696,-0.48198 -2.2315,-0.76809 -0.76,-3.51729 1.0456,-1.95377 5.2221,-2.82256 6.6595,-1.38527 0.8954,0.89549 -0.9704,4.27597 -2.6801,4.85542 -0.7472,0.25329 -2.1959,0.27449 -3.2194,0.0471 z"
       id="path8305"
       inkscape:connector-curvature="0" />
  </g>
</svg>
